Division,WeightClassKg,Place,Name,Team,BodyweightKg,Best3SquatKg,Best3BenchKg,Best3DeadliftKg,TotalKg,Equipment,Event,Sex
Boys,55.79,1,Rickey Jones,Killeen Harker Heights,51.89,133.81,77.11,142.88,353.8,Single-ply,SBD,M
Boys,51.71,2,Jonathan Johnson,Copperas Cove,51.44,120.2,68.04,154.22,342.46,Single-ply,SBD,M
Boys,51.71,3,Terry Kwak,Killeen Harker Heights,51.71,124.74,68.04,145.15,337.93,Single-ply,SBD,M
Boys,55.79,1,Master Thomas,Killeen Harker Heights,52.07,102.06,70.31,136.08,308.44,Single-ply,SBD,M
Boys,55.79,2,Fredrick Sandaval,Copperas Cove,52.71,90.72,61.23,138.35,290.3,Single-ply,SBD,M
Boys,55.79,3,Pete Contreras,Belton,54.34,113.4,58.97,117.93,290.3,Single-ply,SBD,M
Boys,59.87,DQ,Charles Strickland,Copperas Cove,58.51,,,,,Single-ply,SBD,M
Boys,59.87,2,Julian Woods,Belton,59.69,113.4,81.65,138.35,333.39,Single-ply,SBD,M
Boys,59.87,3,Dustin James,Temple,58.88,113.4,70.31,138.35,322.05,Single-ply,SBD,M
Boys,59.87,4,Brandon Schmidt,Temple,58.06,108.86,70.31,113.4,292.57,Single-ply,SBD,M
Boys,59.87,DQ,Clint Edens,Killeen Harker Heights,56.06,,,,,Single-ply,SBD,M
Boys,59.87,DQ,Raymond Martinez,Belton,57.52,,,,,Single-ply,SBD,M
Boys,67.13,1,Matt Hall,Copperas Cove,62.69,167.83,99.79,199.58,467.2,Single-ply,SBD,M
Boys,67.13,2,Rudy Gonzalez,Belton,65.77,145.15,77.11,222.26,444.52,Single-ply,SBD,M
Boys,67.13,3,Jeffery Sanders,Temple,65.23,151.95,92.99,167.83,412.77,Single-ply,SBD,M
Boys,67.13,4,Fabian Valenzuela,Copperas Cove,63.87,133.81,79.38,179.17,392.36,Single-ply,SBD,M
Boys,67.13,5,Shawn Nasari,Temple,64.5,142.88,90.72,136.08,369.68,Single-ply,SBD,M
Boys,74.84,6,James Harris,Killeen Harker Heights,67.31,127.01,74.84,167.83,369.68,Single-ply,SBD,M
Boys,74.84,7,Nick Partius,Copperas Cove,67.31,127.01,77.11,158.76,362.87,Single-ply,SBD,M
Boys,67.13,8,Blain Fox,Copperas Cove,67.13,106.59,70.31,136.08,312.98,Single-ply,SBD,M
Boys,67.13,DQ,Danarius Brisbon,Copperas Cove,62.6,,,,,Single-ply,SBD,M
Boys,67.13,DQ,Robert Martinez,Belton,65.32,136.08,,,,Single-ply,SBD,M
Boys,74.84,1,Eduardo Rodriquez,Temple,71.67,174.63,127.01,181.44,483.08,Single-ply,SBD,M
Boys,74.84,2,Stephen St John,Belton,73.66,167.83,102.06,204.12,474,Single-ply,SBD,M
Boys,74.84,3,John Lawless,Rogers,72.76,185.97,92.99,185.97,464.93,Single-ply,SBD,M
Boys,74.84,4,Tom Lawless,Rogers,68.86,170.1,95.25,190.51,455.86,Single-ply,SBD,M
Boys,74.84,5,Ben Munoz,Belton,70.4,142.88,95.25,170.1,408.23,Single-ply,SBD,M
Boys,74.84,6,Dalton Randolph,Temple,70.31,136.08,81.65,174.63,392.36,Single-ply,SBD,M
Boys,74.84,7,Mario Perez,Copperas Cove,74.12,142.88,77.11,147.42,367.41,Single-ply,SBD,M
Boys,74.84,DQ,Michael Yarberry,Belton,71.03,120.2,,,,Single-ply,SBD,M
Boys,82.1,1,Keimon McDowell,Waco,77.56,199.58,108.86,206.38,514.83,Single-ply,SBD,M
Boys,82.1,2,Johnny Sirmans,Copperas Cove,75.75,179.17,99.79,199.58,478.54,Single-ply,SBD,M
Boys,82.1,3,Devin Patterson,Belton,81.19,172.37,99.79,199.58,471.74,Single-ply,SBD,M
Boys,82.1,4,Victor Norwid,Waco,81.56,174.63,97.52,183.7,455.86,Single-ply,SBD,M
Boys,82.1,5,Michael Branch,Waco,79.11,165.56,104.33,154.22,424.11,Single-ply,SBD,M
Boys,82.1,6,Jalen Gilbert,Copperas Cove,76.57,138.35,83.91,170.1,392.36,Single-ply,SBD,M
Boys,82.1,7,Kyle Battle,Belton,77.93,131.54,79.38,181.44,392.36,Single-ply,SBD,M
Boys,82.1,8,Mac Monsen,Temple,80.92,154.22,90.72,131.54,376.48,Single-ply,SBD,M
Boys,82.1,DQ,G. Davis,Waco,81.47,,,,,Single-ply,SBD,M
Boys,82.1,DQ,Nika Davis,Waco,81.47,129.27,92.99,151.95,,Single-ply,SBD,M
Boys,82.1,DQ,Dylan Mendoza,Rogers,79.65,170.1,,,,Single-ply,SBD,M
Boys,89.81,1,Marcel Houston,Killeen Harker Heights,89.54,231.33,131.54,235.87,598.74,Single-ply,SBD,M
Boys,89.81,2,Ryan Cox,Belton,87.27,181.44,113.4,167.83,462.66,Single-ply,SBD,M
Boys,89.81,3,Trivez Tucker,Copperas Cove,83.01,120.2,86.18,127.01,333.39,Single-ply,SBD,M
Boys,89.81,DQ,Rayshun Jones,Belton,88.45,167.83,,,,Single-ply,SBD,M
Boys,99.79,DQ,Ricky Alverez,Belton,99.61,,,,,Single-ply,SBD,M
Boys,99.79,2,Brandon Hamilton,Copperas Cove,91.44,204.12,113.4,249.48,566.99,Single-ply,SBD,M
Boys,99.79,3,Josh Lyons,Copperas Cove,94.44,190.51,138.35,231.33,560.19,Single-ply,SBD,M
Boys,99.79,4,Jerikhoal Alvarez,Temple,91.81,204.12,142.88,199.58,546.58,Single-ply,SBD,M
Boys,99.79,5,Darius McClinton,Copperas Cove,97.79,185.97,124.74,192.78,503.49,Single-ply,SBD,M
Boys,99.79,6,Patrick Reives,Temple,92.08,188.24,127.01,185.97,501.22,Single-ply,SBD,M
Boys,99.79,7,Josh Owens,Waco,90.08,183.7,106.59,206.38,496.68,Single-ply,SBD,M
Boys,99.79,8,Quintin Manir,Belton,97.61,192.78,120.2,181.44,494.42,Single-ply,SBD,M
Boys,99.79,9,Stephan White,Waco,96.16,197.31,113.4,181.44,492.15,Single-ply,SBD,M
Boys,99.79,10,Josef Fowler,Rogers,94.08,181.44,106.59,181.44,469.47,Single-ply,SBD,M
Boys,99.79,11,Alhaj Lugman,Killeen Harker Heights,91.99,181.44,104.33,170.1,455.86,Single-ply,SBD,M
Boys,99.79,12,Brandon Reliford,Waco,95.25,161.03,95.25,188.24,444.52,Single-ply,SBD,M
Boys,99.79,13,Robert Price #1,Belton,91.44,136.08,95.25,154.22,385.55,Single-ply,SBD,M
Boys,99.79,14,James Murphy,Belton,95.62,136.08,79.38,158.76,374.21,Single-ply,SBD,M
Boys,99.79,DQ,Jordan Seaforth,Killeen Harker Heights,93.62,,,,,Single-ply,SBD,M
Boys,99.79,DQ,Zachary Dees,Killeen Harker Heights,99.61,,,,,Single-ply,SBD,M
Boys,109.77,DQ,Ryan Miller #6,Copperas Cove,106.41,,,,,Single-ply,SBD,M
Boys,109.77,2,Brandon Harding,Belton,107.5,195.04,142.88,229.06,566.99,Single-ply,SBD,M
Boys,109.77,3,Joseph Stephens,Waco,106.78,219.99,133.81,208.65,562.45,Single-ply,SBD,M
Boys,109.77,4,Charles Nguyen,Killeen Harker Heights,108.86,231.33,129.27,195.04,555.65,Single-ply,SBD,M
Boys,109.77,DQ,Bryant Jones,Temple,103.6,172.37,,,,Single-ply,SBD,M
Boys,109.77,DQ,Elbert Holmes,Copperas Cove,106.59,83.91,77.11,,,Single-ply,SBD,M
Boys,124.74,1,Daniel Bass,Temple,124.01,294.84,158.76,226.8,680.39,Single-ply,SBD,M
Boys,124.74,2,Stephen Honeywood,Belton,121.56,278.96,136.08,226.8,641.83,Single-ply,SBD,M
Boys,124.74,3,Ryan Zdroik,Rogers,116.48,238.14,131.54,226.8,596.47,Single-ply,SBD,M
Boys,124.74,4,Jp Gonzales,Copperas Cove,112.58,174.63,104.33,192.78,471.74,Single-ply,SBD,M
Boys,124.74,DQ,Mike Gall,Belton,115.67,181.44,,,,Single-ply,SBD,M
Boys,124.74,DQ,Cody Elenz,Copperas Cove,121.29,233.6,,,,Single-ply,SBD,M
Boys,124.74,DQ,Richard Carvajal,Waco,118.75,235.87,,,,Single-ply,SBD,M
Boys,124.74+,1,Andrew Billings #1,Waco,127.82,242.67,158.76,247.21,648.64,Single-ply,SBD,M
Boys,124.74+,2,Landon Boffman,Waco,158.3,233.6,145.15,226.8,605.55,Single-ply,SBD,M
Boys,124.74+,3,Andrew Brown,Killeen Harker Heights,126.64,213.19,172.37,208.65,594.21,Single-ply,SBD,M
Boys,124.74+,4,Les Sakaria,Copperas Cove,126.46,226.8,120.2,199.58,546.58,Single-ply,SBD,M
Boys,124.74+,5,Karl Sakaria,Copperas Cove,144.24,195.04,108.86,195.04,498.95,Single-ply,SBD,M
Boys,124.74+,6,Koby Williams,Belton,125.83,172.37,104.33,176.9,453.59,Single-ply,SBD,M
Boys,124.74+,7,Zach Villanueva,Belton,155.58,167.83,108.86,163.29,439.98,Single-ply,SBD,M
Boys,124.74+,DQ,Jesse Johnson #5,Temple,137.8,170.1,102.06,,,Single-ply,SBD,M
Boys,,NS,Rudy Gonzales,Belton,,,,,,Single-ply,SBD,M
Boys,,NS,Evan Peasley,Belton,,,,,,Single-ply,SBD,M
