Division,WeightClassKg,Place,Name,Team,BodyweightKg,Best3SquatKg,Best3BenchKg,Best3DeadliftKg,TotalKg,Equipment,Event,Sex
Boys,51.71,1,Milthon Torres,Nacogdoches,47.17,97.52,68.04,120.2,285.76,Single-ply,SBD,M
Boys,51.71,2,Raul Rodriguez,Diboll,51.26,111.13,65.77,102.06,278.96,Single-ply,SBD,M
Boys,51.71,3,Paul Nash,San Augustine,47.63,83.91,52.16,113.4,249.48,Single-ply,SBD,M
Boys,51.71,4,Jsaul Landaverde,San Augustine,50.8,83.91,52.16,90.72,226.8,Single-ply,SBD,M
Boys,55.79,1,Tyler Allen,San Augustine,54.88,74.84,47.63,102.06,224.53,Single-ply,SBD,M
Boys,59.87,1,Jd Adkins,Lufkin,59.87,136.08,79.38,149.69,365.14,Single-ply,SBD,M
Boys,59.87,2,Ja'Khiron Whitaker,Nacogdoches,58.06,108.86,68.04,142.88,319.78,Single-ply,SBD,M
Boys,67.13,1,Oscar Molina,Chireno,66.59,183.7,102.06,224.53,510.29,Single-ply,SBD,M
Boys,67.13,2,Graycen Partin,Nacogdoches,61.69,151.95,95.25,154.22,401.43,Single-ply,SBD,M
Boys,67.13,3,Hunter Mayes,Huntington,65.32,142.88,86.18,149.69,378.75,Single-ply,SBD,M
Boys,67.13,4,Pedro Bahena,San Augustine,63.05,113.4,61.23,120.2,294.84,Single-ply,SBD,M
Boys,74.84,1,Jose Bueno,Center,74.39,201.85,97.52,181.44,480.81,Single-ply,SBD,M
Boys,74.84,2,Deandre Bagley,Lufkin,73.48,149.69,102.06,176.9,428.64,Single-ply,SBD,M
Boys,74.84,3,Peyton Goodwin,Chireno,73.94,145.15,99.79,172.37,417.3,Single-ply,SBD,M
Boys,74.84,4,Victor Ayala,Diboll,74.84,151.95,88.45,142.88,383.29,Single-ply,SBD,M
Boys,74.84,5,Tyveon Williams,Diboll,73.94,154.22,79.38,145.15,378.75,Single-ply,SBD,M
Boys,74.84,6,Chase Tamez,Diboll,70.76,138.35,92.99,142.88,374.21,Single-ply,SBD,M
Boys,74.84,7,Garret Basey,Huntington,68.49,142.88,,,142.88,Single-ply,S,M
Boys,82.1,1,Jake Liker,Center,81.19,179.17,104.33,170.1,453.59,Single-ply,SBD,M
Boys,82.1,2,Keshawn Clark,Lufkin,81.65,149.69,97.52,170.1,417.3,Single-ply,SBD,M
Boys,82.1,3,Dylan Burch,Nacogdoches,77.11,142.88,111.13,158.76,412.77,Single-ply,SBD,M
Boys,82.1,4,Isaac Concha,Diboll,80.29,122.47,77.11,117.93,317.51,Single-ply,SBD,M
Boys,82.1,5,Jose Garcia #5,Diboll,82.1,102.06,70.31,120.2,292.57,Single-ply,SBD,M
Boys,89.81,1,Witt Dockens,Center,89.81,278.96,154.22,238.14,671.32,Single-ply,SBD,M
Boys,89.81,2,Preston Loggins,Huntington,89.27,213.19,108.86,204.12,526.17,Single-ply,SBD,M
Boys,89.81,3,Brennan Singleton,Huntington,83.46,188.24,108.86,188.24,485.34,Single-ply,SBD,M
Boys,89.81,4,Dq Burleigh,Nacogdoches,88.45,165.56,111.13,170.1,446.79,Single-ply,SBD,M
Boys,89.81,5,Carlos Acosta #2,San Augustine,86.64,115.67,79.38,149.69,344.73,Single-ply,SBD,M
Boys,99.79,1,Katavious Evans,Center,97.07,260.82,113.4,224.53,598.74,Single-ply,SBD,M
Boys,99.79,2,Lucio Monroy,Diboll,91.17,208.65,127.01,222.26,557.92,Single-ply,SBD,M
Boys,99.79,3,Justin Patton,Lufkin,96.62,195.04,102.06,213.19,510.29,Single-ply,SBD,M
Boys,99.79,4,Hayden McLeroy,Diboll,92.99,206.38,115.67,181.44,503.49,Single-ply,SBD,M
Boys,99.79,5,Cole Seamon,Diboll,98.43,206.38,124.74,167.83,498.95,Single-ply,SBD,M
Boys,99.79,6,Brady Jordan,Diboll,93.89,219.99,97.52,158.76,476.27,Single-ply,SBD,M
Boys,99.79,7,Colten Crawford,Center,93.89,181.44,90.72,181.44,453.59,Single-ply,SBD,M
Boys,99.79,8,Noah Ross,Huntington,98.88,172.37,86.18,183.7,442.25,Single-ply,SBD,M
Boys,99.79,9,John Dee Johnson,Huntington,90.72,174.63,88.45,145.15,408.23,Single-ply,SBD,M
Boys,109.77,1,Logan Holloway,Center,107.5,229.06,129.27,210.92,569.26,Single-ply,SBD,M
Boys,109.77,2,Zykee Allen,Lufkin,108.41,192.78,117.93,226.8,537.51,Single-ply,SBD,M
Boys,109.77,3,Albert Urbina,Diboll,109.32,192.78,113.4,190.51,496.68,Single-ply,SBD,M
Boys,109.77,4,JaQuelon Bogan,Nacogdoches,107.5,199.58,102.06,188.24,489.88,Single-ply,SBD,M
Boys,109.77,5,Hezekiah Freeman,Diboll,101.15,167.83,117.93,183.7,469.47,Single-ply,SBD,M
Boys,109.77,6,Tony Boykin,Lufkin,102.06,183.7,,183.7,367.41,Single-ply,SD,M
Boys,109.77,7,Sergio Dejesus,Diboll,107.95,136.08,83.91,142.88,362.87,Single-ply,SBD,M
Boys,124.74,1,March Thomas,Lufkin,113.4,242.67,170.1,244.94,657.71,Single-ply,SBD,M
Boys,124.74,2,Tavorious Thedford,Nacogdoches,113.4,233.6,120.2,192.78,546.58,Single-ply,SBD,M
Boys,124.74,3,Ja'Vasia Brunson,Lufkin,113.4,183.7,113.4,219.99,517.1,Single-ply,SBD,M
Boys,124.74,4,Andrew Ehrlich,Lufkin,123.83,192.78,111.13,206.38,510.29,Single-ply,SBD,M
Boys,124.74,5,Chris Garcia,Nacogdoches,113.4,201.85,108.86,179.17,489.88,Single-ply,SBD,M
Boys,124.74,6,Jay Ellis,Huntington,122.92,174.63,113.4,190.51,478.54,Single-ply,SBD,M
Boys,124.74+,1,Carl Williams,Lufkin,143.34,249.48,147.42,276.69,673.58,Single-ply,SBD,M
Boys,124.74+,2,Riley Birdwell,Nacogdoches,154.22,272.16,131.54,249.48,653.17,Single-ply,SBD,M
Boys,124.74+,3,Chase Carter,Lufkin,127.91,222.26,136.08,251.74,610.08,Single-ply,SBD,M
Boys,124.74+,4,Jaylon Flannagan,Nacogdoches,149.69,251.74,131.54,226.8,610.08,Single-ply,SBD,M
Boys,124.74+,5,Jose Ocon,San Augustine,132.9,192.78,99.79,179.17,471.74,Single-ply,SBD,M
Boys,124.74+,6,Jordan Payne,Huntington,147.87,185.97,104.33,172.37,462.66,Single-ply,SBD,M
