Place,Name,Division,BirthYear,Country,BodyweightKg,Squat1Kg,Squat2Kg,Squat3Kg,Best3SquatKg,Bench1Kg,Bench2Kg,Bench3Kg,Best3BenchKg,Bench4Kg,Deadlift1Kg,Deadlift2Kg,Deadlift3Kg,Best3DeadliftKg,TotalKg,WeightClassKg,Sex,Event,Equipment
1,Allison Hough,Open,1966,UK,55.95,120,125,130,130,75,80,82.5,82.5,,125,132.5,137.5,137.5,350,56,F,SBD,Single-ply
1,Lucy-Aileen Kruger,Masters 40-44,1963,Germany,66.6,90,100,105,105,50,70,-80,70,,120,130,140,140,315,67.5,F,SBD,Single-ply
1,Evelien Reuser,Teen,,Netherlands,80.2,105,115,125,125,65,70,-75,70,,100,115,130,130,325,82.5,F,SBD,Single-ply
1,Nicole Güldner,Open,1967,Germany,78.85,155,165,172.5,172.5,117.5,122.5,125,125,,145,160,170,170,467.5,82.5,F,SBD,Single-ply
1,Heike Schattmann,Open,1966,Germany,83.5,130,140,155,155,90,-110,115,115,,160,180,185,185,455,90,F,SBD,Single-ply
1,Lucas Gijsberten,Open,1981,Netherlands,66.4,170,180,185,185,155,-165,165,165,,170,185,195,195,545,67.5,M,SBD,Single-ply
2,Dirk Schumann,Open,1968,Germany,67,190,197.5,-202.5,197.5,117.5,-122.5,122.5,122.5,,195,-212.5,-212.5,195,515,67.5,M,SBD,Single-ply
3,Frank Binger,Open,1963,Germany,64.5,162.5,170,175,175,105,110,-115,110,,195,-205,,195,480,67.5,M,SBD,Single-ply
1,Martin Karius,Juniors 20-23,1982,Germany,72.9,170,187.5,200,200,145,-153,-153,145,,200,210,215,215,560,75,M,SBD,Single-ply
2,Anne Van Baren,Juniors 20-23,,Netherlands,70.3,200,215,-225,215,115,122.5,-127.5,122.5,,190,210,-222.5,210,547.5,75,M,SBD,Single-ply
1,Maurice Green,Masters 45-49,1959,UK,74.7,190,-220,220,220,130,-140,-140,130,,200,220,-230,220,570,75,M,SBD,Single-ply
1,Paul Murphy #1,Open,1968,UK,80.2,265,-285,-285,265,-160,160,-167.5,160,,262.5,-287.5,287.5,287.5,712.5,82.5,M,SBD,Single-ply
2,Wolfgang Haider,Open,1968,Austria,77.3,230,245,,245,125,135,140,140,,225,235,245,245,630,82.5,M,SBD,Single-ply
1,Dean Drury,Masters 40-44,1963,UK,85.4,260,285,300.5,300.5,160,170,180,180,,260,283,,283,763.5,90,M,SBD,Single-ply
2,Andrew Shipman,Masters 40-44,1962,UK,82.2,190,210,230,230,145,-152.5,152.5,152.5,,215,235,-255,235,617.5,82.5,M,SBD,Single-ply
1,Cornelis Hoppenbrouwers,Masters 45-49,1958,Netherlands,79.3,230,250,260,260,145,157.5,162.5,162.5,,255,-270,-270,255,677.5,82.5,M,SBD,Single-ply
1,Mario Purkarthofer,Juniors 20-23,1985,Austria,87.55,210,222.5,235,235,120,130,-135,130,,190,-200,,190,555,90,M,SBD,Single-ply
1,Ben Peters,Open,,Netherlands,87.4,230,-240,240,240,150,-157.5,157.5,157.5,,250,267.5,-275,267.5,665,90,M,SBD,Single-ply
DQ,Phillip Watkins,Open,1968,UK,89,-290,290,-300,290,-165,-165,-165,,,,,,,,90,M,SBD,Single-ply
DQ,Elio Taurisano,Open,1967,Germany,88.5,250,260,-270,260,-160,-160,-160,,,,,,,,90,M,SBD,Single-ply
2,Frank Schmidtmann,Masters 40-44,1962,Germany,88.7,230,237.5,242.5,242.5,135,142.5,147.5,147.5,,245,255,,255,645,90,M,SBD,Single-ply
1,Rene Weikel,Juniors 20-23,,Austria,98.4,200,210,-225,210,150,165,-175,165,,210,225,245,245,620,100,M,SBD,Single-ply
2,Alexander Mittag,Juniors 20-23,1983,Germany,90.45,130,140,160,160,90,110,120,120,,180,200,210,210,490,100,M,SBD,Single-ply
1,Erwin Krokkee,Open,1966,Netherlands,96.1,300,335,365.5,365.5,220,235,240.5,240.5,,280,295,-315,295,901,100,M,SBD,Single-ply
2,Craig Coombes,Open,1975,UK,98.35,320,335,347.5,347.5,220,235,-242.5,235,,290,305,-320,305,887.5,100,M,SBD,Single-ply
3,Pierre Roy,Open,,Germany,92.7,210,225,240,240,180,-192.5,-192.5,180,,220,240,-255,240,660,100,M,SBD,Single-ply
DQ,Robert Bock,Open,1981,Austria,95.3,-220,-220,-220,,,,,,,,,,,,100,M,SBD,Single-ply
1,Peter Malfa,Masters 40-44,1963,Germany,93.3,245,265,-275,265,140,147.5,-152.5,147.5,,245,265,-275,265,677.5,100,M,SBD,Single-ply
2,Walter Becka,Masters 40-44,1962,Austria,96,-130,135,150,150,120,125,130,130,,170,185,200,200,480,100,M,SBD,Single-ply
1,Peter Berghmans,Masters 50-54,1954,Netherlands,92.15,210,-220,220,220,125,-135,-135,125,,225,235,240,240,585,100,M,SBD,Single-ply
1,Keith Ellis,Juniors 20-23,1982,UK,107.65,275,-300,-300,275,175,183,190,190,,260,280,-300,280,745,110,M,SBD,Single-ply
2,Damian Lapacz,Juniors 20-23,1985,Germany,104.1,200,220,232.5,232.5,120,142.5,-155,142.5,,220,240,250,250,625,110,M,SBD,Single-ply
1,Shaun Davies,Open,1968,UK,104.9,-330,330,365,365,225,-235,-235,225,,290,-310,-310,290,880,110,M,SBD,Single-ply
1,Albert Hoekstra,Masters 40-44,1964,Netherlands,107.1,290,302.5,-312.5,302.5,202.5,210,217.5,217.5,,245,255,-265,255,775,110,M,SBD,Single-ply
1,David Belchers,Masters 45-49,1959,UK,103.6,190,205,215,215,-125,125,-135,125,,220,230,-240,230,570,110,M,SBD,Single-ply
1,Robert Campbell #4,Masters 55-59,1949,UK,104.3,235,250,260,260,150,165,-170,165,,240,250,260,260,685,110,M,SBD,Single-ply
1,David Squires,Open,1970,UK,110.5,315,335,-350,335,210,220,227.5,227.5,,290,310,-320,310,872.5,125,M,SBD,Single-ply
2,Jens Pollex,Open,1968,Germany,121,250,260,-270,260,180,190,-200,190,,240,260,270,270,720,125,M,SBD,Single-ply
1,Jaap Fahner,Masters 40-44,1961,Netherlands,122.5,310,322.5,335,335,215,230,-237.5,230,,320,-335,335,335,900,125,M,SBD,Single-ply
2,Ed Fennema,Masters 40-44,1962,Netherlands,118.4,285,300,-320,300,175,185,190,190,,265,280,-290,280,770,125,M,SBD,Single-ply
1,Gerhard Holleitner,Masters 45-49,1959,Austria,123.4,240,-260,,240,195,-205,,195,,290,310,-330,310,745,125,M,SBD,Single-ply
1,Charlie Evans,Open,1965,UK,128.3,-260,260,-275,260,165,175,185,185,,220,240,260,260,705,140,M,SBD,Single-ply
1,David Carter #1,Masters 55-59,1947,UK,132.6,300,-325,-325,300,165,175,182.5,182.5,,280,,,280,762.5,140,M,SBD,Single-ply
1,Richard Fricker,Masters 40-44,1961,UK,155.1,275,305,335,335,180,205,-215.5,205,,250,280,292.5,292.5,832.5,140+,M,SBD,Single-ply
1,Allison Hough,Open,1966,UK,55,,,,,75,80,85,85,,,,,,85,56,F,B,Single-ply
1,Marry Butzelaar,Masters 50-54,,Netherlands,64,,,,,75,80,85,85,,,,,,85,67.5,F,B,Single-ply
1,Jennifer Heese,Teen,1987,Germany,81.5,,,,,55,62.5,-67.5,62.5,,,,,,62.5,82.5,F,B,Single-ply
1,Adriana Bialastocki,Juniors 20-23,1982,Germany,79.6,,,,,70,77.5,82.5,82.5,,,,,,82.5,82.5,F,B,Single-ply
1,Andreas Hartung,Juniors 20-23,1983,Germany,67.2,,,,,120,127.5,-130,127.5,,,,,,127.5,67.5,M,B,Single-ply
1,Lucas Gijsberten,Open,1981,Netherlands,66,,,,,150,-160,-160,150,,,,,,150,67.5,M,B,Single-ply
1,Sergej Erdmann,Teen,1987,Germany,70.2,,,,,125,130,-135,130,,,,,,130,75,M,B,Single-ply
1,Uwe Sieg,Masters 40-44,1960,Germany,71.1,,,,,135,140,145,145,-150.5,,,,,145,75,M,B,Single-ply
1,Barry De Vries,Teen,,Netherlands,80.1,,,,,110,-115,-115,110,,,,,,110,82.5,M,B,Single-ply
1,Martin Karius,Juniors 20-23,1982,Germany,77.3,,,,,147.5,152.5,160.5,160.5,162.5,,,,,160.5,82.5,M,B,Single-ply
1,Ronald Witek,Open,1969,Austria,82,,,,,180,-190,190,190,,,,,,190,82.5,M,B,Single-ply
2,Jörg Rödiger,Open,1966,Germany,82.5,,,,,140,150,-155,150,,,,,,150,82.5,M,B,Single-ply
3,Eugen Gretz,Open,1978,Germany,81.6,,,,,135,142.5,-150,142.5,,,,,,142.5,82.5,M,B,Single-ply
1,Cornelis Hoppenbrouwers,Masters 45-49,1958,Netherlands,78.7,,,,,150,160,-165.5,160,,,,,,160,82.5,M,B,Single-ply
1,Waldemar Sager,Teen,1985,Germany,83.9,,,,,160,172.5,180,180,182.5,,,,,180,90,M,B,Single-ply
1,Elio Taurisano,Open,1967,Germany,89.9,,,,,140,150,155,155,,,,,,155,90,M,B,Single-ply
2,Roland Scholze,Open,1979,Germany,84,,,,,145,-150,-152.5,145,,,,,,145,90,M,B,Single-ply
1,Phil Beniston,Masters 40-44,1963,UK,86.3,,,,,160,-175,-175,160,,,,,,160,90,M,B,Single-ply
1,Lars Schellenberg,Teen,,Germany,94.4,,,,,115,-120,-120,115,,,,,,115,100,M,B,Single-ply
1,Raymond van Deventer,Open,1973,Netherlands,99.5,,,,,215,225,-235,225,,,,,,225,100,M,B,Single-ply
2,Pierre Roy,Open,,Germany,93.3,,,,,170,-185,185,185,,,,,,185,100,M,B,Single-ply
1,Anthony Brown,Masters 40-44,1962,UK,98.9,,,,,225,-232.5,232.5,232.5,-235,,,,,232.5,100,M,B,Single-ply
1,David Tickle,Masters 50-54,1954,UK,93.5,,,,,150,160,170,170,-185.5,,,,,170,100,M,B,Single-ply
1,Jarnail Singh Birring,Masters 55-59,1949,UK,93,,,,,165,177.5,-185,177.5,,,,,,177.5,100,M,B,Single-ply
1,Lothar Hildebrandt,Masters 60-64,1943,Germany,94.8,,,,,130,-135,135,135,140,,,,,135,100,M,B,Single-ply
1,Jurgen Geissler,Open,1981,Germany,106.9,,,,,210,-220,220,220,,,,,,220,110,M,B,Single-ply
1,Albert Hoekstra,Masters 40-44,1964,Netherlands,106.8,,,,,205,215,225,225,230.5,,,,,225,110,M,B,Single-ply
1,Alexej Walter,Open,1981,Germany,115.2,,,,,235,245,250,250,,,,,,250,125,M,B,Single-ply
2,Rudolf Kunitzky,Open,1968,Austria,115.3,,,,,210,-225,-225,210,,,,,,210,125,M,B,Single-ply
DQ,Vico Ruckl,Open,1974,Germany,118.1,,,,,-262.5,-272.5,-282.5,,,,,,,,125,M,B,Single-ply
1,Jaap Fahner,Masters 40-44,1961,Netherlands,125,,,,,205,220,226,226,,,,,,226,125,M,B,Single-ply
2,Andreas Fritsche,Masters 40-44,1962,Germany,110.7,,,,,190,200,205,205,,,,,,205,125,M,B,Single-ply
1,Danilo Volkmann,Open,1970,Germany,134.7,,,,,220,-230,-240,220,,,,,,220,140,M,B,Single-ply
1,Johannes van Iren,Masters 40-44,,Netherlands,128,,,,,205,215,-225,215,,,,,,215,140,M,B,Single-ply
1,Richard Fricker,Masters 40-44,1961,UK,155,,,,,180,205,-212.5,205,,,,,,205,140+,M,B,Single-ply
