Place,Sex,Name,CyrillicName,BodyweightKg,Bench1Kg,Bench2Kg,Bench3Kg,Best3BenchKg,Bench4Kg,TotalKg,WeightClassKg,Event,Equipment,Tested,Deadlift1Kg,Deadlift2Kg,Deadlift3Kg,Best3DeadliftKg,Deadlift4Kg,Squat1Kg,Squat2Kg,Squat3Kg,Best3SquatKg,Squat4Kg,Division,Age,BirthDate
1,F,Anna Skovronskaya,Анна Сковронская,54.45,30,35,-40,35,,35,56,B,Raw,No,,,,,,,,,,,Open,26,1990-05-01
1,F,Natalya Rodygina,Наталья Родыгина,58.15,70,77.5,-80,77.5,,77.5,60,B,Raw,No,,,,,,,,,,,Masters 40-44,44,1972-11-13
1,F,Yuliya Veredova,Юлия Вередова,66.85,60,-65,-65,60,,60,67.5,B,Raw,No,,,,,,,,,,,Open,36,1980-05-12
1,M,Ivan Demchenko #1,Иван Демченко,54.9,-90,97.5,-102.5,97.5,,97.5,56,B,Raw,No,,,,,,,,,,,Open,18,1998-04-18
1,M,Aleksandr Raevskiy,Александр Раевский,74.6,-165,170,175,175,,175,75,B,Raw,No,,,,,,,,,,,Open,33,1983-07-20
2,M,Viktor Dzyuba,Виктор Дзюба,74.7,145,155,-160,155,,155,75,B,Raw,No,,,,,,,,,,,Open,25,1991-08-10
1,M,Annenkov Sergey,Анненков Сергей,82.5,175,180,,180,,180,82.5,B,Raw,No,,,,,,,,,,,Open,,1987-09-03
1,M,Egor Kolesnikov,Егор Колесников,80.7,155,-165,165,165,,165,82.5,B,Raw,No,,,,,,,,,,,Open,,1994-09-06
1,M,Ilya Kovalenko,Илья Коваленко,81.5,132.5,-137.5,-137.5,132.5,,132.5,82.5,B,Raw,No,,,,,,,,,,,Open,25,1991-05-26
1,M,German Smotrov,Герман Смотров,86.1,-95,-100,100,100,,100,90,B,Raw,No,,,,,,,,,,,Open,15,2001-06-20
1,M,Vitaliy Misyutinskiy,Віталій Місютинський,89.05,140,147.5,-155,147.5,,147.5,90,B,Raw,No,,,,,,,,,,,Masters 45-49,49,1967-09-02
1,M,Mikhail Konovalov,Михаил Коновалов,97.4,185,190,-195,190,,190,100,B,Raw,No,,,,,,,,,,,Open,25,1992-03-11
2,M,Mikhail Lukyanov,Михаил Лукьянов,91.35,-170,170,175,175,,175,100,B,Raw,No,,,,,,,,,,,Open,29,1988-02-13
3,M,Evgeniy Pogulyaev,Евгений Погуляев,96.1,160,-165,165,165,,165,100,B,Raw,No,,,,,,,,,,,Open,34,1982-07-09
4,M,Maksim Koshelkov,Максим Кошельков,95.5,135,150,160,160,,160,100,B,Raw,No,,,,,,,,,,,Open,31,1985-07-15
5,M,Dmitriy Ruban,Дмитрий Рубан,96.65,140,155,-170,155,,155,100,B,Raw,No,,,,,,,,,,,Open,30,1987-01-14
6,M,Oleg Sysoenko,Олег Сысоенко,94.45,150,-160,-160,150,,150,100,B,Raw,No,,,,,,,,,,,Open,34,1982-12-08
7,M,Nikita Morozov,Никита Морозов,98.05,140,-150,-150,140,,140,100,B,Raw,No,,,,,,,,,,,Open,28,1988-06-23
1,M,Gor Agababyan,Гор Агабабян,107.9,167.5,-175,175,175,,175,110,B,Raw,No,,,,,,,,,,,Open,26,1990-09-11
1,M,Aleksey Krivokon,Алексей Кривоконь,102.3,-155,160,167.5,167.5,,167.5,110,B,Raw,No,,,,,,,,,,,Masters 45-49,46,1970-11-01
DQ,M,Aleksey Demekhov,Алексей Демехов,102.3,-150,-150,-150,,,,110,B,Raw,No,,,,,,,,,,,Open,32,1984-04-30
1,M,Nshan Agababyan,Ншан Агабабян,120.29,180,190,-202.5,190,,190,125,B,Raw,No,,,,,,,,,,,Open,30,1987-01-02
1,M,Vladimiir Belyakhin,Владимиир Беляхин,63.75,195,-210,-210,195,,195,67.5,B,Single-ply,No,,,,,,,,,,,Open,27,1989-05-19
1,M,Vadim Mikhaylov,Вадим Михайлов,74.6,160,-175,-175,160,,160,75,B,Single-ply,No,,,,,,,,,,,Open,28,1988-10-28
1,M,Vasiliy Ermolenko,Василий Ермоленко,106.2,-220,-220,230,230,,230,110,B,Single-ply,No,,,,,,,,,,,Open,27,1989-04-17
1,M,Vyacheslav Petrov,Вячеслав Петров,66.8,150,-160,-160,150,,150,67.5,B,Multi-ply,No,,,,,,,,,,,Open,28,1988-06-12
1,M,Denis Basko,Денис Басько,97.65,235,245,250,250,,250,100,B,Multi-ply,No,,,,,,,,,,,Open,,1981-07-29
2,M,Vladislav Sosnin,Владислав Соснин,97.5,190,205,-235,205,,205,100,B,Multi-ply,No,,,,,,,,,,,Open,22,1994-07-09
DQ,M,Sergey Kazakov,Сергей Казаков,99.1,-200,-205,-205,,,,100,B,Multi-ply,No,,,,,,,,,,,Masters 40-44,43,1973-10-12
1,M,Ivan Klimenko,Иван Клименко,103,200,205,210,210,,210,110,B,Multi-ply,No,,,,,,,,,,,Open,36,1980-11-20
1,M,Aleksandr Raevskiy,Александр Раевский,74.6,,,,,,245,75,D,Raw,No,230,237.5,245,245,,,,,,,Open,33,1983-07-20
2,M,Vadim Mikhaylov,Вадим Михайлов,74.6,,,,,,237.5,75,D,Raw,No,-220,220,237.5,237.5,,,,,,,Open,,1988-10-28
1,M,Vladislav Babarykin,Владислав Бабарыкин,88.9,,,,,,232.5,90,D,Raw,No,225,232.5,-237.5,232.5,,,,,,,Open,24,1992-09-22
1,M,Vladislav Sosnin,Владислав Соснин,97.5,,,,,,245,100,D,Raw,No,225,235,245,245,,,,,,,Open,22,1994-07-09
1,M,Denis Basko,Денис Басько,97.65,,,,,,290,100,D,Raw,No,250,272.5,290,290,,,,,,,Open,,1981-07-29
2,M,Oleg Sysoenko,Олег Сысоенко,94.45,,,,,,260,100,D,Raw,No,230,250,260,260,,,,,,,Open,34,1982-12-08
3,M,Aleksandr Shabanov,Александр Шабанов,93.1,,,,,,245,100,D,Raw,No,245,-265,-267.5,245,,,,,,,Open,25,1992-02-28
4,M,Igor Luzin,Игорь Лузин,99.4,,,,,,200,100,D,Raw,No,170,180,200,200,,,,,,,Open,47,1969-11-04
1,M,Igor Luzin,Игорь Лузин,99.4,,,,,,200,100,D,Raw,No,170,180,200,200,,,,,,,Masters 45-49,47,1969-11-04
1,M,Dmitriy Yurev,Дмитрий Юрьев,100.7,,,,,,280,110,D,Raw,No,-272.5,272.5,280,280,,,,,,,Open,25,1992-01-24
1,F,Olga Vlasenko,Ольга Власенко,43.65,35,37.5,-40,37.5,,182.5,44,SBD,Wraps,No,70,80,-92.5,80,,55,60,65,65,,Open,19,1997-11-24
1,F,Ulyana Strokina,Ульяна Строкина,53.1,40,47.5,-52.5,47.5,,250,56,SBD,Wraps,No,90,95,100,100,,90,-100,102.5,102.5,,Open,16,2001-02-26
1,F,Ekaterina Obukhova,Екатерина Обухова,59.9,42.5,-47.5,-47.5,42.5,,242.5,60,SBD,Wraps,No,90,100,110,110,,70,80,90,90,,Open,28,1988-05-11
1,F,Alina Dalishneva,Алина Далишнева,57.85,95,100,105,105,,312.5,60,SBD,Wraps,No,130,135,,135,,67.5,72.5,-77.5,72.5,,Open,21,1996-02-06
1,F,Svetlana Klinkova,Светлана Клинкова,75,30,35,-37.5,35,,170,75,SBD,Wraps,No,70,-77.5,-77.5,70,,60,65,-70,65,,Open,18,1999-02-03
1,F,Evgeniya Stepura,Евгения Степура,84.9,60,65,70,70,,335,90,SBD,Wraps,No,120,130,135,135,,130,-140,-140,130,,Open,35,1981-07-27
1,M,Stanislav Orlov,Станислав Орлов,47,35,40,45,45,,240,52,SBD,Wraps,No,90,100,105,105,,80,90,-100,90,,Open,14,2002-12-20
1,M,Rusif Dzhabbarov,Русиф Джаббаров,57.95,85,95,-100,95,,457.5,60,SBD,Wraps,No,160,180,-197.5,180,,170,-182.5,182.5,182.5,,Open,18,1998-12-02
1,M,Vladimir Belyakhin,Владимир Беляхин,63.75,135,142.5,-147.5,142.5,,562.5,67.5,SBD,Wraps,No,175,185,-200,185,,215,225,235,235,,Open,27,1989-05-19
1,M,Loskutnikov Romin,Лоскутников Ромин,72.1,80,-90,90,90,,310,75,SBD,Wraps,No,100,110,120,120,,80,90,100,100,,Open,24,1993-04-01
1,M,Aleksandr Raevskiy,Александр Раевский,74.6,-165,170,175,175,,630,75,SBD,Wraps,No,230,237.5,245,245,,190,200,210,210,,Open,33,1983-07-20
2,M,Vadim Mikhaylov,Вадим Михайлов,74.6,130,137.5,142.5,142.5,,582.5,75,SBD,Wraps,No,215,-250,,215,,200,215,225,225,,Open,28,1988-10-28
1,M,Nikita Kubasov,Никита Кубасов,81.7,140,145,147.5,147.5,,585,82.5,SBD,Wraps,No,210,220,227.5,227.5,,-200,205,210,210,,Open,21,1995-10-11
DQ,M,Sergey Rybalko,Сергей Рыбалко,88.55,,,,,,,90,SBD,Wraps,No,,,,,,205,-215,,205,,Open,29,1988-03-23
1,M,Maksim Povalyaev,Максим Поваляев,97,155,167.5,175,175,,635,100,SBD,Wraps,No,205,225,235,235,,195,210,225,225,,Open,23,1993-08-17
1,M,Maksim Povalyaev,Максим Поваляев,97,155,167.5,175,175,,635,100,SBD,Wraps,No,205,225,235,235,,195,210,225,225,,Open,23,1993-08-17
2,M,Andrey Mayorshin,Андрей Майоршин,99.6,125,132.5,137.5,137.5,,575,100,SBD,Wraps,No,210,220,227.5,227.5,,-200,200,210,210,,Open,16,2000-09-03
1,M,Dmitriy Slobodenyuk,Дмитрий Слободенюк,106.65,-110,110,-115,110,,510,110,SBD,Wraps,No,170,185,200,200,,190,-200,200,200,,Open,42,1974-12-25
