Place,Name,Sex,Equipment,BirthYear,Country,BodyweightKg,Squat1Kg,Squat2Kg,Squat3Kg,Best3SquatKg,Bench1Kg,Bench2Kg,Bench3Kg,Best3BenchKg,Deadlift1Kg,Deadlift2Kg,Deadlift3Kg,Best3DeadliftKg,TotalKg,WeightClassKg,Division,Event
1,Valentina Vermenyuk,F,Single-ply,1986,Russia,47,160,170,180,180,90,95,100,100,157.5,167.5,-175.5,167.5,447.5,47,Open,SBD
2,Svetlana Saydasheva,F,Single-ply,1988,Russia,47,155,162.5,-167.5,162.5,77.5,82.5,87.5,87.5,155,165,-175.5,165,415,47,Open,SBD
3,Sanna Apuli,F,Single-ply,1981,Finland,47,145,-152.5,152.5,152.5,75,80,-85,80,145,152.5,-165,152.5,385,47,Open,SBD
4,Ilka Schwengl-Forsthuber,F,Single-ply,1965,Austria,46.5,127.5,135,140,140,95,-100,-100,95,122.5,132.5,-140,132.5,367.5,47,Open,SBD
5,Barbara Peti,F,Single-ply,1976,Italy,46.8,120,-125,-125,120,-70,70,-75,70,125,130,-135,130,320,47,Open,SBD
1,Natalia Salnikova,F,Single-ply,1986,Russia,51.5,182.5,195,206,206,125,-130,132.5,132.5,160,175,-182.5,175,513.5,52,Open,SBD
2,Anastasiya Derevyanko #1,F,Single-ply,1987,Ukraine,50.8,-175,177.5,-185,177.5,-110,-110,110,110,180,187.5,192.5,192.5,480,52,Open,SBD
3,Kateryna Klymenko,F,Single-ply,1985,Ukraine,51.7,180,185,187.5,187.5,117.5,-122.5,-122.5,117.5,170,175,-180,175,480,52,Open,SBD
4,Vanessa Martin,F,Single-ply,1976,France,51.8,162.5,167.5,172.5,172.5,95,100,-105,100,152.5,157.5,160,160,432.5,52,Open,SBD
5,Trine Øgaard Bagger,F,Single-ply,1986,Denmark,51.4,130,135,140,140,85,90,95,95,152.5,162.5,-170,162.5,397.5,52,Open,SBD
6,Roberta Monaco,F,Single-ply,1975,Italy,51.7,140,145,152.5,152.5,-77.5,77.5,82.5,82.5,150,-157.5,157.5,157.5,392.5,52,Open,SBD
7,Louise Edwards #1,F,Single-ply,1978,UK,51.8,130,137.5,142.5,142.5,65,70,72.5,72.5,145,152.5,-157.5,152.5,367.5,52,Open,SBD
1,Gundula Fiona Sommer von Bachhaus,F,Single-ply,1981,Germany,56.9,175,185,-195,185,145,-153,-153,145,170,185,190,190,520,57,Open,SBD
2,Yuliya Vavilova,F,Single-ply,1979,Russia,57,192.5,202.5,207.5,207.5,100,107.5,-112.5,107.5,165,-175,175,175,490,57,Open,SBD
3,Mariya Chepil,F,Single-ply,1970,Ukraine,56.7,172.5,-180,180,180,-115,115,117.5,117.5,155,160,-165,160,457.5,57,Open,SBD
4,Louise Murray,F,Single-ply,1988,UK,56.2,160,170,175,175,92.5,97.5,102.5,102.5,157.5,167.5,170,170,447.5,57,Open,SBD
5,Ellie Steel,F,Single-ply,1991,UK,55.8,160,-170,170,170,100,110,115,115,150,160,-167.5,160,445,57,Open,SBD
6,Angelica Brage,F,Single-ply,1987,Sweden,56.7,-165,165,-170,165,97.5,102.5,-107.5,102.5,165,172.5,-177.5,172.5,440,57,Open,SBD
7,Kine Blummenfelt,F,Single-ply,1991,Norway,56.7,170,175,180,180,80,85,87.5,87.5,160,-165,165,165,432.5,57,Open,SBD
8,Eva Buxbom,F,Single-ply,1969,Denmark,56.8,157.5,-162.5,-162.5,157.5,85,90,92.5,92.5,170,175,177.5,177.5,427.5,57,Open,SBD
9,Sandra Wildeman,F,Single-ply,1979,Netherlands,55,155,-160,-160,155,95,100,-102.5,100,137.5,145,150,150,405,57,Open,SBD
10,Susann Cichon,F,Single-ply,1987,Germany,56.7,155,-162.5,-162.5,155,82.5,85,-87.5,85,155,162.5,-167.5,162.5,402.5,57,Open,SBD
1,Larysa Soloviova,F,Single-ply,1978,Ukraine,62.78,215,230,-241,230,160,169,170,170,210,-230,-240,210,610,63,Open,SBD
2,Tutta Kristine Hanssen,F,Single-ply,1989,Norway,62.92,-200,205,-210,205,135,140,-145,140,187.5,192.5,195,195,540,63,Open,SBD
3,Olga Adamovich,F,Single-ply,1991,Russia,62.57,197.5,210,215,215,117.5,125,130,130,182.5,187.5,192.5,192.5,537.5,63,Open,SBD
4,Helga Guðmundsdóttir,F,Single-ply,1974,Iceland,62.93,160,165,170,170,112.5,115,-120,115,165,-175,175,175,460,63,Open,SBD
DQ,Antonietta Orsini,F,Single-ply,1964,Italy,62.25,-202.5,-202.5,-202.5,,120,125,-130,125,180,187.5,195,195,,63,Open,SBD
DQ,Hege Berge,F,Single-ply,1982,Norway,62.28,-187.5,-187.5,-195,,-125,-127.5,-127.5,,-175,-175,-175,,,63,Open,SBD
DQ,Silvia Stütz,F,Single-ply,1978,Germany,62.35,162.5,172.5,177.5,177.5,-100,-100,-100,,180,-187.5,-190,180,,63,Open,SBD
1,Yulia Medvedeva,F,Single-ply,1986,Russia,66.7,210,220,-225,220,157.5,167.5,-172.5,167.5,-185,195,-205,195,582.5,72,Open,SBD
2,Marte Elverum,F,Single-ply,1990,Norway,71.83,225,230,235,235,130,132.5,-135,132.5,210,-217.5,-217.5,210,577.5,72,Open,SBD
3,Ankie Timmers,F,Single-ply,1986,Netherlands,71.5,192.5,-200,-200,192.5,-145,150,155,155,190,197.5,210,210,557.5,72,Open,SBD
4,Linda Kristensen,F,Single-ply,1977,Norway,71.9,-195,195,202.5,202.5,125,130,132.5,132.5,170,-175,-175,170,505,72,Open,SBD
5,María Guðsteinsdóttir,F,Single-ply,1970,Iceland,71.3,-175,175,-182.5,175,105,110,115,115,172.5,180,187.5,187.5,477.5,72,Open,SBD
6,Vivien Röder,F,Single-ply,1988,Germany,71.09,150,155,160,160,140,142.5,150,150,150,160,165,165,475,72,Open,SBD
7,Michaela Drabálková,F,Single-ply,1989,Czechia,70.47,-170,170,180,180,95,102.5,110,110,140,150,-160,150,440,72,Open,SBD
DQ,Nicole Fydrich,F,Single-ply,1981,Germany,66.51,165,-170,170,170,-105,-105,-105,,172.5,180,-187.5,180,,72,Open,SBD
1,Heidi Hille Arnesen,F,Single-ply,1970,Norway,82.73,240,245,-250,245,-137.5,137.5,-142.5,137.5,197.5,202.5,212.5,212.5,595,84,Open,SBD
2,Yevheniia Tishakova,F,Single-ply,1989,Ukraine,79.5,230,240,-250,240,120,125,130,130,205,215,-225,215,585,84,Open,SBD
3,Inger-Johanne Ruud,F,Single-ply,1991,Norway,83.37,-227.5,227.5,-230,227.5,137.5,145,150,150,197.5,202.5,-210,202.5,580,84,Open,SBD
4,Alexandra Tichy,F,Single-ply,1990,Austria,82.36,162.5,175,182.5,182.5,115,-122.5,122.5,122.5,167.5,177.5,-182.5,177.5,482.5,84,Open,SBD
5,Shasha Bowers,F,Single-ply,1995,UK,79.65,150,160,167.5,167.5,75,77.5,-80,77.5,137.5,147.5,-152.5,147.5,392.5,84,Open,SBD
1,Elena Kucherenko,F,Single-ply,1992,Russia,104.26,240,255,265,265,150,160,165,165,205,212.5,220,220,650,84+,Open,SBD
2,Inna Orobets,F,Single-ply,1971,Ukraine,105.46,230,240,245,245,175,185,-195,185,200,207.5,-215,207.5,637.5,84+,Open,SBD
3,Brenda van der Meulen,F,Single-ply,1978,Netherlands,108.34,207.5,222.5,230,230,170,-175,175,175,180,-195,-195,180,585,84+,Open,SBD
4,Jane Aaberg,F,Single-ply,1981,Denmark,87.1,-200,-200,207.5,207.5,115,117.5,-120,117.5,205,-217.5,220,220,545,84+,Open,SBD
5,Kelly Phasey,F,Single-ply,1976,UK,117.72,175,185,192.5,192.5,105,110,115,115,150,160,-165,160,467.5,84+,Open,SBD
