Tested,Equipment,Place,Name,Division,BirthDate,Country,BodyweightKg,Squat1Kg,Squat2Kg,Squat3Kg,Best3SquatKg,Bench1Kg,Bench2Kg,Bench3Kg,Best3BenchKg,Deadlift1Kg,Deadlift2Kg,Deadlift3Kg,Best3DeadliftKg,TotalKg,WeightClassKg,Sex,CyrillicName,Event
Yes,Multi-ply,1,Roman Skvortsov,Amateur Juniors 20-23,1992-07-08,Russia,97,-310,310,-330,310,190,202.5,210,210,260,-280,-295,260,780,100,M,Роман Скворцов,SBD
Yes,Raw,1,Viktoriya Sharovatova,Amateur Teen 13-15,2000-04-13,Russia,45.5,50,-55,55,55,55,60,-62.5,60,-70,75,80,80,195,48,F,Виктория Шароватова,SBD
Yes,Raw,1,Viktoriya Glazyrina,Amateur Juniors 20-23,1994-06-24,Russia,51.3,80,-87.5,87.5,87.5,45,50,-52.5,50,95,102.5,-107.5,102.5,240,52,F,Виктория Глазырина,SBD
Yes,Raw,1,Anna Vishnyak,Amateur Open,1984-12-12,Russia,51.2,107.5,117.5,-120,117.5,72.5,77.5,-80,77.5,135,-150,150,150,345,52,F,Анна Вишняк,SBD
Yes,Raw,2,Larisa Chernobaeva,Amateur Open,1980-12-22,Russia,51.6,90,95,-100,95,47.5,-52.5,-52.5,47.5,122.5,-130,-130,122.5,265,52,F,Лариса Чернобаева,SBD
Yes,Raw,3,Anna Ivannikova,Amateur Open,1991-05-12,Russia,51.4,85,-87.5,-87.5,85,55,57.5,-60,57.5,100,110,-122.5,110,252.5,52,F,Анна Иванникова,SBD
Yes,Raw,4,Anna Fedorova,Amateur Open,1991-04-22,Russia,51.9,80,-90,90,90,50,57.5,-60,57.5,85,95,102.5,102.5,250,52,F,Анна Федорова,SBD
Yes,Raw,DQ,Nadezhda Ponomareva,Amateur Open,1987-02-07,Russia,52,-110,-110,-110,,,,,,,,,,,52,F,Надежда Пономарева,SBD
Yes,Raw,1,Natalya Yarotskaya,Amateur Masters 50-54,1963-09-18,Russia,51.2,65,70,-75,70,35,37.5,40,40,75,80,-87.5,80,190,52,F,Наталья Яроцкая,SBD
Yes,Raw,1,Kseniya Gall-Savalskaya,Amateur Juniors 20-23,1992-04-19,Russia,56,90,95,-100,95,50,55,57.5,57.5,110,117.5,-132.5,117.5,270,56,F,Ксения Галл-Савальская,SBD
Yes,Raw,1,Anastasiya Noskova,Amateur Open,1984-02-28,Russia,55.3,92.5,100,-110,100,57.5,62.5,67.5,67.5,145,152.5,-158,152.5,320,56,F,Анастасия Носкова,SBD
Yes,Raw,2,Anna Mikhnova,Amateur Open,1987-08-03,Russia,56,105,-110,-110,105,65,67.5,70,70,-100,100,-110,100,275,56,F,Анна Михнова,SBD
Yes,Raw,1,Svetlana Kufeld,Amateur Masters 45-49,1968-05-06,Russia,55.2,-80,80,85,85,52.5,55,-57.5,55,95,100,-105,100,240,56,F,Светлана Куфельд,SBD
Yes,Raw,1,Elizaveta Shinkareva,Amateur Teen 16-17,1998-06-24,Russia,59.3,100,105,107.5,107.5,62.5,67.5,70,70,115,122.5,127.5,127.5,305,60,F,Елизавета Шинкарева,SBD
Yes,Raw,1,Anastasiya Boyarkina,Amateur Juniors 20-23,1993-07-05,Russia,60,90,97.5,102.5,102.5,52.5,55,-57.5,55,105,-115,-115,105,262.5,60,F,Анастасия Бояркина,SBD
Yes,Raw,2,Oksana Shentsova,Amateur Juniors 20-23,1993-08-24,Russia,58.5,72.5,-80,80,80,42.5,45,47.5,47.5,110,-117.5,117.5,117.5,245,60,F,Оксана Шенцова,SBD
Yes,Raw,1,Polina Ivanova,Amateur Open,1986-09-27,Russia,59,100,110,115,115,52.5,-57.5,-57.5,52.5,135,145,-152.5,145,312.5,60,F,Полина Иванова,SBD
Yes,Raw,2,Elizaveta Shinkareva,Amateur Open,1998-06-24,Russia,59.3,100,105,107.5,107.5,62.5,67.5,70,70,115,122.5,127.5,127.5,305,60,F,Елизавета Шинкарева,SBD
Yes,Raw,3,Elena Krakhmaleva,Amateur Open,1982-11-06,Russia,59.4,-95,95,-102.5,95,70,75,-77.5,75,125,130,135,135,305,60,F,Елена Крахмалева,SBD
Yes,Raw,4,Valeriya Duseeva,Amateur Open,1991-02-03,Russia,59.7,100,110,-115,110,60,67.5,72.5,72.5,120,-125,,120,302.5,60,F,Валерия Дусеева,SBD
Yes,Raw,5,Yana Mukhina,Amateur Open,1984-06-05,Russia,59.8,100,105,110,110,50,57.5,-62.5,57.5,110,120,-135,120,287.5,60,F,Яна Мухина,SBD
Yes,Raw,1,Anna Rapoport,Amateur Open,1971-10-07,Russia,66.9,82.5,-87.5,87.5,87.5,47.5,52.5,-55,52.5,115,125,130,130,270,67.5,F,Анна Рапопорт,SBD
Yes,Raw,1,Anna Rapoport,Amateur Masters 40-44,1971-10-07,Russia,66.9,82.5,-87.5,87.5,87.5,47.5,52.5,-55,52.5,115,125,130,130,270,67.5,F,Анна Рапопорт,SBD
Yes,Raw,1,Olga Pyzhyanova,Amateur Open,1989-03-09,Russia,75,110,120,-125,120,70,75,77.5,77.5,-110,110,-130,110,307.5,75,F,Ольга Пыжьянова,SBD
Yes,Raw,1,Ekaterina Antukh,Amateur Teen 13-15,2000-09-23,Russia,96.6,85,95,100,100,42.5,45,47.5,47.5,110,117.5,-120,117.5,265,90+,F,Екатерина Антух,SBD
Yes,Raw,1,Ekaterina Antukh,Amateur Open,2000-09-23,Russia,96.6,85,95,100,100,42.5,45,47.5,47.5,110,117.5,-120,117.5,265,90+,F,Екатерина Антух,SBD
Yes,Raw,1,Vadim Glotov,Amateur Teen 16-17,1998-04-13,Russia,63.5,85,-95,95,95,65,70,-75,70,110,120,127.5,127.5,292.5,67.5,M,Вадим Глотов,SBD
Yes,Raw,1,Sergey Poboykin,Amateur Open,1989-03-10,Russia,66.2,150,160,165,165,132.5,137.5,140,140,185,-190,-190,185,490,67.5,M,Сергей Побойкин,SBD
Yes,Raw,2,Otgonbayar Purev,Amateur Open,1985-03-19,Mongolia,64.7,160,,,160,120,125,130,130,175,180,190,190,480,67.5,M,,SBD
Yes,Raw,DQ,Ivan Grevtsov,Amateur Teen 16-17,1998-08-12,Russia,75,-110,115,122.5,122.5,65,70,-77.5,70,-130,-130,-130,,,75,M,Иван Гревцов,SBD
Yes,Raw,1,Ivan Osipov,Amateur Teen 18-19,1996-05-13,Russia,71.6,120,-130,-130,120,95,105,-107.5,105,130,-140,,130,355,75,M,Иван Осипов,SBD
Yes,Raw,1,Damdinsuren Batsukh,Amateur Open,1984-04-15,Mongolia,72.7,170,175,177.5,177.5,120,125,-127.5,125,190,200,-205,200,502.5,75,M,,SBD
Yes,Raw,2,Ganbat Shagdarsuren,Amateur Open,1977-06-13,Mongolia,73.9,160,-170,170,170,130,140,-145,140,170,-180,180,180,490,75,M,,SBD
Yes,Raw,3,Evgeniy Glebov,Amateur Open,1986-03-04,Russia,73.4,152.5,160,167.5,167.5,95,-105,-105,95,170,185,192.5,192.5,455,75,M,Евгений Глебов,SBD
Yes,Raw,4,Mikhail Bykov,Amateur Open,1989-12-31,Russia,73.3,-130,-135,135,135,-90,90,-95,90,180,190,-200,190,415,75,M,Михаил Быков,SBD
Yes,Raw,1,Gennadiy Chuldenko,Amateur Masters 65-69,1948-07-03,Russia,75,165,175,,175,40,45,50,50,200,220,225,225,450,75,M,Геннадий Чулденко,SBD
Yes,Raw,1,Valentin Melnik,Amateur Juniors 20-23,1995-02-21,Russia,81.2,130,-140,-140,130,-90,90,100,100,180,195,-210,195,425,82.5,M,Валентин Мельник,SBD
Yes,Raw,1,Georgiy Vershinin,Amateur Open,1988-12-23,Russia,81,200,215,225,225,150,155,162.5,162.5,220,230,240,240,627.5,82.5,M,Георгий Вершинин,SBD
Yes,Raw,2,Aleksey Vinyukov,Amateur Open,1973-10-19,Russia,80.8,190,200,-205,200,135,140,-145,140,190,210,-230,210,550,82.5,M,Алексей Винюков,SBD
Yes,Raw,3,Zakhar Permyakov,Amateur Open,1987-02-14,Russia,81.7,150,160,170,170,100,110,115,115,160,175,185,185,470,82.5,M,Захар Пермяков,SBD
Yes,Raw,1,Aleksey Vinyukov,Amateur Masters 40-44,1973-10-19,Russia,80.8,190,200,-205,200,135,140,-145,140,190,210,-230,210,550,82.5,M,Алексей Винюков,SBD
Yes,Raw,1,Dmitriy Radchenko,Amateur Open,1979-05-04,Russia,85.65,150,160,175,175,120,125,-130,125,200,210,215,215,515,90,M,Дмитрий Радченко,SBD
Yes,Raw,1,Erik Genze,Amateur Juniors 20-23,1992-05-30,Russia,94.8,160,-167.5,-167.5,160,120,130,-140,130,180,200,210,210,500,100,M,Эрик Гензе,SBD
Yes,Raw,1,Sergey Vishnyakov,Amateur Open,1987-01-30,Russia,98.5,200,210,225,225,140,147.5,-152.5,147.5,220,235,-257.5,235,607.5,100,M,Сергей Вишняков,SBD
Yes,Raw,2,Aleksey Borets,Amateur Open,1984-08-14,Russia,92.5,180,-195,-195,180,130,-140,-140,130,200,220,-235,220,530,100,M,Алексей Борец,SBD
Yes,Raw,3,Egor Tarasov,Amateur Open,1987-09-10,Russia,96,170,177.5,182.5,182.5,135,-140,-140,135,185,-195,-195,185,502.5,100,M,Егор Тарасов,SBD
Yes,Raw,DQ,Igor Andreev,Amateur Masters 40-44,1971-04-26,Russia,96.6,-100,,,,,,,,,,,,,100,M,Игорь Андреев,SBD
Yes,Raw,1,Vladimir Kovalenko,Amateur Open,1987-07-16,Russia,107.5,190,210,-230,210,-140,150,-160,150,200,230,-250,230,590,110,M,Владимир Коваленко,SBD
Yes,Raw,1,Nikita Arshanin,Amateur Juniors 20-23,1995-03-30,Russia,124.7,230,240,-250,240,170,180,-185,180,230,240,-250,240,660,125,M,Никита Аршанин,SBD
Yes,Single-ply,1,Otgonbayar Purev,Amateur Open,1985-03-19,Mongolia,64.7,-190,190,-200,190,125,130,135,135,190,200,-210,200,525,67.5,M,,SBD
Yes,Single-ply,1,Roman Rogozhkin,Amateur Teen 18-19,1997-01-09,Russia,74,200,-210,210,210,125,135,-137.5,135,175,190,210,210,555,75,M,Роман Рогожкин,SBD
Yes,Single-ply,2,Andrey Bugrimov,Amateur Teen 18-19,1995-10-24,Russia,73.8,185,-200,200,200,110,120,-125,120,175,182.5,195,195,515,75,M,Андрей Бугримов,SBD
Yes,Single-ply,1,Maxim Kandakov,Amateur Juniors 20-23,1994-04-22,Russia,75,240,-250,-250,240,130,140,-142.5,140,185,200,220,220,600,75,M,Максим Кандаков,SBD
Yes,Single-ply,2,Petr Zolotuev,Amateur Juniors 20-23,1992-08-01,Russia,73.9,175,185,-195,185,95,100,-107.5,100,215,230,-235,230,515,75,M,Петр Золотуев,SBD
Yes,Single-ply,1,Damdinsuren Batsukh,Amateur Open,1984-04-15,Mongolia,72.7,230,-250,-260,230,130,140,-150,140,200,210,-215,210,580,75,M,,SBD
Yes,Single-ply,2,Petr Zolotuev,Amateur Open,1992-08-01,Russia,73.9,175,185,-195,185,95,100,-107.5,100,215,230,-235,230,515,75,M,Петр Золотуев,SBD
Yes,Single-ply,DQ,Ganbat Shagdarsuren,Amateur Open,1977-06-13,Mongolia,73.9,210,-230,-230,210,-180,-180,-180,,,,,,,75,M,,SBD
Yes,Single-ply,DQ,Andrey Tomasik,Amateur Open,1987-12-14,Russia,81.9,-260,-270,-270,,,,,,,,,,,82.5,M,Андрей Томасик,SBD
Yes,Single-ply,1,Roman Raspopin,Amateur Teen 18-19,1996-03-15,Russia,87.9,280,300,-320,300,160,170,180,180,250,270,280,280,760,90,M,Роман Распопин,SBD
Yes,Single-ply,1,Aleksey Ermachenkov,Amateur Juniors 20-23,1993-09-24,Russia,85,230,250,260,260,140,150,160,160,220,235,-242.5,235,655,90,M,Алексей Ермаченков,SBD
Yes,Single-ply,1,Andrey Tuzov,Amateur Open,1991-02-24,Russia,89.9,245,-260,-260,245,180,185,-190,185,200,212.5,-217.5,212.5,642.5,90,M,Андрей Тузов,SBD
Yes,Single-ply,1,Vladislav Zybarev,Amateur Teen 18-19,1997-05-12,Russia,100,225,240,-250,240,125,135,-140,135,180,190,210,210,585,100,M,Владислав Зыбарев,SBD
Yes,Single-ply,1,Kirill Ivanov,Amateur Juniors 20-23,1992-12-23,Russia,99.8,-250,250,-260,250,140,150,-160,150,200,210,220,220,620,100,M,Кирилл Иванов,SBD
Yes,Single-ply,DQ,Roman Nekrasov,Amateur Open,1995-02-11,Russia,97,-270,-270,-270,,,,,,,,,,,100,M,Роман Некрасов,SBD
No,Multi-ply,1,Stepan Pakhomov,Pro Juniors 20-23,1991-08-04,Russia,82.5,280,300,-310,300,160,165,-170,165,250,270,280,280,745,82.5,M,Степан Пахомов,SBD
No,Multi-ply,1,Pavel Isakov,Pro Open,1980-11-04,Russia,101.4,230,250,270,270,150,165,175,175,235,250,-280,250,695,110,M,Павел Исаков,SBD
No,Raw,1,Yana Vorontsova,Pro Open,1989-05-08,Russia,55.4,80,90,95,95,40,45,-50,45,90,100,105,105,245,56,F,Яна Воронцова,SBD
No,Raw,1,Alina Kufeld,Pro Open,1991-04-10,Russia,59.8,90,-97.5,-102.5,90,60,62.5,65,65,100,110,115,115,270,60,F,Алина Куфельд,SBD
No,Raw,1,Mariya Zhuravleva,Pro Juniors 20-23,1993-09-01,Russia,67,95,100,107.5,107.5,50,57.5,60,60,85,100,107.5,107.5,275,67.5,F,Мария Журавлева,SBD
No,Raw,1,Vera Volobueva,Pro Open,1957-03-28,Russia,62.8,75,-82.5,82.5,82.5,45,-52.5,-52.5,45,105,112.5,117.5,117.5,245,67.5,F,Вера Волобуева,SBD
No,Raw,1,Vera Volobueva,Pro Masters 55-59,1957-03-28,Russia,62.8,75,-82.5,82.5,82.5,45,-52.5,-52.5,45,105,112.5,117.5,117.5,245,67.5,F,Вера Волобуева,SBD
No,Raw,1,Elena Zherdeva,Pro Open,1982-04-14,Russia,74,125,-135,135,135,-60,65,70,70,130,150,-155,150,355,75,F,Елена Жердева,SBD
No,Raw,1,German Khoroshilov,Pro Teen 16-17,1998-03-16,Russia,74.8,150,160,-170,160,90,-100,105,105,140,160,180,180,445,75,M,Герман Хорошилов,SBD
No,Raw,1,Maksim Shashel,Pro Juniors 20-23,1992-05-06,Russia,80,145,155,-165,155,110,-117.5,-117.5,110,150,160,180,180,445,82.5,M,Максим Шашель,SBD
No,Raw,1,Artem Suvorov,Pro Open,1983-11-09,Russia,82.5,210,225,235,235,130,140,150,150,240,260,280,280,665,82.5,M,Артем Суворов,SBD
No,Raw,2,Aleksandr Kuchin,Pro Open,1987-10-06,Russia,82,220,227.5,-230,227.5,140,150,-155,150,220,235,-245,235,612.5,82.5,M,Александр Кучин,SBD
No,Raw,3,Aleksey Kolesnikov,Pro Open,1986-08-29,Russia,79.6,195,205,-210,205,145,-150,-152.5,145,215,225,237.5,237.5,587.5,82.5,M,Алексей Колесников,SBD
No,Raw,4,Vladimir Portnykh,Pro Open,1989-08-29,Russia,81,140,150,-160,150,125,132.5,-135,132.5,150,160,170,170,452.5,82.5,M,Владимир Портных,SBD
No,Raw,5,Grigoriy Farniev,Pro Open,1987-06-21,Russia,80,100,110,130,130,90,-100,-100,90,110,130,150,150,370,82.5,M,Григорий Фарниев,SBD
No,Raw,DQ,Sergey Filippov,Pro Open,1978-07-10,Russia,81.5,150,-160,-160,150,-100,-100,-100,,,,,,,82.5,M,Сергей Филиппов,SBD
No,Raw,1,Dmitriy Gintov,Pro Juniors 20-23,1993-10-08,Russia,87.3,-225,-235,245,245,160,167.5,172.5,172.5,220,235,250,250,667.5,90,M,Дмитрий Гинтов,SBD
No,Raw,2,Egor Manokhin,Pro Juniors 20-23,1991-10-19,Russia,88.2,-180,180,-200,180,-130,130,-140,130,-200,200,-210,200,510,90,M,Егор Манохин,SBD
No,Raw,1,Dmitriy Gintov,Pro Open,1993-10-08,Russia,87.3,-225,-235,245,245,160,167.5,172.5,172.5,220,235,250,250,667.5,90,M,Дмитрий Гинтов,SBD
No,Raw,2,Sergey Kolesnik,Pro Open,1979-12-13,Russia,86,210,-220,,210,150,157.5,162.5,162.5,245,250,-255,250,622.5,90,M,Сергей Колесник,SBD
No,Raw,3,Vladimir Smolyaninov,Pro Open,1979-02-11,Russia,89.2,215,-225,-225,215,150,155,157.5,157.5,225,232.5,237.5,237.5,610,90,M,Владимир Смолянинов,SBD
No,Raw,4,Nikita Korablev,Pro Open,1983-07-24,Russia,89.9,130,150,170,170,120,130,140,140,140,170,190,190,500,90,M,Никита Кораблев,SBD
No,Raw,1,Dmitriy Bashkirov,Pro Juniors 20-23,1991-11-24,Russia,95,230,240,-245,240,140,147.5,152.5,152.5,280,290,295,295,687.5,100,M,Дмитрий Башкиров,SBD
No,Raw,1,Ruslan Popov,Pro Open,1974-06-05,Russia,99,220,240,250,250,170,180,185,185,247.5,260,280,280,715,100,M,Руслан Попов,SBD
No,Raw,2,Dmitriy Bashkirov,Pro Open,1991-11-24,Russia,95,230,240,-245,240,140,147.5,152.5,152.5,280,290,295,295,687.5,100,M,Дмитрий Башкиров,SBD
No,Raw,3,Anton Kazantsev,Pro Open,1986-04-11,Russia,97.9,190,-205,215,215,160,170,-180,170,210,230,250,250,635,100,M,,SBD
No,Raw,4,Vladimir Vlasov,Pro Open,1990-10-15,Russia,95.6,185,200,210,210,-140,-145,145,145,180,195,210,210,565,100,M,Владимир Власов,SBD
No,Raw,1,Oleg Lagunov,Pro Masters 45-49,1967-03-05,Russia,99.8,220,-230,230,230,145,152.5,157.5,157.5,255,275,285,285,672.5,100,M,Олег Лагунов,SBD
No,Raw,1,Roman Kiselev,Pro Open,1987-01-01,Russia,108,280,295,300,300,-190,200,207.5,207.5,310,330,-347.5,330,837.5,110,M,Роман Киселев,SBD
No,Raw,2,Ivan Zevyakin,Pro Open,1988-06-28,Russia,106.5,270,290,300,300,190,200,210,210,325,-340,-345,325,835,110,M,Иван Зевякин,SBD
No,Raw,3,Boris Torlopov,Pro Open,1976-08-02,Russia,108.6,215,230,-240,230,165,175,180,180,260,-280,-280,260,670,110,M,Борис Торлопов,SBD
No,Raw,4,Kirill Kharin,Pro Open,1977-03-27,Russia,109.6,190,210,225,225,140,155,160,160,235,255,265,265,650,110,M,Кирилл Харин,SBD
No,Raw,1,Oleg Zherdev,Pro Masters 45-49,1970-05-12,Russia,109,240,250,260,260,160,180,-200,180,230,,,230,670,110,M,Олег Жердев,SBD
No,Raw,1,Mikhail Ishchechkin,Pro Masters 50-54,1962-01-22,Russia,106.5,140,-150,150,150,140,145,150,150,140,,,140,440,110,M,Михаил Ищечкин,SBD
No,Raw,1,Sergey Semakin,Pro Open,1978-08-29,Russia,116.9,285,300,312.5,312.5,185,195,-200,195,300,330,-352.5,330,837.5,125,M,Сергей Семакин,SBD
No,Single-ply,1,Sergey Danilin,Pro Open,1988-01-13,Russia,65,200,220,240,240,100,115,127.5,127.5,180,210,220,220,587.5,67.5,M,Сергей Данилин,SBD
No,Single-ply,1,Oleg Solonenko,Pro Open,1970-09-26,Russia,74.1,-210,210,220,220,-165,165,170,170,210,220,230,230,620,75,M,Олег Солоненко,SBD
No,Single-ply,DQ,Dmitriy Sklyarov,Pro Open,1981-10-07,Russia,75,-240,-240,-240,,,,,,,,,,,75,M,Дмитрий Скляров,SBD
No,Single-ply,1,Oleg Solonenko,Pro Masters 40-44,1970-09-26,Russia,74.1,-210,210,220,220,-165,165,170,170,210,220,230,230,620,75,M,Олег Солоненко,SBD
No,Single-ply,1,Ivan Beskorovaynyy,Pro Teen 16-17,1997-08-25,Russia,77.7,210,-225,230,230,115,122.5,130,130,190,205,220,220,580,82.5,M,Иван Бескоровайный,SBD
No,Single-ply,1,Aleksandr Bondarenko,Pro Teen 18-19,1996-07-12,Russia,81,185,200,-210,200,100,110,115,115,170,190,200,200,515,82.5,M,Александр Бондаренко,SBD
No,Single-ply,1,Vladimir Galkin,Pro Open,1990-07-13,Russia,86.9,315,-330,,315,210,-222.5,222.5,222.5,265,-280,280,280,817.5,90,M,Владимир Галкин,SBD
No,Single-ply,1,Artem Feofilov,Pro Open,1989-09-09,Russia,99.8,330,345,352.5,352.5,200,210,222.5,222.5,250,270,-275,270,845,100,M,Артем Феофилов,SBD
No,Single-ply,2,Dmitriy Yuskov,Pro Open,1989-03-16,Russia,93,300,320,335,335,-180,180,192.5,192.5,270,-290,-290,270,797.5,100,M,Дмитрий Юськов,SBD
No,Single-ply,3,Anton Zherebtsov,Pro Open,1987-03-09,Russia,93.4,250,-270,280,280,150,-160,160,160,210,230,240,240,680,100,M,Антон Жеребцов,SBD
No,Single-ply,1,Evgeniy Utkin,Pro Open,1988-10-05,Russia,107,260,280,-300,280,170,180,-200,180,230,250,265,265,725,110,M,Евгений Уткин,SBD
No,Single-ply,DQ,Aleksandr Tyamkin,Pro Open,1987-04-17,Russia,116.6,-250,260,-270,260,-150,-150,-150,,,,,,,125,M,Александр Тямкин,SBD
Yes,Raw,1,Viktoriya Sharovatova,Amateur Teen 13-15,2000-04-13,Russia,45.5,,,,,55,-60,-60,55,,,,,55,48,F,Виктория Шароватова,B
Yes,Raw,1,Kristina Kunilovskaya,Amateur Open,1991-05-20,Russia,48,,,,,50,55,-60,55,,,,,55,48,F,Кристина Куниловская,B
Yes,Raw,1,Anna Vishnyak,Amateur Open,1984-12-12,Russia,51.2,,,,,72.5,-77.5,-77.5,72.5,,,,,72.5,52,F,Анна Вишняк,B
Yes,Raw,2,Veronika Brodyagina,Amateur Open,1994-09-09,Russia,51.5,,,,,55,60,-62.5,60,,,,,60,52,F,Вероника Бродягина,B
Yes,Raw,3,Anastasiya Chernikova,Amateur Open,1989-10-24,Russia,51.3,,,,,50,57.5,-60,57.5,,,,,57.5,52,F,Анастасия Черникова,B
Yes,Raw,1,Anastasiya Saydentsal,Amateur Teen 16-17,1998-07-24,Russia,55.9,,,,,55,60,62.5,62.5,,,,,62.5,56,F,Анастасия Сайденцаль,B
Yes,Raw,1,Anna Mikhnova,Amateur Open,1987-08-03,Russia,56,,,,,-67.5,67.5,-70,67.5,,,,,67.5,56,F,Анна Михнова,B
Yes,Raw,2,Anastasiya Saydentsal,Amateur Open,1998-07-24,Russia,55.9,,,,,55,60,62.5,62.5,,,,,62.5,56,F,Анастасия Сайденцаль,B
Yes,Raw,3,Yana Turetskaya,Amateur Open,1986-03-04,Russia,55,,,,,52.5,-57.5,-57.5,52.5,,,,,52.5,56,F,Яна Турецкая,B
Yes,Raw,1,Elena Krakhmaleva,Amateur Open,1982-11-06,Russia,59.8,,,,,70,75,-80,75,,,,,75,60,F,Елена Крахмалева,B
Yes,Raw,2,Elena Kamalova,Amateur Open,1990-10-29,Russia,59.5,,,,,62.5,67.5,-72.5,67.5,,,,,67.5,60,F,Елена Камалова,B
Yes,Raw,3,Elena Ikryannikova,Amateur Open,1988-10-26,Russia,58.2,,,,,52.5,57.5,-62.5,57.5,,,,,57.5,60,F,Елена Икрянникова,B
Yes,Raw,1,Viktoriya Glebovskaya,Amateur Teen 13-15,2002-05-29,Russia,65.7,,,,,37.5,40,42.5,42.5,,,,,42.5,67.5,F,Виктория Глебовская,B
Yes,Raw,1,Anastasiya Sidorenko,Amateur Open,1988-03-28,Russia,65,,,,,75,-80,-85,75,,,,,75,67.5,F,Анастасия Сидоренко,B
Yes,Raw,2,Anna Rogaleva,Amateur Open,1982-03-25,Russia,67,,,,,60,65,-67.5,65,,,,,65,67.5,F,Анна Рогалева,B
Yes,Raw,1,Irina Vysotskaya,Amateur Masters 40-44,1970-11-07,Russia,63,,,,,52.5,-55,-55,52.5,,,,,52.5,67.5,F,Ирина Высоцкая,B
Yes,Raw,1,Anastasiya Osipova,Amateur Open,1981-06-15,Russia,81.7,,,,,67.5,-72.5,-72.5,67.5,,,,,67.5,82.5,F,Анастасия Осипова,B
Yes,Raw,1,Aleksey Veshkurtsev,Amateur Open,1981-08-08,Russia,49.6,,,,,85,92.5,-95,92.5,,,,,92.5,52,M,Алексей Вешкурцев,B
Yes,Raw,1,Mikhail Chvanov,Amateur Teen 13-15,2001-11-19,Russia,55.2,,,,,55,65,-72.5,65,,,,,65,56,M,Михаил Чванов,B
Yes,Raw,2,Vladislav Grebe,Amateur Teen 13-15,2002-04-01,Russia,53,,,,,55,-60,-60,55,,,,,55,56,M,Владислав Гребе,B
Yes,Raw,1,Erik Emiryan,Amateur Teen 16-17,1997-11-11,Russia,67.1,,,,,110,120,125,125,,,,,125,67.5,M,Эрик Эмирян,B
Yes,Raw,2,Roman Fedotov,Amateur Teen 16-17,1998-09-18,Russia,67.2,,,,,-97.5,-97.5,97.5,97.5,,,,,97.5,67.5,M,Роман Федотов,B
Yes,Raw,1,Dmitriy Vitko,Amateur Teen 18-19,1997-05-15,Russia,66.9,,,,,97.5,107.5,-110,107.5,,,,,107.5,67.5,M,Дмитрий Витько,B
Yes,Raw,1,Aleksandr Maystrenko,Amateur Juniors 20-23,1991-08-13,Russia,66.7,,,,,-107.5,107.5,-125,107.5,,,,,107.5,67.5,M,Александр Майстренко,B
Yes,Raw,1,Vladimir Ryabinin,Amateur Open,1981-08-09,Russia,65,,,,,87.5,-97.5,97.5,97.5,,,,,97.5,67.5,M,Владимир Рябинин,B
Yes,Raw,1,Igor Mulenko,Amateur Masters 45-49,1966-11-16,Russia,67.1,,,,,115,120,-125,120,,,,,120,67.5,M,Игорь Муленко,B
Yes,Raw,1,Evgeniy Abashev,Amateur Teen 13-15,2000-02-07,Russia,72.8,,,,,65,70,-75,70,,,,,70,75,M,Евгений Абашев,B
Yes,Raw,1,Andrey Bukhantsev,Amateur Teen 16-17,1998-06-02,Russia,68.7,,,,,85,-90,-90,85,,,,,85,75,M,Андрей Буханцев,B
Yes,Raw,1,Grigoriy Kilaberiya,Amateur Teen 18-19,1997-04-28,Russia,71.9,,,,,-85,-90,90,90,,,,,90,75,M,Григорий Килаберия,B
Yes,Raw,1,Viktor Kolomiets,Amateur Juniors 20-23,1991-07-28,Russia,73,,,,,142.5,150,-155,150,,,,,150,75,M,Виктор Коломиец,B
Yes,Raw,1,Alexander Alexandrov,Amateur Open,1979-07-19,Russia,74.6,,,,,175,185,-190,185,,,,,185,75,M,Александр Александров,B
Yes,Raw,2,Dmitriy Dashkov,Amateur Open,1989-04-10,Russia,73.5,,,,,157.5,-165,-165,157.5,,,,,157.5,75,M,Дмитрий Дашков,B
Yes,Raw,3,Artem Vasilev,Amateur Open,1988-11-15,Russia,74.4,,,,,145,150,-155,150,,,,,150,75,M,Артем Васильев,B
Yes,Raw,4,Vladimir Volodin,Amateur Open,1985-04-09,Russia,71.9,,,,,-140,145,-155,145,,,,,145,75,M,Владимир Володин,B
Yes,Raw,5,Khuseyn Ishmatov,Amateur Open,1978-01-08,Russia,74,,,,,135,142.5,-145,142.5,,,,,142.5,75,M,Хусейн Ишматов,B
Yes,Raw,6,Evgeniy Zhivoy,Amateur Open,1979-04-15,Russia,74.1,,,,,140,-150,-150,140,,,,,140,75,M,Евгений Живой,B
Yes,Raw,7,Rafael Tukhvatulin,Amateur Open,1987-06-26,Russia,73.5,,,,,130,-135,135,135,,,,,135,75,M,Рафаэль Тухватулин,B
Yes,Raw,8,Ganbat Shagdarsuren,Amateur Open,1977-06-13,Mongolia,73.9,,,,,130,-140,-152.5,130,,,,,130,75,M,,B
Yes,Raw,9,Aleksandr Martynov,Amateur Open,1985-03-07,Russia,74.4,,,,,117.5,127.5,-135,127.5,,,,,127.5,75,M,Александр Мартынов,B
Yes,Raw,10,Karen Charchyan,Amateur Open,1988-12-22,Russia,73.6,,,,,125,-135,-135,125,,,,,125,75,M,Карен Чарчян,B
Yes,Raw,11,Dmitriy Danilin,Amateur Open,2009-12-04,Russia,70.2,,,,,105,112.5,117.5,117.5,,,,,117.5,75,M,Дмитрий Данилин,B
Yes,Raw,12,Maksim Pogoreltsev,Amateur Open,1985-09-25,Russia,72.7,,,,,-112.5,117.5,-125,117.5,,,,,117.5,75,M,Максим Погорельцев,B
Yes,Raw,13,Mikhail Kurakin,Amateur Open,1981-11-27,Russia,74.1,,,,,105,112.5,-117.5,112.5,,,,,112.5,75,M,Михаил Куракин,B
Yes,Raw,DQ,Dmitriy Gushchin,Amateur Open,1981-01-29,Russia,68.1,,,,,-77.5,-77.5,-77.5,,,,,,,75,M,Дмитрий Гущин,B
Yes,Raw,DQ,Aleksey Veber,Amateur Open,1987-02-11,Russia,75,,,,,-145,-145,-145,,,,,,,75,M,Алексей Вебер,B
Yes,Raw,DQ,Oleg Komarevtsev,Amateur Masters 40-44,1972-06-01,Russia,74,,,,,-105,-105,-105,,,,,,,75,M,Олег Комаревцев,B
Yes,Raw,1,Nikolay Zyabrin,Amateur Masters 60-64,1954-08-10,Russia,74.9,,,,,60,70,-80,70,,,,,70,75,M,Николай Зябрин,B
Yes,Raw,1,Ruslan Itkulov,Amateur Teen 18-19,1996-10-06,Russia,78.9,,,,,135,-155,-155,135,,,,,135,82.5,M,Руслан Иткулов,B
Yes,Raw,2,Fedor Matsura,Amateur Teen 18-19,1995-09-16,Russia,81.1,,,,,115,-127.5,-127.5,115,,,,,115,82.5,M,Федор Мацура,B
Yes,Raw,3,Igor Makushev,Amateur Teen 18-19,1997-02-21,Russia,77,,,,,100,107.5,-110,107.5,,,,,107.5,82.5,M,Игорь Макушев,B
Yes,Raw,1,Dmitriy Koval,Amateur Juniors 20-23,1992-02-04,Russia,80.9,,,,,145,155,157.5,157.5,,,,,157.5,82.5,M,Дмитрий Коваль,B
Yes,Raw,2,Anton Belosvetov,Amateur Juniors 20-23,1995-01-13,Russia,81.9,,,,,135,142.5,-147.5,142.5,,,,,142.5,82.5,M,Антон Белосветов,B
Yes,Raw,3,Roman Ishimov,Amateur Juniors 20-23,1995-02-22,Russia,79.4,,,,,110,115,-120,115,,,,,115,82.5,M,Роман Ишимов,B
Yes,Raw,1,Dmitriy Krivyakin,Amateur Open,1982-01-27,Russia,80.7,,,,,160,167.5,-172.5,167.5,,,,,167.5,82.5,M,Дмитрий Кривякин,B
Yes,Raw,2,Maksim Kurguzov,Amateur Open,1989-07-02,Russia,80.2,,,,,145,155,160,160,,,,,160,82.5,M,Максим Кургузов,B
Yes,Raw,3,Dmitriy Koval,Amateur Open,1992-02-04,Russia,80.9,,,,,145,155,157.5,157.5,,,,,157.5,82.5,M,Дмитрий Коваль,B
Yes,Raw,4,Yuriy Nogay,Amateur Open,1983-05-26,Russia,80.8,,,,,-150,150,-155,150,,,,,150,82.5,M,Юрий Ногай,B
Yes,Raw,6,Denis Prutyan,Amateur Open,1989-11-11,Russia,80,,,,,120,130,-140,130,,,,,130,82.5,M,Денис Прутян,B
Yes,Raw,7,Andrey Kozlyaev,Amateur Open,1989-09-28,Russia,80.1,,,,,120,-127.5,127.5,127.5,,,,,127.5,82.5,M,Андрей Козляев,B
Yes,Raw,1,Leonid Aleksandrov,Amateur Masters 40-44,1971-07-15,Russia,81,,,,,-140,-145,145,145,,,,,145,82.5,M,Леонид Александров,B
Yes,Raw,2,Lev Aseev,Amateur Masters 40-44,1971-09-02,Russia,81.8,,,,,135,-140,-145,135,,,,,135,82.5,M,Лев Асеев,B
Yes,Raw,1,Yuriy Isagulov,Amateur Masters 70-74,1944-01-02,Russia,81.7,,,,,-85,85,-95,85,,,,,85,82.5,M,Юрий Исагулов,B
Yes,Raw,1,Aleksandr Tkachuk,Amateur Masters 75-79,1940-03-19,Russia,78.6,,,,,90,95,100,100,,,,,100,82.5,M,Александр Ткачук,B
Yes,Raw,1,Mikhail Makhnovskiy,Amateur Juniors 20-23,1995-04-24,Russia,85.6,,,,,145,-152.5,-152.5,145,,,,,145,90,M,Михаил Махновский,B
Yes,Raw,2,Sergey Pustovitenko,Amateur Juniors 20-23,1992-07-17,Russia,89.1,,,,,-140,140,-145,140,,,,,140,90,M,Сергей Пустовитенко,B
Yes,Raw,3,Aleksey Sergienko,Amateur Juniors 20-23,1993-05-25,Russia,88.5,,,,,125,132.5,137.5,137.5,,,,,137.5,90,M,Алексей Сергиенко,B
Yes,Raw,4,Aleksandr Maksimov,Amateur Juniors 20-23,1993-03-26,Russia,89,,,,,127.5,132.5,-140,132.5,,,,,132.5,90,M,Александр Максимов,B
Yes,Raw,1,Petr Mikhaylov,Amateur Open,1975-08-24,Russia,89.9,,,,,-192.5,202.5,-205,202.5,,,,,202.5,90,M,Петр Михайлов,B
Yes,Raw,2,Nikolay Berezovskiy,Amateur Open,1987-04-06,Russia,88,,,,,190,195,-197.5,195,,,,,195,90,M,Николай Березовский,B
Yes,Raw,3,Konstantin Zaiko,Amateur Open,1989-04-06,Russia,87.3,,,,,170,175,180,180,,,,,180,90,M,Константин Зайко,B
Yes,Raw,4,Mstislav Vrublevskiy,Amateur Open,1989-10-08,Russia,89.7,,,,,165,172.5,177.5,177.5,,,,,177.5,90,M,Мстислав Врублевский,B
Yes,Raw,5,Konstantin Boev,Amateur Open,1983-10-02,Russia,89,,,,,142.5,152.5,-155,152.5,,,,,152.5,90,M,Константин Боев,B
Yes,Raw,6,Sergey Pustovitenko,Amateur Open,1992-07-17,Russia,89.1,,,,,-140,140,-145,140,,,,,140,90,M,Сергей Пустовитенко,B
Yes,Raw,DQ,Denis Denisenko,Amateur Open,1991-05-22,Russia,90,,,,,-132.5,-132.5,-132.5,,,,,,,90,M,Денис Денисенко,B
Yes,Raw,1,Konstantin Pleshkov,Amateur Masters 40-44,1974-02-23,Russia,88,,,,,140,160,165,165,,,,,165,90,M,Константин Плешков,B
Yes,Raw,DQ,Eduard Dusaev,Amateur Masters 40-44,1972-02-09,Russia,88.7,,,,,-145,-145,-145,,,,,,,90,M,Эдуард Дусаев,B
Yes,Raw,1,Aleksandr Tyulenev,Amateur Masters 45-49,1968-08-26,Russia,89.2,,,,,140,145,-152.5,145,,,,,145,90,M,Александр Тюленев,B
Yes,Raw,1,Anatoliy Pavlenko,Amateur Masters 60-64,1951-05-26,Russia,89.6,,,,,110,-115,-115,110,,,,,110,90,M,Анатолий Павленко,B
Yes,Raw,1,Aleksandr Andrianov,Amateur Masters 70-74,1944-09-04,Russia,86,,,,,120,127.5,132.5,132.5,,,,,132.5,90,M,Александр Андрианов,B
Yes,Raw,1,Aleksey Kovalenko,Amateur Teen 18-19,1996-02-27,Russia,99,,,,,135,140,145,145,,,,,145,100,M,Алексей Коваленко,B
Yes,Raw,1,Fedor Alekseev,Amateur Open,1977-07-07,Russia,100,,,,,180,185,-190,185,,,,,185,100,M,Федор Алексеев,B
Yes,Raw,2,Vladimir Shmidt,Amateur Open,1985-05-06,Russia,98.9,,,,,-175,175,180,180,,,,,180,100,M,Владимир Шмидт,B
Yes,Raw,3,Sergey Kolmychkov,Amateur Open,1976-11-24,Russia,99.9,,,,,165,-175,-177.5,165,,,,,165,100,M,Сергей Колмычков,B
Yes,Raw,4,Sergey Pisklov,Amateur Open,1987-05-21,Russia,99.8,,,,,155,-162.5,-162.5,155,,,,,155,100,M,Сергей Писклов,B
Yes,Raw,1,Aleksandr Gryaznov,Amateur Masters 40-44,1974-06-08,Russia,96.3,,,,,142.5,147.5,152.5,152.5,,,,,152.5,100,M,Александр Грязнов,B
Yes,Raw,2,Igor Andreev,Amateur Masters 40-44,1971-04-26,Russia,96.6,,,,,120,135,147.5,147.5,,,,,147.5,100,M,Игорь Андреев,B
Yes,Raw,3,Aleksandr Feofanov,Amateur Masters 40-44,1972-01-17,Russia,96.8,,,,,142.5,-147.5,-147.5,142.5,,,,,142.5,100,M,Александр Феофанов,B
Yes,Raw,1,Valeriy Verkholantsev,Amateur Masters 60-64,1953-11-24,Russia,98.3,,,,,-115,115,-120,115,,,,,115,100,M,Валерий Верхоланцев,B
Yes,Raw,1,Aleksandr Chevokin,Amateur Open,1984-09-04,Russia,108.2,,,,,195,202.5,207.5,207.5,,,,,207.5,110,M,Александр Чевокин,B
Yes,Raw,2,Evgeniy Antukh,Amateur Open,1972-10-13,Russia,106.9,,,,,165,170,-175,170,,,,,170,110,M,Евгений Антух,B
Yes,Raw,3,Igor Karapuzov,Amateur Open,1962-07-29,Russia,102.5,,,,,157.5,165,167.5,167.5,,,,,167.5,110,M,Игорь Карапузов,B
Yes,Raw,4,Sergey Sharovatov,Amateur Open,1978-02-22,Russia,106.7,,,,,155,160,-167.5,160,,,,,160,110,M,Сергей Шароватов,B
Yes,Raw,1,Evgeniy Antukh,Amateur Masters 40-44,1972-10-13,Russia,106.9,,,,,165,170,-175,170,,,,,170,110,M,Евгений Антух,B
Yes,Raw,1,Igor Karapuzov,Amateur Masters 50-54,1962-07-29,Russia,102.5,,,,,157.5,165,167.5,167.5,,,,,167.5,110,M,Игорь Карапузов,B
Yes,Raw,2,Andrey Mazepa,Amateur Masters 50-54,1964-04-09,Russia,106,,,,,140,147.5,152.5,152.5,,,,,152.5,110,M,Андрей Мазепа,B
Yes,Raw,1,Aleksandr Akaemov,Amateur Masters 55-59,1960-03-05,Russia,110,,,,,160,167.5,-170,167.5,,,,,167.5,110,M,Александр Акаемов,B
Yes,Raw,1,Nikita Arshanin,Amateur Juniors 20-23,1995-03-30,Russia,124.7,,,,,175,182.5,-190,182.5,,,,,182.5,125,M,Никита Аршанин,B
Yes,Raw,1,Konstantin Starodubov,Amateur Open,1982-10-17,Russia,123.8,,,,,175,185,-190,185,,,,,185,125,M,Константин Стародубов,B
Yes,Raw,2,Nikita Arshanin,Amateur Open,1995-03-30,Russia,124.7,,,,,175,182.5,-190,182.5,,,,,182.5,125,M,Никита Аршанин,B
Yes,Raw,3,Andrey Ruban,Amateur Open,1983-09-21,Russia,112,,,,,160,165,-170,165,,,,,165,125,M,Андрей Рубан,B
Yes,Raw,1,Suleyman Musaev,Amateur Masters 40-44,1973-03-10,Russia,121,,,,,170,-177.5,182.5,182.5,,,,,182.5,125,M,Сулейман Мусаев,B
Yes,Raw,2,Evgeniy Chigirov,Amateur Masters 40-44,1974-02-13,Russia,113.4,,,,,160,-165,-165,160,,,,,160,125,M,Евгений Чигиров,B
Yes,Raw,1,Roman Nikishin,Amateur Open,1982-01-19,Russia,126,,,,,175,182.5,-190,182.5,,,,,182.5,140,M,Роман Никишин,B
Yes,Single-ply,1,Anna Isakova,Amateur Open,1988-11-08,Russia,52,,,,,67.5,72.5,75,75,,,,,75,52,F,Анна Исакова,B
Yes,Single-ply,1,Maksim Sergeev,Amateur Juniors 20-23,1992-07-08,Russia,75,,,,,155,162.5,-170,162.5,,,,,162.5,75,M,Максим Сергеев,B
Yes,Single-ply,1,Ganbat Shagdarsuren,Amateur Open,1977-06-13,Mongolia,73.9,,,,,160,-170,170,170,,,,,170,75,M,,B
Yes,Single-ply,2,Sergey Zhuganenko,Amateur Open,1987-02-11,Russia,75,,,,,160,-170,-170,160,,,,,160,75,M,Сергей Жуганенко,B
Yes,Single-ply,1,Vilgelm Kupriyanov,Amateur Teen 16-17,1997-10-08,Russia,80.7,,,,,145,-162.5,-162.5,145,,,,,145,82.5,M,Вильгельм Куприянов,B
Yes,Single-ply,1,Anton Loran,Amateur Juniors 20-23,1992-04-16,Russia,78.9,,,,,130,-140,140,140,,,,,140,82.5,M,Антон Лоран,B
Yes,Single-ply,1,Artem Bykhovets,Amateur Open,1983-07-19,Russia,82,,,,,202.5,215,-223.5,215,,,,,215,82.5,M,Артем Быховец,B
Yes,Single-ply,2,Andrey Tomasik,Amateur Open,1987-12-14,Russia,82.3,,,,,177.5,-187.5,-187.5,177.5,,,,,177.5,82.5,M,Андрей Томасик,B
Yes,Single-ply,DQ,Nikolay Shiman,Amateur Open,1982-12-16,Russia,87.4,,,,,-200,-200,-200,,,,,,,90,M,Николай Шиман,B
Yes,Single-ply,1,Valeriy Verkholantsev,Amateur Masters 60-64,1953-11-24,Russia,98.3,,,,,-135,135,145,145,,,,,145,100,M,Валерий Верхоланцев,B
Yes,Single-ply,1,Evgeniy Chigirov,Amateur Masters 40-44,1974-02-13,Russia,113.3,,,,,-180,190,200,200,,,,,200,125,M,Евгений Чигиров,B
No,Raw,1,Stanislav Sheyko,Pro Open,1989-06-30,Russia,59.7,,,,,55,60,-65,60,,,,,60,60,M,Станислав Шейко,B
No,Raw,1,Vyacheslav Kravtsov,Pro Masters 45-49,1967-04-21,Russia,60,,,,,100,105,107.5,107.5,,,,,107.5,60,M,Вячеслав Кравцов,B
No,Raw,1,Ilya Bautin,Pro Teen 16-17,1998-06-30,Russia,65.2,,,,,85,90,-95,90,,,,,90,67.5,M,Илья Баутин,B
No,Raw,1,Andrey Solodkin,Pro Open,1989-06-30,Russia,68.8,,,,,90,95,100,100,,,,,100,75,M,Андрей Солодкин,B
No,Raw,1,Dmitriy Ivanushkin,Pro Open,1988-06-30,Russia,85.5,,,,,60,70,75,75,,,,,75,90,M,Дмитрий Иванушкин,B
No,Raw,1,Dmitriy Mukhin,Pro Open,1988-06-30,Russia,91,,,,,85,90,-95,90,,,,,90,100,M,Дмитрий Мухин,B
No,Raw,1,Maksim Chistyakov,Pro Open,1989-06-30,Russia,107,,,,,65,75,-80,75,,,,,75,110,M,Максим Чистяков,B
No,Raw,1,Igor Pelikh,Pro Masters 40-44,1972-06-30,Russia,111,,,,,90,-95,95,95,,,,,95,125,M,Игорь Пелих,B
No,Multi-ply,1,Dmitriy Savchenko,Pro Open,1981-08-03,Russia,83.4,,,,,170,180,-190,180,,,,,180,90,M,Дмитрий Савченко,B
No,Multi-ply,DQ,Dmitriy Ovcharov,Pro Open,1989-06-04,Russia,90,,,,,-270,-270,-270,,,,,,,90,M,Дмитрий Овчаров,B
No,Multi-ply,1,Aleksandr Ivanov,Pro Open,1976-04-10,Russia,108.8,,,,,290,300,310,310,,,,,310,110,M,Александр Иванов,B
No,Multi-ply,1,Viktor Klimov,Pro Open,1975-03-10,Russia,116.5,,,,,330,-340,-340,330,,,,,330,125,M,Виктор Климов,B
No,Multi-ply,1,Viktor Klimov,Pro Masters 40-44,1975-03-10,Russia,116.5,,,,,330,-340,-340,330,,,,,330,125,M,Виктор Климов,B
No,Raw,1,Anastasiya Kozhemyako,Pro Open,1991-03-09,Russia,56,,,,,65,70,-72.5,70,,,,,70,56,F,Анастасия Кожемяко,B
No,Raw,1,Mariya Sotnikova,Pro Open,1986-11-30,Russia,75,,,,,80,-85,85,85,,,,,85,75,F,Мария Сотникова,B
No,Raw,2,Olesya Demidova,Pro Open,1977-09-15,Russia,72.2,,,,,70,75,80,80,,,,,80,75,F,Олеся Демидова,B
No,Raw,1,Evgeniy Sinko,Pro Open,1981-10-07,Russia,67,,,,,145,155,-165,155,,,,,155,67.5,M,Евгений Синько,B
No,Raw,DQ,Eduard Kichigin,Pro Open,1991-01-29,Russia,65.7,,,,,-125,,,,,,,,,67.5,M,Эдуард Кичигин,B
No,Raw,1,Yuriy Vikhorev,Pro Masters 65-69,1950-06-28,Russia,65.9,,,,,-85,-90,90,90,,,,,90,67.5,M,Юрий Вихорев,B
No,Raw,1,Konstantin Semenov,Pro Open,1964-08-24,Russia,73.8,,,,,122.5,127.5,,127.5,,,,,127.5,75,M,Константин Семенов,B
No,Raw,1,Konstantin Semenov,Pro Masters 50-54,1964-08-24,Russia,73.8,,,,,122.5,127.5,,127.5,,,,,127.5,75,M,Константин Семенов,B
No,Raw,1,Sergey Kashtanov,Pro Masters 55-59,1958-06-27,Russia,74.4,,,,,110,120,-125,120,,,,,120,75,M,Сергей Каштанов,B
No,Raw,1,Vadim Guseynov,Pro Juniors 20-23,1993-03-05,Russia,81.4,,,,,160,165,170,170,,,,,170,82.5,M,Вадим Гусейнов,B
No,Raw,2,Kemran Shabanov,Pro Juniors 20-23,1991-07-13,Russia,82.5,,,,,-130,-130,130,130,,,,,130,82.5,M,Кемран Шабанов,B
No,Raw,1,Innokentiy Sidorenko,Pro Open,1989-03-23,Russia,82.5,,,,,180,-190,-192.5,180,,,,,180,82.5,M,Иннокентий Сидоренко,B
No,Raw,2,Viktor Sevostyanov,Pro Open,1983-11-06,Russia,81.6,,,,,155,-165,-170,155,,,,,155,82.5,M,Виктор Севостьянов,B
No,Raw,1,Aleksey Korobov,Pro Masters 55-59,1959-03-21,Russia,81.5,,,,,120,130,-140,130,,,,,130,82.5,M,Алексей Коробов,B
No,Raw,1,Daniil Semenov,Pro Teen 18-19,1996-10-21,Russia,85.1,,,,,165,175,-182.5,175,,,,,175,90,M,Даниил Семенов,B
No,Raw,1,Leonid Sofeykov,Pro Juniors 20-23,1994-10-21,Russia,90,,,,,120,-125,125,125,,,,,125,90,M,Леонид Софейков,B
No,Raw,1,Yevgeniy Beloval,Pro Open,1991-12-06,Russia,88.4,,,,,220,225,230,230,,,,,230,90,M,Евгений Беловал,B
No,Raw,2,Roman Gilev,Pro Open,1987-10-24,Russia,87.1,,,,,195,-202.5,-202.5,195,,,,,195,90,M,Роман Гилев,B
No,Raw,3,Sergey Panin,Pro Open,1975-06-18,Russia,88.3,,,,,175,180,185,185,,,,,185,90,M,Сергей Панин,B
No,Raw,4,Roman Vlasenko,Pro Open,1988-06-23,Russia,90,,,,,-170,-180,180,180,,,,,180,90,M,Роман Власенко,B
No,Raw,DQ,Artem Kotlov,Pro Open,1982-10-14,Russia,88,,,,,-80,,,,,,,,,90,M,Артем Котлов,B
No,Raw,DQ,Mikhail Mesecha,Pro Open,1985-03-22,Russia,88.6,,,,,-180,-180,-180,,,,,,,90,M,Михаил Месеча,B
No,Raw,1,Sergey Panin,Pro Masters 40-44,1975-06-18,Russia,88.3,,,,,175,180,185,185,,,,,185,90,M,Сергей Панин,B
No,Raw,1,Nikolay Bachurin,Pro Masters 65-69,1948-10-25,Russia,88.9,,,,,135,140,145,145,,,,,145,90,M,Николай Бачурин,B
No,Raw,1,Denis Romanov,Pro Juniors 20-23,1994-04-24,Russia,98.6,,,,,200,210,215,215,,,,,215,100,M,Денис Романов,B
No,Raw,2,Stanislav Chumin,Pro Juniors 20-23,1992-12-07,Russia,94,,,,,180,190,-200,190,,,,,190,100,M,Станислав Чумин,B
No,Raw,3,Roman Gavrilenko,Pro Juniors 20-23,1993-06-24,Russia,99.1,,,,,140,150,155,155,,,,,155,100,M,Роман Гавриленко,B
No,Raw,4,Renat Loginov,Pro Juniors 20-23,1992-08-14,Russia,98,,,,,150,-160,-160,150,,,,,150,100,M,Ренат Логинов,B
No,Raw,1,Maksim Berlizov,Pro Open,1991-03-26,Russia,96.3,,,,,180,190,-200,190,,,,,190,100,M,Максим Берлизов,B
No,Raw,2,Aleksandr Dukhinskiy,Pro Open,1982-11-29,Russia,98,,,,,190,-195,,190,,,,,190,100,M,Александр Духинский,B
No,Raw,3,Vadim Zharov,Pro Open,1986-09-16,Russia,99,,,,,170,180,-190,180,,,,,180,100,M,Вадим Жаров,B
No,Raw,4,Dmitriy Anurov,Pro Open,1980-07-09,Russia,96,,,,,155,162.5,167.5,167.5,,,,,167.5,100,M,Дмитрий Ануров,B
No,Raw,DQ,Denis Gulakov,Pro Open,1983-12-24,Russia,95,,,,,-190,-190,-190,,,,,,,100,M,Денис Гулаков,B
No,Raw,1,Vasiliy Synkov,Pro Masters 40-44,1972-09-07,Russia,99,,,,,200,215,-230,215,,,,,215,100,M,Василий Сынков,B
No,Raw,1,Oleg Luppov,Pro Masters 45-49,1968-10-20,Russia,99,,,,,150,157.5,165,165,,,,,165,100,M,Олег Луппов,B
No,Raw,2,Oleg Bidnyuk,Pro Masters 45-49,1970-04-27,Russia,98.3,,,,,140,-150,-150,140,,,,,140,100,M,Олег Биднюк,B
No,Raw,1,Vyacheslav Trunaev,Pro Masters 50-54,1963-03-23,Russia,99.8,,,,,182.5,-190,-190,182.5,,,,,182.5,100,M,Вячеслав Трунаев,B
No,Raw,1,Vladimir Vizgin,Pro Masters 60-64,1952-04-25,Russia,94.7,,,,,145,152.5,160,160,,,,,160,100,M,Владимир Визгин,B
No,Raw,DQ,Vladimir Vnuchin,Pro Masters 60-64,1952-04-25,Russia,97.2,,,,,-145,,,,,,,,,100,M,Владимир Внучин,B
No,Raw,1,Evgeniy Zenin,Pro Open,1991-02-02,Russia,109,,,,,175,185,197.5,197.5,,,,,197.5,110,M,Евгений Зенин,B
No,Raw,2,Aleksandr Goloyukhov,Pro Open,1988-05-13,Russia,102.8,,,,,165,170,-180,170,,,,,170,110,M,Александр Голоюхов,B
No,Raw,1,Aleksey Karpushkin,Pro Masters 45-49,1970-01-12,Russia,106.9,,,,,140,150,-160,150,,,,,150,110,M,Алексей Карпушкин,B
No,Raw,1,Yuriy Redkin,Pro Masters 50-54,1963-11-07,Russia,108.9,,,,,125,135,-140,135,,,,,135,110,M,Юрий Редькин,B
No,Raw,DQ,Sergey Blokh,Pro Open,1973-04-19,Russia,117.4,,,,,-220,-220,-220,,,,,,,125,M,Сергей Блох,B
No,Raw,DQ,Sergey Blokh,Pro Masters 40-44,1973-04-19,Russia,117.4,,,,,-220,-220,-220,,,,,,,125,M,Сергей Блох,B
No,Raw,1,Nikolay Boykov,Pro Masters 45-49,1969-12-17,Russia,116.3,,,,,220,-225,,220,,,,,220,125,M,Николай Бойков,B
No,Raw,1,Sergey Grebenkin,Pro Masters 40-44,1973-12-04,Russia,126,,,,,200,215,-230,215,,,,,215,140,M,Сергей Гребенкин,B
No,Single-ply,1,Evgeniy Sinko,Pro Open,1981-10-07,Russia,67,,,,,165,180,-190,180,,,,,180,67.5,M,Евгений Синько,B
No,Single-ply,1,Vyacheslav Makarov,Pro Masters 40-44,1974-05-17,Russia,75,,,,,140,150,-160,150,,,,,150,75,M,Вячеслав Макаров,B
No,Single-ply,1,Semen Pshenichnikov,Pro Juniors 20-23,1991-07-04,Russia,82.3,,,,,210,-220,-220,210,,,,,210,82.5,M,Семен Пшеничников,B
No,Single-ply,1,Semen Pshenichnikov,Pro Open,1991-07-04,Russia,82.3,,,,,210,-220,-220,210,,,,,210,82.5,M,Семен Пшеничников,B
No,Single-ply,2,Egor Pavelyev,Pro Open,1991-09-09,Russia,82.4,,,,,-190,190,200,200,,,,,200,82.5,M,Егор Павельев,B
No,Single-ply,3,Kirill Duplinskiy,Pro Open,1987-08-31,Russia,81.6,,,,,180,190,192.5,192.5,,,,,192.5,82.5,M,Кирилл Дуплинский,B
No,Single-ply,4,Daniil Ogly,Pro Open,1991-05-29,Russia,79.6,,,,,140,-145,150,150,,,,,150,82.5,M,Даниил Оглы,B
No,Single-ply,1,Imil Mazhitov,Pro Juniors 20-23,1993-06-06,Russia,90,,,,,-205,205,215,215,,,,,215,90,M,Имиль Мажитов,B
No,Single-ply,DQ,Evgeniy Kotukhov,Pro Open,1984-09-24,Russia,88.6,,,,,-235,-235,-235,,,,,,,90,M,Евгений Котухов,B
No,Single-ply,1,Vasiliy Synkov,Pro Open,1972-09-07,Russia,99,,,,,-280,280,-292.5,280,,,,,280,100,M,Василий Сынков,B
No,Single-ply,2,Artem Azaryan,Pro Open,1990-10-13,Russia,94,,,,,165,-172.5,172.5,172.5,,,,,172.5,100,M,Артем Азарян,B
Yes,Multi-ply,1,Petr Zolotuev,Amateur Open,1992-08-01,Russia,73.9,,,,,,,,,210,225,-245,225,225,75,M,Петр Золотуев,D
Yes,Multi-ply,1,Evgeniy Kholzakov,Amateur Open,1992-11-27,Russia,81,,,,,,,,,245,257.5,-260,257.5,257.5,82.5,M,Евгений Холзаков,D
Yes,Multi-ply,1,Vladimir Matsievskiy,Amateur Open,1989-09-25,Russia,99.1,,,,,,,,,-230,230,255,255,255,100,M,Владимир Мациевский,D
Yes,Raw,1,Viktoriya Sharovatova,Amateur Teen 13-15,2000-04-13,Russia,45.5,,,,,,,,,70,80,,80,80,48,F,Виктория Шароватова,D
Yes,Raw,1,Ulyana Rodikova,Amateur Open,1987-12-24,Russia,47.7,,,,,,,,,107.5,,,107.5,107.5,48,F,Ульяна Родикова,D
Yes,Raw,1,Galina Elchina,Amateur Masters 45-49,1968-06-08,Russia,47.7,,,,,,,,,90,-100,-100,90,90,48,F,Галина Ельчина,D
Yes,Raw,1,Olga Sysueva,Amateur Teen 18-19,1995-12-06,Russia,52,,,,,,,,,110,115,122.5,122.5,122.5,52,F,Ольга Сысуева,D
Yes,Raw,1,Larisa Chernobaeva,Amateur Open,1980-12-22,Russia,51.6,,,,,,,,,120,132.5,,132.5,132.5,52,F,Лариса Чернобаева,D
Yes,Raw,2,Natalya Klimenko,Amateur Open,1985-05-25,Russia,51,,,,,,,,,80,90,100,100,100,52,F,Наталья Клименко,D
Yes,Raw,1,Alena Burbakh,Amateur Open,1985-06-09,Russia,53.2,,,,,,,,,85,92.5,97.5,97.5,97.5,56,F,Алена Бурбах,D
Yes,Raw,1,Polina Ivanova,Amateur Open,1986-09-27,Russia,59,,,,,,,,,132.5,145,-150,145,145,60,F,Полина Иванова,D
Yes,Raw,2,Elena Kamalova,Amateur Open,1990-10-29,Russia,59.5,,,,,,,,,105,115,-127.5,115,115,60,F,Елена Камалова,D
Yes,Raw,1,Anna Rapoport,Amateur Open,1971-10-07,Russia,66.9,,,,,,,,,125,135,,135,135,67.5,F,Анна Рапопорт,D
Yes,Raw,1,Anna Rapoport,Amateur Masters 40-44,1971-10-07,Russia,66.9,,,,,,,,,125,135,,135,135,67.5,F,Анна Рапопорт,D
Yes,Raw,1,Anna Chigareva,Amateur Masters 40-44,1974-06-27,Russia,98.2,,,,,,,,,160,170,-180,170,170,90+,F,Анна Чигарева,D
Yes,Raw,1,Aleksey Veshkurtsev,Amateur Open,1981-08-08,Russia,49.6,,,,,,,,,152.5,160,-165,160,160,52,M,Алексей Вешкурцев,D
Yes,Raw,1,Vladislav Grebe,Amateur Teen 13-15,2002-04-01,Russia,53,,,,,,,,,90,100,110,110,110,56,M,Владислав Гребе,D
Yes,Raw,1,Ivan Solovyev,Amateur Teen 16-17,1998-08-09,Russia,67.2,,,,,,,,,135,145,-150,145,145,67.5,M,Иван Соловьев,D
Yes,Raw,1,Andrey Kolbin,Amateur Open,1984-07-22,Russia,65.9,,,,,,,,,-157.5,172.5,-180,172.5,172.5,67.5,M,Андрей Колбин,D
Yes,Raw,2,Aleksey Yarotskiy,Amateur Open,1987-07-27,Russia,66,,,,,,,,,150,160,165,165,165,67.5,M,Алексей Яроцкий,D
Yes,Raw,1,Aleksandr Dambinov,Amateur Masters 75-79,1936-03-12,Russia,62.2,,,,,,,,,140,150,-152.5,150,150,67.5,M,Александр Дамбинов,D
Yes,Raw,1,Nikolay Protsenko,Amateur Teen 16-17,1998-12-04,Russia,73,,,,,,,,,185,-202.5,-202.5,185,185,75,M,Николай Проценко,D
Yes,Raw,1,Leonid Kolpakov,Amateur Teen 16-17,1997-10-22,Russia,79.9,,,,,,,,,195,215,-245,215,215,82.5,M,Леонид Колпаков,D
Yes,Raw,1,Armen Sarkisyan,Amateur Open,1991-05-19,Russia,81.3,,,,,,,,,215,230,-245,230,230,82.5,M,Армен Саркисян,D
Yes,Raw,2,Andrey Arsenov,Amateur Open,1956-08-14,Russia,80.7,,,,,,,,,202.5,-215,-215,202.5,202.5,82.5,M,Андрей Арсенов,D
Yes,Raw,3,Zakhar Permyakov,Amateur Open,1987-02-14,Russia,81.7,,,,,,,,,160,175,185,185,185,82.5,M,Захар Пермяков,D
Yes,Raw,1,Sergey Gorn,Amateur Masters 40-44,1971-01-12,Russia,81.7,,,,,,,,,160,180,-185,180,180,82.5,M,Сергей Горн,D
Yes,Raw,1,Andrey Arsenov,Amateur Masters 55-59,1956-08-14,Russia,80.7,,,,,,,,,202.5,-215,-215,202.5,202.5,82.5,M,Андрей Арсенов,D
Yes,Raw,1,Aleksey Slepokurov,Amateur Open,1980-12-03,Russia,88.7,,,,,,,,,200,222.5,-230,222.5,222.5,90,M,Алексей Слепокуров,D
Yes,Raw,1,Vyacheslav Nikolaev,Amateur Masters 55-59,1956-07-10,Russia,89,,,,,,,,,185,195,-200,195,195,90,M,Вячеслав Николаев,D
Yes,Raw,1,Aleksandr Mikhaylovskiy,Amateur Teen 16-17,1999-01-08,Russia,98.5,,,,,,,,,177.5,190,202.5,202.5,202.5,100,M,Александр Михайловский,D
Yes,Raw,1,Sergey Karelin,Amateur Open,1959-08-09,Russia,108.4,,,,,,,,,220,-240,-240,220,220,110,M,Сергей Карелин,D
Yes,Raw,2,Aleksandr Shabalovskiy,Amateur Open,1987-03-15,Russia,107.3,,,,,,,,,185,195,207.5,207.5,207.5,110,M,Александр Шабаловский,D
Yes,Raw,3,Sergey Sharovatov,Amateur Open,1978-02-22,Russia,106.7,,,,,,,,,200,-220,,200,200,110,M,Сергей Шароватов,D
Yes,Raw,1,Sergey Karelin,Amateur Masters 55-59,1959-08-09,Russia,108.4,,,,,,,,,220,-240,-240,220,220,110,M,Сергей Карелин,D
Yes,Raw,1,Vladimir Polivanov,Amateur Open,1963-01-20,Russia,118,,,,,,,,,230,245,-260,245,245,125,M,Владимир Поливанов,D
Yes,Raw,1,Vladimir Polivanov,Amateur Masters 50-54,1963-01-20,Russia,118,,,,,,,,,230,245,-260,245,245,125,M,Владимир Поливанов,D
Yes,Raw,1,Mikhail Kagala,Amateur Masters 40-44,1973-11-25,Russia,136.5,,,,,,,,,230,255,-260,255,255,140,M,Михаил Кагала,D
No,Multi-ply,1,Oleg Solonenko,Pro Open,1970-09-26,Russia,74.1,,,,,,,,,210,220,230,230,230,75,M,Олег Солоненко,D
No,Multi-ply,1,Oleg Solonenko,Pro Masters 40-44,1970-09-26,Russia,74.1,,,,,,,,,210,220,230,230,230,75,M,Олег Солоненко,D
No,Multi-ply,1,Aleksey Kolesnikov,Pro Open,1986-08-29,Russia,79.6,,,,,,,,,225,240,250,250,250,82.5,M,Алексей Колесников,D
No,Multi-ply,1,Timofey Polscha,Pro Masters 40-44,1975-02-07,Russia,82.3,,,,,,,,,260,280,290,290,290,82.5,M,Тимофей Польща,D
No,Multi-ply,1,Vladimir Luschay,Pro Masters 40-44,1975-02-03,Russia,85.2,,,,,,,,,270,-290,-290,270,270,90,M,Владимир Лущай,D
No,Raw,1,Larisa Krikun,Pro Open,1974-10-13,Russia,59.8,,,,,,,,,95,105,-120,105,105,60,F,Лариса Крикун,D
No,Raw,1,Yuliya Makhova,Pro Open,1986-07-26,Russia,106.3,,,,,,,,,85,-95,100,100,100,90+,F,Юлия Махова,D
No,Raw,1,Konstantin Semenov,Pro Open,1964-08-24,Russia,73.8,,,,,,,,,205,215,222.5,222.5,222.5,75,M,Константин Семенов,D
No,Raw,1,Konstantin Semenov,Pro Masters 50-54,1964-08-24,Russia,73.8,,,,,,,,,205,215,222.5,222.5,222.5,75,M,Константин Семенов,D
No,Raw,1,Artem Suvorov,Pro Open,1983-11-09,Russia,82.5,,,,,,,,,250,270,285,285,285,82.5,M,Артем Суворов,D
No,Raw,2,Sergey Filippov,Pro Open,1978-09-27,Russia,80.9,,,,,,,,,140,160,180,180,180,82.5,M,Сергей Филиппов,D
No,Raw,1,Mikhail Chernyaev,Pro Masters 40-44,1975-05-09,Russia,79.4,,,,,,,,,190,205,225,225,225,82.5,M,Михаил Черняев,D
No,Raw,1,Svyatoslav Gaprindashvili,Pro Open,1987-12-22,Russia,96.2,,,,,,,,,180,200,220,220,220,100,M,Святослав Гаприндашвили,D
No,Raw,1,Andrey Belykh,Pro Juniors 20-23,1993-09-06,Russia,102.4,,,,,,,,,350,-370,-370,350,350,110,M,Андрей Белых,D
No,Raw,1,Andrey Belykh,Pro Open,1993-09-06,Russia,102.4,,,,,,,,,350,-370,-370,350,350,110,M,Андрей Белых,D
No,Raw,2,Kirill Kharin,Pro Open,1977-03-27,Russia,109.6,,,,,,,,,247.5,260,,260,260,110,M,Кирилл Харин,D
No,Raw,1,Anton Bardin,Pro Open,1990-11-17,Russia,125,,,,,,,,,340,350,-360,350,350,125,M,Антон Бардин,D
