Place,Name,Tested,Division,BirthYear,Country,BodyweightKg,Bench1Kg,Bench2Kg,Bench3Kg,Best3BenchKg,Bench4Kg,WeightClassKg,Sex,CyrillicName,Equipment,Event,TotalKg,Squat1Kg,Squat2Kg,Squat3Kg,Best3SquatKg,Deadlift1Kg,Deadlift2Kg,Deadlift3Kg,Best3DeadliftKg,Deadlift4Kg
1,Anastasiya Khodakova,Yes,T1,2000,Russia,44,,,35,35,,44,F,Анастасия Ходакова,Raw,B,35,,,,,,,,,
1,Svetlana Mikhaylova,Yes,J,1990,Russia,44,42.5,45,-47.5,45,,44,F,Светлана Михайлова,Raw,B,45,,,,,,,,,
1,Elena Geyko,Yes,T2,1997,Russia,51.05,40,-45,-47.5,40,,52,F,Елена Гейко,Raw,B,40,,,,,,,,,
1,Vera Karmolina,Yes,O,1975,Russia,48.5,57.5,60,62.5,62.5,65,52,F,Вера Кармолина,Raw,B,62.5,,,,,,,,,
2,Olga Korabelnikova,Yes,O,1985,Russia,48.95,50,52.5,-55,52.5,,52,F,Ольга Корабельникова,Raw,B,52.5,,,,,,,,,
1,Natalya Zorina,Yes,O,1970,Russia,55.5,62.5,65,67.5,67.5,,56,F,Наталья Зорина,Raw,B,67.5,,,,,,,,,
1,Nadezhda Yablonskaya,Yes,O,1979,Russia,58.2,55,-57.5,-57.5,55,,60,F,Надежда Яблонская,Raw,B,55,,,,,,,,,
1,Elena Mazavina,Yes,O,1979,Russia,64.2,75,77.5,-80,77.5,,67.5,F,Елена Мазавина,Raw,B,77.5,,,,,,,,,
1,Darya Iospa,Yes,T2,1997,Russia,68.2,45,50,55,55,,75,F,Дарья Иоспа,Raw,B,55,,,,,,,,,
1,Anna Zemlyakova,Yes,O,1987,Russia,73.75,67.5,-72.5,-72.5,67.5,,75,F,Анна Землякова,Raw,B,67.5,,,,,,,,,
2,Marina Sinotova,Yes,O,1988,Russia,68,60,-62.5,-67.5,60,,75,F,Марина Синотова,Raw,B,60,,,,,,,,,
1,Mariya Murashevskaya,Yes,O,1986,Russia,113.8,40,45,50,50,,90+,F,Мария Мурашевская,Raw,B,50,,,,,,,,,
1,Roman Bokov,Yes,T3,1995,Russia,43.2,55,60,62.5,62.5,,52,M,Роман Боков,Raw,B,62.5,,,,,,,,,
1,Pavel Bezuglyy,Yes,J,1990,Russia,50.6,75,80,85,85,,52,M,Павел Безуглый,Raw,B,85,,,,,,,,,
1,Vladislav Schetinkin,Yes,T2,1997,Russia,54.3,-90,90,-95,90,,56,M,Владислав Щетинкин,Raw,B,90,,,,,,,,,
1,Aleksandr Madaev,Yes,O,1984,Russia,58.8,95,100,-105,100,,60,M,Александр Мадаев,Raw,B,100,,,,,,,,,
1,Oleg Dvoynikov,Yes,M2,1960,Russia,60,90,95,97.5,97.5,,60,M,Олег Двойников,Raw,B,97.5,,,,,,,,,
1,Marat Aleev,Yes,PFM,1974,Russia,58.3,100,-105,105,105,,60,M,Марат Алеев,Raw,B,105,,,,,,,,,
DQ,Nikita Bobrov,Yes,T3,1994,Russia,63.7,-95,-95,-95,,,67.5,M,Никита Бобров,Raw,B,,,,,,,,,,
DQ,Georgiy Tsarin,Yes,T3,1995,Russia,67.2,-110,-110,-112.5,,,67.5,M,Георгий Царин,Raw,B,,,,,,,,,,
1,Konstantin Selivanov,Yes,J,1992,Russia,66.5,110,115,120,120,,67.5,M,Константин Селиванов,Raw,B,120,,,,,,,,,
2,Yuliy Pavlov,Yes,J,1993,Russia,66.8,100,105,-107.5,105,,67.5,M,Юлий Павлов,Raw,B,105,,,,,,,,,
1,Mikhail Sizov,Yes,O,1989,Russia,67.2,125,132.5,140,140,,67.5,M,Михаил Сизов,Raw,B,140,,,,,,,,,
2,Rinat Kurmanaev,Yes,O,1988,Russia,66.3,-120,122.5,125,125,,67.5,M,Ринат Курманаев,Raw,B,125,,,,,,,,,
3,Sergey Burobin,Yes,O,1989,Russia,64.1,-120,-122.5,122.5,122.5,,67.5,M,Сергей Буробин,Raw,B,122.5,,,,,,,,,
1,Viktor Kvyatkovskiy,Yes,M1,1971,Russia,66.9,127.5,130,-132.5,130,,67.5,M,Виктор Квятковский,Raw,B,130,,,,,,,,,
1,Artur Sagadaev,Yes,PFM,1990,Russia,62.2,-100,105,-115,105,,67.5,M,Артур Сагадаев,Raw,B,105,,,,,,,,,
2,Gleb Nikanov,Yes,PFM,1990,Russia,66.8,105,-110,-110,105,,67.5,M,Глеб Никанов,Raw,B,105,,,,,,,,,
1,Ivan Shtoda,Yes,T2,1997,Russia,73.9,95,102.5,110,110,,75,M,Иван Штода,Raw,B,110,,,,,,,,,
1,Dmitriy Dzhus,Yes,T3,1995,Russia,73.5,115,-125,125,125,,75,M,Дмитрий Джус,Raw,B,125,,,,,,,,,
2,Dmitriy Unik,Yes,T3,1994,Russia,74.7,-120,125,-130,125,,75,M,Дмитрий Уник,Raw,B,125,,,,,,,,,
1,Ilya Varshavskiy,Yes,J,1991,Russia,72.75,155,157.5,-160,157.5,,75,M,Илья Варшавский,Raw,B,157.5,,,,,,,,,
1,Dmitriy Borobov,Yes,O,1986,Russia,70.8,130,-132.5,-132.5,130,,75,M,Дмитрий Боробов,Raw,B,130,,,,,,,,,
DQ,Mikhail Vyatkin,Yes,O,1987,Russia,74.3,-120,-120,-125,,,75,M,Михаил Вяткин,Raw,B,,,,,,,,,,
1,Aleksey Klochko,Yes,PFM,1986,Russia,74.8,125,-130,-130,125,,75,M,Алексей Клочко,Raw,B,125,,,,,,,,,
2,Oleg Gatilov,Yes,PFM,1991,Russia,75,-120,122.5,125,125,,75,M,Олег Гатилов,Raw,B,125,,,,,,,,,
3,Vyacheslav Makarov,Yes,PFM,1975,Russia,71.9,-110,110,-125,110,,75,M,Вячеслав Макаров,Raw,B,110,,,,,,,,,
1,Pavel Frolov,Yes,T2,1997,Russia,80.5,-135,135,140,140,,82.5,M,Павел Фролов,Raw,B,140,,,,,,,,,
1,Zamil Valeev,Yes,T3,1994,Russia,76.9,122,-127.5,-127.5,122,,82.5,M,Замиль Валеев,Raw,B,122,,,,,,,,,
2,Ruben Kazaryan,Yes,T3,1995,Russia,77.15,110,115,-117.5,115,,82.5,M,Рубен Казарян,Raw,B,115,,,,,,,,,
1,Evgeniy Zhitomirskiy,Yes,J,1992,Russia,80.45,167.5,172.5,-175,172.5,,82.5,M,Евгений Житомирский,Raw,B,172.5,,,,,,,,,
2,Evgeniy Korotonozhkin,Yes,J,1991,Russia,82.2,-145,145,147.5,147.5,,82.5,M,Евгений Коротоножкин,Raw,B,147.5,,,,,,,,,
3,Andrey Shashin,Yes,J,1993,Russia,82,145,-155,-155,145,,82.5,M,Андрей Шашин,Raw,B,145,,,,,,,,,
4,Aleksandr Gontarenko,Yes,J,1990,Russia,75.1,-140,-140,142.5,142.5,,82.5,M,Александр Гонтаренко,Raw,B,142.5,,,,,,,,,
5,Yuriy Rodinovskiy,Yes,J,1990,Russia,81.6,127.5,132.5,-137.5,132.5,,82.5,M,Юрий Родиновский,Raw,B,132.5,,,,,,,,,
6,Ivan Grigoryev,Yes,J,1990,Russia,78.4,130,-135,-135,130,,82.5,M,Иван Григорьев,Raw,B,130,,,,,,,,,
7,Ilya Shikov,Yes,J,1990,Russia,81.2,127.5,-132.5,-132.5,127.5,,82.5,M,Илья Шиков,Raw,B,127.5,,,,,,,,,
8,Razhden Kvaratskheliya,Yes,J,1993,Russia,82.25,-102.5,115,120,120,,82.5,M,Ражден Кварацхелия,Raw,B,120,,,,,,,,,
1,Ilya Pankratov,Yes,O,1986,Russia,81.3,195,200,202.5,202.5,205,82.5,M,Илья Панкратов,Raw,B,202.5,,,,,,,,,
2,Roman Malysh,Yes,O,1975,Russia,82.4,155,-160,-160,155,,82.5,M,Роман Малыш,Raw,B,155,,,,,,,,,
3,Ilya Boykov,Yes,O,1988,Russia,81.15,132.5,-145,-145,132.5,,82.5,M,Илья Бойков,Raw,B,132.5,,,,,,,,,
4,Aleksandr Fedorchuk,Yes,O,1987,Russia,80.8,-130,130,-132.5,130,,82.5,M,Александр Федорчук,Raw,B,130,,,,,,,,,
5,Aleksandr Bereznev,Yes,O,1984,Russia,80.9,115,-122.5,122.5,122.5,,82.5,M,Александр Березнев,Raw,B,122.5,,,,,,,,,
DQ,Valentin Skokin,Yes,O,1987,Russia,81.3,-115,-115,-120,,,82.5,M,Валентин Скокин,Raw,B,,,,,,,,,,
DQ,Sergey Korolev,Yes,O,1972,Russia,82.2,-140,-140,-140,,,82.5,M,Сергей Королев,Raw,B,,,,,,,,,,
1,Aleksey Dyachenko,Yes,M1,1973,Russia,80.5,-150,150,-152.5,150,,82.5,M,Алексей Дьяченко,Raw,B,150,,,,,,,,,
2,Pavel Zhirnov,Yes,M1,1971,Russia,81.95,137.5,142.5,145,145,,82.5,M,Павел Жирнов,Raw,B,145,,,,,,,,,
1,Anatoliy Shpikin,Yes,M2,1959,Russia,80.4,95,100,-102.5,100,,82.5,M,Анатолий Шпикин,Raw,B,100,,,,,,,,,
1,Sergey Sivak,Yes,PFM,1979,Russia,79.6,140,145,150,150,,82.5,M,Сергей Сивак,Raw,B,150,,,,,,,,,
2,Aleksey Simutkin,Yes,PFM,1986,Russia,79.3,-140,140,-145,140,,82.5,M,Алексей Симуткин,Raw,B,140,,,,,,,,,
1,Stanislav Nagibin,Yes,T2,1996,Russia,88.1,115,125,140,140,,90,M,Станислав Нагибин,Raw,B,140,,,,,,,,,
1,Aleksey Tarasov,Yes,T3,1994,Russia,88.6,-135,-135,145,145,,90,M,Алексей Тарасов,Raw,B,145,,,,,,,,,
1,Artem Logunov,Yes,J,1991,Russia,88.5,185,-195,-195,185,,90,M,Артем Логунов,Raw,B,185,,,,,,,,,
2,Artur Gurov,Yes,J,1991,Russia,88.1,-150,150,155,155,,90,M,Артур Гуров,Raw,B,155,,,,,,,,,
3,Aleksey Kryukov,Yes,J,1991,Russia,89.5,137.5,145,-150,145,,90,M,Алексей Крюков,Raw,B,145,,,,,,,,,
4,Denis Khitrin,Yes,J,1993,Russia,88.5,-132.5,132.5,-135,132.5,,90,M,Денис Хитрин,Raw,B,132.5,,,,,,,,,
1,Mikhail Saltanov,Yes,O,1981,Russia,89.5,165,-175,-175,165,,90,M,Михаил Салтанов,Raw,B,165,,,,,,,,,
2,Sergey Vorontsov,Yes,O,1983,Russia,88.6,155,-162.5,162.5,162.5,,90,M,Сергей Воронцов,Raw,B,162.5,,,,,,,,,
3,Maksim Fedoryuk,Yes,O,1984,Russia,89.6,150,160,-170,160,,90,M,Максим Федорюк,Raw,B,160,,,,,,,,,
4,Vladimir Pospelov,Yes,O,1988,Russia,87.9,150,155,157.5,157.5,,90,M,Владимир Поспелов,Raw,B,157.5,,,,,,,,,
5,Leonid Schukin,Yes,O,1982,Russia,86.4,140,150,-155,150,,90,M,Леонид Щукин,Raw,B,150,,,,,,,,,
6,Ilya Makovetskiy,Yes,O,1987,Russia,88.8,140,150,-160,150,,90,M,Илья Маковецкий,Raw,B,150,,,,,,,,,
7,Petr Rezanov,Yes,O,1984,Russia,89.1,-140,150,-157.5,150,,90,M,Петр Резанов,Raw,B,150,,,,,,,,,
8,Sergey Ilyukhin,Yes,O,1981,Russia,83.05,130,140,-150,140,,90,M,Сергей Илюхин,Raw,B,140,,,,,,,,,
9,Mikhail Schukin,Yes,O,1985,Russia,88.3,137.5,-150,-150,137.5,,90,M,Михаил Щукин,Raw,B,137.5,,,,,,,,,
10,Aleksandr Nenashev,Yes,O,1983,Russia,86.5,137.5,-142.5,-142.5,137.5,,90,M,Александр Ненашев,Raw,B,137.5,,,,,,,,,
11,Vladislav Akopyan,Yes,O,1984,Russia,89.9,130,137.5,-140,137.5,,90,M,Владислав Акопян,Raw,B,137.5,,,,,,,,,
12,Vyacheslav Khorkov,Yes,O,1979,Russia,89.05,125,137.5,-150,137.5,,90,M,Вячеслав Хорьков,Raw,B,137.5,,,,,,,,,
13,Kirill Zotin,Yes,O,1981,Russia,87.8,125,132.5,-137.5,132.5,,90,M,Кирилл Зотин,Raw,B,132.5,,,,,,,,,
DQ,Sergey Ilyukhin,Yes,O,1981,Russia,83.05,-130,,,,,90,M,Сергей Илюхин,Raw,B,,,,,,,,,,
DQ,Maksim Bykovich,Yes,O,1982,Russia,86.9,-140,-140,-140,,,90,M,Максим Быкович,Raw,B,,,,,,,,,,
1,Igor Shinov,Yes,M1,1970,Russia,89.6,155,-165,-165,155,,90,M,Игорь Шинов,Raw,B,155,,,,,,,,,
1,Andrey Salov,Yes,M2,1959,Russia,89.6,147.5,152.5,,152.5,,90,M,Андрей Салов,Raw,B,152.5,,,,,,,,,
1,Grigoriy Koryakin,Yes,PFM,1974,Russia,88.7,152.5,157.5,162.5,162.5,,90,M,Григорий Корякин,Raw,B,162.5,,,,,,,,,
3,Dmitriy Dunin,Yes,PFM,1984,Russia,88.2,145,150,-152.5,150,,90,M,Дмитрий Дунин,Raw,B,150,,,,,,,,,
4,Mikhail Fedotov,Yes,PFM,1980,Russia,86.9,142.5,-150,-150,142.5,,90,M,Михаил Федотов,Raw,B,142.5,,,,,,,,,
DQ,Sergey Reprintsev,Yes,PFM,1992,Russia,85.05,-155,-160,-165,,,90,M,Сергей Репринцев,Raw,B,,,,,,,,,,
1,Dmitriy Chernov,Yes,T3,1995,Russia,95.6,-145,145,-155,145,,100,M,Дмитрий Чернов,Raw,B,145,,,,,,,,,
1,Yuriy Azin,Yes,J,1990,Russia,94.4,155,160,-165,160,,100,M,Юрий Азин,Raw,B,160,,,,,,,,,
2,Artem Zhdanov,Yes,J,1991,Russia,92.3,-145,145,150,150,,100,M,Артем Жданов,Raw,B,150,,,,,,,,,
3,Ivan Levchenko,Yes,J,1989,Russia,97,142.5,150,-155,150,,100,M,Иван Левченко,Raw,B,150,,,,,,,,,
1,Alexandr Pagin,Yes,O,1978,Russia,93.3,170,177.5,-185,177.5,,100,M,Александр Пагин,Raw,B,177.5,,,,,,,,,
2,Ivan Evdokimov,Yes,O,1964,Russia,98.8,160,165,-167.5,165,,100,M,Иван Евдокимов,Raw,B,165,,,,,,,,,
3,Andrey Korabelnikov,Yes,O,1981,Russia,95.5,150,152.5,155,155,,100,M,Андрей Корабельников,Raw,B,155,,,,,,,,,
4,Andrey Temchenko,Yes,O,1980,Russia,96.2,155,-157.5,-160,155,,100,M,Андрей Темченко,Raw,B,155,,,,,,,,,
5,Anton Khalyapin,Yes,O,1988,Russia,97.9,-155,-155,155,155,,100,M,Антон Халяпин,Raw,B,155,,,,,,,,,
6,Andrey Sletin,Yes,O,1974,Russia,97.1,142.5,150,152.5,152.5,,100,M,Андрей Слетин,Raw,B,152.5,,,,,,,,,
7,Sergey Tikhonov,Yes,O,1979,Russia,93.2,145,150,-155,150,,100,M,Сергей Тихонов,Raw,B,150,,,,,,,,,
8,Vladimir Vinogradov,Yes,O,1988,Russia,97,142.5,150,-155,150,,100,M,Владимир Виноградов,Raw,B,150,,,,,,,,,
9,Vladislav Savitskiy,Yes,O,1976,Russia,97.1,150,-162.5,,150,,100,M,Владислав Савицкий,Raw,B,150,,,,,,,,,
10,Aleksey Kodysh,Yes,O,1984,Russia,98.7,-132.5,132.5,-142.5,132.5,,100,M,Алексей Кодыш,Raw,B,132.5,,,,,,,,,
1,Vasiliy Reznikov,Yes,PFM,1984,Russia,99.3,145,-155,-155,145,,100,M,Василий Резников,Raw,B,145,,,,,,,,,
DQ,Evgeniy Miroshkin,Yes,J,1993,Russia,102.8,-160,-160,-160,,,110,M,Евгений Мирошкин,Raw,B,,,,,,,,,,
1,Dmitriy Ilyukevich,Yes,O,1983,Belarus,105.4,190,197.5,-202.5,197.5,,110,M,,Raw,B,197.5,,,,,,,,,
2,Sergey Demchenko,Yes,O,1976,Russia,106.3,180,185,190,190,,110,M,Сергей Демченко,Raw,B,190,,,,,,,,,
3,Ilya Kotlyarov,Yes,O,1989,Russia,103.4,-165,165,,165,,110,M,Илья Котляров,Raw,B,165,,,,,,,,,
4,Schukelovich,Yes,O,1984,Russia,100.5,140,150,160,160,,110,M,Щукелович,Raw,B,160,,,,,,,,,
5,Aleksandr Kokotkin,Yes,O,1974,Russia,107.7,160,-180,-180,160,,110,M,Александр Кокоткин,Raw,B,160,,,,,,,,,
6,Anton Popov,Yes,O,1990,Russia,101.2,-130,130,-147.5,130,,110,M,Антон Попов,Raw,B,130,,,,,,,,,
1,Evgeniy Veles,Yes,M1,1968,Russia,109.9,165,175,182.5,182.5,,110,M,Евгений Велес,Raw,B,182.5,,,,,,,,,
2,Vadim Ivanov,Yes,M1,1972,Russia,107.9,170,175,180,180,,110,M,Вадим Иванов,Raw,B,180,,,,,,,,,
3,Yuriy Stenin,Yes,M1,1972,Russia,107.5,-140,147.5,-150,147.5,,110,M,Юрий Стенин,Raw,B,147.5,,,,,,,,,
1,Sergey Filinovich,Yes,M2,1962,Russia,101.3,140,145,150,150,,110,M,Сергей Филинович,Raw,B,150,,,,,,,,,
1,Oleg Vshivkov,Yes,PFM,1976,Russia,103.8,-120,-120,120,120,,110,M,Олег Вшивков,Raw,B,120,,,,,,,,,
1,Andrey Vasilyev,Yes,T2,1997,Russia,120.8,142.5,-147.5,-147.5,142.5,,125,M,Андрей Васильев,Raw,B,142.5,,,,,,,,,
1,Mikhail Samoylov,Yes,T3,1995,Russia,121.4,135,145,155,155,,125,M,Михаил Самойлов,Raw,B,155,,,,,,,,,
1,Denis Ogloblin,Yes,O,1967,Russia,119.5,205,210,-212.5,210,,125,M,Денис Оглоблин,Raw,B,210,,,,,,,,,
2,Sergey Bobchikhin,Yes,O,1975,Russia,121.7,205,-215,-215,205,,125,M,Сергей Бобчихин,Raw,B,205,,,,,,,,,
3,Andrey Ponomarev,Yes,O,1962,Russia,117,155,-165,-165,155,,125,M,Андрей Пономарев,Raw,B,155,,,,,,,,,
1,Denis Ogloblin,Yes,M1,1967,Russia,119.5,205,210,-212.5,210,,125,M,Денис Оглоблин,Raw,B,210,,,,,,,,,
2,Yury Yakovlev,Yes,M1,1969,Russia,116.1,170,177.5,182.5,182.5,,125,M,Юрий Яковлев,Raw,B,182.5,,,,,,,,,
1,Dmitriy Arkhipov,Yes,PFM,1980,Russia,118.9,150,160,165,165,,125,M,Дмитрий Архипов,Raw,B,165,,,,,,,,,
2,Konstantin Mozyrev,Yes,PFM,1968,Russia,121.4,160,165,-167.5,165,,125,M,Константин Мозырев,Raw,B,165,,,,,,,,,
2,Konstantin Bogdanov,Yes,O,1976,Russia,142.2,180,192.5,202.5,202.5,,140+,M,Константин Богданов,Raw,B,202.5,,,,,,,,,
1,Aleksandr Oreshkin,Yes,O,1982,Russia,125.2,180,185,187.5,187.5,,140,M,Александр Орешкин,Raw,B,187.5,,,,,,,,,
1,Aleksey Shoniya,Yes,M1,1970,Russia,125.9,160,170,-175,170,,140,M,Алексей Шония,Raw,B,170,,,,,,,,,
1,Roman Mishurenkov,Yes,O,1982,Russia,146.8,210,222.5,225,225,,140+,M,Роман Мишуренков,Raw,B,225,,,,,,,,,
1,Svetlana Fatyukhina,No,T3,1994,Russia,51.85,55,62.5,-67.5,62.5,,52,F,Светлана Фатюхина,Raw,B,62.5,,,,,,,,,
1,Yuliya Bocharova,No,O,1977,Russia,55.3,70,75,80,80,,56,F,Юлия Бочарова,Raw,B,80,,,,,,,,,
2,Darya Kobziy,No,O,1988,Russia,52.8,35,37.5,40,40,,56,F,Дарья Кобзий,Raw,B,40,,,,,,,,,
1,Kseniya Egorova,No,O,1989,Russia,58.8,35,40,-45,40,,60,F,Ксения Егорова,Raw,B,40,,,,,,,,,
1,Yuliya Bakalina,No,O,1986,Russia,65.5,97.5,105,-107.5,105,,67.5,F,Юлия Бакалина,Raw,B,105,,,,,,,,,
2,Alina Fadeeva,No,O,1988,Russia,66.9,100,-102.5,-102.5,100,,67.5,F,Алина Фадеева,Raw,B,100,,,,,,,,,
1,Marina Moroz,No,M1,1970,Russia,74.5,90,95,100,100,,75,F,Марина Мороз,Raw,B,100,,,,,,,,,
1,Irina Menschikova,No,O,1980,Russia,81.5,70,-80,-82.5,70,,82.5,F,Ирина Меньщикова,Raw,B,70,,,,,,,,,
1,Daniil Shilin,No,Y,2002,Russia,44.8,50.5,-52.5,-52.5,50.5,,52,M,Даниил Шилин,Raw,B,50.5,,,,,,,,,
1,Mikhail Mikhaylov,No,J,1990,Russia,57.3,-35,35,45,45,,60,M,Михаил Михайлов,Raw,B,45,,,,,,,,,
1,Sergey Buryakov,No,O,1977,Russia,61.9,87.5,92.5,95,95,,67.5,M,Сергей Буряков,Raw,B,95,,,,,,,,,
DQ,Vadim Shvets,No,T2,1996,Russia,70.6,-120,-120,-120,,,75,M,Вадим Швець,Raw,B,,,,,,,,,,
DQ,Kevin Kuznetsov,No,T2,1996,Russia,70.7,-105,-110,-110,,,75,M,Кевин Кузнецов,Raw,B,,,,,,,,,,
1,Vladislav Romashov,No,T3,1994,Russia,72.3,145,147.5,150,150,,75,M,Владислав Ромашов,Raw,B,150,,,,,,,,,
1,Evgeniy Shiryaev,No,J,1990,Russia,75,-135,135,-145,135,,75,M,Евгений Ширяев,Raw,B,135,,,,,,,,,
1,Roman Eremashvili,No,O,1981,Belarus,72,200,210,215,215,,75,M,,Raw,B,215,,,,,,,,,
2,Artem Solntsev,No,O,1988,Russia,70.4,155,160,-165,160,,75,M,Артем Солнцев,Raw,B,160,,,,,,,,,
1,Vadim Arendaruk,No,PFM,1982,Russia,73.6,90,-100,100,100,,75,M,Вадим Арендарук,Raw,B,100,,,,,,,,,
1,Vyacheslav Kleyn,No,T1,1998,Russia,79.8,-130,-130,130,130,,82.5,M,Вячеслав Клейн,Raw,B,130,,,,,,,,,
2,Andrey Fadeev,No,T1,1999,Russia,76.1,75,-82.5,-82.5,75,,82.5,M,Андрей Фадеев,Raw,B,75,,,,,,,,,
1,Aleksandr Krinitsyn,No,J,1993,Russia,78.8,150,160,167.5,167.5,,82.5,M,Александр Криницын,Raw,B,167.5,,,,,,,,,
2,Dmitriy Kazakov,No,J,1990,Russia,80.8,155,-160,-162.5,155,,82.5,M,Дмитрий Казаков,Raw,B,155,,,,,,,,,
1,Stanislav Milostnoy,No,O,1978,Russia,77.9,212.5,220,-225,220,,82.5,M,Станислав Милостной,Raw,B,220,,,,,,,,,
2,Dmitriy Yanevich,No,O,1974,Belarus,81.9,200,-205,-205,200,,82.5,M,,Raw,B,200,,,,,,,,,
3,Roman Schekleev,No,O,1989,Russia,81.4,165,-170,,165,,82.5,M,Роман Щеклеев,Raw,B,165,,,,,,,,,
4,Aleksandr Zaytsev,No,O,1987,Russia,81.4,140,145,147.5,147.5,,82.5,M,Александр Зайцев,Raw,B,147.5,,,,,,,,,
5,Eldar Akhtyamov,No,O,1984,Russia,82,130,140,145,145,,82.5,M,Эльдар Ахтямов,Raw,B,145,,,,,,,,,
6,Nikolay Petrakovich,No,O,1979,Russia,76,-135,135,-140,135,,82.5,M,Николай Петракович,Raw,B,135,,,,,,,,,
G,Artur Belous,No,O,1985,Russia,79.5,175,185,192.5,192.5,,82.5,M,Артур Белоус,Raw,B,192.5,,,,,,,,,
1,Yuriy Babarykin,No,M2,1958,Russia,82.5,110,115,-120,115,,82.5,M,Юрий Бабарыкин,Raw,B,115,,,,,,,,,
1,Sergey Goncharov,No,M2,1952,Russia,81.4,120,130,-135,130,,82.5,M,Сергей Гончаров,Raw,B,130,,,,,,,,,
1,Dmitriy Filatov,No,PFM,1989,Russia,81.1,150,160,-165,160,,82.5,M,Дмитрий Филатов,Raw,B,160,,,,,,,,,
1,Aleksey Stikhanov,No,T2,1996,Russia,88.7,150,-160,160,160,,90,M,Алексей Стиханов,Raw,B,160,,,,,,,,,
2,Arseniy Fedorov,No,T2,1997,Russia,89,140,-145,150,150,,90,M,Арсений Федоров,Raw,B,150,,,,,,,,,
1,Vladimir Sidyakov,No,J,1992,Russia,86.8,165,170,180,180,,90,M,Владимир Сидяков,Raw,B,180,,,,,,,,,
2,Anton Sevalnikov,No,J,1991,Russia,88.2,165,170,-180,170,,90,M,Антон Севальников,Raw,B,170,,,,,,,,,
3,Aleksey Morkva,No,J,1991,Russia,88.6,140,150,155,155,,90,M,Алексей Морква,Raw,B,155,,,,,,,,,
4,Ilya Timkin,No,J,1992,Russia,89.9,120,130,140,140,,90,M,Илья Тимкин,Raw,B,140,,,,,,,,,
1,Aleksey Blintsov,No,O,1980,Russia,88,185.5,197.5,202.5,202.5,,90,M,Алексей Блинцов,Raw,B,202.5,,,,,,,,,
2,Nikolay Sarafanov,No,O,1983,Russia,89.8,190,-200,200,200,,90,M,Николай Сарафанов,Raw,B,200,,,,,,,,,
3,Pavel Silushin,No,O,1989,Russia,85.7,175,-182.5,185,185,,90,M,Павел Силушин,Raw,B,185,,,,,,,,,
4,Khasylzhan Dadakhanov,No,O,1988,Russia,87.1,170,175,-180,175,,90,M,Хасылжан Дадаханов,Raw,B,175,,,,,,,,,
5,Viktor Simonov,No,O,1982,Russia,88.15,135,-145,-145,135,,90,M,Виктор Симонов,Raw,B,135,,,,,,,,,
6,Aleksey Evstropov,No,O,1981,Russia,89.4,120,-130,-140,120,,90,M,Алексей Евстропов,Raw,B,120,,,,,,,,,
1,Sergey Khodakov,No,M1,1969,Russia,89.7,150,165,-175,165,,90,M,Сергей Ходаков,Raw,B,165,,,,,,,,,
2,Dmitriy Semenov,No,M1,1965,Russia,93.35,130,140,145,145,,100,M,Дмитрий Семенов,Raw,B,145,,,,,,,,,
1,Vyacheslav Stanchak,No,M2,1952,Russia,88.4,150,-155,155,155,,90,M,Вячеслав Станчак,Raw,B,155,,,,,,,,,
2,Vyacheslav Pyatakhin,No,M2,1952,Russia,86.1,-120,120,,120,,90,M,Вячеслав Пятахин,Raw,B,120,,,,,,,,,
1,Alexander Panaskin,No,J,1991,Russia,98.9,180,-190,200,200,,100,M,Александр Панаскин,Raw,B,200,,,,,,,,,
2,Andrey Kornovan,No,J,1990,Russia,98.5,-170,175,-180,175,,100,M,Андрей Корнован,Raw,B,175,,,,,,,,,
3,Dmitriy Duskryadchenko,No,J,1991,Russia,94.7,155,162.5,-170,162.5,,100,M,Дмитрий Дускрядченко,Raw,B,162.5,,,,,,,,,
1,Maksim Svintsov,No,O,1987,Russia,100,210,225,235,235,,100,M,Максим Свинцов,Raw,B,235,,,,,,,,,
2,Ivan Solntsev,No,O,1974,Russia,97.9,195,200,-205,200,,100,M,Иван Солнцев,Raw,B,200,,,,,,,,,
3,Artem Golovin,No,O,1977,Russia,99.3,-190,200,-202.5,200,,100,M,Артем Головин,Raw,B,200,,,,,,,,,
4,Anton Mishkevich,No,O,1986,Russia,98.3,190,195,-200,195,,100,M,Антон Мишкевич,Raw,B,195,,,,,,,,,
5,Andrey Latyshev,No,O,1973,Russia,92.4,180,185,-190,185,,100,M,Андрей Латышев,Raw,B,185,,,,,,,,,
6,Aleksey Polevin,No,O,1984,Russia,97.6,175,185,-190,185,,100,M,Алексей Полевин,Raw,B,185,,,,,,,,,
1,Andrey Latyshev,No,M1,1973,Russia,92.4,180,185,-190,185,,100,M,Андрей Латышев,Raw,B,185,,,,,,,,,
2,Igor Zakharov,No,M1,1969,Russia,92.05,140,147.5,,147.5,,100,M,Игорь Захаров,Raw,B,147.5,,,,,,,,,
1,Ivan Solntsev,No,PFM,1974,Russia,97.95,195,200,-205,200,,100,M,Иван Солнцев,Raw,B,200,,,,,,,,,
2,Aleksey Polevin,No,PFM,1984,Russia,97.6,175,185,-190,185,,100,M,Алексей Полевин,Raw,B,185,,,,,,,,,
3,Maksim Kochetov,No,PFM,1982,Russia,97.3,-170,-170,170,170,,100,M,Максим Кочетов,Raw,B,170,,,,,,,,,
4,Sergey Tesaruk,No,PFM,1984,Russia,99.4,165,-170,-170,165,,100,M,Сергей Тесарук,Raw,B,165,,,,,,,,,
1,Dmitriy Frank,No,T3,1994,Russia,108.05,180,-190,-190,180,,110,M,Дмитрий Франк,Raw,B,180,,,,,,,,,
1,Marsel Talipov,No,J,1991,Russia,109.1,200,210,-215,210,,110,M,Марсель Талипов,Raw,B,210,,,,,,,,,
2,Artem Pershin,No,J,1991,Russia,106.2,160,170,-177.5,170,,110,M,Артем Першин,Raw,B,170,,,,,,,,,
1,Grigoriy Slipchenko,No,O,1982,Russia,101.1,240,250,255,255,,110,M,Григорий Слипченко,Raw,B,255,,,,,,,,,
2,Roman Knischuk,No,O,1975,Russia,108,215,225,-235,225,,110,M,Роман Книщук,Raw,B,225,,,,,,,,,
3,Andrey Grudkin,No,O,1984,Russia,106.5,210,217.5,222.5,222.5,,110,M,Андрей Грудкин,Raw,B,222.5,,,,,,,,,
4,Denis Tsaritsin,No,O,1982,Russia,107,195,210,212.5,212.5,,110,M,Денис Царицин,Raw,B,212.5,,,,,,,,,
5,Artem Kobanov,No,O,1992,Russia,107.3,200,210,-215,210,,110,M,Артем Кобанов,Raw,B,210,,,,,,,,,
6,Aleksey Chernysh,No,O,1967,Russia,106.1,185,-195,-195,185,,110,M,Алексей Черныш,Raw,B,185,,,,,,,,,
7,Maksims Udalovs,No,O,1974,Russia,100.1,170,177.5,-182.5,177.5,,110,M,,Raw,B,177.5,,,,,,,,,
1,Nikolay Dubina,No,M1,1966,Russia,109.5,170,-180,,170,,110,M,Николай Дубина,Raw,B,170,,,,,,,,,
1,Igor Kurotchenko,No,M2,1962,Russia,106.4,130,135,145,145,,110,M,Игорь Куротченко,Raw,B,145,,,,,,,,,
1,Azamat Kochkarov,No,PFM,1983,Russia,106.3,210,220,-225,220,,110,M,Азамат Кочкаров,Raw,B,220,,,,,,,,,
2,Sergey Abramov,No,PFM,1981,Russia,103.5,200,-210,-220,200,,110,M,Сергей Абрамов,Raw,B,200,,,,,,,,,
3,Maksim Kuryanov,No,PFM,1979,Russia,107.25,165,170,-172.5,170,,110,M,Максим Курьянов,Raw,B,170,,,,,,,,,
1,Evgeniy Chizhik,No,J,1990,Russia,118.9,195,-205,-205,195,,125,M,Евгений Чижик,Raw,B,195,,,,,,,,,
1,Ilya Kalininskiy,No,O,1989,Russia,114.5,220,230,-240,230,,125,M,Илья Калининский,Raw,B,230,,,,,,,,,
2,Yuriy Gavryushin,No,O,1983,Russia,118.3,205,220,-230,220,,125,M,Юрий Гаврюшин,Raw,B,220,,,,,,,,,
3,Nikolay Timofeev,No,O,1982,Russia,120.1,205,215,220,220,,125,M,Николай Тимофеев,Raw,B,220,,,,,,,,,
1,Dmitriy Bubnov,No,M1,1973,Russia,118.9,215,232.5,-240,232.5,,125,M,Дмитрий Бубнов,Raw,B,232.5,,,,,,,,,
2,Igor Safonov,No,M1,1964,Russia,112.3,165,-175,-175,165,,125,M,Игорь Сафонов,Raw,B,165,,,,,,,,,
1,Mikhail Belyaev,No,PFM,1988,Russia,121.2,200,207.5,-212.5,207.5,,125,M,Михаил Беляев,Raw,B,207.5,,,,,,,,,
2,Dmitriy Smirnov,No,PFM,1979,Russia,121.2,180,-190,-190,180,,125,M,Дмитрий Смирнов,Raw,B,180,,,,,,,,,
1,Murad Alibegov,No,O,1977,Russia,126.9,260,275,-280,275,,140,M,Мурад Алибегов,Raw,B,275,,,,,,,,,
1,Artem Fadeev,No,O,1980,Russia,150.2,240,250,-260,250,,140+,M,Артем Фадеев,Raw,B,250,,,,,,,,,
2,Andrey Khramtsov,No,O,1984,Russia,128.6,200,210,-215,210,,140,M,Андрей Храмцов,Raw,B,210,,,,,,,,,
3,Viktor Krylov,No,O,1985,Russia,127.6,200,-210,-210,200,,140,M,Виктор Крылов,Raw,B,200,,,,,,,,,
1,Stanislav Karpov,No,M1,1971,Russia,160,205,210,215,215,,140+,M,Станислав Карпов,Raw,B,215,,,,,,,,,
1,Aleksey Shishov,No,M1,1973,Russia,130.4,200,210,215,215,,140,M,Алексей Шишов,Raw,B,215,,,,,,,,,
1,Viktor Kozlov,No,M2,1963,Russia,127.2,200,210,215,215,,140,M,Виктор Козлов,Raw,B,215,,,,,,,,,
1,Alena Sotnikova,Yes,O,1989,Russia,54.4,60,65,,65,,56,F,Алена Сотникова,Single-ply,B,65,,,,,,,,,
DQ,Viktoriya Chumina,Yes,T1,1998,Russia,75,-97.5,-97.5,-97.5,,,75,F,Виктория Чумина,Single-ply,B,,,,,,,,,,
1,Eduard Danilov,Yes,O,1988,Russia,65.4,-135,-135,135,135,,67.5,M,Эдуард Данилов,Single-ply,B,135,,,,,,,,,
DQ,Dmitriy Chankin,Yes,T3,1994,Russia,81.6,-175,-180,-180,,,82.5,M,Дмитрий Чанкин,Single-ply,B,,,,,,,,,,
1,Dmitriy Mayorov,Yes,O,1988,Russia,82.5,170,180,193,193,200,82.5,M,Дмитрий Майоров,Single-ply,B,193,,,,,,,,,
2,Denis Akimov,Yes,O,1988,Russia,81.6,170,-180,-180,170,,82.5,M,Денис Акимов,Single-ply,B,170,,,,,,,,,
1,Sergey Blinov,Yes,O,1987,Russia,84.6,200,210,-215,210,,90,M,Сергей Блинов,Single-ply,B,210,,,,,,,,,
1,Ruslan Kulebyakin,Yes,O,1991,Russia,105.2,220,230,-237.5,230,,110,M,Руслан Кулебякин,Single-ply,B,230,,,,,,,,,
1,Ruslan Kulebyakin,Yes,J,1991,Russia,105.2,220,230,-237.5,230,,110,M,Руслан Кулебякин,Single-ply,B,230,,,,,,,,,
1,Valeriy Kurochkin,Yes,O,1978,Russia,113.7,265,275,-282.5,275,,125,M,Валерий Курочкин,Single-ply,B,275,,,,,,,,,
DQ,Aleksey Ventsov,Yes,O,1981,Russia,119.05,-250,-265,-275,,,125,M,Алексей Венцов,Single-ply,B,,,,,,,,,,
1,Egor Savelyev,No,T3,1995,Russia,66.4,105,115,-120,115,,67.5,M,Егор Савельев,Single-ply,B,115,,,,,,,,,
1,Yuriy Eremin,No,O,1983,Russia,75.5,195,-205,205,205,,82.5,M,Юрий Еремин,Single-ply,B,205,,,,,,,,,
1,Sergey Chikin,No,O,1979,Russia,88.6,220,227.5,-232.5,227.5,,90,M,Сергей Чикин,Single-ply,B,227.5,,,,,,,,,
2,Igor Sidorov,No,O,1987,Russia,88.2,220,-227.5,-232.5,220,,90,M,Игорь Сидоров,Single-ply,B,220,,,,,,,,,
1,Daniil Maksimkin,No,J,1992,Russia,93.6,220,235,245,245,,100,M,Даниил Максимкин,Single-ply,B,245,,,,,,,,,
2,Konstantin Ukhanov,No,J,1992,Russia,99.6,190,200,210,210,,100,M,Константин Уханов,Single-ply,B,210,,,,,,,,,
1,Emin Galib Ogly Mamedov,No,O,1974,Russia,99.9,310,325,-340,325,,100,M,Емин Галиб Оглы Мамедов,Single-ply,B,325,,,,,,,,,
2,Kirill Yurshin,No,O,1988,Russia,90.7,235,-240,-245,235,,100,M,Кирилл Юршин,Single-ply,B,235,,,,,,,,,
DQ,Nikita Zotov,No,O,1989,Russia,96.7,-220,-220,,,,100,M,Никита Зотов,Single-ply,B,,,,,,,,,,
1,Konstantin Ukhanov,No,PFM,1992,Russia,99.6,190,200,210,210,,100,M,Константин Уханов,Single-ply,B,210,,,,,,,,,
1,Nikolay Alyshev,No,O,1985,Russia,106.1,240,260,275,275,,110,M,Николай Алышев,Single-ply,B,275,,,,,,,,,
1,Viktor Naydenov,No,O,1987,Russia,122.7,350,365,380,380,,125,M,Виктор Найденов,Single-ply,B,380,,,,,,,,,
2,Anton Begalko,No,O,1986,Russia,111.8,340,350,-360,350,,125,M,Антон Бегалко,Single-ply,B,350,,,,,,,,,
DQ,Roman Zalutskiy,No,O,1979,Russia,119.4,-300,-300,,,,125,M,Роман Залуцкий,Single-ply,B,,,,,,,,,,
1,Dmitriy Shabalin #1,No,M1,1969,Russia,138.7,290,305,-315,305,,140,M,Дмитрий Шабалин,Single-ply,B,305,,,,,,,,,
1,Yuliya Shilova,Yes,O,1984,Russia,48,47.5,50,-52.5,50,,48,F,Юлия Шилова,Wraps,SBD,245,90,-100,-100,90,97.5,105,-107.5,105,
1,Svetlana Orekhova,Yes,O,1984,Russia,55.55,40,50,-55,50,,56,F,Светлана Орехова,Wraps,SBD,260,80,100,-120,100,100,110,-115,110,
1,Alexandra Korova-Bozhkova,Yes,T3,1995,Russia,57.05,30,35,-37.5,35,,60,F,Александра Кьорова-Божкова,Wraps,SBD,192.5,70,75,77.5,77.5,75,80,-85,80,
1,Mariya Markina,Yes,J,1991,Russia,67.4,40,45,-50,45,,67.5,F,Мария Маркина,Wraps,SBD,225,80,90,100,100,80,-90,,80,
1,A Sazanov,Yes,T1,1998,Russia,58.4,75,-77.5,77.5,77.5,,60,M,А Сазанов,Wraps,SBD,332.5,110,-115,120,120,125,135,-145,135,
1,Nikita Kryukov,Yes,T1,2000,Russia,63.2,45,-50,55,55,,67.5,M,Никита Крюков,Wraps,SBD,250,90,-100,-100,90,95,105,-115,105,
1,Aleksandr Rek,Yes,O,1987,Russia,65.5,105,110,-112.5,110,,67.5,M,Александр Рек,Wraps,SBD,500,185,195,200,200,180,190,-200,190,
1,Emil Sarmasov,Yes,T1,1999,Russia,68.4,55,60,65,65,,75,M,Эмиль Сармасов,Wraps,SBD,285,90,100,110,110,90,100,110,110,
1,Andrey Trusikhin,Yes,T3,1994,Russia,70.35,105,110,-112.5,110,,75,M,Андрей Трусихин,Wraps,SBD,425,125,135,-137.5,135,180,-185,-185,180,
2,Dmitriy Panferov,Yes,T3,1994,Russia,73.85,-80,85,90,90,,75,M,Дмитрий Панферов,Wraps,SBD,380,110,115,120,120,170,-180,-180,170,
1,Nikita Galimov,Yes,O,1988,Russia,72.4,120,-130,130,130,,75,M,Никита Галимов,Wraps,SBD,510,160,180,-190,180,190,200,-205,200,
2,Aleksandr Skorobogatov,Yes,O,1981,Russia,72.9,105,110,115,115,,75,M,Александр Скоробогатов,Wraps,SBD,480,180,-190,-190,180,180,185,-190,185,
3,Aleksey Markin,Yes,O,1986,Russia,73.65,100,110,120,120,,75,M,Алексей Маркин,Wraps,SBD,470,-160,160,170,170,140,160,180,180,
1,Vitaliy Kulikov,Yes,J,1990,Russia,80.3,130,137.5,-142.5,137.5,,82.5,M,Виталий Куликов,Wraps,SBD,557.5,195,205,-215,205,190,205,215,215,
2,Arkadiy Krementsov,Yes,J,1992,Russia,80.15,100,-120,-120,100,,82.5,M,Аркадий Кременцов,Wraps,SBD,420,120,140,-160,140,140,160,180,180,
1,Aleksandr Astakhov,Yes,O,1985,Russia,79.05,100,107.5,112.5,112.5,,82.5,M,Александр Астахов,Wraps,SBD,502.5,185,200,-215,200,175,190,-200,190,
1,Andrey Kolchenogov,Yes,PFM,1985,Russia,82.25,130,137.5,-140,137.5,,82.5,M,Андрей Колченогов,Wraps,SBD,532.5,-160,165,170,170,-217.5,217.5,225,225,
2,Sergey Shemet,Yes,PFM,1984,Russia,87.35,130,137.5,140,140,,90,M,Сергей Шемет,Wraps,SBD,547.5,170,180,190,190,210,217.5,-222.5,217.5,
1,Artem Bogdanov,Yes,O,1983,Russia,108,125,135,140,140,,110,M,Артем Богданов,Wraps,SBD,610,200,220,230,230,225,235,240,240,
2,Svyatoslav Kotik,Yes,O,1972,Russia,110,155,-162.5,-162.5,155,,110,M,Святослав Котик,Wraps,SBD,575,210,220,-225,220,200,-210,,200,
2,Svyatoslav Kotik,Yes,M1,1972,Russia,110,155,-162.5,-162.5,155,,110,M,Святослав Котик,Wraps,SBD,575,210,220,-225,220,200,-210,,200,
1,Vitaly Mashkevich,Yes,O,1989,Russia,118.7,165,172.5,-177.5,172.5,,125,M,Виталий Машкевич,Wraps,SBD,647.5,230,240,250,250,-210,210,225,225,
1,Aleksandr Teplyakov,No,T3,1995,Russia,66.1,80,90,100,100,,67.5,M,Александр Тепляков,Wraps,SBD,410,130,150,-170,150,140,160,-170,160,
1,Danila Eremin,No,T1,1998,Russia,80.75,90,-95,-95,90,,82.5,M,Данила Еремин,Wraps,SBD,410,120,125,135,135,177.5,180,185,185,187.5
1,Andrey Muravyev,No,T3,1994,Russia,80.6,130,-140,140,140,,82.5,M,Андрей Муравьев,Wraps,SBD,620,210,230,-250,230,250,-260,-260,250,
2,Anton Perepletchikov,No,J,1990,Russia,77.4,100,110,112.5,112.5,,82.5,M,Антон Переплетчиков,Wraps,SBD,492.5,-160,160,180,180,180,200,-210,200,
1,Aleksey Baranov,No,T3,1994,Russia,84.1,130,-135,-135,130,,90,M,Алексей Баранов,Wraps,SBD,505,172.5,180,185,185,190,-200,-200,190,
1,Oleg Ostapenko,No,J,1993,Russia,90,-140,140,145,145,,90,M,Олег Остапенко,Wraps,SBD,605,210,220,230,230,210,222.5,230,230,
1,Aleksey Shestimirov,No,O,1976,Russia,89.3,125,135,142.5,142.5,,90,M,Алексей Шестимиров,Wraps,SBD,585,205,215,225,225,205,217.5,-225,217.5,
1,Evgeniy Blinkov,No,O,1987,Russia,95.8,160,167.5,-175,167.5,,100,M,Евгений Блинков,Wraps,SBD,770,270,285,300,300,280,302.5,-310,302.5,
2,Ilya Ushkov,No,O,1976,Russia,100,172.5,177.5,182.5,182.5,,100,M,Илья Ушков,Wraps,SBD,760,285,295,-302.5,295,272.5,282.5,-287.5,282.5,
3,Vladimir Bardin,No,O,1985,Russia,99.4,180,190,,190,,100,M,Владимир Бардин,Wraps,SBD,755,265,280,300,300,255,265,-270,265,
DQ,Shakhrukh Igamov,No,O,1978,Russia,98.8,,,,,,100,M,Шахрух Игамов,Wraps,SBD,,-240,-240,-240,,,,,,
1,Aleksey Yagunov,No,M1,1968,Russia,96.9,145,155,160,160,,100,M,Алексей Ягунов,Wraps,SBD,610,-215,215,220,220,210,220,230,230,
1,Aleksey Andriyanov,No,T3,1994,Russia,102.7,150,-155,155,155,,110,M,Алексей Андриянов,Wraps,SBD,625,215,225,230,230,225,235,240,240,
2,Anton Neshin,No,T3,1994,Russia,104.6,120,-127.5,127.5,127.5,,110,M,Антон Нешин,Wraps,SBD,525,185,195,-205,195,180,192.5,202.5,202.5,
1,Andrey Butko,No,O,1985,Russia,109.2,150,160,-170,160,,110,M,Андрей Бутко,Wraps,SBD,695,230,250,260,260,240,260,275,275,
2,Vitaliy Privezentsev,No,O,1979,Russia,100.7,115,-125,-125,115,,110,M,Виталий Привезенцев,Wraps,SBD,510,190,210,220,220,155,165,175,175,
1,Maksim Kuryanov,No,PFM,1979,Russia,107.35,160,165,-170,165,,110,M,Максим Курьянов,Wraps,SBD,575,180,190,-200,190,200,210,220,220,
1,Aleksandr Volkov,No,O,1975,Russia,125,185,195,-200,195,,125,M,Александр Волков,Wraps,SBD,820,290,305,310,310,290,305,315,315,
1,Marat Savosin,No,J,1990,Russia,114.1,195,205,-210,205,,125,M,Марат Савосин,Wraps,SBD,800,-290,290,305,305,280,290,-300,290,
2,Marat Savosin,No,O,1990,Russia,114.1,195,205,-210,205,,125,M,Марат Савосин,Wraps,SBD,800,-290,290,305,305,280,290,-300,290,
1,Andrey Shishkin,No,M2,1962,Russia,110.9,105,-135,,105,,125,M,Андрей Шишкин,Wraps,SBD,510,160,175,190,190,160,215,-250,215,
