Name,Division,Sex,WeightClassKg,BodyweightKg,Age,BirthYear,BirthDate,Squat1Kg,Squat2Kg,Squat3Kg,Best3SquatKg,Bench1Kg,Bench2Kg,Bench3Kg,Best3BenchKg,Deadlift1Kg,Deadlift2Kg,Deadlift3Kg,Best3DeadliftKg,TotalKg,Place,Event,Equipment
Emily Kim,Juniors,F,63,61.75,19,,,-90,97.5,102.5,102.5,-50,-55,55,55,95,110,117.5,117.5,275,1,SBD,Raw
Maria Muipu,Juniors,F,84,83.35,,1996,,142.5,150,160,160,-85,85,-90,85,137.5,150,160,160,405,1,SBD,Raw
Nur Nadhirah Binte Mohamed Amran,Juniors,F,84+,108.8,,1997,,80,90,100,100,62.5,67.5,-72.5,67.5,120,127.5,130,130,297.5,1,SBD,Raw
Hannah Woods-Webster,Open,F,57,55.95,,1987,,110,115,117.5,117.5,60,62.5,-65,62.5,115,-120,-120,115,295,1,SBD,Raw
Maree Houbert,Open,F,63,62.5,,1993,,105,-112.5,112.5,112.5,60,-65,65,65,152.5,-162.5,-162.5,152.5,330,1,SBD,Raw
Angela Paciocco,Open,F,63,62.7,,1999,,90,100,105,105,55,60,-62.5,60,130,140,145,145,310,2,SBD,Raw
Ally Fairweather,Open,F,63,62.95,,1989,,85,90,-92.5,90,52.5,55,-57.5,55,122.5,135,140,140,285,3,SBD,Raw
Sue Sweeney,Open,F,63,61.5,,1967,,85,90,95,95,50,-52.5,-52.5,50,115,120,125,125,270,4,SBD,Raw
Tiarna Cupello,Open,F,72,71.7,,1995,,125,140,-150,140,70,75,-77.5,75,160,170,-187.5,170,385,1,SBD,Raw
Renee Brown,Open,F,72,67.9,,1986,,115,122.5,127.5,127.5,55,57.5,-62.5,57.5,110,122.5,127.5,127.5,312.5,2,SBD,Raw
Kelly Wanray,Open,F,84+,109.95,,1989,,135,145,150,150,77.5,82.5,85,85,175,190,-200,190,425,1,SBD,Raw
Brigot Pugh,M1,F,57,56,,1975,,110,120,125,125,60,65,-70,65,175,180,185,185,375,1,SBD,Raw
Adelaide Chang,M1,F,84,82.6,,1972,,100,107.5,112.5,112.5,57.5,62.5,-67.5,62.5,120,132.5,-140,132.5,307.5,1,SBD,Raw
Valerie Silver,M4,F,63,59.85,,1949,,55,57.5,-60,57.5,37.5,40,42.5,42.5,100,,-110,100,200,1,SBD,Raw
Yukitaka Kashima,Juniors,M,66,64.85,,1996,1996-10-18,160,170,177.5,177.5,120,-125,-128,120,-190,-202.5,202.5,202.5,500,1,SBD,Raw
Dean Pagulayan,Juniors,M,74,73.6,,1996,,185,197.5,-207.5,197.5,115,122.5,125,125,240,255,265,265,587.5,1,SBD,Raw
Remy Leonard,Juniors,M,74,72.1,,1999,,155,170,180,180,95,102.5,112.5,112.5,160,175,-190,175,467.5,2,SBD,Raw
Felix Paruzek,Juniors,M,93,91.75,,1999,,160,170,175,175,105,115,117.5,117.5,192.5,205,-210,205,497.5,1,SBD,Raw
Janus Macuno,Juniors,M,93,87.45,,1996,,140,145,155,155,90,95,-102.5,95,190,200,212.5,212.5,462.5,2,SBD,Raw
Steven Day,Open,M,74,73.95,,1992,,232.5,245,-255,245,140,-145,-145,140,255,265,-272.5,265,650,1,SBD,Raw
Tyson Schmidt,Open,M,83,82.7,,1993,,227.5,235,240,240,150,155,-160,155,227.5,240,250,250,645,1,SBD,Raw
Marshall Ross,Open,M,83,82.6,,1990,,180,192.5,200,200,117.5,127.5,130,130,220,235,250,250,580,2,SBD,Raw
Michael Adams #1,Open,M,83,81.25,,1992,,180,190,200,200,107.5,115,-117.5,115,180,195,205,205,520,3,SBD,Raw
Jamie Corcoran,Open,M,93,91.3,,1987,,210,230,237.5,237.5,145,152.5,-155,152.5,230,250,-265,250,640,1,SBD,Raw
Michael Brown #23,Open,M,93,91.2,,1986,,207.5,215,222.5,222.5,132.5,140,145,145,215,227.5,235,235,602.5,2,SBD,Raw
Yasar Chowdhury,Open,M,93,89.35,,1994,,190,-207.5,210,210,112.5,120,-122.5,120,230,245,-257.5,245,575,3,SBD,Raw
Mathew Collins,Open,M,105,103.3,,1978,,225,252.5,255,255,190,202.5,-210,202.5,280,-305,305,305,762.5,1,SBD,Raw
Mitchell Eckford,Open,M,105,103.95,,1994,,250,260,270,270,155,165,,165,-265,270,285,285,720,2,SBD,Raw
Abe Walton,Open,M,105,104.7,,1991,,-230,245,255,255,175,-187.5,-187.5,175,267.5,285,-292.5,285,715,3,SBD,Raw
Leigh Wiltshire,Open,M,105,96.85,,1985,,215,-230,235,235,130,140,147.5,147.5,220,240,245,245,627.5,4,SBD,Raw
Philip Hines,Open,M,105,99.2,,1989,,190,202.5,210,210,120,127.5,132.5,132.5,235,257.5,265,265,607.5,5,SBD,Raw
Anthony Contoleon,Open,M,105,103.25,,1981,,195,205,215,215,130,135,140,140,200,220,240,240,595,6,SBD,Raw
David Jones #1,Open,M,105,104.15,,1981,,205,220,227.5,227.5,105,112.5,117.5,117.5,215,230,240,240,585,7,SBD,Raw
Dylan Smith #3,Open,M,105,104.1,,1990,,185,192.5,200,200,127.5,135,-140,135,225,235,242.5,242.5,577.5,8,SBD,Raw
Steve Tyrell,Open,M,120,119.95,,1990,,300,315,325,325,180,190,-195,190,270,285,292.5,292.5,807.5,1,SBD,Raw
Tyron Senituli,Open,M,120+,149.35,,1993,,287.5,310,325,325,202.5,220,-230,220,292.5,320,337.5,337.5,882.5,1,SBD,Raw
Ronald Willet,Open,M,120+,127.6,,1989,,220,240,255,255,137.5,-150,150,150,230,250,260,260,665,2,SBD,Raw
James Mellor,M1,M,83,81.65,,1978,,165,180,190,190,110,120,-127.5,120,190,210,217.5,217.5,527.5,1,SBD,Raw
Andrew de Lepervanche,M1,M,83,81.2,,1974,,155,162.5,167.5,167.5,95,105,-107.5,105,180,190,202.5,202.5,475,2,SBD,Raw
Hector Lawson,M1,M,105,101.05,,1973,,200,220,230,230,120,140,-150,140,220,240,250,250,620,1,SBD,Raw
Bill Koppe,M4,M,74,73.2,,1946,,115,120,125,125,75,80,-82.5,80,130,140,145,145,350,1,SBD,Raw
Damien Giles,Open,M,93,92.25,,1983,,,,,,130,-135,140,140,,,,,140,1,B,Raw
Rick Morse,M2,M,93,92.7,,1963,,,,,,177.5,185,-190,185,,,,,185,1,B,Raw
