Place,Sex,Name,CyrillicName,BodyweightKg,Squat1Kg,Squat2Kg,Squat3Kg,Best3SquatKg,Squat4Kg,Bench1Kg,Bench2Kg,Bench3Kg,Best3BenchKg,Bench4Kg,Deadlift1Kg,Deadlift2Kg,Deadlift3Kg,Best3DeadliftKg,Deadlift4Kg,TotalKg,WeightClassKg,Event,Equipment,Tested,Division,Age,BirthDate
1,F,Anna Trifanova,Анна Трифанова,47.5,75,80,85,85,,45,-50,50,50,,85,95,115,115,,250,48,SBD,Raw,Yes,Open,24,1993-06-11
1,F,Darya Fatykhova,Дарья Фатыхова,55.9,100,-110,110,110,,55,60,62.5,62.5,,110,117.5,120,120,,292.5,56,SBD,Raw,Yes,Juniors 20-23,23,1994-06-07
1,F,Yuliya Roshchina,Юлия Рощина,53.8,65,75,-80,75,,37.5,40,-45,40,,80,85,90,90,,205,56,SBD,Raw,Yes,Open,33,1984-02-10
1,F,Lyubov Rusnak,Любовь Руснак,58.2,90,97.5,102.5,102.5,,45,47.5,-52.5,47.5,,110,115,120,120,,270,60,SBD,Raw,Yes,Teen 16-17,17,1999-10-05
2,F,Mariya Mikheeva,Мария Михеева,56.7,75,80,82.5,82.5,,37.5,40,42.5,42.5,,95,97.5,100,100,,225,60,SBD,Raw,Yes,Teen 13-15,14,2002-11-06
1,F,Kseniya Almasova,Ксения Алмасова,59.4,100,107.5,115,115,,50,-57.5,57.5,57.5,,105,115,125,125,,297.5,60,SBD,Raw,Yes,Open,25,1992-04-07
2,F,Ekaterina Chernysheva,Екатерина Чернышева,58.7,-85,85,92.5,92.5,,-52.5,52.5,57.5,57.5,,100,110,120,120,,270,60,SBD,Raw,Yes,Open,41,1976-02-10
3,F,Oksana Chukhlantseva,Оксана Чухланцева,58.6,-95,95,100,100,,45,-50,-50,45,,100,110,115,115,,260,60,SBD,Raw,Yes,Open,30,1987-03-23
1,F,Alyona Pavlenko,Алёна Павленко,63.1,80,85,90,90,,45,47.5,-52.5,47.5,,70,75,80,80,,217.5,67.5,SBD,Raw,Yes,Teen 13-15,13,2003-10-08
DQ,F,Polina Penkova,Полина Пенькова,66.5,95,-100,-100,95,,55,-60,-60,55,,-95,-95,-95,,,,67.5,SBD,Raw,Yes,Teen 13-15,15,2002-08-14
1,F,Tatyana Vorobeva,Татьяна Воробьева,67.4,67.5,70,72.5,72.5,,40,45,-47.5,45,,95,100,-102.5,100,,217.5,67.5,SBD,Raw,Yes,Open,28,1988-12-10
1,F,Anna Stepanova,Анна Степанова,62.1,50,60,65,65,,35,37.5,40,40,,90,95,100,100,,205,67.5,SBD,Raw,Yes,Masters 60-64,60,1957-02-15
1,F,Ekaterina Lutchenko,Екатерина Лутченко,71.7,100,105,110,110,,50,52.5,-55,52.5,,135,142.5,147.5,147.5,,310,75,SBD,Raw,Yes,Open,33,1984-04-02
2,F,Anna Churilina,Анна Чурилина,71.3,-70,70,85,85,,45,50,52.5,52.5,,85,95,102.5,102.5,,240,75,SBD,Raw,Yes,Open,26,1991-04-01
1,M,Mikhail Kuzmin,Михаил Кузьмин,66.3,-120,120,125,125,,-100,100,-105,100,,155,160,167.5,167.5,,392.5,67.5,SBD,Raw,Yes,Open,25,1991-10-31
1,M,Nikolay Emelyanov #2,Николай Емельянов,66.3,110,120,-127.5,120,,85,90,-95,90,,160,170,,170,,380,67.5,SBD,Raw,Yes,Masters 50-54,53,1963-12-30
1,M,Kirill Bakhov,Кирилл Бахов,73.1,180,-192.5,192.5,192.5,,100,-105,-105,100,,200,210,-222.5,210,,502.5,75,SBD,Raw,Yes,Teen 18-19,18,1999-08-05
2,M,Igor Karpov,Игорь Карпов,73.1,130,-150,155,155,,100,107.5,-110,107.5,,200,-207.5,207.5,207.5,,470,75,SBD,Raw,Yes,Teen 18-19,19,1998-09-12
1,M,Aleksandr Kovalenko,Александр Коваленко,72.5,155,165,172.5,172.5,,105,115,-117.5,115,,165,177.5,-192.5,177.5,,465,75,SBD,Raw,Yes,Juniors 20-23,21,1996-07-11
2,M,Oleg Rybchinskiy,Олег Рыбчинский,70.5,95,105,120,120,,90,95,100,100,,120,137.5,-152.5,137.5,,357.5,75,SBD,Raw,Yes,Juniors 20-23,20,1996-12-20
1,M,Anton Mokosin,Антон Мокосин,74.2,152.5,-160,-160,152.5,,122.5,-127.5,-127.5,122.5,,180,192.5,-200,192.5,,467.5,75,SBD,Raw,Yes,Open,30,1987-05-06
2,M,Igor Laryushkin,Игорь Ларюшкин,72.5,-150,-150,150,150,,100,105,110,110,,170,182.5,190,190,,450,75,SBD,Raw,Yes,Open,25,1992-09-15
3,M,Pavel Bukhman,Павел Бухман,74.1,155,165,-175,165,,100,-107.5,-107.5,100,,160,170,180,180,,445,75,SBD,Raw,Yes,Open,27,1990-05-12
1,M,Maksim Novikov,Максим Новиков,81.9,210,220,225,225,,140,145,147.5,147.5,,235,245,252.5,252.5,,625,82.5,SBD,Raw,Yes,Teen 18-19,18,1998-12-11
1,M,Aleksandr Gerasimov,Александр Герасимов,79.2,145,160,170,170,,135,140,-142.5,140,,185,195,200,200,,510,82.5,SBD,Raw,Yes,Juniors 20-23,21,1996-09-12
1,M,Oleg Ershov,Олег Ершов,81.4,220,242.5,-255,242.5,,145,152.5,155,155,,220,245,255,255,,652.5,82.5,SBD,Raw,Yes,Open,26,1991-04-09
2,M,Maksim Novikov,Максим Новиков,81.9,210,220,225,225,,140,145,147.5,147.5,,235,245,252.5,252.5,,625,82.5,SBD,Raw,Yes,Open,18,1998-12-11
3,M,Artem Shasherin,Артем Шашерин,81.8,190,200,210,210,,130,-135,-135,130,,190,200,215,215,,555,82.5,SBD,Raw,Yes,Open,32,1984-11-08
DQ,M,Semen Prokopchuk,Семен Прокопчук,79.1,-140,-145,-145,,,-100,,,,,-150,,,,,,82.5,SBD,Raw,Yes,Open,33,1983-10-07
1,M,Aleksey Panteleev,Алексей Пантелеев,84.2,190,200,210,210,,105,120,130,130,,200,215,230,230,,570,90,SBD,Raw,Yes,Open,34,1983-01-19
2,M,Mikhail Khromchenko,Михаил Хромченко,87,150,160,-170,160,,120,-130,-130,120,,-160,160,-170,160,,440,90,SBD,Raw,Yes,Open,29,1988-01-05
1,M,Igor Ermolaev,Игорь Ермолаев,89.4,195,200,-205,200,,165,-170,-170,165,,220,230,235,235,,600,90,SBD,Raw,Yes,Masters 40-44,43,1974-03-15
1,M,Dmitriy Zabokritskiy,Дмитрий Забокрицкий,97.2,180,190,-200,190,,110,-115,117.5,117.5,,180,195,205,205,,512.5,100,SBD,Raw,Yes,Teen 18-19,19,1997-12-12
1,M,Vasiliy Luchkin,Василий Лучкин,97,210,230,235,235,,170,180,-185,180,,215,230,-240,230,,645,100,SBD,Raw,Yes,Open,28,1989-08-08
2,M,Aleksandr Odinaev,Александр Одинаев,94.7,200,210,215,215,,150,160,-165,160,,240,250,-255,250,,625,100,SBD,Raw,Yes,Open,35,1982-09-11
3,M,Andrey Ilin,Андрей Ильин,98.1,170,180,190,190,,110,-115,115,115,,180,190,197.5,197.5,,502.5,100,SBD,Raw,Yes,Open,29,1988-03-13
1,M,Daniil Katin,Даниил Катин,104.9,210,225,230,230,,120,130,-135,130,,240,260,-270,260,,620,110,SBD,Raw,Yes,Teen 18-19,18,1999-08-24
1,M,Ion Parshikov,Ион Паршиков,107.6,215,225,-230,225,,155,-157.5,157.5,157.5,,225,235,-240,235,,617.5,110,SBD,Raw,Yes,Juniors 20-23,21,1995-10-14
1,M,Anton Bukhman,Антон Бухман,108.9,255,265,275,275,,175,187.5,-197.5,187.5,,270,285,295,295,,757.5,110,SBD,Raw,Yes,Open,29,1988-08-22
2,M,Ion Parshikov,Ион Паршиков,107.6,215,225,-230,225,,155,-157.5,157.5,157.5,,225,235,-240,235,,617.5,110,SBD,Raw,Yes,Open,21,1995-10-14
3,M,Vasiliy Karakashev,Василий Каракашев,107,200,-210,-210,200,,-155,-155,155,155,,-210,-210,210,210,,565,110,SBD,Raw,Yes,Open,28,1988-12-21
1,M,Denis Astakhov,Денис Астахов,115.7,300,-310,-317.5,300,,140,150,-155,150,,285,300,-310,300,,750,125,SBD,Raw,Yes,Open,33,1984-05-21
1,F,Valeriya Shapovalova,Валерия Шаповалова,56,-115,115,120,120,,60,65,67.5,67.5,,145,155,-162.5,155,,342.5,56,SBD,Raw,No,Open,32,1985-08-27
1,F,Yuliya Filant,Юлия Филант,56.7,70,75,80,80,,35,40,-42.5,40,,92.5,102.5,107.5,107.5,,227.5,60,SBD,Raw,No,Open,49,1967-10-11
1,F,Evgeniya Vasileva,Евгения Васильева,67.4,130,140,145.5,145.5,,85,95.5,100,100,,150,177.5,,177.5,,422.5,67.5,SBD,Raw,No,Open,36,1981-08-24
1,F,Viktoriya Doga,Виктория Дога,75.4,105,115,120,120,,82.5,87.5,-90,87.5,,130,-150,155,155,,362.5,82.5,SBD,Raw,No,Open,35,1982-09-04
1,M,Saveliy Gayduk,Савелий Гайдук,71,85,90,,90,,60,62.5,,62.5,,120,-130,,120,,272.5,75,SBD,Raw,No,Masters 60-64,61,1956-01-19
1,M,Aleksandr Gubanov,Александр Губанов,73.7,-65,-70,70,70,,75,80,82.5,82.5,,70,80,100,100,,252.5,75,SBD,Raw,No,Masters 65-69,66,1951-02-06
1,M,Pavel Sheff,Павел Шефф,79.5,185,195,205,205,,135,142.5,-147.5,142.5,,215,235,250,250,,597.5,82.5,SBD,Raw,No,Open,24,1993-07-09
1,M,Dmitriy Batenev,Дмитрий Батенев,89.3,200,215,222.5,222.5,,160,170,-175,170,,220,245,-255,245,,637.5,90,SBD,Raw,No,Open,35,1981-12-07
2,M,Maksim Pyatygin,Максим Пятыгин,87.5,200,210,220,220,,140,145,-150,145,,230,245,-255,245,,610,90,SBD,Raw,No,Open,28,1989-08-20
3,M,Rodion Aunin,Родион Аунин,89,195,-205,215,215,,130,140,-145,140,,225,235,242.5,242.5,,597.5,90,SBD,Raw,No,Open,25,1991-12-09
4,M,Evgeniy Usov,Евгений Усов,86.9,190,200,-207.5,200,,125,135,-150,135,,210,225,235,235,,570,90,SBD,Raw,No,Open,29,1987-12-18
1,M,Artur Beltsov,Артур Бельцов,95.2,250,270,280,280,,182.5,192.5,200,200,,250,275,-297.5,275,,755,100,SBD,Raw,No,Open,35,1982-03-04
2,M,Dmitriy Chernyshev,Дмитрий Чернышев,99.7,230,-240,245,245,,170,180,-190,180,,270,285,-300,285,,710,100,SBD,Raw,No,Open,43,1974-01-22
3,M,Sergey Moiseev,Сергей Моисеев,98.7,210,225,235,235,,150,155,-160,155,,250,262.5,-270,262.5,,652.5,100,SBD,Raw,No,Open,40,1977-08-24
4,M,Anton Rusalenko,Антон Русаленко,99.5,190,202.5,212.5,212.5,,152.5,157.5,-160,157.5,,250,262.5,272.5,272.5,,642.5,100,SBD,Raw,No,Open,29,1987-10-22
5,M,Ilya Senkin,Илья Сенькин,98.7,-190,190,-202.5,190,,160,170,175,175,,190,200,210,210,,575,100,SBD,Raw,No,Open,25,1992-05-22
6,M,Dmitriy Dubkov,Дмитрий Дубков,94.9,160,172.5,185,185,,105,115,122.5,122.5,,215,230,-240,230,,537.5,100,SBD,Raw,No,Open,37,1980-01-29
DQ,M,Aleksandr Smirnov,Александр Смирнов,94.8,210,-220,-220,210,,-180,180,,180,,-270,,,,,,100,SBD,Raw,No,Open,30,1987-02-17
1,M,Roman Shcherbakov,Роман Щербаков,98.7,180,190,200,200,,120,127.5,-135,127.5,,180,195,-205,195,,522.5,100,SBD,Raw,No,Masters 45-49,46,1970-12-19
1,M,Andrey Makarov,Андрей Макаров,102.6,230,245,-255,245,,150,-160,165,165,,-245,245,-290,245,,655,110,SBD,Raw,No,Juniors 20-23,23,1994-06-04
1,M,Aleksandr Vasev,Александр Васев,105.6,310,315.5,,315.5,,190,200,-210.5,200,,320,335,-350,335,,850,110,SBD,Raw,No,Open,26,1991-04-26
2,M,Denis Degtyar,Денис Дегтярь,104.5,250,265,275,275,,150,170,-180,170,,300,-315,-330,300,,745,110,SBD,Raw,No,Open,36,1981-06-24
1,M,Aleksandr Fomichev #2,Александр Фомичев,105.9,190,200,-202.5,200,,155,160,-165,160,,-185,190,195,195,,555,110,SBD,Raw,No,Masters 40-44,41,1976-03-24
1,M,Roman Kuznetsov #1,Роман Кузнецов,115.2,240,-245,250,250,,170,175,180,180,,290,-300,-300,290,,720,125,SBD,Raw,No,Open,36,1981-07-15
2,M,Sergey Smirnov,Сергей Смирнов,123.5,230,250,260,260,,130,150,-160,150,,230,250,270,270,,680,125,SBD,Raw,No,Open,36,1981-09-23
1,M,Maksim Bezinskikh,Максим Безинских,137.7,215,230,237.5,237.5,,180,190,-197.5,190,,215,232.5,240,240,,667.5,140,SBD,Raw,No,Open,31,1986-05-18
1,M,Denis Nikolaev,Денис Николаев,65.8,172.5,180,-190,180,,95,-100,,95,,185,195,-200,195,,470,67.5,SBD,Wraps,Yes,Open,26,1991-07-15
1,M,Ivan Arapov,Иван Арапов,74.3,200,210,220,220,,125,130,135,135,,200,215,-237.5,215,,570,75,SBD,Wraps,Yes,Open,25,1992-08-09
2,M,Nikita Krasavtsev,Никита Красавцев,73.6,160,-170,-180,160,,105,-117.5,-117.5,105,,160,170,182.5,182.5,,447.5,75,SBD,Wraps,Yes,Open,27,1989-11-17
1,M,Aleksandr Vorms,Александр Вормс,73.9,-170,175,185,185,,110,-115,-115,110,,-200,200,210,210,,505,75,SBD,Wraps,Yes,Masters 40-44,42,1975-09-28
1,M,Vladimir Tarasov,Владимир Тарасов,81.5,170,182.5,185,185,,105,-110,-110,105,,200,220,230,230,,520,82.5,SBD,Wraps,Yes,Open,24,1993-09-21
2,M,Aleksandr Popov,Александр Попов,79.5,180,185,190,190,,120,-125,-125,120,,-200,200,205,205,,515,82.5,SBD,Wraps,Yes,Open,28,1989-09-20
DQ,M,Mikhail Korolev,Михаил Королев,87.9,180,-190,-190,180,,155,-160,-160,155,,-210,-210,-210,,,,90,SBD,Wraps,Yes,Open,35,1982-08-25
1,M,Vladimir Baranov,Владимир Баранов,99.2,-225,225,-235,225,,150,155,-160,155,,240,-265,-265,240,,620,100,SBD,Wraps,Yes,Open,38,1979-09-19
2,M,Egor Shlyuev,Егор Шлюев,97.4,-200,200,210,210,,155,160,-162.5,160,,200,212.5,-220,212.5,,582.5,100,SBD,Wraps,Yes,Open,31,1986-01-30
1,M,Nikita Yakovenko,Никита Яковенко,104.7,200,220,225,225,,125,140,-150,140,,-230,-250,260,260,,625,110,SBD,Wraps,Yes,Open,27,1990-09-29
2,M,Sergey Banukhin,Сергей Банухин,105.8,210,225,235,235,,120,130,135,135,,200,215,225,225,,595,110,SBD,Wraps,Yes,Open,32,1985-05-24
1,M,Viktor Bondarenko,Виктор Бондаренко,121.7,-210,220,-230,220,,155,-160,-160,155,,-220,220,235,235,,610,125,SBD,Wraps,Yes,Masters 40-44,40,1976-10-21
1,F,Anna Pardzhiani,Анна Парджиани,79.1,-170,180,-195,180,,95,100,-105,100,,160,170,-180,170,,450,82.5,SBD,Wraps,No,Juniors 20-23,20,1996-11-06
1,M,Sergey Smirnov,Сергей Смирнов,81.9,260,270,280,280,,170,-180,-180,170,,280,290,-300,290,,740,82.5,SBD,Wraps,No,Open,29,1988-06-28
2,M,Maksim Kalinin,Максим Калинин,82,-210,215,-222.5,215,,125,130,132.5,132.5,,210,220,-225,220,,567.5,82.5,SBD,Wraps,No,Open,30,1987-03-29
3,M,Aleksey Grobovoy,Алексей Гробовой,80.5,180,-190,200,200,,-130,135,140,140,,190,205,220,220,,560,82.5,SBD,Wraps,No,Open,30,1987-05-02
1,M,Kirill Ermolovich,Кирилл Ермолович,89.1,240,252.5,260,260,,155,162.5,-167.5,162.5,,230,240,-250,240,,662.5,90,SBD,Wraps,No,Open,30,1987-01-28
1,M,Pavel Kobelev,Павел Кобелев,94.4,260,280,-290,280,,175,182.5,-190,182.5,,300,320,-355,320,,782.5,100,SBD,Wraps,No,Open,28,1989-08-04
2,M,Evgeniy Bukhalko,Евгений Бухалко,98.5,185,-195,-195,185,,-145,145,-152.5,145,,210,220,230,230,,560,100,SBD,Wraps,No,Open,33,1984-05-08
1,M,Nikita Yudenkov,Никита Юденков,109.9,210,-230,230,230,,155,165,175,175,,265,280,295,295,,700,110,SBD,Wraps,No,Juniors 20-23,20,1996-12-11
1,M,Evgeniy Antonyan,Евгений Антонян,100.8,250,-270,270,270,,-205,210,215,215,,210,235,,235,,720,110,SBD,Wraps,No,Open,22,1995-07-07
1,M,Nikolay Khlopchur,Николай Хлопчур,123.2,280,290,300,300,,182.5,-190,-190,182.5,,305,315,320,320,,802.5,125,SBD,Wraps,No,Open,30,1987-09-18
2,M,Aleksandr Komkov,Александр Комков,116.2,300,315,-325,315,,210,-215,-215,210,,265,-275,,265,,790,125,SBD,Wraps,No,Open,33,1983-11-26
3,M,Andrey Zolotarenok,Андрей Золотаренок,112.4,200,215,-230,215,,150,-160,165,165,,-210,210,220,220,,600,125,SBD,Wraps,No,Open,38,1978-11-23
1,M,Sergey Odegov,Сергей Одегов,135.7,320,-335,-335,320,,220,-235,,220,,325,340,360,360,,900,140,SBD,Wraps,No,Open,40,1976-10-02
1,M,Ruslan Tavtilov,Руслан Тавтилов,81.8,-240,240,250,250,,160,-170,-170,160,,-230,230,-250,230,,640,82.5,SBD,Single-ply,Yes,Open,37,1980-02-26
1,M,Artem Krot,Артем Крот,106.3,310,-320,-320,310,,150,160,170,170,,320,335,350,350,,830,110,SBD,Single-ply,No,Juniors 20-23,21,1995-10-03
1,F,Darya Fatykhova,Дарья Фатыхова,55.9,110,,,110,,,,,,,,,,,,110,56,S,Raw,Yes,Juniors 20-23,23,1994-06-07
1,F,Alyona Pavlenko,Алёна Павленко,63.1,90,,,90,,,,,,,,,,,,90,67.5,S,Raw,Yes,Teen 13-15,13,2003-10-08
1,M,Kirill Bakhov,Кирилл Бахов,73.1,192.5,,,192.5,,,,,,,,,,,,192.5,75,S,Raw,Yes,Teen 18-19,18,1999-08-05
1,M,Roman Panfilov,Роман Панфилов,96.4,160,-225,-225,160,,,,,,,,,,,,160,100,S,Raw,Yes,Masters 40-44,41,1976-07-15
1,M,Ion Parshikov,Ион Паршиков,107.6,225,,,225,,,,,,,,,,,,225,110,S,Raw,Yes,Juniors 20-23,21,1995-10-14
1,M,Denis Astakhov,Денис Астахов,115.7,300,,,300,,,,,,,,,,,,300,125,S,Raw,Yes,Open,33,1984-05-21
1,M,Evgeniy Kovtun,Евгений Ковтун,90.2,205,225,-235,225,,,,,,,,,,,,225,100,S,Raw,No,Open,35,1982-09-21
1,M,Denis Degtyar,Денис Дегтярь,104.5,275,,,275,,,,,,,,,,,,275,110,S,Raw,No,Open,36,1981-06-24
1,M,Ruslan Subotin,Руслан Суботин,82.3,-160,160,-180,160,,,,,,,,,,,,160,82.5,S,Wraps,Yes,Open,27,1989-12-24
1,M,Evgeniy Kovtun,Евгений Ковтун,90.2,215,225,235,235,,,,,,,,,,,,235,100,S,Wraps,No,Open,35,1982-09-21
2,M,Evgeniy Bukhalko,Евгений Бухалко,98.5,185,,,185,,,,,,,,,,,,185,100,S,Wraps,No,Open,33,1984-05-08
1,M,Andrey Marmoza,Андрей Мармоза,80.5,235,-250,250,250,,,,,,,,,,,,250,82.5,S,Multi-ply,Yes,Open,57,1959-12-12
1,F,Aleksandra Lesnevskaya,Александра Лесневская,52,,,,,,52.5,-57.5,-57.5,52.5,,90,100,107.5,107.5,,160,52,BD,Raw,Yes,Teen 16-17,16,2000-11-26
1,F,Ekaterina Surovtseva,Екатерина Суровцева,59.4,,,,,,45,50,-52.5,50,,85,95,100,100,,150,60,BD,Raw,Yes,Open,26,1991-06-07
1,F,Ekaterina Gudkova,Екатерина Гудкова,61.1,,,,,,-55,55,65,65,,110,117.5,125,125,,190,67.5,BD,Raw,Yes,Open,35,1982-08-25
2,F,Anna Serdyukova,Анна Сердюкова,66.7,,,,,,67.5,-70,-70,67.5,,-117.5,-117.5,117.5,117.5,,185,67.5,BD,Raw,Yes,Open,47,1970-08-25
3,F,Tatyana Vorobeva,Татьяна Воробьева,67.5,,,,,,40,45,-47.5,45,,95,100,-102.5,100,,145,67.5,BD,Raw,Yes,Open,28,1988-12-10
1,M,Artem Porubaev,Артем Порубаев,71.8,,,,,,-100,100,-110,100,,170,182.5,-195,182.5,,282.5,75,BD,Raw,Yes,Juniors 20-23,23,1994-09-22
1,M,Sergey Abrosimov,Сергей Абросимов,81.7,,,,,,125,127.5,130,130,,180,192.5,200,200,,330,82.5,BD,Raw,Yes,Open,32,1985-06-04
1,M,Valeriy Vorobev,Валерий Воробьев,87.4,,,,,,127.5,-132.5,-132.5,127.5,,190,-200,-200,190,,317.5,90,BD,Raw,Yes,Open,31,1986-02-08
1,M,Ion Parshikov,Ион Паршиков,107.6,,,,,,157.5,,,157.5,,235,,,235,,392.5,110,BD,Raw,Yes,Juniors 20-23,21,1995-10-14
1,M,Ion Parshikov,Ион Паршиков,107.6,,,,,,157.5,,,157.5,,235,,,235,,392.5,110,BD,Raw,Yes,Open,21,1995-10-14
1,F,Mariya Onishchenko,Мария Онищенко,58.8,,,,,,40,45,-50,45,,-75,75,100,100,,145,60,BD,Raw,No,Open,27,1990-09-18
1,F,Natalya Lovtsova,Наталья Ловцова,74.3,,,,,,110,-117.5,-120,110,,170,180,-195,180,,290,75,BD,Raw,No,Open,31,1986-05-29
1,M,Saveliy Gayduk,Савелий Гайдук,71,,,,,,62.5,,,62.5,,120,-130,,120,,182.5,75,BD,Raw,No,Masters 60-64,61,1956-01-19
1,M,Evgeniy Bukhalko,Евгений Бухалко,98.5,,,,,,-145,145,,145,,230,,,230,,375,100,BD,Raw,No,Open,33,1984-05-08
2,M,Dmitriy Dubkov,Дмитрий Дубков,94.6,,,,,,122.5,,,122.5,,215,230,-240,230,,352.5,100,BD,Raw,No,Open,37,1980-01-29
1,M,Vasiliy Markitantov,Василий Маркитантов,107,,,,,,205,210,215,215,,-230,230,250,250,,465,110,BD,Raw,No,Open,37,1980-02-21
1,F,Elena Shushkova,Елена Шушкова,48,,,,,,50,55,-57.5,55,,,,,,,55,48,B,Raw,Yes,Open,28,1989-04-02
2,F,Evgeniya Afanasenko,Евгения Афанасенко,44.6,,,,,,37.5,-42.5,-42.5,37.5,,,,,,,37.5,48,B,Raw,Yes,Open,36,1981-08-17
1,F,Aleksandra Lesnevskaya,Александра Лесневская,52,,,,,,52.5,,,52.5,,,,,,,52.5,52,B,Raw,Yes,Teen 16-17,16,2000-11-26
1,F,Marina Samsonova,Марина Самсонова,51.3,,,,,,50,-55,-55,50,,,,,,,50,52,B,Raw,Yes,Open,31,1985-11-05
1,F,Darya Fatykhova,Дарья Фатыхова,55.9,,,,,,62.5,,,62.5,,,,,,,62.5,56,B,Raw,Yes,Juniors 20-23,23,1994-06-07
1,F,Darya Ivanova,Дарья Иванова,55.8,,,,,,55,57.5,60,60,,,,,,,60,56,B,Raw,Yes,Open,27,1990-05-03
2,F,Anna Gulyaeva,Анна Гуляева,56,,,,,,-50,-50,50,50,,,,,,,50,56,B,Raw,Yes,Open,30,1987-02-24
1,F,Olga Gurevich,Ольга Гуревич,64.2,,,,,,40,45,-47.5,45,,,,,,,45,67.5,B,Raw,Yes,Open,32,1985-02-21
1,F,Natalya Ogryzko,Наталья Огрызько,66,,,,,,100,105,,105,,,,,,,105,67.5,B,Raw,Yes,Masters 40-44,42,1975-07-12
2,F,Mariya Vinogradova,Мария Виноградова,63.4,,,,,,50,-60,60,60,,,,,,,60,67.5,B,Raw,Yes,Masters 40-44,42,1975-08-01
1,F,Elena Dmitrieva,Елена Дмитриева,70.8,,,,,,47.5,52.5,-57.5,52.5,,,,,,,52.5,75,B,Raw,Yes,Masters 40-44,42,1974-11-03
1,M,Ivan Nikitinskiy,Иван Никитинский,46.5,,,,,,-37.5,40,-42.5,40,,,,,,,40,52,B,Raw,Yes,Teen 13-15,13,2004-07-07
1,M,Ivan Yudin,Иван Юдин,58.2,,,,,,85,87.5,90,90,,,,,,,90,60,B,Raw,Yes,Open,27,1989-11-12
1,M,Artem Ogolev,Артем Оголев,72.8,,,,,,117.5,-125,-125,117.5,,,,,,,117.5,75,B,Raw,Yes,Juniors 20-23,21,1996-04-08
2,M,Arkadiy Krivtsov,Аркадий Кривцов,74,,,,,,-117.5,117.5,-125,117.5,,,,,,,117.5,75,B,Raw,Yes,Juniors 20-23,21,1996-09-11
3,M,Andrey Shikhiev,Андрей Шихиев,74.9,,,,,,100,-105,-105,100,,,,,,,100,75,B,Raw,Yes,Juniors 20-23,21,1995-10-18
1,M,Roman Grinev,Роман Гринев,72.7,,,,,,145,150,-155,150,,,,,,,150,75,B,Raw,Yes,Open,32,1984-11-15
2,M,Arutyun Sargasyan,Арутюн Саргасян,74.3,,,,,,150,-155,-155,150,,,,,,,150,75,B,Raw,Yes,Open,33,1983-12-06
3,M,Vyacheslav Buyanov,Вячеслав Буянов,71.2,,,,,,135,145,-155,145,,,,,,,145,75,B,Raw,Yes,Open,29,1988-03-24
4,M,Elchin Verdiev,Эльчин Вердиев,75,,,,,,125,-130,-130,125,,,,,,,125,75,B,Raw,Yes,Open,33,1984-01-01
5,M,Nikita Krasavtsev,Никита Красавцев,73.6,,,,,,105,,,105,,,,,,,105,75,B,Raw,Yes,Open,27,1989-11-17
6,M,Mikhail Pavlov,Михаил Павлов,71.6,,,,,,95,100,-105,100,,,,,,,100,75,B,Raw,Yes,Open,27,1989-11-16
7,M,Anton Strugov,Антон Стругов,72,,,,,,100,-110,-117.5,100,,,,,,,100,75,B,Raw,Yes,Open,30,1987-01-11
1,M,Sergey Toming,Сергей Томинг,71.1,,,,,,112.5,117.5,122.5,122.5,,,,,,,122.5,75,B,Raw,Yes,Masters 45-49,48,1968-12-09
1,M,Sergey Biryukov #2,Сергей Бирюков,82.2,,,,,,155,157.5,-162.5,157.5,,,,,,,157.5,82.5,B,Raw,Yes,Open,35,1982-01-10
2,M,Artem Khabarov,Артем Хабаров,80.6,,,,,,150,155,-160,155,,,,,,,155,82.5,B,Raw,Yes,Open,32,1985-04-14
3,M,Andrey Grigorchuk,Андрей Григорчук,79.8,,,,,,140,145,-150,145,,,,,,,145,82.5,B,Raw,Yes,Open,27,1990-01-12
4,M,Sergey Abrosimov,Сергей Абросимов,81.7,,,,,,130,,,130,,,,,,,130,82.5,B,Raw,Yes,Open,32,1985-06-04
5,M,Roman Raginya,Роман Рагиня,80.8,,,,,,117.5,-122.5,-122.5,117.5,,,,,,,117.5,82.5,B,Raw,Yes,Open,25,1992-05-31
DQ,M,Denis Pakhomov,Денис Пахомов,80,,,,,,-105,-115,-120,,,,,,,,,82.5,B,Raw,Yes,Open,32,1985-03-04
1,M,Gennadiy Grigorev,Геннадий Григорьев,81.2,,,,,,120,-127.5,-127.5,120,,,,,,,120,82.5,B,Raw,Yes,Masters 45-49,49,1967-11-27
1,M,Aleksandr Mikhaylov,Александр Михайлов,80.8,,,,,,82.5,87.5,90,90,,,,,,,90,82.5,B,Raw,Yes,Masters 55-59,58,1958-12-09
1,M,Igor Popov,Игорь Попов,80.5,,,,,,120,-127.5,-127.5,120,,,,,,,120,82.5,B,Raw,Yes,Masters 60-64,60,1957-04-11
1,M,Alan Torov,Алан Торов,89.3,,,,,,115,125,-132.5,125,,,,,,,125,90,B,Raw,Yes,Juniors 20-23,23,1994-02-27
1,M,Oleg Kuznetsov,Олег Кузнецов,89.5,,,,,,165,175,-180,175,,,,,,,175,90,B,Raw,Yes,Open,27,1990-09-09
2,M,Mikhail Korolev,Михаил Королев,87.9,,,,,,155,,,155,,,,,,,155,90,B,Raw,Yes,Open,35,1982-08-25
3,M,Eradzh Azizov,Эрадж Азизов,89.2,,,,,,140,-145,145,145,,,,,,,145,90,B,Raw,Yes,Open,28,1988-12-23
4,M,Dmitriy Antonenkov,Дмитрий Антоненков,86.1,,,,,,140,-147.5,-152.5,140,,,,,,,140,90,B,Raw,Yes,Open,36,1981-08-21
1,M,Igor Ermolaev,Игорь Ермолаев,89.4,,,,,,165,,,165,,,,,,,165,90,B,Raw,Yes,Masters 40-44,43,1974-03-15
2,M,Yuriy Lebedev,Юрий Лебедев,86.7,,,,,,135,145,-152.5,145,,,,,,,145,90,B,Raw,Yes,Masters 40-44,42,1975-02-25
3,M,Sergey Kulpin,Сергей Кульпин,89.3,,,,,,120,125,132.5,132.5,,,,,,,132.5,90,B,Raw,Yes,Masters 40-44,44,1973-01-11
1,M,Aleksandr Brodskiy,Александр Бродский,89.1,,,,,,122.5,125,127.5,127.5,,,,,,,127.5,90,B,Raw,Yes,Masters 50-54,53,1964-05-26
1,M,Pavel Kochurov,Павел Кочуров,99.3,,,,,,170,185,190.5,190.5,,,,,,,190.5,100,B,Raw,Yes,Juniors 20-23,21,1996-06-04
1,M,Igor Veselov,Игорь Веселов,98.9,,,,,,170,177.5,-185,177.5,,,,,,,177.5,100,B,Raw,Yes,Open,27,1990-01-11
2,M,Vitaliy Danilov,Виталий Данилов,92,,,,,,-155,-160,160,160,,,,,,,160,100,B,Raw,Yes,Open,31,1986-08-23
3,M,Egor Shlyuev,Егор Шлюев,97.4,,,,,,160,,,160,,,,,,,160,100,B,Raw,Yes,Open,31,1986-01-30
4,M,Ildar Suleymanov,Ильдар Сулейманов,98.4,,,,,,155,-160,160,160,,,,,,,160,100,B,Raw,Yes,Open,24,1992-11-29
5,M,Dmitriy Ivanov,Дмитрий Иванов,95.5,,,,,,-150,155,-162.5,155,,,,,,,155,100,B,Raw,Yes,Open,27,1990-03-09
1,M,Sergey Shamov,Сергей Шамов,98.2,,,,,,155,165,-170,165,,,,,,,165,100,B,Raw,Yes,Masters 40-44,44,1973-08-21
1,M,Igor Popov,Игорь Попов,97.2,,,,,,140,150,-160,150,,,,,,,150,100,B,Raw,Yes,Masters 50-54,52,1965-09-11
1,M,Aleksandr Karpov,Александр Карпов,106,,,,,,150,167.5,-175,167.5,,,,,,,167.5,110,B,Raw,Yes,Juniors 20-23,20,1996-11-13
2,M,Ion Parshikov,Ион Паршиков,107.6,,,,,,157.5,,,157.5,,,,,,,157.5,110,B,Raw,Yes,Juniors 20-23,21,1995-10-14
1,M,Denis Malchikov,Денис Мальчиков,102.4,,,,,,205,215,,215,,,,,,,215,110,B,Raw,Yes,Open,37,1980-06-12
2,M,Nikolay Terentev,Николай Терентьев,109,,,,,,167.5,195,-210,195,,,,,,,195,110,B,Raw,Yes,Open,26,1991-04-29
3,M,Aleksey Konoplev,Алексей Коноплев,108.2,,,,,,177.5,185,190,190,,,,,,,190,110,B,Raw,Yes,Open,32,1985-05-08
4,M,Dmitriy Belyaev,Дмитрий Беляев,109,,,,,,-167.5,167.5,-172.5,167.5,,,,,,,167.5,110,B,Raw,Yes,Open,33,1984-06-12
1,M,Mikhail Ivanov,Михаил Иванов,109.3,,,,,,155,165,170,170,,,,,,,170,110,B,Raw,Yes,Masters 40-44,41,1976-07-02
1,M,Andrey Fedorov,Андрей Федоров,102.9,,,,,,140,-145,,140,,,,,,,140,110,B,Raw,Yes,Masters 50-54,51,1965-10-16
1,M,Anatoliy Zolotov,Анатолий Золотов,121.7,,,,,,195,202.5,-207.5,202.5,,,,,,,202.5,125,B,Raw,Yes,Open,45,1972-04-13
2,M,Aleksandr Pechikin,Александр Печикин,122,,,,,,155,-160,160,160,,,,,,,160,125,B,Raw,Yes,Open,33,1984-05-09
1,M,Andrey Kiryanov,Андрей Кирьянов,120.1,,,,,,190,200,-205,200,,,,,,,200,125,B,Raw,Yes,Masters 40-44,43,1974-05-21
1,M,Andrey Peshkov,Андрей Пешков,121,,,,,,177.5,182.5,187.5,187.5,,,,,,,187.5,125,B,Raw,Yes,Masters 50-54,53,1963-11-05
1,M,Nikolay Demennik,Николай Деменник,136,,,,,,157.5,-182.5,-182.5,157.5,,,,,,,157.5,140,B,Raw,Yes,Open,33,1983-11-04
1,F,Evgeniya Vasileva,Евгения Васильева,67.4,,,,,,95,102.5,105,105,,,,,,,105,67.5,B,Raw,No,Open,36,1981-08-24
2,F,Inga Galich,Инга Галич,66.6,,,,,,95,-100,-100,95,,,,,,,95,67.5,B,Raw,No,Open,47,1970-01-18
3,F,Olga Ievleva,Ольга Иевлева,62,,,,,,65,70,75,75,,,,,,,75,67.5,B,Raw,No,Open,30,1987-01-22
1,F,Elena Vinogradova,Елена Виноградова,71.5,,,,,,-95,95,-110,95,,,,,,,95,75,B,Raw,No,Open,31,1986-02-03
1,F,Elena Gamolina,Елена Гамолина,74.1,,,,,,70,75,80,80,,,,,,,80,75,B,Raw,No,Masters 55-59,56,1961-01-17
1,F,Evgeniya Mazanova,Евгения Мазанова,80.1,,,,,,97.5,107.5,-115,107.5,,,,,,,107.5,82.5,B,Raw,No,Open,31,1986-06-28
1,M,Ivan Mochalov,Иван Мочалов,72.7,,,,,,120,130,-135,130,,,,,,,130,75,B,Raw,No,Teen 18-19,19,1997-12-13
DQ,M,Aleksandr Rybkin,Александр Рыбкин,73,,,,,,-130,-130,-130,,,,,,,,,75,B,Raw,No,Open,26,1991-07-30
1,M,Denis Kolesnikov,Денис Колесников,69,,,,,,-125,125,-127.5,125,,,,,,,125,75,B,Raw,No,Masters 40-44,42,1975-06-18
1,M,Konstantin Nikitin,Константин Никитин,70.9,,,,,,130,-140,-140,130,,,,,,,130,75,B,Raw,No,Masters 45-49,47,1970-05-28
1,M,Aleksandr Chashchin,Александр Чащин,80.8,,,,,,130,142.5,147.5,147.5,,,,,,,147.5,82.5,B,Raw,No,Open,30,1987-06-15
1,M,Andrey Tuchin,Андрей Тучин,81.4,,,,,,130,-135,140,140,,,,,,,140,82.5,B,Raw,No,Masters 40-44,43,1974-02-05
1,M,Valerian Tenishev,Валериан Тенишев,78.2,,,,,,130,140,-145,140,,,,,,,140,82.5,B,Raw,No,Masters 50-54,53,1963-11-17
1,M,Nikita Kulpin,Никита Кульпин,87.9,,,,,,150,-155,,150,,,,,,,150,90,B,Raw,No,Juniors 20-23,23,1993-10-11
DQ,M,Ruslan Kokoev,Руслан Кокоев,87.2,,,,,,-170,-175,-175,,,,,,,,,90,B,Raw,No,Juniors 20-23,21,1996-04-11
1,M,Sergey Baev,Сергей Баев,89,,,,,,155,160,162.5,162.5,,,,,,,162.5,90,B,Raw,No,Open,37,1980-09-24
1,M,Andris Leykutsis,Андрис Лейкуцис,82.7,,,,,,115,-117.5,-117.5,115,,,,,,,115,90,B,Raw,No,Masters 40-44,42,1975-06-25
1,M,Dmitriy Polunin,Дмитрий Полунин,98.3,,,,,,190,197.5,200,200,,,,,,,200,100,B,Raw,No,Open,25,1991-10-12
2,M,Ivan Solntsev,Иван Солнцев,98.7,,,,,,185,195,-200,195,,,,,,,195,100,B,Raw,No,Open,43,1974-03-25
3,M,Stanislav Kandaurov,Станислав Кандауров,93.8,,,,,,185,192.5,-200,192.5,,,,,,,192.5,100,B,Raw,No,Open,27,1990-05-26
4,M,Yuriy Grafas,Юрий Графас,98.2,,,,,,165,-185,-185,165,,,,,,,165,100,B,Raw,No,Open,36,1981-03-12
5,M,Vyacheslav Biryukov,Вячеслав Бирюков,92.4,,,,,,150,-160,160,160,,,,,,,160,100,B,Raw,No,Open,35,1982-08-07
6,M,Yuriy Emelyanov,Юрий Емельянов,97.9,,,,,,140,150,160,160,,,,,,,160,100,B,Raw,No,Open,29,1988-09-13
7,M,Konstantin Timoshchuk,Константин Тимощук,97.6,,,,,,115,117.5,127.5,127.5,,,,,,,127.5,100,B,Raw,No,Open,27,1990-01-29
1,M,Ivan Solntsev,Иван Солнцев,98.7,,,,,,185,195,-200,195,,,,,,,195,100,B,Raw,No,Masters 40-44,43,1974-03-25
2,M,Aleksey Kovrigin,Алексей Ковригин,98.2,,,,,,185,-195,-195,185,,,,,,,185,100,B,Raw,No,Masters 40-44,42,1975-08-18
3,M,Aleksandr Lyashenko,Александр Ляшенко,99.8,,,,,,170,180,-185,180,,,,,,,180,100,B,Raw,No,Masters 40-44,40,1977-01-22
1,M,Sergey Barkovskiy,Сергей Барковский,98.5,,,,,,190,-200,200,200,,,,,,,200,100,B,Raw,No,Masters 45-49,45,1971-12-06
1,M,Evgeniy Antonyan,Евгений Антонян,100.8,,,,,,205,225.5,,225.5,,,,,,,225.5,110,B,Raw,No,Open,22,1995-07-07
2,M,Vasiliy Markitantov,Василий Маркитантов,107,,,,,,215,,,215,,,,,,,215,110,B,Raw,No,Open,37,1980-02-21
3,M,Denis Deryagin,Денис Дерягин,108.6,,,,,,192.5,202.5,207.5,207.5,,,,,,,207.5,110,B,Raw,No,Open,37,1980-02-28
4,M,Pavel Veresov,Павел Вересов,109.7,,,,,,195,200,205,205,,,,,,,205,110,B,Raw,No,Open,35,1981-12-05
5,M,Ruslan Krasnostanov,Руслан Красностанов,106,,,,,,182.5,192.5,200,200,,,,,,,200,110,B,Raw,No,Open,28,1989-02-11
6,M,Ivan Anikanov,Иван Аниканов,109.5,,,,,,180,192.5,-195,192.5,,,,,,,192.5,110,B,Raw,No,Open,35,1982-07-23
7,M,Sergey Nemnonov,Сергей Немнонов,107.8,,,,,,155,167.5,-175,167.5,,,,,,,167.5,110,B,Raw,No,Open,33,1984-08-29
1,M,Konstantin Khramtsov,Константин Храмцов,101.8,,,,,,180,185,-190,185,,,,,,,185,110,B,Raw,No,Masters 40-44,43,1974-09-17
1,M,Aleksey Mikhaylov,Алексей Михайлов,110.8,,,,,,200,207.5,-210,207.5,,,,,,,207.5,125,B,Raw,No,Open,31,1986-07-23
2,M,Denis Karabak,Денис Карабак,123.8,,,,,,195,-205,-205,195,,,,,,,195,125,B,Raw,No,Open,35,1982-09-12
3,M,Aleksandr Merkulov,Александр Меркулов,120.4,,,,,,160,167.5,-170,167.5,,,,,,,167.5,125,B,Raw,No,Open,33,1984-02-10
1,M,Denis Chistotin,Денис Чистотин,124.6,,,,,,165,170,175,175,,,,,,,175,125,B,Raw,No,Masters 40-44,42,1975-05-14
1,M,Anatoliy Ivanyuk,Анатолий Иванюк,129.9,,,,,,195,-205,205,205,,,,,,,205,140,B,Raw,No,Open,26,1991-05-26
2,M,Oleg Kuryachiy,Олег Курячий,127,,,,,,190,200,-210,200,,,,,,,200,140,B,Raw,No,Open,24,1993-04-17
DQ,M,Pavel Nikolovskiy,Павел Николовский,74,,,,,,-185,-192.5,-197.5,,,,,,,,,75,B,Single-ply,Yes,Open,39,1978-05-08
1,M,Petr Golubev,Петр Голубев,89,,,,,,155,165,-170,165,,,,,,,165,90,B,Single-ply,Yes,Open,27,1990-07-03
1,M,Dmitriy Patyupin,Дмитрий Патюпин,104.3,,,,,,235,250,262.5,262.5,-270,,,,,,262.5,110,B,Single-ply,Yes,Open,25,1991-11-28
1,M,Sergey Belikov,Сергей Беликов,99.8,,,,,,-255,-255,255,255,,,,,,,255,100,B,Single-ply,No,Open,52,1964-09-30
2,M,Ivan Solntsev,Иван Солнцев,98.7,,,,,,-240,240,-260,240,,,,,,,240,100,B,Single-ply,No,Open,43,1974-03-25
1,M,Sergey Belikov,Сергей Беликов,99.8,,,,,,-255,-255,255,255,,,,,,,255,100,B,Single-ply,No,Masters 50-54,52,1964-09-30
1,F,Natalya Pilipyuk,Наталья Пилипюк,54.8,,,,,,,,,,,137.5,142.5,-147.5,142.5,,142.5,56,D,Raw,Yes,Open,33,1983-12-21
1,F,Alena Timofeeva,Алена Тимофеева,59.8,,,,,,,,,,,90,100,-115,100,,100,60,D,Raw,Yes,Juniors 20-23,21,1996-05-28
1,F,Ekaterina Lutchenko,Екатерина Лутченко,71.7,,,,,,,,,,,147.5,,,147.5,,147.5,75,D,Raw,Yes,Open,33,1984-04-02
1,M,Oleg Kraynikov,Олег Крайников,67,,,,,,,,,,,160,170,180,180,,180,67.5,D,Raw,Yes,Open,29,1987-10-17
2,M,Adam Vindugov,Адам Виндугов,67.4,,,,,,,,,,,150,170,175,175,,175,67.5,D,Raw,Yes,Open,24,1992-11-03
1,M,Kirill Bakhov,Кирилл Бахов,73.1,,,,,,,,,,,210,,,210,,210,75,D,Raw,Yes,Teen 18-19,18,1999-08-05
2,M,Artem Novikov,Артем Новиков,74.2,,,,,,,,,,,-182.5,182.5,-207.5,182.5,,182.5,75,D,Raw,Yes,Teen 18-19,18,1999-02-13
3,M,Pavel Golod,Павел Голод,72.9,,,,,,,,,,,160,-170,-170,160,,160,75,D,Raw,Yes,Teen 18-19,18,1999-07-05
1,M,Igor Laryushkin,Игорь Ларюшкин,72.5,,,,,,,,,,,190,,,190,,190,75,D,Raw,Yes,Open,25,1992-09-15
1,M,Aleksandr Vorms,Александр Вормс,73.9,,,,,,,,,,,210,,,210,,210,75,D,Raw,Yes,Masters 40-44,42,1975-09-28
1,M,Dmitriy Yaskevich,Дмитрий Яскевич,79.9,,,,,,,,,,,195,205,215,215,,215,82.5,D,Raw,Yes,Juniors 20-23,20,1997-01-24
1,M,Andrey Grigorchuk,Андрей Григорчук,79.8,,,,,,,,,,,210,220,225,225,,225,82.5,D,Raw,Yes,Open,27,1990-01-12
2,M,Vadim Sokolnikov,Вадим Сокольников,80.4,,,,,,,,,,,-190,190,205,205,,205,82.5,D,Raw,Yes,Open,28,1988-12-17
3,M,Sergey Abrosimov,Сергей Абросимов,81.7,,,,,,,,,,,200,,,200,,200,82.5,D,Raw,Yes,Open,32,1985-06-04
4,M,Denis Pakhomov,Денис Пахомов,80,,,,,,,,,,,150,160,180,180,,180,82.5,D,Raw,Yes,Open,32,1985-03-04
5,M,Nikita Kalinin,Никита Калинин,81,,,,,,,,,,,170,-180,-180,170,,170,82.5,D,Raw,Yes,Open,26,1991-02-23
1,M,Nazariy Kulyk,Назарий Кулык,89,,,,,,,,,,,265,275,285,285,,285,90,D,Raw,Yes,Juniors 20-23,20,1997-04-17
2,M,Nikita Malyshkin,Никита Малышкин,84.9,,,,,,,,,,,202.5,215,-230,215,,215,90,D,Raw,Yes,Juniors 20-23,21,1995-12-01
1,M,Aleksandr Apaev,Александр Апаев,85.6,,,,,,,,,,,230,250,265,265,,265,90,D,Raw,Yes,Open,28,1988-11-26
2,M,Anton Gryazev,Антон Грязев,86.9,,,,,,,,,,,240,250,257.5,257.5,,257.5,90,D,Raw,Yes,Open,30,1987-06-05
3,M,Aleksandr Gorlov,Александр Горлов,88.8,,,,,,,,,,,200,215,225,225,,225,90,D,Raw,Yes,Open,36,1980-11-25
1,M,Vyacheslav Varlamov,Вячеслав Варламов,87.6,,,,,,,,,,,180,192.5,202.5,202.5,,202.5,90,D,Raw,Yes,Masters 40-44,42,1975-04-30
1,M,Aleksandr Odinaev,Александр Одинаев,94.7,,,,,,,,,,,250,,,250,,250,100,D,Raw,Yes,Open,35,1982-09-11
2,M,Timofey Kulishov,Тимофей Кулишов,90.6,,,,,,,,,,,-230,230,-240,230,,230,100,D,Raw,Yes,Open,32,1985-07-29
DD,M,Ivan Novikov,Иван Новиков,96.6,,,,,,,,,,,260,277.5,-285,277.5,,,100,D,Raw,Yes,Juniors 20-23,21,1996-05-23
DD,M,Ivan Novikov,Иван Новиков,96.6,,,,,,,,,,,260,277.5,-285,277.5,,,100,D,Raw,Yes,Open,21,1996-05-23
1,M,Ion Parshikov,Ион Паршиков,107.6,,,,,,,,,,,235,,,235,,235,110,D,Raw,Yes,Juniors 20-23,21,1995-10-14
1,M,Nikita Tulyakov,Никита Туляков,108.7,,,,,,,,,,,240,250,260,260,,260,110,D,Raw,Yes,Open,29,1988-02-23
2,M,Mikhail Anchukov,Михаил Анчуков,107.4,,,,,,,,,,,-190,190,-215,190,,190,110,D,Raw,Yes,Open,30,1987-03-11
1,M,Martin Sizhazhev,Мартин Сижажев,124.5,,,,,,,,,,,185,-195,-200,185,,185,125,D,Raw,Yes,Juniors 20-23,22,1995-09-21
1,F,Yuliya Sayfullina,Юлия Сайфуллина,58.6,,,,,,,,,,,100,110,120,120,,120,60,D,Raw,No,Open,32,1985-03-25
1,M,Dmitriy Timofeev,Дмитрий Тимофеев,89.1,,,,,,,,,,,310,330,-340,330,,330,90,D,Raw,No,Open,30,1987-02-21
1,M,Pavel Kobelev,Павел Кобелев,94.4,,,,,,,,,,,320,,,320,,320,100,D,Raw,No,Open,28,1989-08-04
2,M,Anton Rusalenko,Антон Русаленко,99.5,,,,,,,,,,,272.5,,,272.5,,272.5,100,D,Raw,No,Open,29,1987-10-22
DQ,M,Anatoliy Kovalev,Анатолий Ковалев,96.4,,,,,,,,,,,-260,-280,-290,,,,100,D,Raw,No,Open,26,1991-08-01
1,M,Aleksandr Malikov,Александр Маликов,99.1,,,,,,,,,,,250,262.5,272.5,272.5,275,272.5,100,D,Raw,No,Masters 40-44,44,1972-12-21
1,M,Vladimir Dergunov,Владимир Дергунов,105.3,,,,,,,,,,,320,350,-365,350,,350,110,D,Raw,No,Open,26,1991-03-09
DQ,M,Denis Degtyar,Денис Дегтярь,104.5,,,,,,,,,,,-330,,,,,,110,D,Raw,No,Open,36,1981-06-24
1,M,Aleksandr Luzanov,Александр Лузанов,118.5,,,,,,,,,,,-275,275,-290,275,,275,125,D,Raw,No,Juniors 20-23,23,1993-09-30
1,M,Roman Kuznetsov #1,Роман Кузнецов,115.2,,,,,,,,,,,290,,,290,,290,125,D,Raw,No,Open,36,1981-07-15
1,M,Aleksey Kostylev,Алексей Костылев,115.1,,,,,,,,,,,270,290,-300,290,,290,125,D,Raw,No,Masters 40-44,44,1973-09-04
1,M,Sergey Odegov,Сергей Одегов,135.6,,,,,,,,,,,360,,,360,,360,140,D,Raw,No,Open,40,1976-10-02
1,M,Andrey Marmoza,Андрей Мармоза,80.5,,,,,,,,,,,190,-197.5,197.5,197.5,,197.5,82.5,D,Raw,Yes,Open,57,1959-12-12
1,M,Evgeniy Tagirov,Евгений Тагиров,86.2,,,,,,,,,,,230,240,-250,240,,240,90,D,Raw,Yes,Juniors 20-23,22,1994-10-20
1,M,Sergey Koryakin,Сергей Корякин,80.6,,,,,,,,,,,260,280,285,285,,285,82.5,D,Raw,No,Masters 40-44,41,1976-07-01
1,M,Stanislav Kulikov,Станислав Куликов,100.7,,,,,,,,,,,290,312.5,-320,312.5,,312.5,110,D,Raw,No,Open,38,1978-11-29
1,M,Pavel Nikolovskiy,Павел Николовский,74,,,,,,190,-205,212.5,212.5,,,,,,,212.5,75,B,Unlimited,No,Open,39,1978-05-08
1,M,Evgeniy Sorokin,Евгений Сорокин,81.3,,,,,,210,-230,-230,210,,,,,,,210,82.5,B,Unlimited,No,Open,40,1977-02-11
1,M,Evgeniy Sorokin,Евгений Сорокин,81.3,,,,,,210,-230,-230,210,,,,,,,210,82.5,B,Unlimited,No,Masters 40-44,40,1977-02-11
1,M,Mikhail Skvortsov,Михаил Скворцов,87.2,,,,,,170,185,-200,185,,,,,,,185,90,B,Unlimited,No,Open,47,1970-04-19
1,M,Mikhail Skvortsov,Михаил Скворцов,87.2,,,,,,170,185,-200,185,,,,,,,185,90,B,Unlimited,No,Masters 45-49,47,1970-04-19
2,M,Yuriy Pavlovskiy,Юрий Павловский,87.3,,,,,,175,185,-190,185,,,,,,,185,90,B,Unlimited,No,Masters 45-49,47,1969-12-10
1,M,Roman Legchilin,Роман Легчилин,99,,,,,,-250,260,267.5,267.5,,,,,,,267.5,100,B,Unlimited,No,Open,26,1991-04-01
1,M,Viktor Chantsev,Виктор Чанцев,90.85,,,,,,130,135,140,140,,,,,,,140,100,B,Unlimited,No,Masters 60-64,60,1957-09-02
1,M,Vladislav Borodiy,Владислав Бородий,90,,,,,,280,292.5,-300,292.5,,,,,,,292.5,90,B,Unlimited,No,Open,34,1982-11-07
2,M,Igor Ambarnov,Игорь Амбарнов,85.4,,,,,,235,250,262.5,262.5,,,,,,,262.5,90,B,Unlimited,No,Open,26,1991-03-30
3,M,Ivan Sychev,Иван Сычев,88.4,,,,,,220,-225,-225,220,,,,,,,220,90,B,Unlimited,No,Open,30,1987-06-21
DQ,M,Andrey Simkin,Андрей Симкин,95.3,,,,,,-230,-230,-237.5,,,,,,,,,100,B,Unlimited,No,Open,34,1983-05-27
1,M,Oleg Bunin,Олег Бунин,121.9,,,,,,-280,280,-310,280,,,,,,,280,125,B,Unlimited,No,Open,38,1979-05-20
2,M,Dmitriy Smirnov,Дмитрий Смирнов,123.8,,,,,,-265,265,-285,265,,,,,,,265,125,B,Unlimited,No,Open,35,1982-02-12
1,M,Denis Chistotin,Денис Чистотин,124.6,,,,,,210,220,230,230,,,,,,,230,125,B,Unlimited,No,Masters 40-44,42,1975-05-14
1,M,Yuriy Kholodov,Юрий Холодов,138.4,,,,,,280,-300,-305,280,,,,,,,280,140,B,Unlimited,No,Open,35,1982-01-07
1,M,Roman Abidzhba,Роман Абиджба,144.4,,,,,,320,-345,350,350,,,,,,,350,140+,B,Unlimited,No,Open,29,1988-04-27
1,M,Vladimir Orlov,Владимир Орлов,67.2,,,,,,60,70,75,75,,,,,,,75,67.5,B,Raw,No,Masters 55-59,58,1959-01-18
1,M,Sergey Dyubkin,Сергей Дюбкин,83.6,,,,,,150,-160,-165,150,,,,,,,150,90,B,Raw,No,Open,35,1982-03-03
