Tested,Equipment,Place,Name,Division,BirthYear,BirthDate,Country,BodyweightKg,Squat1Kg,Squat2Kg,Squat3Kg,Best3SquatKg,Bench1Kg,Bench2Kg,Bench3Kg,Best3BenchKg,Bench4Kg,Deadlift1Kg,Deadlift2Kg,Deadlift3Kg,Best3DeadliftKg,Deadlift4Kg,TotalKg,WeightClassKg,Sex,CyrillicName,Event
Yes,Raw,1,Natalya Enina,Amateur Teen 18-19,1996,1996-04-17,Russia,44,47.5,-55.5,55.5,55.5,30,-35,-35,30,,60,-65.5,65.5,65.5,,151,44,F,Наталья Енина,SBD
Yes,Raw,1,Ekaterina Matyukhina,Amateur Open,1990,1990-05-20,Russia,48,65,70,-72.5,70,47.5,50,52.5,52.5,,82.5,92.5,97.5,97.5,,220,48,F,Екатерина Матюхина,SBD
Yes,Raw,2,Anastasiya Kazarinova,Amateur Open,1987,1987-03-13,Russia,47.3,50,55,-60,55,30,32.5,-35,32.5,,65,75,85,85,,172.5,48,F,Анастасия Казаринова,SBD
Yes,Raw,1,Diana Koscheeva,Amateur Teen 16-17,1996,1996-06-08,Russia,54.9,75,82.5,-87.5,82.5,35,37.5,-40,37.5,,85,95,102.5,102.5,,222.5,56,F,Диана Кощеева,SBD
Yes,Raw,1,Tatyana Kotlyarova,Amateur Teen 18-19,1994,1994-06-06,Russia,59,112.5,117.5,120,120,65,67.5,-70,67.5,,135,142.5,147.5,147.5,,335,60,F,Татьяна Котлярова,SBD
Yes,Raw,1,Tatyana Kotlyarova,Amateur Open,1994,1994-06-06,Russia,59,112.5,117.5,120,120,65,67.5,-70,67.5,,135,142.5,147.5,147.5,,335,60,F,Татьяна Котлярова,SBD
Yes,Raw,2,Elena Gusarkina,Amateur Open,1978,1978-01-06,Russia,59.1,80,85,87.5,87.5,-57.5,57.5,60,60,,115,-120,125,125,,272.5,60,F,Елена Гусаркина,SBD
Yes,Raw,3,Yuliya Vizgina,Amateur Open,1992,1992-02-03,Russia,59.2,80,92.5,-95,92.5,50,57.5,-60,57.5,,105,112.5,117.5,117.5,,267.5,60,F,Юлия Визгина,SBD
Yes,Raw,4,Natalya Kolobova,Amateur Open,1982,1982-04-28,Russia,60,87.5,92.5,95,95,47.5,52.5,55,55,,105,110,115,115,,265,60,F,Наталья Колобова,SBD
Yes,Raw,5,Yuliya Kurova,Amateur Open,1981,1981-12-29,Russia,60,80,87.5,-92.5,87.5,42.5,-47.5,-47.5,42.5,,80,-87.5,-87.5,80,,210,60,F,Юлия Курова,SBD
Yes,Raw,1,Olga Karkischenko,Amateur Open,1983,1983-04-06,Russia,73.7,110,-117.5,-117.5,110,62.5,-70,-70,62.5,,100,-107.5,,100,,272.5,75,F,Ольга Каркищенко,SBD
Yes,Raw,1,Antonina Cherkashina,Amateur Open,1982,1982-11-14,Russia,82.4,90,97.5,102.5,102.5,55,-60,60,60,,120,130,-137.5,130,,292.5,82.5,F,Антонина Черкашина,SBD
Yes,Raw,1,Tamerlan Skhvitaridze,Amateur Youth,2001,2001-08-07,Russia,48.7,40,-47.5,47.5,47.5,40,45,52.5,52.5,,60,65,70,70,,170,52,M,Тамерлан Схвитаридзе,SBD
Yes,Raw,1,Vladimir Donskov,Amateur Teen 18-19,1995,1995-03-02,Russia,58.9,110,120,125,125,100,107.5,-110,107.5,,162.5,-170,172.5,172.5,,405,60,M,Владимир Донсков,SBD
Yes,Raw,1,Alim Arkasov,Amateur Teen 13-15,1998,1998-06-07,Russia,64.1,110,-120,120,120,85,90,-95.5,90,,135,140,147.5,147.5,,357.5,67.5,M,Алим Аркасов,SBD
Yes,Raw,2,Kirill Baranov,Amateur Teen 16-17,1997,1997-11-06,Russia,64.2,110,120,125,125,80,-87.5,-87.5,80,,135,140,-147.5,140,,345,67.5,M,Кирилл Баранов,SBD
Yes,Raw,1,Zalim Khamgokov,Amateur Juniors 20-23,1994,1994-01-05,Russia,66.5,120,-130,145,145,90,-100,107.5,107.5,,160,170,190,190,,442.5,67.5,M,Залим Хамгоков,SBD
Yes,Raw,2,Alexei Sorokin,Amateur Juniors 20-23,1992,1992-10-12,Russia,66.5,-130,135,-140,135,80,-85,85,85,,160,170,180,180,,400,67.5,M,Алексей Сорокин,SBD
Yes,Raw,1,Sergei Volodarsky,Amateur Open,1989,1989-08-21,Russia,60.8,170,177.5,-185,177.5,115,120,-125,120,,195,-207.5,-207.5,195,,492.5,67.5,M,Сергей Володарский,SBD
Yes,Raw,1,Amur Shomakhov,Amateur Teen 16-17,1996,1996-08-22,Russia,74.9,-145,145,150,150,110,115,-117.5,115,,175,180,-185,180,,445,75,M,Амур Шомахов,SBD
Yes,Raw,2,Dmitriy Rogov,Amateur Teen 16-17,1997,1997-11-28,Russia,71.1,140,145,150,150,90,-100,-100,90,,180,-187.5,187.5,187.5,,427.5,75,M,Дмитрий Рогов,SBD
Yes,Raw,1,Ivan Rodionov,Amateur Juniors 20-23,1991,1991-04-18,Russia,73.6,150,160,170,170,110,117.5,120,120,,170,190,-200,190,,480,75,M,Иван Родионов,SBD
Yes,Raw,2,Murat Tligurov,Amateur Juniors 20-23,1993,1993-08-25,Russia,73.7,105,-115,-125,105,90,97.5,-107.5,97.5,,-160,160,175,175,,377.5,75,M,Мурат Тлигуров,SBD
Yes,Raw,DQ,Alim Tabukhov,Amateur Open,1986,1986-08-11,Russia,74.5,-110,120,130,130,-100,-115,-120,,,,,,,,,75,M,Алим Табухов,SBD
Yes,Raw,1,Aleksey Boyko,Amateur Masters 40-44,1971,1971-04-13,Russia,71.7,130,135,,135,117.5,122.5,-127.5,122.5,,150,160,-162.5,160,,417.5,75,M,Алексей Бойко,SBD
Yes,Raw,1,Ramazan Uyanaev,Amateur Teen 16-17,1997,1997-08-14,Russia,81.2,-100,100,115,115,70,82.5,90,90,,130,145,155,155,,360,82.5,M,Рамазан Уянаев,SBD
Yes,Raw,2,Dmitriy Knyrik,Amateur Teen 16-17,1997,1997-05-18,Russia,80.7,102.5,110,-117.5,110,70,75,80,80,,125,140,150,150,,340,82.5,M,Дмитрий Кнырик,SBD
Yes,Raw,1,Zalimkhan Beslaneev,Amateur Teen 18-19,1995,1995-08-21,Russia,81,120,-140,145,145,90,-100,100,100,,150,160,170,170,,415,82.5,M,Залимхан Бесланеев,SBD
Yes,Raw,2,Azamat Kushkhov,Amateur Teen 18-19,1994,1994-08-06,Russia,81.2,105,-115,120,120,90,-100,105,105,,170,180,185,185,,410,82.5,M,Азамат Кушхов,SBD
Yes,Raw,1,Nikolay Dokuchaev,Amateur Juniors 20-23,1992,1992-04-07,Russia,82.3,145,160,170,170,107.5,115,-120,115,,200,225,-230,225,,510,82.5,M,Николай Докучаев,SBD
Yes,Raw,1,Vasiliy Perov,Amateur Open,1979,1979-03-06,Russia,81.8,190,205,215,215,140,150,157.5,157.5,,235,245,257.5,257.5,,630,82.5,M,Василий Перов,SBD
Yes,Raw,2,Ivan Vosmirka,Amateur Open,1990,1990-02-17,Russia,77.7,165,-180,-190,165,120,127.5,-135,127.5,,175,185,-202.5,185,,477.5,82.5,M,Иван Восьмирка,SBD
Yes,Raw,3,Robert Akhmetshin,Amateur Open,1977,1977-10-20,Russia,82.1,140,150,160,160,100,107.5,,107.5,,200,-210,,200,,467.5,82.5,M,Роберт Ахметшин,SBD
Yes,Raw,1,Islam Tkhazeplov,Amateur Teen 16-17,1997,1997-01-13,Russia,88.2,105,120,130,130,80,90,-95,90,,150,160,170,170,,390,90,M,Ислам Тхазеплов,SBD
Yes,Raw,2,Roman Amelin,Amateur Teen 16-17,1997,1997-11-11,Russia,87.4,115,120,130,130,75,80,82.5,82.5,,137.5,152.5,160,160,,372.5,90,M,Роман Амелин,SBD
Yes,Raw,1,Pavel Simanin,Amateur Teen 18-19,1994,1994-06-12,Russia,83.3,150,160,-170,160,115,125,-127.5,125,,180,190,-207.5,190,,475,90,M,Павел Симанин,SBD
Yes,Raw,DQ,Vladimir Babenko,Amateur Teen 18-19,1994,1994-10-17,Russia,87.3,-185,-185,-195,,,,,,,,,,,,,90,M,Владимир Бабенко,SBD
Yes,Raw,1,Dmitriy Pavlov,Amateur Juniors 20-23,1991,1991-11-15,Russia,87.5,200,215,-225,215,150,157.5,165,165,,245,262.5,272.5,272.5,,652.5,90,M,Дмитрий Павлов,SBD
Yes,Raw,2,Yuriy Bondarenko,Amateur Juniors 20-23,1990,1990-06-27,Russia,88,180,195,-205,195,125,135,-145,135,,210,220,230,230,,560,90,M,Юрий Бондаренко,SBD
Yes,Raw,3,Aleksandr Lokhadynov,Amateur Juniors 20-23,1992,1992-08-25,Russia,89.7,155,170,-180,170,120,130,132.5,132.5,,180,200,210,210,,512.5,90,M,Александр Лохадынов,SBD
Yes,Raw,4,Tamerlan Umekhov,Amateur Juniors 20-23,1992,1992-05-01,Russia,87.9,150,-160,-160,150,115,122.5,-130,122.5,,180,190,200,200,,472.5,90,M,Тамерлан Умехов,SBD
Yes,Raw,1,Sergey Larionov,Amateur Open,1975,1975-05-14,Russia,89.2,190,197.5,-200,197.5,135,145,152.5,152.5,,260,275,280.5,280.5,,630.5,90,M,Сергей Ларионов,SBD
Yes,Raw,2,Aleksey Larionov,Amateur Open,1976,1976-05-02,Russia,86.1,200,210,215,215,155,160,-165,160,,230,240,-245,240,,615,90,M,Алексей Ларионов,SBD
Yes,Raw,3,Konstantin Treytyak,Amateur Open,1975,1975-01-24,Russia,89.8,200,210,-217.5,210,135,140,-145,140,,210,220,-227.5,220,,570,90,M,Константин Трейтяк,SBD
Yes,Raw,4,Aleksey Sukhoruchenko,Amateur Open,1982,1982-09-16,Russia,83.7,130,-140,155,155,130,140,-150,140,,-180,190,210,210,,505,90,M,Алексей Сухорученко,SBD
Yes,Raw,1,Vladimir Koltsov,Amateur Teen 16-17,1996,1996-07-08,Russia,95.6,130,145,-155,145,115,125,-132.5,125,,150,165,175,175,,445,100,M,Владимир Кольцов,SBD
Yes,Raw,1,Andrey Bogatchenko,Amateur Teen 18-19,1994,1994-09-25,Russia,98,-220,230,-240,230,-160,160,-170,160,,250,260,,260,,650,100,M,Андрей Богатченко,SBD
Yes,Raw,2,Yuriy Kozlov,Amateur Teen 18-19,1995,1995-11-18,Russia,92.4,135,145,155,155,100,110,-117.5,110,,150,165,175,175,,440,100,M,Юрий Козлов,SBD
Yes,Raw,1,Kirill Baryshenskiy,Amateur Juniors 20-23,1992,1992-02-10,Russia,99.8,200,210,220,220,160,170,180,180,,210,230,240,240,,640,100,M,Кирилл Барышенский,SBD
Yes,Raw,2,Artem Vorotyntsev,Amateur Juniors 20-23,1993,1993-09-21,Russia,95,-160,160,175,175,130,140,145,145,,-220,-227.5,-227.5,,,320,100,M,Артем Воротынцев,SBD
Yes,Raw,1,Aleksandr Perov,Amateur Open,1984,1984-11-14,Russia,99.1,240,247.5,252.5,252.5,145,152.5,-160,152.5,,285,295,305,305,,710,100,M,Александр Перов,SBD
Yes,Raw,2,Vladimir Vlasov,Amateur Open,1975,1975-01-06,Russia,91.9,-160,-160,160,160,-112.5,112.5,-117.5,112.5,,195,207.5,215,215,,487.5,100,M,Владимир Власов,SBD
Yes,Raw,DQ,Aleksey Vorotnikov,Amateur Open,1980,1980-10-08,Russia,97.7,-215,-215,-215,,,,,,,,,,,,,100,M,Алексей Воротников,SBD
Yes,Raw,1,Vyacheslav Frank,Amateur Masters 50-54,1962,1962-03-03,Russia,100,165,-175,-175,165,132.5,137.5,-145,137.5,,200,210,220,220,,522.5,100,M,Вячеслав Франк,SBD
Yes,Raw,DQ,Aleksandr Seliverstov,Amateur Masters 60-64,1954,1954-02-21,Russia,96.6,180,200,-207.5,200,-115,-115,,,,,,,,,,100,M,Александр Селиверстов,SBD
Yes,Raw,1,Aleksandr Lokotkov,Amateur Teen 18-19,1995,1995-08-26,Russia,100.6,110,125,135,135,115,125,-130,125,,165,180,-190,180,,440,110,M,Александр Локотков,SBD
Yes,Raw,1,Igor Sharapov,Amateur Masters 40-44,1971,1971-10-30,Russia,106.1,215,225,230,230,155,165,-170,165,,240,250,-255,250,,645,110,M,Игорь Шарапов,SBD
Yes,Raw,2,Valeriy Sytnikov,Amateur Masters 40-44,1970,1970-02-28,Russia,107.6,162.5,172.5,180,180,-147.5,-157.5,157.5,157.5,,235,255,272.5,272.5,,610,110,M,Валерий Сытников,SBD
Yes,Raw,1,Vladimir Chernyshov,Amateur Masters 65-69,1948,1948-09-04,Russia,124.3,200,215,222.5,222.5,130,137.5,142.5,142.5,,215,225,235,235,,600,125,M,Владимир Чернышов,SBD
Yes,Raw,1,Vladimir Ivankov,Amateur Open,1986,1986-07-03,Russia,132.2,255,270,-280,270,180,190,197.5,197.5,,275,290,-305,290,,757.5,140,M,Владимир Иванков,SBD
Yes,Single-ply,1,Elena Enina,Amateur Open,,1989-05-10,Russia,47.9,75,80,82.5,82.5,40,42.5,45,45,,95,-105,,95,,222.5,48,F,Елена Енина,SBD
Yes,Single-ply,1,Marina Kamyshnikova,Amateur Open,1979,1979-02-16,Russia,51.5,105,115,120,120,45,50,52.5,52.5,,115,122.5,125,125,,297.5,52,F,Марина Камышникова,SBD
Yes,Single-ply,1,Mariya Pustovit,Amateur Open,1985,1985-07-30,Russia,54.8,160,170,175,175,90,-95,100,100,,-140,145,150,150,,425,56,F,Мария Пустовит,SBD
Yes,Single-ply,2,Natalya Blinkova,Amateur Open,1991,1991-03-20,Russia,56,140,-150,150,150,-95,95,100,100,,160,-172.5,-177.5,160,,410,56,F,Наталья Блинкова,SBD
Yes,Single-ply,3,Lidiya Sedova,Amateur Open,1988,1988-06-22,Russia,55,110,117.5,125,125,50,55,57.5,57.5,,100,-107.5,-107.5,100,,282.5,56,F,Лидия Седова,SBD
Yes,Single-ply,1,Nikita Ovsyannikov,Amateur Teen 18-19,1996,1996-04-03,Russia,73.9,180,195,210,210,140,150,162.5,162.5,,180,200,-210,200,,572.5,75,M,Никита Овсянников,SBD
Yes,Single-ply,1,Vadim Vasilyev,Amateur Juniors 20-23,,1994-02-10,Russia,73.1,160,-172.5,175,175,80,-90,,80,,160,175,-190,175,,430,75,M,Вадим Васильев,SBD
Yes,Single-ply,1,Mikhail Tokarev,Amateur Juniors 20-23,1992,1992-10-14,Russia,81.2,220,235,250,250,140,150,160,160,,220,240,250,250,,660,82.5,M,Михаил Токарев,SBD
Yes,Single-ply,2,Aleksandr Zubkov,Amateur Juniors 20-23,1992,1992-07-25,Russia,81.4,200,215,-222.5,215,140,150,160,160,,210,-230,230,230,,605,82.5,M,Александр Зубков,SBD
Yes,Single-ply,1,Evgeniy Iglin,Amateur Open,1990,1990-03-16,Russia,79.6,220,235,250,250,160,170,-180,170,,210,220,230,230,,650,82.5,M,Евгений Иглин,SBD
Yes,Single-ply,1,Vladislav Lyskov,Amateur Teen 18-19,1995,1995-04-12,Russia,87.5,-220,220,240,240,130,140,150,150,,230,-252.5,252.5,252.5,,642.5,90,M,Владислав Лысков,SBD
Yes,Single-ply,1,Igor Umerenkov,Amateur Open,1980,1980-09-13,Russia,89.3,285,302.5,310,310,-182.5,182.5,192.5,192.5,,275,285,-300,285,,787.5,90,M,Игорь Умеренков,SBD
Yes,Single-ply,2,Andrey Konovalenko,Amateur Open,1982,1982-08-20,Russia,88.3,270,285,300,300,190,200,210,210,,240,250,260,260,,770,90,M,Андрей Коноваленко,SBD
Yes,Single-ply,3,Aleksey Surenskiy,Amateur Open,1986,1986-03-27,Russia,89.2,220,235,-245,235,140,145,-150,145,,210,230,237.5,237.5,,617.5,90,M,Алексей Суренский,SBD
Yes,Single-ply,1,Denis Ivlev,Amateur Open,1980,1980-04-13,Russia,96.6,280,290,300,300,210,217.5,220,220,,245,255,262.5,262.5,,782.5,100,M,Денис Ивлев,SBD
Yes,Single-ply,2,Evgeniy Esaulkov,Amateur Open,1989,1989-08-06,Russia,99,255,270,280,280,185,195,-202.5,195,,280,300.5,-310,300.5,,775.5,100,M,Евгений Есаулков,SBD
Yes,Single-ply,3,Ivan Avramenko,Amateur Open,1988,1988-03-24,Russia,99.7,-280,285,295,295,-190,-190,190,190,,270,-292.5,-292.5,270,,755,100,M,Иван Авраменко,SBD
Yes,Single-ply,1,Andrey Gurov,Amateur Open,1983,1983-03-22,Russia,107.5,200,230,-250,230,140,150,-160,150,,200,210,-220,210,,590,110,M,Андрей Гуров,SBD
Yes,Multi-ply,1,Svetlana Veselova,Amateur Open,1987,1987-09-19,Russia,58.5,130,140,-145,140,80,-85,-85,80,,125,135,145,145,,365,60,F,Светлана Веселова,SBD
Yes,Multi-ply,1,Yuliya Umerenkova,Amateur Open,1980,1980-12-09,Russia,67.2,185,195,200.5,200.5,95,102.5,108,108,,183.5,190,195,195,,503.5,67.5,F,Юлия Умеренкова,SBD
Yes,Multi-ply,1,Alexander Karpenko,Amateur Juniors 20-23,1992,1992-04-25,Russia,75,320,-330,-330,320,200,210,-215.5,210,,290,-307.5,-307.5,290,,820,75,M,Александр Карпенко,SBD
Yes,Multi-ply,2,Oleg Son,Amateur Juniors 20-23,1991,1991-05-22,Russia,72.9,230,-240,-240,230,130,137.5,145,145,,200,212.5,222.5,222.5,,597.5,75,M,Олег Сон,SBD
Yes,Multi-ply,1,Vadim Orlov,Amateur Juniors 20-23,1990,1990-07-18,Russia,82.2,200,-215,220,220,135,140,-145,140,,225,235,242.5,242.5,,602.5,82.5,M,Вадим Орлов,SBD
Yes,Multi-ply,2,Nikolay Bukreev,Amateur Juniors 20-23,1992,1992-05-28,Russia,80,220,-235,-240,220,120,145,-155,145,,220,-235,-235,220,,585,82.5,M,Николай Букреев,SBD
Yes,Multi-ply,1,Alexander Krovikov,Amateur Masters 50-54,1961,1961-09-26,Russia,97,200,220,-230,220,150,170,-180,170,,230,260,280,280,,670,100,M,Александр Кровиков,SBD
No,Raw,1,Liliya Kinzhagulova,Pro Open,1973,1973-07-03,Russia,48.9,75,82.5,87.5,87.5,50,55,57.5,57.5,,100,115,-120,115,,260,52,F,Лилия Кинжагулова,SBD
No,Raw,1,Liliya Kinzhagulova,Pro Masters 40-44,1973,1973-07-03,Russia,48.9,75,82.5,87.5,87.5,50,55,57.5,57.5,,100,115,-120,115,,260,52,F,Лилия Кинжагулова,SBD
No,Raw,DQ,Vizhe Mirmirani,Pro Masters 45-49,1965,1965-04-14,Russia,59.4,145,-155,-160,145,-95,-95,-95,,,-130,,,,,,60,F,Виже Мирмирани,SBD
No,Raw,1,Dmitriy Kheruvimov,Pro Juniors 20-23,1991,1991-12-01,Russia,80.2,160,170,180,180,-105,112.5,120,120,,210,215,-225,215,,515,82.5,M,Дмитрий Херувимов,SBD
No,Raw,1,Andrey Ivanov,Pro Masters 40-44,1971,1971-01-14,Russia,82.5,-150,-150,150,150,90,100,102.5,102.5,,140,155,-170,155,,407.5,82.5,M,Андрей Иванов,SBD
No,Raw,1,German Polev,Pro Teen 13-15,1999,1999-01-31,Russia,87.3,70,80,90,90,50,60,70,70,,100,120,135,135,,295,90,M,Герман Полев,SBD
No,Raw,1,Ivan Arshinov,Pro Juniors 20-23,1991,1991-09-04,Russia,82.8,210,220,230,230,170,180,190,190,,-240,240,260,260,,680,90,M,Иван Аршинов,SBD
No,Raw,2,Aleksey Dorokhin,Pro Juniors 20-23,1992,1992-03-30,Russia,84.7,152.5,160,165,165,117.5,122.5,127.5,127.5,,182.5,195,202.5,202.5,,495,90,M,Алексей Дорохин,SBD
No,Raw,1,Sergei Lukyanov,Pro Open,1986,1986-06-02,Russia,86,-235,245,255,255,160,170,180,180,,280,290,300,300,,735,90,M,Сергей Лукьянов,SBD
No,Raw,2,Mikhail Glotov,Pro Open,1980,1980-12-04,Russia,89.2,220,230,-235,230,150,155,160,160,,275,285,290,290,,680,90,M,Михаил Глотов,SBD
No,Raw,3,Nikolay Maksimov,Pro Open,1984,1984-04-28,Russia,86.3,230,245,-250,245,145,155,165,165,,240,250,260,260,,670,90,M,Николай Максимов,SBD
No,Raw,4,Aleksandr Gudoshnikov,Pro Open,1987,1987-05-07,Russia,88.1,190,217.5,220,220,165,172.5,180,180,,230,250,-270,250,,650,90,M,Александр Гудошников,SBD
No,Raw,5,Dmitriy Melikhov,Pro Open,1979,1979-09-19,Russia,89.9,205,-215,215,215,145,-152.5,-152.5,145,,220,,,220,,580,90,M,Дмитрий Мелихов,SBD
No,Raw,DQ,Leonid Korsunskiy,Pro Open,1981,1981-04-28,Russia,90,-220,,,,,,,,,,,,,,,90,M,Леонид Корсунский,SBD
No,Raw,1,Dmitriy Postnov,Pro Masters 40-44,1971,1971-07-17,Russia,89.2,200,220,232.5,232.5,135,145,152.5,152.5,,200,220,-237.5,220,,605,90,M,Дмитрий Постнов,SBD
No,Raw,1,Artem Laktyushin,Pro Teen 13-15,1999,1999-04-08,Russia,91.5,-100,100,115,115,60,-70,80,80,,100,120,130,130,,325,100,M,Артем Лактюшин,SBD
No,Raw,1,Artur Skorobogatko,Pro Juniors 20-23,1992,1992-08-16,Russia,97.8,245,255,-260,255,130,-140,-140,130,,255,-265,265,265,,650,100,M,Артур Скоробогатько,SBD
No,Raw,2,Sergey Rumyantsev,Pro Juniors 20-23,1990,1990-08-14,Russia,98.1,220,235,-242.5,235,160,170,-175,170,,220,240,-250,240,,645,100,M,Сергей Румянцев,SBD
No,Raw,1,Igor Paramonov,Pro Open,1983,1983-11-17,Russia,97.4,-260,-270,270,270,185,-195,195,195,,280,295,-310,295,,760,100,M,Игорь Парамонов,SBD
No,Raw,2,Oleg Kuznetsov,Pro Open,,1974-10-09,Russia,98.5,-200,220,250,250,-175,180,-190,180,,230,250,-260,250,,680,100,M,Олег Кузнецов,SBD
No,Raw,3,Pavel Bezuglov,Pro Open,1987,1987-10-19,Russia,98.5,215,230,250,250,-150,-160,162.5,162.5,,240,-270,-270,240,,652.5,100,M,Павел Безуглов,SBD
No,Raw,4,Sergey Simakov,Pro Open,1984,1984-07-21,Russia,98.7,195,202.5,207.5,207.5,170,-180,-180,170,,230,245,255,255,,632.5,100,M,Сергей Симаков,SBD
No,Raw,5,Sergey Lavrik,Pro Open,1978,1978-07-14,Russia,97.6,160,170,182.5,182.5,135,140,-150,140,,200,215,225,225,,547.5,100,M,Сергей Лаврик,SBD
No,Raw,1,Fedor Vershinin,Pro Juniors 20-23,1992,1992-12-03,Russia,103.9,215,-230,230,230,180,195,202.5,202.5,,240,255,265,265,,697.5,110,M,Федор Вершинин,SBD
No,Raw,2,Viktor Samoylov,Pro Juniors 20-23,1990,1990-11-03,Russia,109.7,190,210,230,230,150,-165,-180,150,,230,250,265,265,,645,110,M,Виктор Самойлов,SBD
No,Raw,1,Oleg Materikin,Pro Open,1982,1982-07-28,Russia,103.2,240,260,-270,260,190,200,210,210,,280,310,330,330,,800,110,M,Олег Материкин,SBD
No,Raw,2,Vladimir Syomochkin,Pro Open,1986,1986-09-23,Russia,101.1,-250,260,-270,260,175,185,-195,185,,270,285,295,295,,740,110,M,Владимир Сёмочкин,SBD
No,Raw,3,Aleksandr Sharov,Pro Open,1983,1983-09-03,Russia,108.5,230,240,250,250,170,180,-190,180,,270,280,-290,280,,710,110,M,Александр Шаров,SBD
No,Raw,4,Viktor Samoylov,Pro Open,1990,1990-11-03,Russia,109.7,190,210,230,230,150,-165,-180,150,,230,250,265,265,,645,110,M,Виктор Самойлов,SBD
No,Raw,1,Aleksandr Morozov,Pro Open,1979,1979-04-03,Russia,118.2,270,290,-300,290,200,210,-215,210,,200,240,250,250,,750,125,M,Александр Морозов,SBD
No,Raw,2,Evgeniy Glazunov,Pro Open,1983,1983-04-25,Russia,123,235,245,250,250,180,185,-190,185,,235,250,255,255,,690,125,M,Евгений Глазунов,SBD
No,Raw,DQ,Miroslav Shlapak,Pro Masters 45-49,1968,1968-08-12,Russia,112.7,220,235,245,245,170,180,185,185,,-275,-285,-290,,,,125,M,Мирослав Шлапак,SBD
No,Raw,1,Alexander Burlakov,Pro Masters 55-59,1959,1959-01-07,Russia,125,200,210,215,215,165,175,185,185,,200,215,225,225,,625,125,M,Александр Бурлаков,SBD
No,Raw,1,Ilya Shaburov,Pro Open,1990,1990-05-15,Russia,133.3,295,305,,305,230,240,-250,240,,335,,,335,,880,140,M,Илья Шабуров,SBD
No,Single-ply,1,Olga Ilicheva,Pro Open,1979,1979-03-03,Russia,68.6,100,,,100,40,,,40,,100,,,100,,240,75,F,Ольга Ильичева,SBD
No,Single-ply,1,Nikolay Altunin,Pro Open,1977,1977-07-24,Russia,72.9,230,240,-250,240,155,160,165,165,,230,245,250,250,,655,75,M,Николай Алтунин,SBD
No,Single-ply,2,Artur Ogorodov,Pro Open,1989,1989-04-15,Russia,74.7,230,240,250,250,155,165,170,170,,-220,220,,220,,640,75,M,Артур Огородов,SBD
No,Single-ply,1,Stepan Spiridonov,Pro Juniors 20-23,1993,1993-12-21,Russia,78,260,270,280,280,170,-180,-180,170,,220,,,220,,670,82.5,M,Степан Спиридонов,SBD
No,Single-ply,1,Artem Tyutikov,Pro Open,1982,1982-11-12,Russia,89.3,285,302.5,312.5,312.5,195,207.5,212.5,212.5,,250,-277.5,277.5,277.5,,802.5,90,M,Артем Тютиков,SBD
No,Single-ply,2,Aleksey Yagunov,Pro Open,1968,1968-07-19,Russia,90,215,-230,,215,-170,170,-185,170,,200,215,230,230,,615,90,M,Алексей Ягунов,SBD
No,Single-ply,1,Aleksey Yagunov,Pro Masters 45-49,1968,1968-07-19,Russia,90,215,-230,,215,-170,170,-185,170,,200,215,230,230,,615,90,M,Алексей Ягунов,SBD
No,Single-ply,1,Viktor Polosukhin,Pro Open,1988,1988-09-15,Russia,97.8,255,265,270,270,155,-165,-165,155,,-280,280,285,285,,710,100,M,Виктор Полосухин,SBD
No,Single-ply,1,Pavel Noskov,Pro Teen 13-15,1999,1999-01-15,Russia,105.6,200,-215,225,225,100,-110,-110,100,,180,200,210,210,,535,110,M,Павел Носков,SBD
No,Single-ply,1,Vitaliy Bobrov,Pro Open,1981,1981-07-30,Russia,105.3,370,400,,400,250,260,270,270,,310,330,-350,330,,1000,110,M,Виталий Бобров,SBD
No,Single-ply,1,Andrey Grigoryev,Pro Masters 45-49,1965,1965-03-25,Russia,104.6,190,200,205,205,140,150,160,160,,190,200,210,210,,575,110,M,Андрей Григорьев,SBD
No,Single-ply,1,Dmitriy Loginov,Pro Open,1989,1989-05-12,Russia,118,-340,355,370,370,240,-252.5,-257.5,240,,350,370,-390,370,,980,125,M,Дмитрий Логинов,SBD
No,Single-ply,1,Aleksey Kuchma,Pro Open,1979,1979-01-04,Russia,115.3,340,350,-360,350,230,-242.5,-242.5,230,,-310,310,-320,310,,890,125,M,Алексей Кучма,SBD
No,Single-ply,1,Dmitriy Klyuev,Pro Open,1982,1982-06-22,Russia,119.2,300,320,-335,320,230,247.5,-260.5,247.5,,260,-282.5,,260,,827.5,125,M,Дмитрий Клюев,SBD
No,Multi-ply,1,Vildan Rezyapov,Pro Juniors 20-23,1991,1991-04-17,Russia,123.8,240,260,280,280,190,200,205,205,,230,250,,250,,735,125,M,Вильдан Резяпов,SBD
No,Multi-ply,1,Aleksandr Trezinskiy,Pro Open,1980,1980-06-10,Russia,120.7,330,350,-370,350,240,250,-257.5,250,,290,310,-320,310,,910,125,M,Александр Трезинский,SBD
No,Multi-ply,2,Mikhail Mikao,Pro Open,1985,1985-07-29,Russia,117.1,330,-342.5,345,345,-215,215,220,220,,-265,-272.5,272.5,272.5,,837.5,125,M,Михаил Микао,SBD
Yes,Raw,1,Natalya Marieva,Amateur Masters 45-49,1968,1968-11-04,Russia,47.7,,,,,55,-60,-60,55,,,,,,,55,48,F,Наталья Мариева,B
Yes,Raw,1,Mariya Deltsova,Amateur Open,1988,1988-10-09,Russia,50.7,,,,,-35,-40,40,40,,,,,,,40,52,F,Мария Дельцова,B
Yes,Raw,1,Lyudmila Volkova,Amateur Masters 55-59,1956,1956-05-22,Russia,56,,,,,-42.5,42.5,45,45,,,,,,,45,56,F,Людмила Волкова,B
Yes,Raw,1,Nadezhda Vlasova,Amateur Open,1982,1982-01-24,Russia,59.5,,,,,90,100,102.5,102.5,,,,,,,102.5,60,F,Надежда Власова,B
Yes,Raw,2,Zhanna Tolmacheva,Amateur Open,1983,1983-10-10,Russia,57.8,,,,,52.5,57.5,60,60,,,,,,,60,60,F,Жанна Толмачева,B
Yes,Raw,1,Natalya Dobrova,Amateur Open,1970,1970-11-29,Russia,62.3,,,,,70,72.5,75,75,,,,,,,75,67.5,F,Наталья Доброва,B
Yes,Raw,1,Natalya Dobrova,Amateur Masters 40-44,1970,1970-11-29,Russia,62.3,,,,,70,72.5,75,75,,,,,,,75,67.5,F,Наталья Доброва,B
Yes,Raw,1,Tatyana Chuba,Amateur Masters 50-54,1959,1959-10-01,Russia,75,,,,,-50,-50,50,50,,,,,,,50,75,F,Татьяна Чуба,B
Yes,Raw,1,Tatyana Sivkovich,Amateur Masters 45-49,1965,1965-12-03,Russia,100.9,,,,,70,75,-80,75,,,,,,,75,90+,F,Татьяна Сивкович,B
Yes,Raw,1,Roman Grigoryev,Amateur Youth,2001,2001-12-23,Russia,42.1,,,,,30,35,-37.5,35,,,,,,,35,52,M,Роман Григорьев,B
Yes,Raw,1,Yuriy Kiselev,Amateur Teen 13-15,2000,2000-06-05,Russia,52.4,,,,,45,47.5,-52.5,47.5,,,,,,,47.5,56,M,Юрий Киселев,B
Yes,Raw,1,Oleg Plastinin,Amateur Teen 18-19,1995,1995-12-01,Russia,58.8,,,,,97.5,-100,-100,97.5,,,,,,,97.5,60,M,Олег Пластинин,B
Yes,Raw,1,Aleksandr Evdokimov,Amateur Juniors 20-23,1993,1993-06-09,Russia,59.9,,,,,105,-110,-110,105,,,,,,,105,60,M,Александр Евдокимов,B
Yes,Raw,2,Ivan Pilipenko,Amateur Juniors 20-23,1990,1990-10-28,Russia,58,,,,,75,-80,-80,75,,,,,,,75,60,M,Иван Пилипенко,B
Yes,Raw,1,Dmitriy Khudyakov,Amateur Open,1993,1993-06-04,Russia,56.8,,,,,97.5,-102.5,-105,97.5,,,,,,,97.5,60,M,Дмитрий Худяков,B
Yes,Raw,1,Evgeniy Durnosvistov,Amateur Teen 16-17,1998,1998-02-06,Russia,65.9,,,,,95,102.5,-107.5,102.5,,,,,,,102.5,67.5,M,Евгений Дурносвистов,B
Yes,Raw,2,Valentin Miroshnikov,Amateur Teen 16-17,1997,1997-02-04,Russia,66.2,,,,,92.5,100,-105,100,,,,,,,100,67.5,M,Валентин Мирошников,B
Yes,Raw,3,Vladislav Vukolov,Amateur Teen 16-17,1996,1996-12-22,Russia,60.7,,,,,82.5,85,-87.5,85,,,,,,,85,67.5,M,Владислав Вуколов,B
Yes,Raw,1,Vakha Khadziev,Amateur Teen 18-19,1994,1994-09-26,Russia,66,,,,,130,-140,140,140,,,,,,,140,67.5,M,Ваха Хадзиев,B
Yes,Raw,2,Sergey Skalozubov,Amateur Teen 18-19,1996,1996-05-27,Russia,65.8,,,,,120,125,-132.5,125,,,,,,,125,67.5,M,Сергей Скалозубов,B
Yes,Raw,1,Maksim Gridnev,Amateur Juniors 20-23,1992,1992-10-31,Russia,66.4,,,,,137.5,145,150,150,,,,,,,150,67.5,M,Максим Гриднев,B
Yes,Raw,2,Stanislav Kucherov,Amateur Juniors 20-23,1992,1992-03-24,Russia,64.7,,,,,130,132.5,135,135,,,,,,,135,67.5,M,Станислав Кучеров,B
Yes,Raw,1,Stanislav Kucherov,Amateur Open,1992,1992-03-24,Russia,64.7,,,,,130,132.5,135,135,,,,,,,135,67.5,M,Станислав Кучеров,B
Yes,Raw,1,Artem Kalachev,Amateur Teen 13-15,2000,2000-08-23,Russia,70.1,,,,,82.5,85,87.5,87.5,,,,,,,87.5,75,M,Артем Калачев,B
Yes,Raw,1,Vyacheslav Shulzhenko,Amateur Teen 18-19,1996,1996-04-15,Russia,72.2,,,,,-115,-115,117.5,117.5,,,,,,,117.5,75,M,Вячеслав Шульженко,B
Yes,Raw,2,Aleksandr Degtyarev,Amateur Teen 18-19,1995,1995-09-16,Russia,73.2,,,,,117.5,-122.5,-122.5,117.5,,,,,,,117.5,75,M,Александр Дегтярев,B
Yes,Raw,1,Sergey Guseynov,Amateur Juniors 20-23,1993,1993-02-01,Russia,73.1,,,,,135,145,-150,145,,,,,,,145,75,M,Сергей Гусейнов,B
Yes,Raw,2,Nikita Plyuschunov,Amateur Juniors 20-23,1994,1994-05-12,Russia,72.9,,,,,117.5,-122.5,122.5,122.5,,,,,,,122.5,75,M,Никита Плющунов,B
Yes,Raw,3,Vitaliy Frishko,Amateur Juniors 20-23,1991,1991-10-09,Russia,69.5,,,,,107.5,112.5,117.5,117.5,,,,,,,117.5,75,M,Виталий Фришко,B
Yes,Raw,1,Maksim Vasilyev,Amateur Open,1977,1977-09-13,Russia,72.4,,,,,140,-145,-145,140,,,,,,,140,75,M,Максим Васильев,B
Yes,Raw,2,Artem Chebotarev,Amateur Open,1990,1990-02-10,Russia,73,,,,,135,-137.5,,135,,,,,,,135,75,M,Артем Чеботарев,B
Yes,Raw,3,Igor Amelin,Amateur Open,1975,1975-07-22,Russia,74.7,,,,,135,-140,-140,135,,,,,,,135,75,M,Игорь Амелин,B
Yes,Raw,1,Roman Vasilyev,Amateur Masters 40-44,1973,1973-02-10,Russia,73.2,,,,,137.5,140,142.5,142.5,,,,,,,142.5,75,M,Роман Васильев,B
Yes,Raw,1,Yuriy Dvizov,Amateur Masters 65-69,1947,1947-02-05,Russia,74.2,,,,,115,117.5,120,120,-123,,,,,,120,75,M,Юрий Двизов,B
Yes,Raw,1,Anton Zdesenko,Amateur Teen 18-19,1995,1995-04-08,Russia,82.3,,,,,145,155,-160,155,,,,,,,155,82.5,M,Антон Здесенко,B
Yes,Raw,2,Pavel Negodyaev,Amateur Teen 18-19,1995,1995-07-31,Russia,77.2,,,,,140,145,150,150,,,,,,,150,82.5,M,Павел Негодяев,B
Yes,Raw,3,Georgiy Isaev,Amateur Teen 18-19,1996,1996-05-06,Russia,78.7,,,,,-120,127.5,130,130,,,,,,,130,82.5,M,Георгий Исаев,B
Yes,Raw,1,Aleksandr Dorodnykh,Amateur Juniors 20-23,1992,1992-05-17,Russia,77.6,,,,,145,152.5,157.5,157.5,,,,,,,157.5,82.5,M,Александр Дородных,B
Yes,Raw,2,Pavel Gayvoronskiy,Amateur Juniors 20-23,1992,1992-11-06,Russia,81.1,,,,,127.5,132.5,-135,132.5,,,,,,,132.5,82.5,M,Павел Гайворонский,B
Yes,Raw,1,Andrey Sapozhonkov,Amateur Open,1987,1987-01-01,Russia,80.9,,,,,205,207.5,-210,207.5,,,,,,,207.5,82.5,M,Андрей Сапожонков,B
Yes,Raw,2,Dmitriy Dolmatov,Amateur Open,1988,1988-05-01,Russia,78.1,,,,,150,-152.5,-152.5,150,,,,,,,150,82.5,M,Дмитрий Долматов,B
Yes,Raw,3,Aleksandr Ryabykh,Amateur Open,1989,1989-08-15,Russia,82.5,,,,,127.5,135,-145,135,,,,,,,135,82.5,M,Александр Рябых,B
Yes,Raw,4,Ivan Vosmirka,Amateur Open,1990,1990-02-17,Russia,77.9,,,,,120,-132.5,,120,,,,,,,120,82.5,M,Иван Восьмирка,B
Yes,Raw,1,Vasiliy Mosin,Amateur Masters 55-59,1956,1956-06-09,Russia,80.1,,,,,140,147.5,150,150,,,,,,,150,82.5,M,Василий Мосин,B
Yes,Raw,DQ,Ivan Kuzmitskiy,Amateur Juniors 20-23,1993,1993-04-04,Russia,86.3,,,,,-152.5,-152.5,,,,,,,,,,90,M,Иван Кузьмицкий,B
Yes,Raw,1,Vladimir Konchakov,Amateur Open,1973,1973-05-25,Russia,90,,,,,190,200,203.5,203.5,,,,,,,203.5,90,M,Владимир Кончаков,B
Yes,Raw,2,Yuriy Fedorov,Amateur Open,1975,1975-05-23,Russia,86.8,,,,,190,195,200,200,,,,,,,200,90,M,Юрий Федоров,B
Yes,Raw,3,Aleksandr Zabelin,Amateur Open,1987,1987-02-05,Russia,88.2,,,,,160,175,,175,,,,,,,175,90,M,Александр Забелин,B
Yes,Raw,4,Aleksey Larionov,Amateur Open,1976,1976-05-02,Russia,88.7,,,,,152.5,160,-162.5,160,,,,,,,160,90,M,Алексей Ларионов,B
Yes,Raw,5,Viktor Baurin,Amateur Open,1978,1978-05-21,Russia,87.8,,,,,132.5,137.5,142.5,142.5,,,,,,,142.5,90,M,Виктор Баурин,B
Yes,Raw,6,Aleksey Kostin,Amateur Open,1989,1989-08-31,Russia,88.7,,,,,-132.5,137.5,-142.5,137.5,,,,,,,137.5,90,M,Алексей Костин,B
Yes,Raw,7,Vadim Novoselov,Amateur Open,1982,1982-07-22,Russia,88.5,,,,,132.5,-135,-140,132.5,,,,,,,132.5,90,M,Вадим Новоселов,B
Yes,Raw,8,Maksim Gordopolov,Amateur Open,1987,1987-09-24,Russia,89,,,,,132.5,-152.5,-152.5,132.5,,,,,,,132.5,90,M,Максим Гордополов,B
Yes,Raw,9,Aleksandr Serichenko,Amateur Open,1989,1989-10-01,Russia,86.2,,,,,125,-132.5,-132.5,125,,,,,,,125,90,M,Александр Сериченко,B
Yes,Raw,1,Vladimir Konchakov,Amateur Masters 40-44,1973,1973-05-25,Russia,90,,,,,190,200,203.5,203.5,,,,,,,203.5,90,M,Владимир Кончаков,B
Yes,Raw,2,Aleksandr Rumyantsev,Amateur Masters 40-44,1969,1969-11-26,Russia,88.6,,,,,-155,165,-170,165,,,,,,,165,90,M,Александр Румянцев,B
Yes,Raw,1,Leonid Skvortsov,Amateur Masters 50-54,1962,1962-05-24,Russia,89.4,,,,,170,-175,-175,170,,,,,,,170,90,M,Леонид Скворцов,B
Yes,Raw,2,Valeriy Zheleznov,Amateur Masters 50-54,1959,1959-09-05,Russia,88.5,,,,,145,152.5,-155,152.5,,,,,,,152.5,90,M,Валерий Железнов,B
Yes,Raw,1,Gennadiy Obmelyukhin,Amateur Masters 65-69,1948,1948-03-21,Russia,89.6,,,,,107.5,115,-120,115,,,,,,,115,90,M,Геннадий Обмелюхин,B
Yes,Raw,1,Anton Borovlev,Amateur Juniors 20-23,1991,1991-02-11,Russia,98.3,,,,,152.5,157.5,-162.5,157.5,,,,,,,157.5,100,M,Антон Боровлев,B
Yes,Raw,1,Mikhail Apalkin,Amateur Open,1987,1987-07-09,Russia,92.1,,,,,155,162.5,165,165,,,,,,,165,100,M,Михаил Апалькин,B
Yes,Raw,2,Anatoliy Rozhkov,Amateur Open,1984,1984-06-20,Russia,97.6,,,,,152.5,-162.5,-162.5,152.5,,,,,,,152.5,100,M,Анатолий Рожков,B
Yes,Raw,3,David Chuba,Amateur Open,1980,,Russia,92.2,,,,,-130,-130,130,130,,,,,,,130,100,M,Давид Чуба,B
Yes,Raw,1,Aleksey Menshikh,Amateur Masters 40-44,1972,1972-02-08,Russia,97.8,,,,,150,155,-162.5,155,,,,,,,155,100,M,Алексей Меньших,B
Yes,Raw,2,Aleksey Figol,Amateur Masters 40-44,1973,1973-01-26,Russia,95.7,,,,,135,142.5,-145,142.5,,,,,,,142.5,100,M,Алексей Фиголь,B
Yes,Raw,1,Vladimir Gryaznov,Amateur Juniors 20-23,1993,1993-11-06,Russia,109,,,,,167.5,172.5,-175,172.5,,,,,,,172.5,110,M,Владимир Грязнов,B
Yes,Raw,2,Nikita Kruzhilin,Amateur Juniors 20-23,1991,1991-03-22,Russia,106.6,,,,,160,167.5,-170,167.5,,,,,,,167.5,110,M,Никита Кружилин,B
Yes,Raw,DQ,Dmitriy Tatarinov,Amateur Juniors 20-23,1991,1991-09-08,Russia,105.7,,,,,-140,-140,-140,,,,,,,,,110,M,Дмитрий Татаринов,B
Yes,Raw,1,Sergey Mordvinov,Amateur Open,1982,1982-08-26,Russia,101.9,,,,,-195,200,205,205,,,,,,,205,110,M,Сергей Мордвинов,B
Yes,Raw,2,Mikhail Evstigneev,Amateur Open,1976,1976-06-21,Russia,103.2,,,,,190,200,205,205,,,,,,,205,110,M,Михаил Евстигнеев,B
Yes,Raw,3,Aleksandr Tischenko,Amateur Open,1982,1982-04-22,Russia,108,,,,,160,-167.5,167.5,167.5,,,,,,,167.5,110,M,Александр Тищенко,B
Yes,Raw,4,Artur Gnilitskiy,Amateur Open,1988,1988-06-29,Russia,109,,,,,167.5,-172.5,-172.5,167.5,,,,,,,167.5,110,M,Артур Гнилицкий,B
Yes,Raw,1,Valeriy Sytnikov,Amateur Masters 40-44,,1970-02-28,Russia,108.8,,,,,145,155,162.5,162.5,,,,,,,162.5,110,M,Валерий Сытников,B
Yes,Raw,2,Andrey Trinkov,Amateur Masters 40-44,,1971-05-25,Russia,106.6,,,,,135,-147.5,-147.5,135,,,,,,,135,110,M,Андрей Триньков,B
Yes,Raw,1,Evgeniy Kozharinov,Amateur Masters 65-69,1945,1945-11-04,Russia,101.9,,,,,120,127.5,130,130,,,,,,,130,110,M,Евгений Кожаринов,B
Yes,Raw,1,Andrei Zavgorodnyy,Amateur Open,1981,1981-01-01,Russia,121.3,,,,,235,245,-252.5,245,,,,,,,245,125,M,Андрей Завгородный,B
Yes,Raw,2,Denis Demb,Amateur Open,1979,1979-07-02,Russia,115.7,,,,,170,,,170,,,,,,,170,125,M,Денис Демб,B
Yes,Raw,1,Dmitriy Fadeev,Amateur Masters 40-44,1972,1972-10-21,Russia,120.2,,,,,185,195,-202.5,195,,,,,,,195,125,M,Дмитрий Фадеев,B
Yes,Raw,1,Vladimir Chubarov,Amateur Masters 50-54,1964,1964-04-03,Russia,112.1,,,,,135,-142.5,-142.5,135,,,,,,,135,125,M,Владимир Чубаров,B
Yes,Raw,1,Roman Chuba,Amateur Masters 60-64,1954,1954-01-01,Russia,116.6,,,,,145,150,155,155,,,,,,,155,125,M,Роман Чуба,B
Yes,Raw,1,Artur Gulyan,Amateur Open,1982,1982-01-23,Russia,130.1,,,,,240,245,250,250,-252.5,,,,,,250,140,M,Артур Гулян,B
Yes,Raw,2,Islam Ozdoev,Amateur Open,1989,1989-10-11,Russia,137.9,,,,,200,215,230,230,,,,,,,230,140,M,Ислам Оздоев,B
Yes,Raw,1,Dmitriy Korotkov,Amateur Masters 40-44,1973,1973-04-06,Russia,139.6,,,,,-160,170,-182.5,170,,,,,,,170,140,M,Дмитрий Коротков,B
Yes,Raw,1,Roman Marachev,Amateur Open,1978,1978-05-16,Russia,147.2,,,,,200,,,200,,,,,,,200,140+,M,Роман Марачев,B
Yes,Raw,1,Boris Trofimov,Amateur Masters 40-44,1972,1972-03-21,Russia,144,,,,,215,-220,-220,215,,,,,,,215,140+,M,Борис Трофимов,B
Yes,Single-ply,1,Natalya Marieva,Amateur Masters 45-49,1968,1968-11-04,Russia,47.7,,,,,60,65,,65,,,,,,,65,48,F,Наталья Мариева,B
Yes,Single-ply,1,Alena Lukina,Amateur Teen 16-17,1996,1996-08-12,Russia,51.8,,,,,55,-62.5,-62.5,55,,,,,,,55,52,F,Алена Лукина,B
Yes,Single-ply,1,Olga Ryzhikh,Amateur Open,1979,1979-05-16,Russia,55.7,,,,,55,60,65,65,,,,,,,65,56,F,Ольга Рыжих,B
Yes,Single-ply,1,Olga Nagornaya,Amateur Open,1982,1982-07-24,Russia,60,,,,,60,-67.5,-75,60,,,,,,,60,60,F,Ольга Нагорная,B
Yes,Single-ply,DQ,Irina Konoreva,Amateur Open,1988,1988-01-29,Russia,58,,,,,-70,-70,-70,,,,,,,,,60,F,Ирина Конорева,B
Yes,Single-ply,1,Marina Safronova,Amateur Teen 16-17,1998,1998-04-02,Russia,67.5,,,,,87.5,-95,95,95,,,,,,,95,67.5,F,Марина Сафронова,B
Yes,Single-ply,1,Olga Mimonova,Amateur Open,1989,1989-02-22,Russia,69.8,,,,,55,-60,-60,55,,,,,,,55,75,F,Ольга Мимонова,B
Yes,Single-ply,1,Maksim Borzenkov,Amateur Teen 16-17,1996,1996-09-17,Russia,53.4,,,,,100,-110,-110,100,,,,,,,100,56,M,Максим Борзенков,B
Yes,Single-ply,1,Artur Abdyushev,Amateur Juniors 20-23,1993,1993-02-28,Russia,70.9,,,,,175,-182.5,182.5,182.5,,,,,,,182.5,75,M,Артур Абдюшев,B
Yes,Single-ply,DQ,Sergey Gurov,Amateur Open,1976,1976-06-25,Russia,71.9,,,,,-120,-120,-120,,,,,,,,,75,M,Сергей Гуров,B
Yes,Single-ply,1,Vladimir Tishkovskiy,Amateur Open,1986,1986-10-26,Russia,82.5,,,,,205,210,215,215,,,,,,,215,82.5,M,Владимир Тишковский,B
Yes,Single-ply,DQ,Ivan Popov,Amateur Open,1984,1984-06-07,Russia,81.7,,,,,-180,-180,-187.5,,,,,,,,,82.5,M,Иван Попов,B
Yes,Single-ply,DQ,Sergey Komkov,Amateur Open,1987,1987-06-12,Russia,88.6,,,,,-180,-180,-180,,,,,,,,,90,M,Сергей Комков,B
Yes,Single-ply,1,Ivan Korotaev,Amateur Juniors 20-23,1993,1993-10-01,Russia,94.4,,,,,-120,120,-130,120,,,,,,,120,100,M,Иван Коротаев,B
Yes,Single-ply,1,Anatoliy Apenin,Amateur Open,1989,1989-02-04,Russia,98,,,,,-150,150,-162.5,150,,,,,,,150,100,M,Анатолий Апенин,B
Yes,Single-ply,1,Anatoliy Totskiy,Amateur Masters 40-44,1974,1974-02-02,Russia,95.4,,,,,215,225,-230,225,,,,,,,225,100,M,Анатолий Тоцкий,B
Yes,Single-ply,2,Aleksey Kurochkin,Amateur Masters 40-44,1973,1973-03-18,Russia,98.8,,,,,200,215,225,225,,,,,,,225,100,M,Алексей Курочкин,B
Yes,Single-ply,1,Igor Solomichev,Amateur Masters 45-49,1967,1967-01-27,Russia,93.8,,,,,-180,180,190,190,,,,,,,190,100,M,Игорь Соломичев,B
Yes,Single-ply,1,Sergey Kiselev,Amateur Teen 18-19,1995,1995-06-18,Russia,108.4,,,,,210,-227.5,-227.5,210,,,,,,,210,110,M,Сергей Киселев,B
Yes,Single-ply,DQ,Aleksey Isaev,Amateur Open,1975,1975-06-20,Russia,106.2,,,,,-227.5,-227.5,-227.5,,,,,,,,,110,M,Алексей Исаев,B
Yes,Single-ply,DD,Aleksandr Tarakin,Amateur Open,1986,1986-02-10,Russia,109.2,,,,,197.5,205,-210,205,,,,,,,,110,M,Александр Таракин,B
Yes,Single-ply,1,Oleg Kostennikov,Amateur Masters 45-49,1966,1966-01-24,Russia,101.3,,,,,180,190,200,200,,,,,,,200,110,M,Олег Костенников,B
Yes,Single-ply,1,Oleg Vnukov,Amateur Open,1974,1974-06-11,Russia,118.5,,,,,-180,180,-190,180,,,,,,,180,125,M,Олег Внуков,B
Yes,Multi-ply,1,Vladimir Polupanov,Amateur Open,1983,1983-07-03,Russia,67.4,,,,,155,165,-170,165,,,,,,,165,67.5,M,Владимир Полупанов,B
Yes,Multi-ply,1,Aleksandr Koshman,Amateur Masters 40-44,1971,1971-08-05,Russia,74.7,,,,,145,152.5,160,160,,,,,,,160,75,M,Александр Кошман,B
Yes,Multi-ply,1,Denis Grigoryev,Amateur Open,1982,1982-08-07,Russia,105.7,,,,,210,220,-230,220,,,,,,,220,110,M,Денис Григорьев,B
No,Raw,1,Iliya Loktionova,Pro Open,1980,1980-09-02,Russia,80.3,,,,,100,115,-120,115,,,,,,,115,82.5,F,Илия Локтионова,B
No,Raw,2,Ekaterina Popova,Pro Open,1979,1979-07-07,Russia,76.9,,,,,60,65,-70,65,,,,,,,65,82.5,F,Екатерина Попова,B
No,Raw,1,Dmitriy Yurshin,Pro Youth,2001,2001-08-27,Russia,47.6,,,,,30,35,-40,35,,,,,,,35,52,M,Дмитрий Юршин,B
No,Raw,1,Daniil Golubev,Pro Open,1994,1994-06-23,Russia,71.4,,,,,115,120,125,125,,,,,,,125,75,M,Даниил Голубев,B
No,Raw,1,Sergey Dolgushin,Pro Juniors 20-23,1992,1992-07-23,Russia,79.2,,,,,140,147.5,152.5,152.5,,,,,,,152.5,82.5,M,Сергей Долгушин,B
No,Raw,1,Ruslan Putivskiy,Pro Open,1977,1977-06-03,Russia,81.4,,,,,170,175,-180,175,,,,,,,175,82.5,M,Руслан Путивский,B
No,Raw,2,Stanislav Bykov,Pro Open,1989,1989-10-26,Russia,81.9,,,,,145,152.5,-160,152.5,,,,,,,152.5,82.5,M,Станислав Быков,B
No,Raw,3,Vladimir Sidorenko,Pro Open,1961,1961-10-27,Russia,79.9,,,,,125,137.5,142.5,142.5,,,,,,,142.5,82.5,M,Владимир Сидоренко,B
No,Raw,1,Vladimir Sidorenko,Pro Masters 50-54,1961,1961-10-27,Russia,79.9,,,,,125,137.5,142.5,142.5,,,,,,,142.5,82.5,M,Владимир Сидоренко,B
No,Raw,1,Evgeniy Starodubtsev,Pro Juniors 20-23,1991,1991-12-17,Russia,89.9,,,,,165,172.5,-180,172.5,,,,,,,172.5,90,M,Евгений Стародубцев,B
No,Raw,1,Pavel Belyy,Pro Open,1978,1978-06-03,Russia,89.9,,,,,185,-192.5,-192.5,185,,,,,,,185,90,M,Павел Белый,B
No,Raw,2,Ilya Snezhkov,Pro Open,1989,1989-12-06,Russia,89.4,,,,,170,175,180,180,,,,,,,180,90,M,Илья Снежков,B
No,Raw,1,Mikhail Ronkin,Pro Masters 50-54,1961,1961-11-13,Russia,88.9,,,,,135,142.5,147.5,147.5,,,,,,,147.5,90,M,Михаил Ронкин,B
No,Raw,1,Anton Pronin,Pro Juniors 20-23,1992,1992-01-22,Russia,93.7,,,,,165,170,175,175,,,,,,,175,100,M,Антон Пронин,B
No,Raw,2,Aleksey Penkin,Pro Juniors 20-23,1992,1992-03-30,Russia,94,,,,,160,165,-170,165,,,,,,,165,100,M,Алексей Пенкин,B
No,Raw,3,Denis Baskakov,Pro Juniors 20-23,1991,1991-01-12,Russia,91.6,,,,,155,-165,-165,155,,,,,,,155,100,M,Денис Баскаков,B
No,Raw,1,Denis Boltenkov,Pro Open,1981,1981-07-13,Russia,99.5,,,,,180,185,-190,185,,,,,,,185,100,M,Денис Болтенков,B
No,Raw,2,Leonid Khlabynin,Pro Open,1986,1986-06-18,Russia,99.7,,,,,165,175,182.5,182.5,,,,,,,182.5,100,M,Леонид Хлабынин,B
No,Raw,3,Roman Batyrshin,Pro Open,1989,1989-07-03,Russia,95.4,,,,,180,-190,-190,180,,,,,,,180,100,M,Роман Батыршин,B
No,Raw,1,Vadim Mikheev,Pro Masters 45-49,1966,1966-04-21,Russia,99.4,,,,,125,-135,135,135,,,,,,,135,100,M,Вадим Михеев,B
No,Raw,1,Alexander Petrov,Pro Masters 50-54,1960,1960-07-17,Russia,95.2,,,,,190,205,208,208,,,,,,,208,100,M,Александр Петров,B
No,Raw,1,Anton Koksharov,Pro Open,1977,1977-09-18,Russia,105.8,,,,,212.5,220,227.5,227.5,,,,,,,227.5,110,M,Антон Кокшаров,B
No,Raw,2,Anton Kostyukov,Pro Open,1986,1986-09-12,Russia,109,,,,,210,215,220,220,,,,,,,220,110,M,Антон Костюков,B
No,Raw,3,Dmitriy Polyakov,Pro Open,1986,1986-08-21,Russia,107.8,,,,,180,190,-195,190,,,,,,,190,110,M,Дмитрий Поляков,B
No,Raw,DQ,Vladimir Mukin,Pro Open,1976,1976-05-01,Russia,102.6,,,,,-160,-160,-160,,,,,,,,,110,M,Владимир Мукин,B
No,Raw,1,Dmitriy Nosov,Pro Masters 40-44,1971,1971-03-14,Russia,102.8,,,,,-195,195,-197.5,195,,,,,,,195,110,M,Дмитрий Носов,B
No,Raw,1,Mikhail Petrov,Pro Masters 50-54,1963,1963-04-30,Russia,102.3,,,,,180,190,-195,190,,,,,,,190,110,M,Михаил Петров,B
No,Raw,1,Evgeniy Lemeschenko,Pro Teen 18-19,1995,1995-07-23,Russia,119.3,,,,,200,207.5,212.5,212.5,-220,,,,,,212.5,125,M,Евгений Лемещенко,B
No,Raw,1,Yuriy Lazarev,Pro Juniors 20-23,1991,1991-03-19,Russia,117.3,,,,,210,-217.5,-220,210,,,,,,,210,125,M,Юрий Лазарев,B
No,Raw,1,Sergey Yamschikov,Pro Open,1976,1976-04-04,Russia,122.9,,,,,225,230,-235,230,,,,,,,230,125,M,Сергей Ямщиков,B
No,Raw,2,Anton Matveev,Pro Open,1971,1971-05-18,Russia,117.5,,,,,215,225,-235,225,,,,,,,225,125,M,Антон Матвеев,B
No,Raw,3,Vyacheslav Berezin,Pro Open,1981,1981-09-09,Russia,121.6,,,,,190,200,207.5,207.5,,,,,,,207.5,125,M,Вячеслав Березин,B
No,Raw,1,Roman Bulatnikov,Pro Masters 40-44,1970,1970-04-24,Russia,113,,,,,180,190,-200,190,,,,,,,190,125,M,Роман Булатников,B
No,Raw,1,Bogdan Kozak,Pro Open,1984,1984-04-05,Russia,133.8,,,,,250,260,-267.5,260,,,,,,,260,140,M,Богдан Козак,B
No,Raw,2,Viktor Krylov,Pro Open,1985,1985-05-20,Russia,126.5,,,,,210,215,-220,215,,,,,,,215,140,M,Виктор Крылов,B
No,Raw,1,Aleksey Shishov,Pro Masters 40-44,1973,1973-03-21,Russia,128.1,,,,,200,-210,-210,200,,,,,,,200,140,M,Алексей Шишов,B
No,Raw,1,Viktor Kozlov,Pro Masters 50-54,1963,1963-01-01,Russia,125.2,,,,,200,210,215,215,,,,,,,215,140,M,Виктор Козлов,B
No,Single-ply,1,Semen Starkov,Pro Teen 18-19,1994,1994-12-08,Russia,74.1,,,,,152.5,-165,-175,152.5,,,,,,,152.5,75,M,Семен Старков,B
No,Single-ply,1,Nikolay Glazyrin,Pro Open,1987,1987-09-02,Russia,80.9,,,,,-190,-190,190,190,,,,,,,190,82.5,M,Николай Глазырин,B
No,Single-ply,1,Igor Peredriy,Pro Open,1977,1977-07-16,Russia,88.7,,,,,200,210,-220,210,,,,,,,210,90,M,Игорь Передрий,B
No,Single-ply,1,Georgiy Avdonin,Pro Masters 40-44,1969,1969-09-10,Russia,84.3,,,,,170,175,-180,175,,,,,,,175,90,M,Георгий Авдонин,B
No,Single-ply,1,Sergey Mokhov,Pro Open,1990,1990-02-17,Russia,99.1,,,,,240,252.5,260,260,,,,,,,260,100,M,Сергей Мохов,B
No,Single-ply,1,Aleksandr Gusev,Pro Masters 40-44,1973,1973-08-08,Russia,92.5,,,,,-160,160,-170,160,,,,,,,160,100,M,Александр Гусев,B
No,Single-ply,1,Sergey Kardash,Pro Open,1979,1979-12-28,Russia,103.7,,,,,-232.5,232.5,237.5,237.5,,,,,,,237.5,110,M,Сергей Кардаш,B
No,Multi-ply,1,Igor Kalyta,Pro Open,1982,1982-06-23,Russia,95.6,,,,,-270,270,-280,270,,,,,,,270,100,M,,B
No,Multi-ply,1,Alexander Petrov,Pro Masters 50-54,1960,1960-07-17,Russia,95.2,,,,,240,250,-262.5,250,,,,,,,250,100,M,Александр Петров,B
No,Multi-ply,1,Roman Anpilogov,Pro Open,1980,1980-07-14,Russia,105.4,,,,,-300,300,-315,300,,,,,,,300,110,M,Роман Анпилогов,B
No,Multi-ply,DQ,Evgeniy Chugunov,Pro Open,1983,1983-04-24,Russia,109.9,,,,,-275,-280,-280,,,,,,,,,110,M,Евгений Чугунов,B
No,Multi-ply,1,Stanislav Maksimov,Pro Masters 45-49,1968,1968-08-04,Russia,106.6,,,,,280,-290,-290,280,,,,,,,280,110,M,Станислав Максимов,B
No,Raw,1,Iliya Loktionova,Pro Open,1980,1980-09-02,Russia,80.7,,,,,,,,,,180,-200,200,200,,200,82.5,F,Илия Локтионова,D
No,Raw,1,Egor Konyukhov,Pro Teen 18-19,1994,1994-12-18,Russia,64.1,,,,,,,,,,155,165,170.5,170.5,,170.5,67.5,M,Егор Конюхов,D
No,Raw,1,Andrey Kruglov,Pro Open,1978,1978-10-06,Russia,88.5,,,,,,,,,,280,-305,-305,280,,280,90,M,Андрей Круглов,D
No,Raw,1,Roman Batyrshin,Pro Open,1989,1989-07-03,Russia,95.4,,,,,,,,,,230,240,-250,240,,240,100,M,Роман Батыршин,D
No,Raw,1,Eduard Metalichenko,Pro Open,1979,1979-03-25,Russia,121.9,,,,,,,,,,270,285,-295,285,,285,125,M,Эдуард Металиченко,D
No,Multi-ply,1,Ilya Luchnikov,Pro Open,1974,1974-03-11,Russia,106.9,,,,,,,,,,300,320,-335,320,,320,110,M,Илья Лучников,D
Yes,Raw,1,Galina Sorikhina,Amateur Open,1989,1989-08-27,Russia,46.4,,,,,,,,,,102.5,107.5,110,110,,110,48,F,Галина Сорихина,D
Yes,Raw,2,Anastasiya Vedeneeva,Amateur Open,1981,1981-11-21,Russia,48,,,,,,,,,,102.5,107.5,110,110,,110,48,F,Анастасия Веденеева,D
Yes,Raw,1,Anna Bychkova,Amateur Juniors 20-23,1993,1993-12-01,Russia,50.5,,,,,,,,,,-105,105,-115,105,,105,52,F,Анна Бычкова,D
Yes,Raw,1,Diana Koscheeva,Amateur Teen 16-17,1996,1996-06-08,Russia,55.2,,,,,,,,,,90,97.5,105,105,,105,56,F,Диана Кощеева,D
Yes,Raw,1,Lyudmila Volkova,Amateur Open,1956,1956-05-22,Russia,55.6,,,,,,,,,,75,85,90,90,,90,56,F,Людмила Волкова,D
Yes,Raw,1,Lyudmila Volkova,Amateur Masters 55-59,1956,1956-05-22,Russia,55.6,,,,,,,,,,75,85,90,90,,90,56,F,Людмила Волкова,D
Yes,Raw,1,Elena Gusarkina,Amateur Open,1978,1978-01-06,Russia,59.4,,,,,,,,,,120,125,127.5,127.5,,127.5,60,F,Елена Гусаркина,D
Yes,Raw,1,Valeriya Valiullina,Amateur Open,1986,1986-01-03,Russia,73.9,,,,,,,,,,-110,110,-115,110,,110,75,F,Валерия Валиуллина,D
Yes,Raw,1,Mariya Pinaevskaya,Amateur Teen 18-19,1995,1995-02-19,Russia,83.2,,,,,,,,,,132.5,-140,-140,132.5,,132.5,90,F,Мария Пинаевская,D
Yes,Raw,1,Tamerlan Skhvitaridze,Amateur Youth,2001,2001-08-07,Russia,48.4,,,,,,,,,,70.5,75,80,80,85,80,52,M,Тамерлан Схвитаридзе,D
Yes,Raw,1,Alim Arkasov,Amateur Teen 13-15,1998,1998-06-07,Russia,62.4,,,,,,,,,,140,145,150,150,,150,67.5,M,Алим Аркасов,D
Yes,Raw,2,Igor Romanenkov,Amateur Teen 16-17,1997,1997-06-11,Russia,63.7,,,,,,,,,,122.5,-130,132.5,132.5,,132.5,67.5,M,Игорь Романенков,D
Yes,Raw,1,Aleksey Demin,Amateur Teen 18-19,1994,1994-11-12,Russia,67.2,,,,,,,,,,185,195,207.5,207.5,,207.5,67.5,M,Алексей Демин,D
Yes,Raw,2,Sergey Krutilov,Amateur Teen 18-19,1994,1994-07-07,Russia,67.1,,,,,,,,,,180,200,-217.5,200,,200,67.5,M,Сергей Крутилов,D
Yes,Raw,3,Artem Shvets,Amateur Teen 18-19,1995,1995-03-23,Russia,67.3,,,,,,,,,,140,150,160,160,,160,67.5,M,Артем Швец,D
Yes,Raw,1,Zalim Khamgokov,Amateur Juniors 20-23,1994,1994-01-05,Russia,66.3,,,,,,,,,,190,217.5,220.5,220.5,,220.5,67.5,M,Залим Хамгоков,D
Yes,Raw,1,Vasiliy Volkov,Amateur Open,1957,1957-08-13,Russia,66,,,,,,,,,,125,135,145,145,,145,67.5,M,Василий Волков,D
Yes,Raw,1,Vasiliy Volkov,Amateur Masters 55-59,1957,1957-08-13,Russia,66,,,,,,,,,,125,135,145,145,,145,67.5,M,Василий Волков,D
Yes,Raw,1,Amur Shomakhov,Amateur Teen 16-17,1996,1996-08-22,Russia,74.1,,,,,,,,,,180,185,-190,185,,185,75,M,Амур Шомахов,D
Yes,Raw,2,Stanislav Tsymbarenko,Amateur Teen 16-17,1997,1997-12-16,Russia,71.5,,,,,,,,,,-155,-165,165,165,,165,75,M,Станислав Цымбаренко,D
Yes,Raw,1,Sergey Kashkin,Amateur Juniors 20-23,1991,1991-06-18,Russia,74.4,,,,,,,,,,185,200,210,210,,210,75,M,Сергей Кашкин,D
Yes,Raw,2,Murat Tligurov,Amateur Juniors 20-23,1993,1993-08-25,Russia,73.8,,,,,,,,,,177.5,-202.5,-202.5,177.5,,177.5,75,M,Мурат Тлигуров,D
Yes,Raw,1,Alim Tabukhov,Amateur Open,1986,1986-08-11,Russia,73.5,,,,,,,,,,177.5,-202.5,-202.5,177.5,,177.5,75,M,Алим Табухов,D
Yes,Raw,1,Ramazan Uyanaev,Amateur Teen 16-17,1997,1997-08-14,Russia,80,,,,,,,,,,150,162.5,-170,162.5,,162.5,82.5,M,Рамазан Уянаев,D
Yes,Raw,1,Azamat Kushkhov,Amateur Teen 18-19,1994,1994-08-06,Russia,79.6,,,,,,,,,,190,-215,-215,190,,190,82.5,M,Азамат Кушхов,D
Yes,Raw,2,Zalimkhan Beslaneev,Amateur Teen 18-19,1995,1995-08-21,Russia,80.1,,,,,,,,,,167.5,-185,-185,167.5,,167.5,82.5,M,Залимхан Бесланеев,D
Yes,Raw,1,Daniil Surovtsev,Amateur Juniors 20-23,1992,1992-03-14,Russia,79.1,,,,,,,,,,215,230,235,235,,235,82.5,M,Даниил Суровцев,D
Yes,Raw,2,Viktor Yulusov,Amateur Juniors 20-23,1991,1991-01-18,Russia,81.8,,,,,,,,,,215,220,225,225,,225,82.5,M,Виктор Юлусов,D
Yes,Raw,1,Vasiliy Perov,Amateur Open,1979,1979-03-06,Russia,81.6,,,,,,,,,,230,245,250,250,,250,82.5,M,Василий Перов,D
Yes,Raw,2,Ivan Beskaravaynyy,Amateur Open,1981,1981-08-30,Russia,82.5,,,,,,,,,,230,245,-250,245,,245,82.5,M,Иван Бескаравайный,D
Yes,Raw,3,Aleksandr Arutyunov,Amateur Open,1979,1979-09-27,Russia,80.1,,,,,,,,,,185,195,205,205,,205,82.5,M,Александр Арутюнов,D
Yes,Raw,4,Mikhail Sotnikov,Amateur Open,1979,1979-04-15,Russia,80.3,,,,,,,,,,-195,205,-215,205,,205,82.5,M,Михаил Сотников,D
Yes,Raw,1,Viktor Skokin,Amateur Masters 55-59,1957,1957-06-20,Russia,82.5,,,,,,,,,,227.5,240,-245,240,,240,82.5,M,Виктор Скокин,D
Yes,Raw,1,Islam Tkhazeplov,Amateur Teen 16-17,1997,1997-01-13,Russia,87.6,,,,,,,,,,170,-195,-195,170,,170,90,M,Ислам Тхазеплов,D
Yes,Raw,1,Vladimir Babenko,Amateur Teen 18-19,1994,1994-10-17,Russia,88.8,,,,,,,,,,185,195,205,205,,205,90,M,Владимир Бабенко,D
Yes,Raw,1,Tamerlan Umekhov,Amateur Juniors 20-23,1992,1992-05-01,Russia,87.5,,,,,,,,,,195,222.5,227.5,227.5,,227.5,90,M,Тамерлан Умехов,D
Yes,Raw,2,Andrey Yurov,Amateur Juniors 20-23,1993,1993-01-09,Russia,83.5,,,,,,,,,,187.5,205,222.5,222.5,,222.5,90,M,Андрей Юров,D
Yes,Raw,1,Aleksey Larionov,Amateur Open,1976,1976-05-02,Russia,88.7,,,,,,,,,,225,235,237.5,237.5,,237.5,90,M,Алексей Ларионов,D
Yes,Raw,2,Oleg Trubochkin,Amateur Open,1987,1987-07-12,Russia,86.9,,,,,,,,,,210,222.5,-227.5,222.5,,222.5,90,M,Олег Трубочкин,D
Yes,Raw,3,Roman Konstantinov,Amateur Open,1984,1984-03-26,Russia,90,,,,,,,,,,-200,200,-222.5,200,,200,90,M,Роман Константинов,D
Yes,Raw,1,Andrey Bogatchenko,Amateur Teen 18-19,1994,1994-09-25,Russia,97,,,,,,,,,,260,-267.5,-267.5,260,,260,100,M,Андрей Богатченко,D
Yes,Raw,1,Artem Vorotyntsev,Amateur Juniors 20-23,1993,1993-09-21,Russia,96.7,,,,,,,,,,210,225,235,235,,235,100,M,Артем Воротынцев,D
Yes,Raw,1,Anton Ilyasov,Amateur Open,1988,1988-11-05,Russia,98.9,,,,,,,,,,305,320,327.5,327.5,,327.5,100,M,Антон Илясов,D
Yes,Raw,2,Albert Beslaneev,Amateur Open,1987,1987-11-05,Russia,96.9,,,,,,,,,,-202.5,-202.5,202.5,202.5,,202.5,100,M,Альберт Бесланеев,D
Yes,Raw,1,Aleksandr Grigorov,Amateur Open,1986,1986-05-22,Russia,101,,,,,,,,,,-190,190,-200,190,,190,110,M,Александр Григоров,D
Yes,Raw,DD,Aleksandr Tarakin,Amateur Open,1986,1986-02-10,Russia,107.7,,,,,,,,,,260,275,285,285,,,110,M,Александр Таракин,D
Yes,Raw,1,Valeriy Sytnikov,Amateur Masters 40-44,,1970-02-28,Russia,108.8,,,,,,,,,,235,255,275,275,,275,110,M,Валерий Сытников,D
Yes,Raw,1,Vyacheslav Shadrin,Amateur Open,1968,1968-02-21,Russia,123.8,,,,,,,,,,260,285,,285,,285,125,M,Вячеслав Шадрин,D
Yes,Raw,1,Vyacheslav Shadrin,Amateur Masters 45-49,1968,1968-02-21,Russia,123.8,,,,,,,,,,260,285,,285,,285,125,M,Вячеслав Шадрин,D
Yes,Multi-ply,1,Oleg Son,Amateur Juniors 20-23,1991,1991-05-22,Russia,73.1,,,,,,,,,,210,-225,-225,210,,210,75,M,Олег Сон,D
