Place,Name,CyrillicName,Sex,BodyweightKg,Squat1Kg,Squat2Kg,Squat3Kg,Best3SquatKg,Squat4Kg,Bench1Kg,Bench2Kg,Bench3Kg,Best3BenchKg,Bench4Kg,Deadlift1Kg,Deadlift2Kg,Deadlift3Kg,Best3DeadliftKg,Deadlift4Kg,TotalKg,WeightClassKg,Event,Equipment,Tested,Division,Age,BirthDate
1,Viktoriya Prosvitlyuk,Виктория Просвитлюк,F,56,75,-80,85,85,,40,-42.5,-42.5,40,,95,-102.5,102.5,102.5,,227.5,56,SBD,Wraps,Yes,Amateur Sub-Juniors 17-19,19,1999-11-24
1,Natalya Podobryaeva,Наталья Подобряева,F,75,95,-100,100,100,,57.5,60,62.5,62.5,,125,132.5,-140,132.5,,295,75,SBD,Wraps,Yes,Amateur Sub-Juniors 17-19,17,2001-12-27
1,Anton Ivanov,Антон Иванов,M,125,145,165,-180,165,,120,130,135,135,,185,200,210,210,,510,125,SBD,Wraps,Yes,Amateur Sub-Juniors 17-19,19,1999-06-15
1,Ivan Samoylenko,Иван Самойленко,M,69.5,-115,115,-130,115,,100,105,-110,105,,140,160,175,175,,395,75,SBD,Wraps,No,Pro Sub-Juniors 17-19,18,2001-04-22
1,Andrey Yushin,Андрей Юшин,M,73.8,115,-125,125,125,,95,-100,-100,95,,-180,180,-200,180,,400,75,SBD,Wraps,No,Pro Open,24,1994-10-28
1,Evgeniy Lozovoy,Евгений Лозовой,M,90,-180,-185,190,190,,-100,127.5,-132.5,127.5,,205,220,240,240,,557.5,90,SBD,Wraps,No,Pro Open,35,1983-12-10
2,Denis Moskalenko,Денис Москаленко,M,84.7,140,152.5,-160,152.5,,100,105,-110,105,,-150,160,170,170,,427.5,90,SBD,Wraps,No,Pro Open,24,1994-09-03
1,Aleksey Blagodyrev,Алексей Благодырев,M,99.2,230,240,250,250,,167.5,177.5,180,180,,267.5,280,-285,280,,710,100,SBD,Wraps,No,Pro Open,27,1991-07-03
1,Petr Vasyutinskiy,Петр Васютинский,M,74.5,-135,135,145,145,,-97.5,-97.5,97.5,97.5,,130,145,157.5,157.5,,400,75,SBD,Wraps,Yes,Amateur Sub-Juniors 17-19,19,1999-08-10
1,Nikolay Kryukov,Николай Крюков,M,82.5,200,210,-220,210,,170,175,180,180,,-210,210,220,220,,610,82.5,SBD,Wraps,Yes,Amateur Open,27,1991-05-20
1,Sergey Miroshnikov,Сергей Мирошников,M,98.7,230,250,-270,250,,140,150,160,160,,240,260,280,280,,690,100,SBD,Wraps,Yes,Amateur Open,27,1992-03-20
2,Azamat Bulatov,Азамат Булатов,M,96.3,-190,200,220,220,,135,145,155,155,,230,-250,250,250,,625,100,SBD,Wraps,Yes,Amateur Open,23,1995-10-15
1,Andrey Ustyuzhanin,Андрей Устюжанин,M,114.5,250,260,,260,,150,155,160,160,,240,255,-265,255,,675,125,SBD,Wraps,Yes,Amateur Open,30,1988-07-20
1,Darya Chumakova,Дарья Чумакова,F,38.8,,,,,,30,32.5,-35,32.5,,,,,,,32.5,44,B,Raw,Yes,Youth,12,2006-12-28
1,Anastasiya Kornilova,Анастасия Корнилова,F,51.6,,,,,,55,57.5,-60,57.5,,,,,,,57.5,52,B,Raw,Yes,Amateur Open,19,1999-09-06
1,Vitaliy Tkachev,Виталий Ткачев,M,62.7,,,,,,102.5,-105,-105,102.5,,,,,,,102.5,67.5,B,Raw,Yes,Amateur Open,39,1980-03-07
1,Sergey Stepannikov,Сергей Степанников,M,72.7,,,,,,-107.5,107.5,112.5,112.5,,,,,,,112.5,75,B,Raw,Yes,Amateur Teen 14-16,16,2003-02-03
1,Ilya Kornilov,Илья Корнилов,M,74,,,,,,-105,-110,110,110,,,,,,,110,75,B,Raw,Yes,Amateur Open,28,1990-08-29
1,Nikolay Kryukov,Николай Крюков,M,82.5,,,,,,170,175,180,180,,,,,,,180,82.5,B,Raw,Yes,Amateur Open,27,1991-05-20
1,Dmitriy Mikhaylov,Дмитрий Михайлов,M,84.8,,,,,,-135,135,-140,135,,,,,,,135,90,B,Raw,Yes,Amateur Open,30,1988-08-10
1,Yuriy Kharitonov,Юрий Харитонов,M,109.4,,,,,,175,180,-185,180,,,,,,,180,110,B,Raw,Yes,Amateur Open,37,1982-03-08
1,Aleksandr Shustov,Александр Шустов,M,105.5,,,,,,142.5,-147.5,-147.5,142.5,,,,,,,142.5,110,B,Raw,Yes,Amateur Masters 40-49,42,1976-11-01
1,Georgiy Geynch,Георгий Гейнч,M,58.5,,,,,,50,-60,-60,50,,,,,,,50,60,B,Raw,No,Pro Sub-Juniors 17-19,17,2002-05-18
1,Kirill Shchukin,Кирилл Щукин,M,68.8,,,,,,110,117.5,-125,117.5,,,,,,,117.5,75,B,Raw,No,Pro Juniors 20-23,20,1998-05-24
1,Yuriy Sunyaev,Юрий Суняев,M,89.4,,,,,,110,115,-117.5,115,,,,,,,115,90,B,Raw,No,Pro Masters 50-59,54,1965-04-06
1,Oleg Kholin,Олег Холин,M,98.8,,,,,,190,200,-205,200,,,,,,,200,100,B,Raw,No,Pro Open,43,1975-09-26
2,Aleksandr Obolonskiy,Александр Оболонский,M,94.3,,,,,,135,-142.5,-142.5,135,,,,,,,135,100,B,Raw,No,Pro Open,26,1992-08-22
1,Konstantin Lozychenko,Константин Лозыченко,M,92.7,,,,,,142.5,-147.5,147.5,147.5,,,,,,,147.5,100,B,Raw,No,Pro Masters 40-49,47,1972-01-11
1,Evgeniy Lebedev,Евгений Лебедев,M,82.5,,,,,,190,-202.5,202.5,202.5,,,,,,,202.5,82.5,B,Unlimited,Yes,Amateur Open,31,1987-08-28
1,Sergey Biryukov #1,Сергей Бирюков,M,89.2,,,,,,227.5,-235,-242.5,227.5,,,,,,,227.5,90,B,Unlimited,Yes,Amateur Open,33,1985-07-17
1,Dmitriy Gonzhal,Дмитрий Гонжал,M,99.4,,,,,,215,230,240,240,,,,,,,240,100,B,Unlimited,Yes,Amateur Open,33,1986-04-18
2,Vladimir Borshchev,Владимир Борщев,M,94.7,,,,,,180,202.5,-205,202.5,,,,,,,202.5,100,B,Unlimited,Yes,Amateur Open,27,1992-04-18
1,Nikolay Reshetov,Николай Решетов,M,94,,,,,,205,220,-230,220,,,,,,,220,100,B,Unlimited,Yes,Amateur Masters 60-69,60,1959-02-23
1,Aleksey Kiryanov,Алексей Кирьянов,M,97.7,,,,,,260,-272.5,275,275,,,,,,,275,100,B,Unlimited,No,Pro Open,30,1989-04-07
2,Dmitriy Vasilev,Дмитрий Васильев,M,95.7,,,,,,240,-250,-250,240,,,,,,,240,100,B,Unlimited,No,Pro Open,29,1989-09-18
1,Nikolay Reshetov,Николай Решетов,M,94,,,,,,205,220,-230,220,,,,,,,220,100,B,Unlimited,No,Pro Masters 60-69,60,1959-02-23
1,Dmitriy Sukhov,Дмитрий Сухов,M,109.5,,,,,,300,-315,-315,300,,,,,,,300,110,B,Unlimited,No,Pro Open,43,1975-06-09
2,Vladimir Laskucher,Владимир Ласкучер,M,101,,,,,,170,-180,-180,170,,,,,,,170,110,B,Unlimited,No,Pro Open,37,1981-09-26
1,Dmitriy Sukhov,Дмитрий Сухов,M,109.5,,,,,,300,-315,-315,300,,,,,,,300,110,B,Unlimited,No,Pro Masters 40-49,43,1975-06-09
2,Aleksandr Yakovlev,Александр Яковлев,M,104,,,,,,-180,180,190,190,,,,,,,190,110,B,Unlimited,No,Pro Masters 40-49,40,1978-07-13
1,Aleksandr Khmelev,Александр Хмелев,M,120,,,,,,330,350,-365,350,,,,,,,350,125,B,Unlimited,No,Pro Open,47,1971-09-19
1,Aleksandr Khmelev,Александр Хмелев,M,120,,,,,,330,350,-365,350,,,,,,,350,125,B,Unlimited,No,Pro Masters 40-49,47,1971-09-19
1,Natalya Cherednichenko,Наталья Чередниченко,F,42.6,,,,,,,,,,,-75,-75,75,75,,75,44,D,Raw,Yes,Amateur Open,28,1991-05-07
1,Vladimir Marchenko,Владимир Марченко,M,71.3,,,,,,,,,,,140,150,160,160,,160,75,D,Raw,Yes,Amateur Sub-Juniors 17-19,19,2000-03-22
1,Andrey Nichiporuk,Андрей Ничипорук,M,76.4,,,,,,,,,,,210,225,-232.5,225,,225,82.5,D,Raw,Yes,Amateur Open,28,1991-04-11
1,Olga Khmeleva,Ольга Хмелева,F,42,,,,,,,,,,,57.5,65,72.5,72.5,,72.5,44,D,Raw,No,Pro Teen 14-16,15,2004-05-07
1,Elmira Efendieva,Эльмира Эфендиева,F,72.2,,,,,,,,,,,125,-135,,125,,125,75,D,Raw,No,Pro Open,43,1976-03-20
1,Ivan Cherednichenko,Иван Чередниченко,M,71,,,,,,,,,,,180,215,-237.5,215,,215,75,D,Raw,No,Pro Open,23,1995-09-11
1,Aleksandr Cherednichenko,Александр Чередниченко,M,90,,,,,,,,,,,300,310,320,320,,320,90,D,Raw,No,Pro Open,28,1991-02-04
1,Dmitriy Myskov,Дмитрий Мыськов,M,95,,,,,,,,,,,260,270,-280,270,,270,100,D,Raw,No,Pro Open,42,1976-11-05
1,Sergey Samoylov,Сергей Самойлов,M,95.2,,,,,,,,,,,170,180,190,190,,190,100,D,Raw,No,Pro Masters 50-59,52,1966-12-02
1,Dmitriy Greznev,Дмитрий Грезнев,M,107.7,,,,,,,,,,,270,300,310,310,,310,110,D,Raw,No,Pro Open,44,1974-11-26
1,Aleksandr Yakovlev,Александр Яковлев,M,104,,,,,,,,,,,210,220,230,230,,230,110,D,Raw,No,Pro Masters 40-49,40,1978-07-13
1,Aleksandr Amelchenko,Александр Амельченко,M,129.5,,,,,,,,,,,320,-330,-330,320,,320,140,D,Raw,No,Pro Open,27,1991-05-19
