Division,WeightClassKg,Place,Name,Team,BodyweightKg,Best3SquatKg,Best3BenchKg,Best3DeadliftKg,TotalKg,Equipment,Event,Sex
Boys,51.71,1,Nick Sanchez,Georgetown,49.31,99.79,68.04,113.4,281.23,Single-ply,SBD,M
Boys,51.71,2,Andres Guebala,Manor,49.03,83.91,47.63,113.4,244.94,Single-ply,SBD,M
Boys,51.71,3,Will Solomon,Bastrop Cedar Creek,51.12,79.38,58.97,104.33,242.67,Single-ply,SBD,M
Boys,51.71,4,Sergio Montes,Georgetown,46.67,72.57,52.16,90.72,215.46,Single-ply,SBD,M
Boys,55.79,1,Payton Melchor,Liberty Hill,55.66,136.08,61.23,124.74,322.05,Single-ply,SBD,M
Boys,55.79,2,DJ Walker,Georgetown East View,53.84,95.25,52.16,124.74,272.16,Single-ply,SBD,M
Boys,55.79,DQ,Salvador Martinez,Bastrop,52.16,111.13,,,,Single-ply,SBD,M
Boys,55.79,DQ,Dwayne Vassar,Bastrop,52.75,79.38,,,,Single-ply,SBD,M
Boys,59.87,1,Michael Marullo,Georgetown East View,57.79,131.54,90.72,129.27,351.53,Single-ply,SBD,M
Boys,59.87,2,Damian Albiter,Bastrop Cedar Creek,56.2,104.33,63.5,117.93,285.76,Single-ply,SBD,M
Boys,59.87,3,Tristen Aleksines,Hutto,56.02,102.06,68.04,113.4,283.5,Single-ply,SBD,M
Boys,59.87,4,Brett Smygelski,Georgetown East View,58.33,92.99,72.57,99.79,265.35,Single-ply,SBD,M
Boys,67.13,1,Josh Howard,Hutto,65.32,151.95,102.06,165.56,419.57,Single-ply,SBD,M
Boys,67.13,2,Happy Jones,Manor,66.13,142.88,90.72,181.44,415.04,Single-ply,SBD,M
Boys,67.13,3,Daniel Mireles,Georgetown East View,63.78,149.69,104.33,149.69,403.7,Single-ply,SBD,M
Boys,67.13,4,Klayton Morriss,Bastrop Cedar Creek,64.41,142.88,70.31,167.83,381.02,Single-ply,SBD,M
Boys,67.13,5,Isaac Ochoa,Georgetown East View,67,129.27,92.99,149.69,371.95,Single-ply,SBD,M
Boys,67.13,6,Seth Cummings,Pflugerville Hendrickson,64.86,133.81,70.31,142.88,347,Single-ply,SBD,M
Boys,67.13,7,Jack Shneeman,Georgetown,66.04,127.01,79.38,136.08,342.46,Single-ply,SBD,M
Boys,67.13,8,Preston Perkins,Georgetown,65.68,120.2,79.38,127.01,326.59,Single-ply,SBD,M
Boys,67.13,9,Sutton Lindsley,Bastrop,62.05,99.79,86.18,111.13,297.1,Single-ply,SBD,M
Boys,67.13,10,Nate McMillan,Georgetown,65.27,102.06,72.57,113.4,288.03,Single-ply,SBD,M
Boys,67.13,11,Tristen Davis,Pflugerville Hendrickson,61.23,74.84,47.63,92.99,215.46,Single-ply,SBD,M
Boys,67.13,DQ,Ryan Wall,Georgetown East View,63.78,113.4,58.97,,,Single-ply,SBD,M
Boys,67.13,DQ,Jared Smith,Bastrop,66.54,115.67,,,,Single-ply,SBD,M
Boys,74.84,1,Josh Tiha,Manor,68.81,181.44,104.33,204.12,489.88,Single-ply,SBD,M
Boys,74.84,2,Chance McGuire,Georgetown,68.04,142.88,95.25,192.78,430.91,Single-ply,SBD,M
Boys,74.84,3,Daniel Russell #4,Georgetown East View,72.94,154.22,86.18,163.29,403.7,Single-ply,SBD,M
Boys,74.84,4,Jaden Sulucky,Georgetown East View,73.07,145.15,83.91,149.69,378.75,Single-ply,SBD,M
Boys,74.84,5,Jesus Alfaro,Bastrop,73.12,108.86,95.25,174.63,378.75,Single-ply,SBD,M
Boys,74.84,6,Domonique Smith,Del Valle,71.44,117.93,86.18,158.76,362.87,Single-ply,SBD,M
Boys,74.84,7,Augustine Hernandez,Bastrop Cedar Creek,70.44,108.86,83.91,158.76,351.53,Single-ply,SBD,M
Boys,74.84,8,Joseph Carroll,Georgetown,71.62,136.08,70.31,129.27,335.66,Single-ply,SBD,M
Boys,74.84,9,Jacob Dreher,Georgetown,68.72,102.06,74.84,142.88,319.78,Single-ply,SBD,M
Boys,74.84,10,Paul Saucedo,Georgetown,69.85,111.13,74.84,133.81,319.78,Single-ply,SBD,M
Boys,74.84,11,Cameron Nielsen,Georgetown,68.22,102.06,68.04,113.4,283.5,Single-ply,SBD,M
Boys,74.84,12,Isiaiah Fillmore,Georgetown,68.58,72.57,61.23,92.99,226.8,Single-ply,SBD,M
Boys,74.84,DQ,Trejo Tucker,Hutto,72.71,142.88,,,,Single-ply,SBD,M
Boys,82.1,1,Sloan Hall,Liberty Hill,80.38,190.51,122.47,215.46,528.44,Single-ply,SBD,M
Boys,82.1,2,Austin Olson,Hutto,79.65,170.1,111.13,206.38,487.61,Single-ply,SBD,M
Boys,82.1,3,Jakobe Davidson,Hutto,79.38,158.76,113.4,210.92,483.08,Single-ply,SBD,M
Boys,82.1,4,Nate Hines,Georgetown East View,81.96,163.29,104.33,167.83,435.45,Single-ply,SBD,M
Boys,82.1,5,Steven Crider,Austin Westlake,75.3,145.15,102.06,183.7,430.91,Single-ply,SBD,M
Boys,82.1,6,Eggy Hassan,Georgetown,76.29,156.49,108.86,161.03,426.38,Single-ply,SBD,M
Boys,82.1,7,Drew Newman,Georgetown,79.83,127.01,111.13,181.44,419.57,Single-ply,SBD,M
Boys,82.1,8,Alan Hernandez #3,Georgetown,80.83,158.76,102.06,158.76,419.57,Single-ply,SBD,M
Boys,82.1,9,Josh Garza,Bastrop Cedar Creek,82.01,154.22,77.11,183.7,415.04,Single-ply,SBD,M
Boys,82.1,10,Brandon Doty,Pflugerville Hendrickson,78.38,142.88,97.52,156.49,396.89,Single-ply,SBD,M
Boys,82.1,11,Marcus Maldonado,Georgetown East View,78.88,136.08,97.52,154.22,387.82,Single-ply,SBD,M
Boys,82.1,12,TJ Eldridge,Pflugerville Hendrickson,74.93,142.88,86.18,154.22,383.29,Single-ply,SBD,M
Boys,82.1,13,Cade Edwards,Bastrop Cedar Creek,74.89,117.93,83.91,158.76,360.61,Single-ply,SBD,M
Boys,82.1,14,Wesley Peterson,Austin Westlake,76.16,149.69,81.65,124.74,356.07,Single-ply,SBD,M
Boys,82.1,15,Camren Willwerth,Del Valle,77.56,129.27,90.72,136.08,356.07,Single-ply,SBD,M
Boys,82.1,16,Jeremiah Sanders,Pflugerville Hendrickson,75.07,124.74,90.72,129.27,344.73,Single-ply,SBD,M
Boys,82.1,17,Whitman Frazier,Georgetown,76.43,111.13,65.77,142.88,319.78,Single-ply,SBD,M
Boys,82.1,DQ,Derrick Clayborne,Manor,77.16,,,,,Single-ply,SBD,M
Boys,89.81,1,Andy Becker,Liberty Hill,89.09,181.44,117.93,208.65,508.02,Single-ply,SBD,M
Boys,89.81,2,Ethan Thom,Liberty Hill,84.19,201.85,120.2,183.7,505.76,Single-ply,SBD,M
Boys,89.81,3,Lakota Lawrence,Liberty Hill,84.59,176.9,120.2,172.37,469.47,Single-ply,SBD,M
Boys,89.81,4,Connor Kelly,Bastrop Cedar Creek,89.18,158.76,99.79,204.12,462.66,Single-ply,SBD,M
Boys,89.81,5,Dalton Tobola,Bastrop,84.96,145.15,102.06,183.7,430.91,Single-ply,SBD,M
Boys,89.81,6,Jacob Turner,Bastrop Cedar Creek,87.68,158.76,102.06,158.76,419.57,Single-ply,SBD,M
Boys,89.81,7,Tyler Solomon,Georgetown,89.81,147.42,104.33,158.76,410.5,Single-ply,SBD,M
Boys,89.81,8,Jackson Coulson,Georgetown East View,84.28,158.76,92.99,147.42,399.16,Single-ply,SBD,M
Boys,89.81,9,Roland Hines,Georgetown East View,82.64,156.49,90.72,149.69,396.89,Single-ply,SBD,M
Boys,89.81,10,Eric Anderson #2,Georgetown,82.92,149.69,102.06,142.88,394.63,Single-ply,SBD,M
Boys,89.81,11,Frankie Durante,Georgetown,84.28,147.42,95.25,151.95,394.63,Single-ply,SBD,M
Boys,89.81,12,Sebastian Rodriguez,Pflugerville Hendrickson,85.09,133.81,99.79,156.49,390.09,Single-ply,SBD,M
Boys,89.81,13,Logan Gaskey,Bastrop,86.55,145.15,83.91,158.76,387.82,Single-ply,SBD,M
Boys,89.81,14,Tajha Brooks,Manor,86.82,102.06,83.91,158.76,344.73,Single-ply,SBD,M
Boys,89.81,15,Colby Monroe,Pflugerville Hendrickson,88.13,113.4,79.38,147.42,340.19,Single-ply,SBD,M
Boys,99.79,1,Kody Knowles,Liberty Hill,94.26,217.72,145.15,244.94,607.81,Single-ply,SBD,M
Boys,99.79,2,Olisa Uzuegbunam,Manor,93.39,215.46,127.01,226.8,569.26,Single-ply,SBD,M
Boys,99.79,3,Ochaun Mathis,Manor,97.57,185.97,102.06,226.8,514.83,Single-ply,SBD,M
Boys,99.79,4,Jean Wiley,Austin Westlake,91.85,195.04,104.33,172.37,471.74,Single-ply,SBD,M
Boys,99.79,5,Devin Gregory,Pflugerville Hendrickson,98.38,156.49,111.13,197.31,464.93,Single-ply,SBD,M
Boys,99.79,6,Brayden Cassity,Austin Westlake,96.39,142.88,108.86,208.65,460.4,Single-ply,SBD,M
Boys,99.79,7,Alfred Garcia,Georgetown,97.43,149.69,102.06,142.88,394.63,Single-ply,SBD,M
Boys,99.79,8,Paden Brown,Georgetown,97.34,158.76,106.59,124.74,390.09,Single-ply,SBD,M
Boys,99.79,9,Cason Campbell,Georgetown,95.44,140.61,99.79,142.88,383.29,Single-ply,SBD,M
Boys,99.79,10,Francisco Acosta,Del Valle,97.48,131.54,86.18,142.88,360.61,Single-ply,SBD,M
Boys,99.79,11,John Christophe,Pflugerville Hendrickson,92.17,124.74,83.91,133.81,342.46,Single-ply,SBD,M
Boys,99.79,12,Hunter Robertson,Pflugerville Hendrickson,96.12,133.81,79.38,115.67,328.85,Single-ply,SBD,M
Boys,99.79,13,Nathan Carlin #1,Georgetown,93.44,92.99,65.77,113.4,272.16,Single-ply,SBD,M
Boys,99.79,DQ,Masson Mayer,Georgetown,98.29,,,,,Single-ply,SBD,M
Boys,99.79,DQ,Stone Jones,Bastrop Cedar Creek,95.93,172.37,,,,Single-ply,SBD,M
Boys,109.77,1,Kyle Huppee,Liberty Hill,105.37,226.8,147.42,224.53,598.74,Single-ply,SBD,M
Boys,109.77,2,Hunter Bohanan,Georgetown,106.78,240.4,151.95,201.85,594.21,Single-ply,SBD,M
Boys,109.77,3,Bailey Cloughly,Liberty Hill,109.04,226.8,154.22,210.92,591.94,Single-ply,SBD,M
Boys,109.77,4,Nakia Watson,Austin Westlake,105.41,219.99,149.69,204.12,573.79,Single-ply,SBD,M
Boys,109.77,5,Tyrone Wilson,Bastrop,109.32,179.17,136.08,226.8,542.04,Single-ply,SBD,M
Boys,109.77,6,Matthew Carter,Liberty Hill,100.65,204.12,136.08,190.51,530.7,Single-ply,SBD,M
Boys,109.77,7,David Neil,Austin Westlake,100.33,199.58,113.4,215.46,528.44,Single-ply,SBD,M
Boys,109.77,8,Jovany Araujo,Georgetown East View,105.14,201.85,113.4,208.65,523.9,Single-ply,SBD,M
Boys,109.77,9,Jace Chambers,Pflugerville Hendrickson,107.59,188.24,113.4,188.24,489.88,Single-ply,SBD,M
Boys,109.77,10,Randy Reyes,Bastrop Cedar Creek,104.69,167.83,127.01,183.7,478.54,Single-ply,SBD,M
Boys,109.77,11,Brayan Carrera,Del Valle,104.05,165.56,104.33,192.78,462.66,Single-ply,SBD,M
Boys,109.77,12,Rey Sanchez,Pflugerville Hendrickson,102.74,163.29,106.59,170.1,439.98,Single-ply,SBD,M
Boys,109.77,13,Ben Christen,Austin Westlake,106.73,170.1,92.99,170.1,433.18,Single-ply,SBD,M
Boys,109.77,14,Brayan Vasquez,Del Valle,107.77,136.08,102.06,181.44,419.57,Single-ply,SBD,M
Boys,109.77,15,Luke Armstrong,Austin Westlake,109.04,170.1,108.86,136.08,415.04,Single-ply,SBD,M
Boys,109.77,DQ,Makhi Proctor,Hutto,108.86,142.88,,,,Single-ply,SBD,M
Boys,124.74,1,Justin Hoffman,Bastrop,123.33,272.16,183.7,204.12,659.98,Single-ply,SBD,M
Boys,124.74,2,Tyler Noles,Georgetown,118.61,226.8,158.76,217.72,603.28,Single-ply,SBD,M
Boys,124.74,3,Justin Montgomery,Liberty Hill,116.89,226.8,147.42,204.12,578.33,Single-ply,SBD,M
Boys,124.74,4,Kadin Hammonds,Georgetown,113.26,195.04,145.15,206.38,546.58,Single-ply,SBD,M
Boys,124.74,5,Jaylon Knighten,Del Valle,119.84,204.12,111.13,219.99,535.24,Single-ply,SBD,M
Boys,124.74,6,Harrison Schuler,Georgetown,111.36,174.63,129.27,170.1,474,Single-ply,SBD,M
Boys,124.74,7,Brian George,Bastrop Cedar Creek,122.33,149.69,102.06,185.97,437.72,Single-ply,SBD,M
Boys,124.74,8,Walker Riley,Pflugerville Hendrickson,112.54,151.95,99.79,183.7,435.45,Single-ply,SBD,M
Boys,124.74,9,Mark Grimm,Hutto,122.7,138.35,102.06,174.63,415.04,Single-ply,SBD,M
Boys,124.74,10,Jackson Pickard,Georgetown East View,123.1,158.76,95.25,158.76,412.77,Single-ply,SBD,M
Boys,124.74,11,Chris Garcia,Hutto,121.7,140.61,92.99,138.35,371.95,Single-ply,SBD,M
Boys,124.74+,1,Dominic Pastucci,Pflugerville Hendrickson,132.49,244.94,158.76,249.48,653.17,Single-ply,SBD,M
Boys,124.74+,2,Anthony Hill,Manor,181.71,238.14,124.74,249.48,612.35,Single-ply,SBD,M
Boys,124.74+,3,Marty Rodriguez,Hutto,135.76,263.08,127.01,197.31,587.4,Single-ply,SBD,M
Boys,124.74+,4,Scale Igiehan,Del Valle,149.5,213.19,133.81,181.44,528.44,Single-ply,SBD,M
Boys,124.74+,5,Trellis Collins,Austin Westlake,133.86,165.56,108.86,181.44,455.86,Single-ply,SBD,M
Boys,124.74+,6,Noe Ibarra,Georgetown,136.8,174.63,113.4,165.56,453.59,Single-ply,SBD,M
Boys,124.74+,7,Eron Ortiz,Georgetown,134.4,179.17,113.4,156.49,449.06,Single-ply,SBD,M
Boys,124.74+,DQ,Makody Robertson,Pflugerville Hendrickson,157.26,,,,,Single-ply,SBD,M
Boys,124.74+,DQ,Jared Tippie,Liberty Hill,131.41,,,,,Single-ply,SBD,M
Boys,,NS,Chermaz Hall,Del Valle,,,,,,Single-ply,SBD,M
Boys,,NS,Gerardo Martinez,Del Valle,,,,,,Single-ply,SBD,M
Boys,,NS,Tamorian Moore,Del Valle,,,,,,Single-ply,SBD,M
Boys,,NS,Luke Wilkin,Austin Westlake,,,,,,Single-ply,SBD,M
Boys,,NS,Kaeli Ruiz-Silva,Pflugerville Hendrickson,,,,,,Single-ply,SBD,M
Boys,,NS,Hakyri Whiteside,Del Valle,,,,,,Single-ply,SBD,M
Boys,,NS,Dre Davis,Georgetown East View,,,,,,Single-ply,SBD,M
Boys,,NS,Edward Cavsos,Georgetown East View,,,,,,Single-ply,SBD,M
Boys,,NS,Paul Sanchez,Hutto,,,,,,Single-ply,SBD,M
