Division,WeightClassKg,Place,Name,Team,BodyweightKg,Best3SquatKg,Best3BenchKg,Best3DeadliftKg,TotalKg,Equipment,Event,Sex
Boys,51.71,1,Juan Duran #2,Lubbock Cooper,47.99,108.86,74.84,156.49,340.19,Single-ply,SBD,M
Boys,51.71,2,Andrew Paredez,Big Spring,50.35,120.2,70.31,149.69,340.19,Single-ply,SBD,M
Boys,51.71,3,Landon Nail,Lubbock Cooper,51.07,122.47,61.23,140.61,324.32,Single-ply,SBD,M
Boys,51.71,4,Israel Hernandez,Lubbock Cooper,46.99,108.86,65.77,133.81,308.44,Single-ply,SBD,M
Boys,51.71,5,Nick Acosta,Seminole,50.62,111.13,68.04,127.01,306.17,Single-ply,SBD,M
Boys,51.71,6,Brady Robbins,Midland Greenwood,49.35,115.67,72.57,113.4,301.64,Single-ply,SBD,M
Boys,51.71,7,Peter Padilla,Seminole,45.99,106.59,58.97,127.01,292.57,Single-ply,SBD,M
Boys,51.71,8,Chris Ortiz,Pecos,46.08,106.59,56.7,115.67,278.96,Single-ply,SBD,M
Boys,55.79,9,Xavier Estrada,Andrews,51.94,106.59,61.23,111.13,278.96,Single-ply,SBD,M
Boys,55.79,10,Damond Humiston,Snyder,51.94,115.67,52.16,106.59,274.42,Single-ply,SBD,M
Boys,51.71,DQ,Kordell Lawrence,Dalhart,51.53,108.86,52.16,106.59,,Single-ply,SBD,M
Boys,55.79,1,Tyler Nairn,Big Spring,54.61,176.9,104.33,170.1,451.32,Single-ply,SBD,M
Boys,55.79,2,Clayton Kothmann,Midland Classical Academy,54.79,147.42,72.57,192.78,412.77,Single-ply,SBD,M
Boys,59.87,3,Salvador Antillon,Seminole,55.97,147.42,81.65,149.69,378.75,Single-ply,SBD,M
Boys,55.79,4,Daniel Sánchez,Midland Greenwood,55.79,142.88,86.18,147.42,376.48,Single-ply,SBD,M
Boys,55.79,5,Daniel Hernandez,Pecos,55.7,136.08,68.04,151.95,356.07,Single-ply,SBD,M
Boys,59.87,6,Jacob Jackson,Vernon,56.02,136.08,77.11,142.88,356.07,Single-ply,SBD,M
Boys,55.79,7,Efren Miranda,Levelland,54.34,131.54,70.31,124.74,326.59,Single-ply,SBD,M
Boys,59.87,8,Alex Lugo,Perryton,56.02,117.93,63.5,145.15,326.59,Single-ply,SBD,M
Boys,55.79,9,Noel Ybarra,Pecos,55.34,115.67,70.31,136.08,322.05,Single-ply,SBD,M
Boys,55.79,10,Kody Collins,Monahans,55.16,122.47,70.31,111.13,303.91,Single-ply,SBD,M
Boys,55.79,DQ,Nathan Browning,Sweetwater,55.34,104.33,68.04,108.86,,Single-ply,SBD,M
Boys,59.87,DQ,Jose Raul Ornelas,Levelland,56.02,90.72,61.23,117.93,,Single-ply,SBD,M
Boys,59.87,1,Reid Clanton,Midland Greenwood,59.06,165.56,113.4,181.44,460.4,Single-ply,SBD,M
Boys,59.87,2,Miguel Espino,Perryton,59.78,165.56,99.79,190.51,455.86,Single-ply,SBD,M
Boys,59.87,3,Jeremy Reeves,Lubbock Cooper,59.69,165.56,92.99,170.1,428.64,Single-ply,SBD,M
Boys,59.87,4,Sawyer Jenkins,Seminole,59.78,165.56,99.79,163.29,428.64,Single-ply,SBD,M
Boys,59.87,5,Daniel Valenzuela,Pecos,58.79,167.83,77.11,179.17,424.11,Single-ply,SBD,M
Boys,67.13,6,Jay Lomas,Sweetwater,60.1,149.69,102.06,170.1,421.84,Single-ply,SBD,M
Boys,59.87,7,Michael Condarco,Seminole,59.51,154.22,88.45,165.56,408.23,Single-ply,SBD,M
Boys,59.87,8,Gian Cruz,Monahans,58.88,142.88,72.57,170.1,385.55,Single-ply,SBD,M
Boys,59.87,9,Isiah Petralba,Fort Stockton,59.87,149.69,95.25,140.61,385.55,Single-ply,SBD,M
Boys,59.87,10,Kaiden Summerville,Perryton,58.33,129.27,74.84,133.81,337.93,Single-ply,SBD,M
Boys,59.87,11,Antonio Alvarado,Levelland,57.88,111.13,77.11,136.08,324.32,Single-ply,SBD,M
Boys,67.13,1,Andrew Alvidrez,Seminole,66.77,229.06,136.08,210.92,576.06,Single-ply,SBD,M
Boys,67.13,2,Jordan Davis #4,Snyder,66.13,179.17,97.52,213.19,489.88,Single-ply,SBD,M
Boys,67.13,3,Robert Martinez,Big Spring,65.5,174.63,117.93,192.78,485.34,Single-ply,SBD,M
Boys,67.13,4,Alex Valdez,Andrews,66.95,165.56,108.86,190.51,464.93,Single-ply,SBD,M
Boys,74.84,5,Jose Hernandez #2,Midland Greenwood,67.31,170.1,97.52,188.24,455.86,Single-ply,SBD,M
Boys,67.13,6,Juan Gonzalez,Fort Stockton,66.41,172.37,95.25,181.44,449.06,Single-ply,SBD,M
Boys,67.13,7,Derrick Garcia,Pecos,67.13,167.83,108.86,170.1,446.79,Single-ply,SBD,M
Boys,74.84,8,Fabian Bencomo,Dalhart,67.22,142.88,86.18,174.63,403.7,Single-ply,SBD,M
Boys,67.13,9,Garett Stille,Andrews,66.59,142.88,83.91,167.83,394.63,Single-ply,SBD,M
Boys,67.13,10,Armando Garcia,Fort Stockton,66.95,142.88,83.91,158.76,385.55,Single-ply,SBD,M
Boys,67.13,11,Raul Vasquez,Andrews,65.41,140.61,77.11,154.22,371.95,Single-ply,SBD,M
Boys,74.84,1,Elliot Hanna,Levelland,69.85,204.12,122.47,217.72,544.31,Single-ply,SBD,M
Boys,74.84,2,Jarric Weber,Borger,69.76,167.83,108.86,215.46,492.15,Single-ply,SBD,M
Boys,74.84,3,Franky Medina,Dalhart,69.31,183.7,106.59,192.78,483.08,Single-ply,SBD,M
Boys,74.84,4,Bj Trevino,Lubbock Cooper,73.03,174.63,102.06,201.85,478.54,Single-ply,SBD,M
Boys,74.84,5,Paul Perez,Levelland,73.75,183.7,113.4,181.44,478.54,Single-ply,SBD,M
Boys,74.84,6,Ignacio Rodriguez,Pecos,73.66,165.56,111.13,195.04,471.74,Single-ply,SBD,M
Boys,82.1,7,Ramon Juarez,Seminole,75.07,176.9,104.33,190.51,471.74,Single-ply,SBD,M
Boys,74.84,8,Logan Gersbach,Seminole,71.76,158.76,124.74,181.44,464.93,Single-ply,SBD,M
Boys,74.84,9,Jose Juarez #4,Snyder,71.94,158.76,92.99,192.78,444.52,Single-ply,SBD,M
Boys,74.84,10,Tyler Hastings,Levelland,73.66,183.7,95.25,163.29,442.25,Single-ply,SBD,M
Boys,82.1,1,Ricky Mendez,Lubbock Cooper,80.47,199.58,147.42,219.99,566.99,Single-ply,SBD,M
Boys,82.1,2,Jose Cornejo,Andrews,78.93,188.24,113.4,226.8,528.44,Single-ply,SBD,M
Boys,82.1,3,Jake Strickland,Monahans,81.83,215.46,117.93,195.04,528.44,Single-ply,SBD,M
Boys,82.1,4,George Klassen,Seminole,81.47,192.78,113.4,217.72,523.9,Single-ply,SBD,M
Boys,82.1,5,D'Vincent Allison,Snyder,80.92,195.04,120.2,197.31,512.56,Single-ply,SBD,M
Boys,82.1,6,Austin Marlett,Sweetwater,80.29,190.51,111.13,208.65,510.29,Single-ply,SBD,M
Boys,82.1,7,Blake Osborn,Midland Greenwood,79.92,190.51,131.54,185.97,508.02,Single-ply,SBD,M
Boys,82.1,8,Tyler Baker,Borger,79.47,181.44,124.74,195.04,501.22,Single-ply,SBD,M
Boys,82.1,9,Oscar Sanchez,Fort Stockton,78.65,181.44,124.74,179.17,485.34,Single-ply,SBD,M
Boys,82.1,DQ,Junior Lawhon,Sweetwater,81.56,195.04,106.59,172.37,,Single-ply,SBD,M
Boys,82.1,DQ,Joey Varela,Pecos,80.2,172.37,102.06,,,Single-ply,SBD,M
Boys,82.1,DQ,Tycer Farmer,Lubbock Cooper,79.65,147.42,,,,Single-ply,SBD,M
Boys,82.1,DQ,Guillermo Davila,Dalhart,80.47,,,,,Single-ply,SBD,M
Boys,89.81,1,Orlando Haymon,Vernon,88.9,215.46,127.01,294.84,637.3,Single-ply,SBD,M
Boys,89.81,2,Miguel Rangel,Borger,86.09,215.46,127.01,229.06,571.53,Single-ply,SBD,M
Boys,89.81,3,Dustin Rea,Midland Greenwood,86.36,219.99,131.54,219.99,571.53,Single-ply,SBD,M
Boys,89.81,4,Abraham Flores,Pecos,87.82,190.51,124.74,238.14,553.38,Single-ply,SBD,M
Boys,89.81,5,Roy Flores,Levelland,87.09,199.58,136.08,208.65,544.31,Single-ply,SBD,M
Boys,89.81,6,Gabe Marquez,Dalhart,88.63,208.65,120.2,208.65,537.51,Single-ply,SBD,M
Boys,89.81,7,Zack McMahen,Vernon,84.73,181.44,111.13,215.46,508.02,Single-ply,SBD,M
Boys,89.81,8,Nathan Tone,Monahans,89.45,210.92,113.4,179.17,503.49,Single-ply,SBD,M
Boys,89.81,9,Jason Haddock,Midland Greenwood,85.73,174.63,111.13,174.63,460.4,Single-ply,SBD,M
Boys,89.81,DQ,Zach Garcia,Sweetwater,84.82,158.76,113.4,185.97,,Single-ply,SBD,M
Boys,89.81,DQ,Garrett McKinney,Lubbock Cooper,82.46,163.29,111.13,170.1,,Single-ply,SBD,M
Boys,89.81,DQ,Dylan Jimenez,Sweetwater,86.82,,,,,Single-ply,SBD,M
Boys,99.79,1,Paul Ochoa,Levelland,95.98,249.48,170.1,204.12,623.69,Single-ply,SBD,M
Boys,99.79,2,Azel Alvidrez,Andrews,94.08,215.46,145.15,242.67,603.28,Single-ply,SBD,M
Boys,99.79,3,Matthew Seibert,Pecos,90.17,208.65,129.27,249.48,587.4,Single-ply,SBD,M
Boys,99.79,4,Sean Strickland,Midland Greenwood,94.26,192.78,127.01,217.72,537.51,Single-ply,SBD,M
Boys,99.79,5,Micah Melton,Andrews,97.34,195.04,111.13,208.65,514.83,Single-ply,SBD,M
Boys,99.79,6,Stephan Self,Monahans,98.7,181.44,122.47,210.92,514.83,Single-ply,SBD,M
Boys,99.79,7,Natanael Ramirez,Fort Stockton,97.89,204.12,102.06,192.78,498.95,Single-ply,SBD,M
Boys,99.79,8,Jacob Harris,Dalhart,98.07,201.85,113.4,183.7,498.95,Single-ply,SBD,M
Boys,99.79,9,Ty Crabtree,Monahans,98.07,179.17,129.27,188.24,496.68,Single-ply,SBD,M
Boys,99.79,DQ,Anthony Williams,Big Spring,96.71,195.04,124.74,158.76,,Single-ply,SBD,M
Boys,99.79,DQ,Nathan Schneider,Big Spring,99.25,210.92,117.93,,,Single-ply,SBD,M
Boys,99.79,DQ,Joey Aceves,Andrews,96.98,190.51,102.06,,,Single-ply,SBD,M
Boys,109.77,1,Tyler Brewer,Dalhart,105.78,251.74,127.01,226.8,605.55,Single-ply,SBD,M
Boys,109.77,2,Oscar Gutierrez,Monahans,108.95,254.01,129.27,208.65,591.94,Single-ply,SBD,M
Boys,109.77,3,Ben Madrid,Pecos,102.69,204.12,151.95,210.92,566.99,Single-ply,SBD,M
Boys,109.77,4,Javier Torres,Dalhart,104.87,219.99,124.74,222.26,566.99,Single-ply,SBD,M
Boys,109.77,5,Sebastian Lopez,Lubbock Cooper,103.33,190.51,147.42,210.92,548.85,Single-ply,SBD,M
Boys,109.77,6,Alex King,Levelland,101.97,195.04,122.47,226.8,544.31,Single-ply,SBD,M
Boys,109.77,7,Charlie Boling,Big Spring,105.96,201.85,133.81,199.58,535.24,Single-ply,SBD,M
Boys,109.77,8,Jackson Stevens,Lubbock Cooper,109.04,197.31,147.42,185.97,530.7,Single-ply,SBD,M
Boys,109.77,9,Cory Mendez,Sweetwater,101.88,210.92,102.06,208.65,521.63,Single-ply,SBD,M
Boys,109.77,DQ,Bryson Calixto,Monahans,108.23,208.65,104.33,176.9,,Single-ply,SBD,M
Boys,109.77,DQ,Fabian Rondan,Andrews,107.14,,,,,Single-ply,SBD,M
Boys,124.74,1,Spencer Holsey,Borger,116.75,272.16,145.15,249.48,666.78,Single-ply,SBD,M
Boys,124.74,2,Boston Alvarado,Fort Stockton,116.85,276.69,147.42,240.4,664.51,Single-ply,SBD,M
Boys,124.74,3,Eldon Niblett,Midland Greenwood,113.13,294.84,136.08,231.33,662.24,Single-ply,SBD,M
Boys,124.74,4,Chris Simmons,Levelland,122.83,249.48,154.22,222.26,625.96,Single-ply,SBD,M
Boys,124.74,5,Aric Rutledge,Big Spring,118.93,229.06,131.54,226.8,587.4,Single-ply,SBD,M
Boys,124.74,6,Colton Jones,Borger,113.94,213.19,127.01,226.8,566.99,Single-ply,SBD,M
Boys,124.74,7,Cristian Aguirre,Fort Stockton,114.4,213.19,131.54,217.72,562.45,Single-ply,SBD,M
Boys,124.74,8,Anthony Anzuldua,Dalhart,113.13,226.8,133.81,183.7,544.31,Single-ply,SBD,M
Boys,124.74,9,Dalton Torres,Dalhart,120.02,192.78,102.06,210.92,505.76,Single-ply,SBD,M
Boys,124.74,10,Nick Perez,Snyder,114.03,199.58,95.25,204.12,498.95,Single-ply,SBD,M
Boys,124.74,DQ,Alex Holguin,Monahans,115.67,204.12,106.59,174.63,,Single-ply,SBD,M
Boys,124.74,DQ,Tomas Vidales,Levelland,110.36,204.12,92.99,204.12,,Single-ply,SBD,M
Boys,124.74+,1,Nicolas Franco,Pecos,163.47,249.48,176.9,215.46,641.83,Single-ply,SBD,M
Boys,124.74+,2,Jeremy Garza,Snyder,131.81,240.4,165.56,233.6,639.57,Single-ply,SBD,M
Boys,124.74+,3,Andrew Davis,Sweetwater,126.55,204.12,172.37,217.72,594.21,Single-ply,SBD,M
Boys,124.74+,4,Jesus Rodriguez,Midland Greenwood,128.19,240.4,140.61,213.19,594.21,Single-ply,SBD,M
Boys,124.74+,5,Brandon Rowand,Levelland,146.15,233.6,147.42,213.19,594.21,Single-ply,SBD,M
Boys,124.74+,6,Dominick Puente,Levelland,138.98,233.6,136.08,199.58,569.26,Single-ply,SBD,M
Boys,124.74+,7,Aaron Salgado,Pecos,136.26,215.46,120.2,226.8,562.45,Single-ply,SBD,M
Boys,124.74+,8,Aaron Steelman,Snyder,126.19,226.8,136.08,197.31,560.19,Single-ply,SBD,M
Boys,124.74+,9,Garrett Brandenburg,Monahans,137.89,222.26,145.15,190.51,557.92,Single-ply,SBD,M
Boys,124.74+,10,Justin Barrera,Dalhart,126.1,226.8,113.4,204.12,544.31,Single-ply,SBD,M
Boys,124.74+,DQ,Casey Stewart,Dalhart,125.1,204.12,106.59,188.24,,Single-ply,SBD,M
Boys,124.74+,DQ,Raymond Porras,Monahans,127.55,181.44,120.2,172.37,,Single-ply,SBD,M
Boys,,NS,Richard Valenzuela,Andrews,,,,,,Single-ply,SBD,M
Boys,,NS,Joe Macias,Andrews,,,,,,Single-ply,SBD,M
Boys,,NS,Hayden Dunaway,Andrews,,,,,,Single-ply,SBD,M
Boys,,NS,Dillon Smith,Lubbock Cooper,,,,,,Single-ply,SBD,M
