Place,Name,BodyweightKg,Best3SquatKg,Best3BenchKg,Best3DeadliftKg,TotalKg,WeightClassKg,Sex,CyrillicName,BirthYear,Event,Equipment,Division
1,Tatyana Koroleva,46.75,167.5,72.5,155,395,47,F,Татьяна Королёва,1986,SBD,Single-ply,Open
2,Irina Nevrova,45.25,112.5,62.5,120,295,47,F,Ирина Неврова,1986,SBD,Single-ply,Open
3,Darya Nezhinskaya,46.7,110,55,110,275,47,F,Дарья Нежинская,1995,SBD,Single-ply,Open
4,Anna Ivanova #8,46.25,100,62.5,110,272.5,47,F,Анна Иванов,1994,SBD,Single-ply,Open
DQ,Darya Uvarova,46.95,,,,,47,F,Дарья Уварова,1991,SBD,Single-ply,Open
1,Oksana Kuznetsova,50.25,155,85,140,380,52,F,Оксана Кузнецова,1984,SBD,Single-ply,Open
2,Olga Vorobeva,50.95,142.5,72.5,155,370,52,F,Ольга Воробьева,1981,SBD,Single-ply,Open
3,Vika Savkina,51.85,155,70,145,370,52,F,Вика Савкина,1994,SBD,Single-ply,Open
4,Renata Mustafaeva,51.5,132.5,82.5,137.5,352.5,52,F,Рената Мустафаева,1979,SBD,Single-ply,Open
5,Olga Bychkova,49.7,135,72.5,130,337.5,52,F,Ольга Бычкова,1966,SBD,Single-ply,Open
6,Oksana Vasilyeva,51.7,117.5,62.5,125,305,52,F,Оксана Васильева,1988,SBD,Single-ply,Open
7,Inna Borovskaya,51.85,110,60,135,305,52,F,Инна Боровская,1992,SBD,Single-ply,Open
8,Natalya Fedorova,51.4,120,55,112.5,287.5,52,F,Наталья Федорова,1979,SBD,Single-ply,Open
9,Olga Mikhaylova,51.8,105,55,122.5,282.5,52,F,Ольга Михайлова,1971,SBD,Single-ply,Open
10,Tatyana Katyuscheva,51.05,85,57.5,117.5,260,52,F,Татьяна Катющева,1987,SBD,Single-ply,Open
DQ,Yanina Udarova,51.45,,,,,52,F,Янина Ударова,1988,SBD,Single-ply,Open
1,Yuliya Vavilova,56.9,200,105,175,480,57,F,Юлия Вавилова,1979,SBD,Single-ply,Open
2,Marina Zotova,56.6,160,115,190,465,57,F,Марина Зотова,1983,SBD,Single-ply,Open
3,Olga Ogorodova,56.2,167.5,80,147.5,395,57,F,Ольга Огородова,1975,SBD,Single-ply,Open
4,Irina Domareva,54.5,135,87.5,140,362.5,57,F,Ирина Домарева,1990,SBD,Single-ply,Open
5,Ekaterina Denisova,57,135,72.5,140,347.5,57,F,Екатерина Денисова,1989,SBD,Single-ply,Open
6,Natalya Kuznetsova,55,150,60,125,335,57,F,Наталья Кузнецова,1978,SBD,Single-ply,Open
7,Natalya Balueva,55.45,117.5,70,135,322.5,57,F,Наталья Балуева,1988,SBD,Single-ply,Open
8,Natalya Ragozina,55.95,122.5,62.5,130,315,57,F,Наталья Рагозина,1981,SBD,Single-ply,Open
9,Natalya Shemelinina,53.45,130,55,122.5,307.5,57,F,Наталья Шемелинина,1978,SBD,Single-ply,Open
DQ,Yuliana Serokurova,56,,,,,57,F,Юлиана Серокурова,1985,SBD,Single-ply,Open
1,Natalya Seregina,61.2,187.5,92.5,167.5,447.5,63,F,Наталья Серегина,1979,SBD,Single-ply,Open
2,Ekaterina Yashkina,61.6,165,95,155,415,63,F,Екатерина Яшкина,1992,SBD,Single-ply,Open
3,Yuliya Yakovleva,62.85,140,105,170,415,63,F,Юлия Яковлева,1979,SBD,Single-ply,Open
4,Tatyana Lebedeva,60.95,155,87.5,150,392.5,63,F,Татьяна Лебедева,1990,SBD,Single-ply,Open
5,Natalya Posnikova,57.9,140,85,155,380,63,F,Наталья Посникова,1987,SBD,Single-ply,Open
6,Olesya Yaroslavtseva,59.2,137.5,72.5,155,365,63,F,Олеся Ярославцева,1981,SBD,Single-ply,Open
7,Elena Mazurik,59.2,140,65,150,355,63,F,Елена Мазурик,1988,SBD,Single-ply,Open
8,Olga Ignatovich,59.6,120,70,137.5,327.5,63,F,Ольга Игнатович,1989,SBD,Single-ply,Open
9,Margarita Savina,60.15,115,75,112.5,302.5,63,F,Маргарита Савина,1990,SBD,Single-ply,Open
10,Elena Arbuzova,58.8,107.5,50,120,277.5,63,F,Елена Арбузова,1983,SBD,Single-ply,Open
DQ,Anna Sadovnikova,59.7,132.5,,,,63,F,Анна Садовникова,1980,SBD,Single-ply,Open
1,Valentina Guselnikova,70.25,180,105,185,470,72,F,Валентина Гусельникова,1981,SBD,Single-ply,Open
2,Ekaterina Guryeva,66.7,162.5,110,167.5,440,72,F,Екатерина Гурьева,1985,SBD,Single-ply,Open
3,Anastasiya Timofeeva,70.15,160,102.5,167.5,430,72,F,Анастасия Тимофеева,1976,SBD,Single-ply,Open
4,Irina Semenova,70.9,170,100,132.5,402.5,72,F,Ирина Семенова,1979,SBD,Single-ply,Open
5,Olga Sudosyeva,66.9,140,72.5,150,362.5,72,F,Ольга Судосьева,1966,SBD,Single-ply,Open
6,Elena Loseva,70.2,160,60,137.5,357.5,72,F,Елена Лосева,1990,SBD,Single-ply,Open
7,Svetlana Bezrukova,68.3,132.5,45,115,292.5,72,F,Светлана Безрукова,1994,SBD,Single-ply,Open
1,Ekaterina Bratus,80.5,200,97.5,187.5,485,84,F,Екатерина Братусь,1991,SBD,Single-ply,Open
2,Marina Krapivina,72.2,132.5,70,142.5,345,84,F,Марина Крапивина,1989,SBD,Single-ply,Open
3,Larisa Arkhangelskaya,72.1,105,72.5,90,267.5,84,F,Лариса Архангельская,1984,SBD,Single-ply,Open
1,Irina Yaroshenko,105.3,277.5,145,257.5,680,84+,F,Ирина Ярошенко,1986,SBD,Single-ply,Open
1,Fedor Klyukin,56,185,132.5,205,522.5,59,M,Федор Клюкин,1981,SBD,Single-ply,Open
2,Andrey Zybkin,58.8,190,125,175,490,59,M,Андрей Зыбкин,1989,SBD,Single-ply,Open
1,Yuriy Groshnikov,61.45,240,140,255,635,66,M,Юрий Грошников,1984,SBD,Single-ply,Open
2,Aleksandr Shipchin,65.6,240,162.5,232.5,635,66,M,Александр Шипчин,1990,SBD,Single-ply,Open
3,Pavel Prudnikov,65.25,230,155,195,580,66,M,Павел Прудников,1988,SBD,Single-ply,Open
4,Aleksey Belyakov,65.15,215,140,210,565,66,M,Алексей Беляков,1992,SBD,Single-ply,Open
5,Georgiy Prokhorov,63.45,207.5,120,177.5,505,66,M,Георгий Прохоров,1990,SBD,Single-ply,Open
6,Ruslan Kostylev,64.5,195,130,180,505,66,M,Руслан Костылев,1993,SBD,Single-ply,Open
7,Igor Polyakov,65.2,177.5,105,165,447.5,66,M,Игорь Поляков,1993,SBD,Single-ply,Open
DQ,Artur Gafiyatullin,65.4,227.5,175,,,66,M,Артур Гафиятуллин,1989,SBD,Single-ply,Open
DQ,Stanislav Urusov,65.3,,,,,66,M,Станислав Урусов,1991,SBD,Single-ply,Open
DQ,Andrey Serdyuk,65.5,,,,,66,M,Андрей Сердюк,1990,SBD,Single-ply,Open
DD,Nikolay Sokolov,64.8,292.5,190,282.5,,66,M,Николай Соколов,1979,SBD,Single-ply,Open
1,Alexey Bakhirev,74,270,241,297.5,808.5,74,M,Алексей Бахирев,1981,SBD,Single-ply,Open
2,Igor Schurilov,73.4,285,182.5,235,702.5,74,M,Игорь Щурилов,1984,SBD,Single-ply,Open
3,Andrey Kruglov,73.75,260,162.5,275,697.5,74,M,Андрей Круглов,1978,SBD,Single-ply,Open
4,Denis Kamanin,73.7,270,167.5,257.5,695,74,M,Денис Каманин,1987,SBD,Single-ply,Open
5,Maksim Kutovoy,73.95,260,180,255,695,74,M,Максим Кутовой,1989,SBD,Single-ply,Open
6,Andrey Lunkov,72.8,265,150,255,670,74,M,Андрей Луньков,1990,SBD,Single-ply,Open
7,Aleksey Lupulenko,73.5,270,145,250,665,74,M,Алексей Лупуленко,1987,SBD,Single-ply,Open
8,Oleg Krykov,72.35,250,170,232.5,652.5,74,M,Олег Крыков,1987,SBD,Single-ply,Open
9,Aleksey Sidorov,74,240,157.5,225,622.5,74,M,Алексей Сидоров,1990,SBD,Single-ply,Open
10,Timofey Savin,72.5,235,170,205,610,74,M,Тимофей Савин,1985,SBD,Single-ply,Open
11,Gleb Tarasov,73.8,235,132.5,232.5,600,74,M,Глеб Тарасов,1992,SBD,Single-ply,Open
12,Veniamin Daykov,70.95,235,145,215,595,74,M,Вениамин Дайков,1987,SBD,Single-ply,Open
13,Aleksandr Goryashkin,72.75,227.5,147.5,210,585,74,M,Александр Горяшкин,1994,SBD,Single-ply,Open
14,Ruslan Boldenko,70.9,190,115,225,530,74,M,Руслан Болденко,1991,SBD,Single-ply,Open
15,Konstantin Miron,73.85,175,142.5,185,502.5,74,M,Константин Мирон,1988,SBD,Single-ply,Open
DQ,Rustam Tagaev,74,270,180,,,74,M,Рустам Тагаев,1989,SBD,Single-ply,Open
DQ,Aleksey Kireenko,70,190,115,,,74,M,Алексей Киреенко,1987,SBD,Single-ply,Open
DQ,Dmitriy Rodionov,72.15,,,,,74,M,Дмитрий Родионов,1984,SBD,Single-ply,Open
DQ,Anton Sidin,72.75,,,,,74,M,Антон Сидин,1988,SBD,Single-ply,Open
DQ,Aleksandr Marychev,73.65,,,,,74,M,Александр Марычев,1988,SBD,Single-ply,Open
1,Viktor Kolobov,81.85,280,195,305,780,83,M,Виктор Колобов,1985,SBD,Single-ply,Open
2,Murat Amirkhanov,82,287.5,202.5,270,760,83,M,Мурат Амирханов,1990,SBD,Single-ply,Open
3,Denis Kuskov,82.5,265,192.5,275,732.5,83,M,Денис Кусков,1987,SBD,Single-ply,Open
4,Roman Sidorenkov,82.5,260,222.5,250,732.5,83,M,Роман Сидоренков,1984,SBD,Single-ply,Open
5,Sergey Isakov,78.2,260,190,280,730,83,M,Сергей Исаков,1984,SBD,Single-ply,Open
6,Anton Bannikov,82.5,282.5,187.5,260,730,83,M,Антон Банников,1993,SBD,Single-ply,Open
7,Mikhail Gachechiladze,82.8,255,195,275,725,83,M,Михаил Гачечиладзе,1974,SBD,Single-ply,Open
8,Boris Khovrakh,80.1,280,200,240,720,83,M,Борис Ховрах,1986,SBD,Single-ply,Open
9,Evgeniy Abramov,82.45,275,187.5,252.5,715,83,M,Евгений Абрамов,1987,SBD,Single-ply,Open
10,Andrey Provorov,81.65,280,170,262.5,712.5,83,M,Андрей Проворов,1989,SBD,Single-ply,Open
11,Dmitriy Vinogradov,82.25,285,175,250,710,83,M,Дмитрий Виноградов,1988,SBD,Single-ply,Open
12,Evgeniy Tingaev,82.35,270,190,250,710,83,M,Евгений Тиньгаев,1989,SBD,Single-ply,Open
13,Aleksandr Khon,81.55,270,207.5,230,707.5,83,M,Александр Хон,1988,SBD,Single-ply,Open
14,Denis Tarasov,82.1,270,170,260,700,83,M,Денис Тарасов,1988,SBD,Single-ply,Open
15,Aleksandr Kurikov,81.85,255,180,250,685,83,M,Александр Куриков,1984,SBD,Single-ply,Open
16,Ivan Khozyainov,81.25,280,170,230,680,83,M,Иван Хозяинов,1988,SBD,Single-ply,Open
17,Denis Tyulkov,82.3,265,175,240,680,83,M,Денис Тюльков,1986,SBD,Single-ply,Open
18,Dmitriy Ladygin,77.95,260,165,250,675,83,M,Дмитрий Ладыгин,1978,SBD,Single-ply,Open
19,Aleksey Remizov,82.5,260,172.5,240,672.5,83,M,Алексей Ремизов,1989,SBD,Single-ply,Open
20,Andrey Kostromtsov,82.75,270,145,235,650,83,M,Андрей Костромцов,1982,SBD,Single-ply,Open
21,Georgiy Korobov,79.6,230,160,242.5,632.5,83,M,Георгий Коробов,1989,SBD,Single-ply,Open
22,Sergey Asaul,79.75,230,155,245,630,83,M,Сергей Асаул,1989,SBD,Single-ply,Open
23,Petr Orobets,82.9,247.5,100,260,607.5,83,M,Петр Оробец,1962,SBD,Single-ply,Open
24,Pavel Udarov,82.3,232.5,157.5,215,605,83,M,Павел Ударов,1978,SBD,Single-ply,Open
25,Sergey Kostromin,82.4,225,135,220,580,83,M,Сергей Костромин,1985,SBD,Single-ply,Open
26,Dmitriy Malyarchuk,78,215,137.5,225,577.5,83,M,Дмитрий Малярчук,1992,SBD,Single-ply,Open
27,Nikita Tokvel,81.7,225,112.5,232.5,570,83,M,Никита Токвель,1988,SBD,Single-ply,Open
28,Georgiy Miron,81.15,202.5,147.5,205,555,83,M,Георгий Мирон,1990,SBD,Single-ply,Open
29,Aleksandr Selin,82.5,207.5,132.5,210,550,83,M,Александр Селин,1988,SBD,Single-ply,Open
DQ,Ivan Klippenshteyn,81.15,270,190,,,83,M,Иван Клиппенштейн,1986,SBD,Single-ply,Open
DQ,Aleksey Sokolov,82.5,260,,,,83,M,Алексей Соколов,1983,SBD,Single-ply,Open
DQ,Mikhail Alimov,82.25,250,,,,83,M,Михаил Алимов,1987,SBD,Single-ply,Open
DQ,Yuriy Kadyrov,81.3,225,,,,83,M,Юрий Кадыров,1974,SBD,Single-ply,Open
DQ,Alexey Kuzmin,81.8,,,,,83,M,Алексей Кузьмин,1982,SBD,Single-ply,Open
DQ,Artur Beltsov,82.6,,,,,83,M,Артур Бельцов,1982,SBD,Single-ply,Open
DQ,Andrey Deev,81.15,,,,,83,M,Андрей Деев,1989,SBD,Single-ply,Open
DQ,Sergey Obukhov,78.6,,,,,83,M,Сергей Обухов,1971,SBD,Single-ply,Open
DQ,Aleksandr Spitsin,81.6,,,,,83,M,Александр Спицин,1988,SBD,Single-ply,Open
DQ,Oleg Nevorotov,82.4,,,,,83,M,Олег Неворотов,1992,SBD,Single-ply,Open
1,Maxim Sharikov,85.75,400,255,277.5,932.5,93,M,Максим Шариков,1988,SBD,Single-ply,Open
2,Aleksey Shestakov,92.95,370,220,297.5,887.5,93,M,Алексей Шестаков,1984,SBD,Single-ply,Open
3,Aleksey Merschikov,92.9,357.5,237.5,290,885,93,M,Алексей Мерщиков,1983,SBD,Single-ply,Open
4,Sergey Kondakov,92.8,320,200,310,830,93,M,Сергей Кондаков,1984,SBD,Single-ply,Open
5,Aleksandr Pankratyev,91,307.5,217.5,300,825,93,M,Александр Панкратьев,1987,SBD,Single-ply,Open
6,Mikhail Bogdanov,89.35,317.5,207.5,282.5,807.5,93,M,Михаил Богданов,1984,SBD,Single-ply,Open
7,Sergey Brazhnik,88.65,315,210,280,805,93,M,Сергей Бражник,1973,SBD,Single-ply,Open
8,Aleksandr Novozhilov,92.2,310,217.5,275,802.5,93,M,Александр Новожилов,1972,SBD,Single-ply,Open
9,Aleksandr Smirnov,91.65,300,220,280,800,93,M,Александр Смирнов,1982,SBD,Single-ply,Open
10,Andrey Voroshin,89.85,295,192.5,305,792.5,93,M,Андрей Ворошин,1985,SBD,Single-ply,Open
11,Denis Zhigulin,89.7,300,220,270,790,93,M,Денис Жигулин,1989,SBD,Single-ply,Open
12,Dmitriy Meshkov,87.3,330,180,270,780,93,M,Дмитрий Мешков,1990,SBD,Single-ply,Open
13,Maksim Kolesov,89.55,285,205,290,780,93,M,Максим Колесов,1985,SBD,Single-ply,Open
14,Ilya Zaripov,89,295,190,292.5,777.5,93,M,Илья Зарипов,1987,SBD,Single-ply,Open
15,Kirill Gusarov,87.3,292.5,205,275,772.5,93,M,Кирилл Гусаров,1990,SBD,Single-ply,Open
16,Maksim Titov,89.15,315,172.5,285,772.5,93,M,Максим Титов,1988,SBD,Single-ply,Open
17,Evgeniy Khripunov,92.75,295,210,267.5,772.5,93,M,Евгений Хрипунов,1981,SBD,Single-ply,Open
18,Aleksandr Garnov,91.8,260,215,290,765,93,M,Александр Гарнов,1971,SBD,Single-ply,Open
19,Stanislav Zakharov,89.05,270,220,270,760,93,M,Станислав Захаров,1986,SBD,Single-ply,Open
20,Aleksandr Zakharenkov,89.5,295,200,265,760,93,M,Александр Захаренков,1989,SBD,Single-ply,Open
21,Ivan Olyashev,92.65,290,185,275,750,93,M,Иван Оляшев,1982,SBD,Single-ply,Open
22,Vladimir Dergunov,88.8,275,200,265,740,93,M,Владимир Дергунов,1991,SBD,Single-ply,Open
23,Aleksey Semenov,88.55,300,155,280,735,93,M,Алексей Семенов,1985,SBD,Single-ply,Open
24,Igor Meschanskiy,90.9,282.5,180,272.5,735,93,M,Игорь Мещанский,1982,SBD,Single-ply,Open
25,Denis Toropynin,90.95,300,175,260,735,93,M,Денис Торопынин,1984,SBD,Single-ply,Open
26,Vyacheslav Karpov,89.85,282.5,185,265,732.5,93,M,Вячеслав Карпов,1985,SBD,Single-ply,Open
27,Stanislav Merkulov,87.5,285,192.5,252.5,730,93,M,Станислав Меркулов,1987,SBD,Single-ply,Open
28,Evgeniy Magazov,90,300,170,260,730,93,M,Евгений Магазов,1985,SBD,Single-ply,Open
29,Vladimir Marakov,91.05,255,172.5,300,727.5,93,M,Владимир Мараков,1987,SBD,Single-ply,Open
30,Svyatoslav Mazalskiy,92.2,270,200,240,710,93,M,Святослав Мазальский,1986,SBD,Single-ply,Open
31,Rustam Meniakhmetov,90,270,185,245,700,93,M,Рустам Мениахметов,1983,SBD,Single-ply,Open
32,Ervin Ablyamitov,89.2,247.5,137.5,230,615,93,M,Эрвин Аблямитов,1985,SBD,Single-ply,Open
33,Dmitriy Frolov,92,235,150,220,605,93,M,Дмитрий Фролов,1989,SBD,Single-ply,Open
34,Andrey Slipchenko,93,220,140,222.5,582.5,93,M,Андрей Слипченко,1988,SBD,Single-ply,Open
35,Dmitriy Emelyanov,91.2,220,140,210,570,93,M,Дмитрий Емельянов,1984,SBD,Single-ply,Open
36,Andrey Raman,90.7,210,130,220,560,93,M,Андрей Раман,1986,SBD,Single-ply,Open
DQ,Vladimir Rostun,86,265,175,,,93,M,Владимир Ростун,1981,SBD,Single-ply,Open
DQ,Aleksey Grigoryev,91.7,300,,,,93,M,Алексей Григорьев,1986,SBD,Single-ply,Open
DQ,Yaroslav Yakushev,92.05,295,,,,93,M,Ярослав Якушев,1985,SBD,Single-ply,Open
DQ,Gennadiy Deys,88.75,275,,,,93,M,Геннадий Дейс,1965,SBD,Single-ply,Open
DQ,Vladimir Ivashkov,91.15,,,,,93,M,Владимир Ивашков,1989,SBD,Single-ply,Open
DQ,Dmitriy Kashin,89.4,,,,,93,M,Дмитрий Кашин,1988,SBD,Single-ply,Open
DQ,Dmitriy Zubov,88.05,,,,,93,M,Дмитрий Зубов,1986,SBD,Single-ply,Open
DQ,Aleksey Golubev,88.1,,,,,93,M,Алексей Голубев,1981,SBD,Single-ply,Open
DQ,Aleksandr Medvedev,87.1,,,,,93,M,Александр Медведев,1987,SBD,Single-ply,Open
DQ,Andrey Kortelev,93,,,,,93,M,Андрей Кортелев,1991,SBD,Single-ply,Open
1,Nikolay Bazanov,103.6,380,242.5,347.5,970,105,M,Николай Базанов,1981,SBD,Single-ply,Open
2,Mikhail Varov,104,355,255,310,920,105,M,Михаил Варов,1978,SBD,Single-ply,Open
3,Denis Vikulyev,104.25,325,210,350,885,105,M,Денис Викульев,1985,SBD,Single-ply,Open
4,Vyacheslav Teglivets,98.6,340,205,330,875,105,M,Вячеслав Тегливец,1988,SBD,Single-ply,Open
5,Viktor Vasilyev,101.85,330,227.5,312.5,870,105,M,Виктор Васильев,1985,SBD,Single-ply,Open
6,Aleksey Selyavin,102.7,305,252.5,295,852.5,105,M,Алексей Селявин,1988,SBD,Single-ply,Open
7,Aleksey Reshetov,94.1,330,230,277.5,837.5,105,M,Алексей Решетов,1975,SBD,Single-ply,Open
8,Dmitriy Romanyuk,104.05,310,235,290,835,105,M,Дмитрий Романюк,1976,SBD,Single-ply,Open
9,Ruslan Rezenov,102.25,340,197.5,290,827.5,105,M,Руслан Резенов,1988,SBD,Single-ply,Open
10,Andrey Malygin,103.3,330,220,272.5,822.5,105,M,Андрей Малыгин,1972,SBD,Single-ply,Open
11,Aleksandr Ostapchuk,103.6,305,250,260,815,105,M,Александр Остапчук,1988,SBD,Single-ply,Open
12,Igor Mezentsev,103.85,320,210,285,815,105,M,Игорь Мезенцев,1991,SBD,Single-ply,Open
13,Dmitriy Roschin,98.65,290,245,275,810,105,M,Дмитрий Рощин,1990,SBD,Single-ply,Open
14,Evgeniy Popov,101.15,335,175,300,810,105,M,Евгений Попов,1984,SBD,Single-ply,Open
15,Vladimir Bogdanovskiy,103.6,300,215,290,805,105,M,Владимир Богдановский,1985,SBD,Single-ply,Open
16,Dmitriy Andrianov,96.95,285,222.5,277.5,785,105,M,Дмитрий Андрианов,1988,SBD,Single-ply,Open
17,Konstantin Batmanov,95.5,300,185,280,765,105,M,Константин Батманов,1989,SBD,Single-ply,Open
18,Evgeniy Protasov,97,305,215,240,760,105,M,Евгений Протасов,1983,SBD,Single-ply,Open
19,Vitaliy Ivanov,97.85,275,195,290,760,105,M,Виталий Иванов,1989,SBD,Single-ply,Open
20,Vladislav Novikov,98.7,290,200,265,755,105,M,Владислав Новиков,1988,SBD,Single-ply,Open
21,Denis Deryagin,99.85,310,200,245,755,105,M,Денис Дерягин,1980,SBD,Single-ply,Open
22,Fedor Zaytsev,97.5,280,190,275,745,105,M,Федор Зайцев,1990,SBD,Single-ply,Open
23,Pavel Bulygin,99,285,165,275,725,105,M,Павел Булыгин,1983,SBD,Single-ply,Open
24,Ivan Konev,104.2,275,170,280,725,105,M,Иван Конев,1982,SBD,Single-ply,Open
25,Aleksey Mikheev,103.45,275,195,250,720,105,M,Алексей Михеев,1986,SBD,Single-ply,Open
26,Oleg Rostovskiy,94.8,270,185,250,705,105,M,Олег Ростовский,1973,SBD,Single-ply,Open
27,Aleksandr Rozhkov,101.35,265,190,240,695,105,M,Александр Рожков,1991,SBD,Single-ply,Open
28,Dmitriy Makarevich,98.5,270,150,270,690,105,M,Дмитрий Макаревич,1991,SBD,Single-ply,Open
29,Vladimir Lebedev,94.3,262.5,155,252.5,670,105,M,Владимир Лебедев,1984,SBD,Single-ply,Open
30,Grigoriy Sushitskiy,99.45,250,180,240,670,105,M,Григорий Сушицкий,1977,SBD,Single-ply,Open
31,Artem Vorontsov,104.65,250,160,260,670,105,M,Артем Воронцов,1976,SBD,Single-ply,Open
32,Andrey Parfenov,101.35,252.5,165,250,667.5,105,M,Андрей Парфенов,1971,SBD,Single-ply,Open
33,Sergey Gordeev,98.75,227.5,190,245,662.5,105,M,Сергей Гордеев,1992,SBD,Single-ply,Open
34,Aleksandr Veselov,98.4,240,170,240,650,105,M,Александр Веселов,1987,SBD,Single-ply,Open
35,Timur Nosovets,101.9,230,175,230,635,105,M,Тимур Носовец,1989,SBD,Single-ply,Open
36,Dmitriy Zaytsev,98.6,245,155,210,610,105,M,Дмитрий Зайцев,1979,SBD,Single-ply,Open
37,Roman Zinovskiy,101.25,220,125,220,565,105,M,Роман Зиновский,1984,SBD,Single-ply,Open
DQ,Aleksandr Eybog,103.85,315,200,,,105,M,Александр Ейбог,1979,SBD,Single-ply,Open
DQ,Aleksey Mironov,95.85,310,,,,105,M,Алексей Миронов,1989,SBD,Single-ply,Open
DQ,Mikhail Bogomazov,96.35,280,,,,105,M,Михаил Богомазов,1984,SBD,Single-ply,Open
DQ,Yuriy Loschilov,105,200,160,,,105,M,Юрий Лощилов,1989,SBD,Single-ply,Open
DQ,Anton Karban,100.4,,,,,105,M,Антон Карбан,1979,SBD,Single-ply,Open
DQ,Artem Tarasov,99.8,,,,,105,M,Артем Тарасов,1986,SBD,Single-ply,Open
DQ,Sergey Smigunov,102.1,,,,,105,M,Сергей Смигунов,1984,SBD,Single-ply,Open
DQ,Sergey Ryazanov,100.55,,,,,105,M,Сергей Рязанов,1971,SBD,Single-ply,Open
DQ,Andrey Demin,101.8,,,,,105,M,Андрей Демин,1975,SBD,Single-ply,Open
DQ,Dmitriy Dudeev,104.6,,,,,105,M,Дмитрий Дудеев,1975,SBD,Single-ply,Open
DQ,Aleksandr Banitskiy,96.1,,,,,105,M,Александр Баницкий,1987,SBD,Single-ply,Open
1,Amirkhan Amirkhanov,113.6,375,260,340,975,120,M,Амирхан Амирханов,1986,SBD,Single-ply,Open
2,Nikolay Serikov,111.15,365,270,330,965,120,M,Николай Сериков,1984,SBD,Single-ply,Open
3,Aleksey Abramov,119.1,375,250,325,950,120,M,Алексей Абрамов,1989,SBD,Single-ply,Open
4,Valeriy Abramov,116.7,360,205,360,925,120,M,Валерий Абрамов,1979,SBD,Single-ply,Open
5,Mikhail Chernov,117.3,355,250,310,915,120,M,Михаил Чернов,1982,SBD,Single-ply,Open
6,Ilya Tsvetkov,109.6,350,222.5,332.5,905,120,M,Илья Цветков,1975,SBD,Single-ply,Open
7,Yuriy Musikhin,119.1,345,215,335,895,120,M,Юрий Мусихин,1984,SBD,Single-ply,Open
8,Dmitriy Yashurin,113.85,342.5,220,325,887.5,120,M,Дмитрий Яшурин,1982,SBD,Single-ply,Open
9,Dmitriy Kapitanas,118.65,340,220,290,850,120,M,Дмитрий Капитанас,1989,SBD,Single-ply,Open
10,Nikolay Islentyev,114.35,295,225,315,835,120,M,Николай Ислентьев,1990,SBD,Single-ply,Open
11,Evgeniy Korolev,114.3,310,200,322.5,832.5,120,M,Евгений Королев,1984,SBD,Single-ply,Open
12,Konstantin Vymorkov,118.8,320,252.5,240,812.5,120,M,Константин Выморков,1977,SBD,Single-ply,Open
13,Oleg Emelyanov,110,300,235,270,805,120,M,Олег Емельянов,1971,SBD,Single-ply,Open
14,Dmitriy Ponomarev,119.65,310,210,275,795,120,M,Дмитрий Пономарев,1988,SBD,Single-ply,Open
15,Anton Grigoryev,108.3,290,205,280,775,120,M,Антон Григорьев,1988,SBD,Single-ply,Open
16,Aleksey Samoylov,117.75,275,180,270,725,120,M,Алексей Самойлов,1974,SBD,Single-ply,Open
17,Viktor Kurnikov,108.2,275,170,275,720,120,M,Виктор Курников,1983,SBD,Single-ply,Open
18,Ivan Fateev,116.6,260,195,265,720,120,M,Иван Фатеев,1983,SBD,Single-ply,Open
19,Eduard Kiyan,111,250,220,230,700,120,M,Эдуард Киян,1972,SBD,Single-ply,Open
DQ,Maksim Maslennikov,118,,,,,120,M,Максим Масленников,1991,SBD,Single-ply,Open
DD,Igor Shevelev,110.85,350,215,315,,120,M,Игорь Шевелев,1978,SBD,Single-ply,Open
DD,Nikita Zaremba,109.25,270,175,260,,120,M,Никита Заремба,1980,SBD,Single-ply,Open
1,Dmitriy Ivanov,180.8,420,282.5,365,1067.5,120+,M,Дмитрий Иванов,1984,SBD,Single-ply,Open
2,Aleksey Pominov,138.55,430,275,342.5,1047.5,120+,M,Алексей Поминов,1978,SBD,Single-ply,Open
3,Igor Strekalovskiy,123.95,340,240,320,900,120+,M,Игорь Стрекаловский,1981,SBD,Single-ply,Open
4,Kirill Kayava,143.2,290,265,260,815,120+,M,Кирилл Каява,1977,SBD,Single-ply,Open
5,Mikhail Verbenkin,120.8,300,205,300,805,120+,M,Михаил Вербенкин,1980,SBD,Single-ply,Open
6,Vladimir Ivankov,126.1,295,215,270,780,120+,M,Владимир Иванков,1986,SBD,Single-ply,Open
7,Vadim Gavrilov,126.25,280,210,290,780,120+,M,Вадим Гаврилов,1985,SBD,Single-ply,Open
DQ,Vladimir Verdiyanu,136.85,,,,,120+,M,Владимир Вердияну,1984,SBD,Single-ply,Open
DQ,Aleksandr Borisov,142.1,,,,,120+,M,Александр Борисов,1974,SBD,Single-ply,Open
