Name,CyrillicName,BodyweightKg,WeightClassKg,Sex,Division,BirthDate,Bench1Kg,Bench2Kg,Bench3Kg,Best3BenchKg,Deadlift1Kg,Deadlift2Kg,Deadlift3Kg,Best3DeadliftKg,TotalKg,Event,Equipment,Tested,Place
Marina Shcherbakova,Марина Щербакова,42.7,44,F,Amateur Juniors 20-23,1994-06-09,40,-47.5,-47.5,40,,,,,40,B,Raw,Yes,1
Darya Buzulukina,Дарья Бузулукина,51.6,52,F,Amateur Teen 16-17,1998-01-28,-52.5,-52.5,52.5,52.5,,,,,52.5,B,Raw,Yes,1
Elena Bits,Елена Биц,50.2,52,F,Amateur Open,1979-07-02,45,50,52.5,52.5,,,,,52.5,B,Raw,Yes,1
Anastasiya Dzhulay,Анастасия Джулай,49.5,52,F,Amateur Open,1985-03-25,40,-42.5,-45,40,,,,,40,B,Raw,Yes,2
Anastasiya Kulishova,Анастасия Кулишова,59.9,60,F,Amateur Teen 16-17,1999-02-01,-52.5,52.5,-57.5,52.5,,,,,52.5,B,Raw,Yes,1
Inessa Seredina,Инесса Середина,57.7,60,F,Amateur Open,1981-01-24,-55,-55,-55,,,,,,,B,Raw,Yes,DQ
Vita Maslennikova,Вита Масленникова,67.4,67.5,F,Amateur Open,1983-05-30,85,-90,90,90,,,,,90,B,Raw,Yes,1
Nikita Gorchakov,Никита Горчаков,44.8,52,M,Amateur Youth,2003-11-03,40,45,-47.5,45,,,,,45,B,Raw,Yes,1
Aleksandr Varavko,Александр Варавко,57.9,60,M,Amateur Teen 13-15,2001-01-31,55,62.5,67.5,67.5,,,,,67.5,B,Raw,Yes,1
Dmitriy Polyakov,Дмитрий Поляков,66.8,67.5,M,Amateur Teen 18-19,1995-07-29,-125,-125,-125,,,,,,,B,Raw,Yes,DQ
Evgeniy Bocharov,Евгений Бочаров,64.8,67.5,M,Amateur Open,1991-06-02,-132.5,132.5,-135,132.5,,,,,132.5,B,Raw,Yes,1
Valentin Grigorev,Валентин Григорьев,72.8,75,M,Amateur Juniors 20-23,1993-06-17,-115,115,117.5,117.5,,,,,117.5,B,Raw,Yes,1
Anatoliy Kita,Анатолий Кита,71.8,75,M,Amateur Juniors 20-23,1993-10-22,85,90,-95,90,,,,,90,B,Raw,Yes,2
Evgeniy Vodopyanov,Евгений Водопьянов,74.9,75,M,Amateur Juniors 20-23,1994-01-22,-110,-110,-110,,,,,,,B,Raw,Yes,DQ
Pavel Dimitrenko,Павел Димитренко,74.4,75,M,Amateur Open,1987-07-27,135,140,145,145,,,,,145,B,Raw,Yes,1
Stanislav Mekhonoshin,Станислав Мехоношин,72.3,75,M,Amateur Open,1991-03-12,-122.5,122.5,127.5,127.5,,,,,127.5,B,Raw,Yes,2
Dmitriy Khryachkov,Дмитрий Хрячков,73.1,75,M,Amateur Open,1976-11-09,117.5,125,-127.5,125,,,,,125,B,Raw,Yes,3
Andrey Savchenko,Андрей Савченко,80,82.5,M,Amateur Juniors 20-23,1991-12-13,-120,-120,-120,,,,,,,B,Raw,Yes,DQ
Ivan Akimkin,Иван Акимкин,81.9,82.5,M,Amateur Open,1988-11-23,-175,175,-185,175,,,,,175,B,Raw,Yes,1
Oleg Gomanchenko,Олег Гоманченко,79.3,82.5,M,Amateur Open,1984-10-27,-127.5,127.5,-132.5,127.5,,,,,127.5,B,Raw,Yes,2
Evgeniy Akulov,Евгений Акулов,80.5,82.5,M,Amateur Open,1982-11-17,120,-132.5,-132.5,120,,,,,120,B,Raw,Yes,3
Dmitriy Chefranov,Дмитрий Чефранов,85.5,90,M,Amateur Teen 18-19,1995-08-08,95,102.5,107.5,107.5,,,,,107.5,B,Raw,Yes,1
Vladimir Dolgikh,Владимир Долгих,85.7,90,M,Amateur Juniors 20-23,1993-07-02,140,155,165,165,,,,,165,B,Raw,Yes,1
Artem Posmetukhin,Артем Посметухин,89.9,90,M,Amateur Juniors 20-23,1995-01-09,140,150,-160,150,,,,,150,B,Raw,Yes,2
Dmitriy Detochkin,Дмитрий Деточкин,87,90,M,Amateur Open,1984-08-25,152.5,160,165,165,,,,,165,B,Raw,Yes,1
Vladimir Korovyakovskiy,Владимир Коровяковский,87.7,90,M,Amateur Open,1986-11-08,140,150,155,155,,,,,155,B,Raw,Yes,3
Pavel Shulgin,Павел Шульгин,88.4,90,M,Amateur Open,1982-04-07,132.5,142.5,145,145,,,,,145,B,Raw,Yes,2
Nikita Shalimanov,Никита Шалиманов,96.8,100,M,Amateur Open,1990-09-10,155,162.5,-175,162.5,,,,,162.5,B,Raw,Yes,1
Denis Barannik,Денис Баранник,95.8,100,M,Amateur Open,1980-08-01,-140,-140,-140,,,,,,,B,Raw,Yes,DQ
Evgeniy Kharlamov,Евгений Харламов,102.4,110,M,Amateur Open,1987-07-07,150,155,-160,155,,,,,155,B,Raw,Yes,1
Vitaliy Lazarev,Виталий Лазарев,105.5,110,M,Amateur Open,1998-08-25,-150,150,-155,150,,,,,150,B,Raw,Yes,2
Nikolay Martyanov,Николай Мартьянов,104.7,110,M,Amateur Open,1988-01-10,132.5,-140,145,145,,,,,145,B,Raw,Yes,3
Valentin Prokopev,Валентин Прокопьев,100.4,110,M,Amateur Masters 40-44,1973-08-30,-140,-140,-140,,,,,,,B,Raw,Yes,DQ
Kirill Alekseenko,Кирилл Алексеенко,115,125,M,Amateur Teen 16-17,1998-03-17,130,-145,-145,130,,,,,130,B,Raw,Yes,1
Anastasiya Dzhulay,Анастасия Джулай,49.5,52,F,Amateur Open,1985-03-25,,,,,70,75,80,80,80,D,Raw,Yes,1
Galina Netribina,Галина Нетрибина,55.4,56,F,Amateur Open,1978-07-07,,,,,-100,100,-105,100,100,D,Raw,Yes,1
Antonina Cherkashina,Антонина Черкашина,67.5,67.5,F,Amateur Open,1982-11-14,,,,,127.5,-135,-135,127.5,127.5,D,Raw,Yes,1
Lyudmila Zvyagintseva,Людмила Звягинцева,75.9,82.5,F,Amateur Open,1989-07-22,,,,,90,110,-130,110,110,D,Raw,Yes,1
Aleksandr Telepnev,Александр Телепнев,64.8,67.5,M,Amateur Teen 16-17,1998-01-06,,,,,155,160,-165,160,160,D,Raw,Yes,1
Sergey Volodarskiy,Сергей Володарский,63.4,67.5,M,Amateur Open,1989-08-21,,,,,210,220,-225,220,220,D,Raw,Yes,1
Artur Yarygin,Артур Ярыгин,68.7,75,M,Amateur Teen 16-17,1998-12-19,,,,,-135,-140,140,140,140,D,Raw,Yes,1
Roman Alyabev,Роман Алябьев,72.5,75,M,Amateur Juniors 20-23,1993-12-22,,,,,200,205,212.5,212.5,212.5,D,Raw,Yes,1
Anatoliy Kita,Анатолий Кита,71.8,75,M,Amateur Juniors 20-23,1993-10-22,,,,,-125,-130,130,130,130,D,Raw,Yes,2
Stanislav Tsymbarenko,Станислав Цымбаренко,77.7,82.5,M,Amateur Teen 16-17,1997-12-16,,,,,210,220,225,225,225,D,Raw,Yes,1
Vasiliy Polshikov,Василий Польшиков,75.4,82.5,M,Amateur Open,1982-09-27,,,,,210,-220,-220,210,210,D,Raw,Yes,1
Evgeniy Akulov,Евгений Акулов,80.5,82.5,M,Amateur Open,1982-11-17,,,,,150,-170,-170,150,150,D,Raw,Yes,2
Artem Posmetukhin,Артем Посметухин,89.9,90,M,Amateur Juniors 20-23,1995-01-09,,,,,220,240,-250,240,240,D,Raw,Yes,1
Aleksandr Serichenko,Александр Сериченко,88.2,90,M,Amateur Open,1989-10-01,,,,,190,-205,,190,190,D,Raw,Yes,1
Evgeniy Syuzyumov,Евгений Сюзюмов,94.2,100,M,Amateur Teen 16-17,1997-09-25,,,,,242.5,252.5,-262.5,252.5,252.5,D,Raw,Yes,1
Vladislav Kuramshin,Владислав Курамшин,94.7,100,M,Amateur Teen 16-17,1998-02-24,,,,,170,177.5,182.5,182.5,182.5,D,Raw,Yes,2
Anton Navolokin,Антон Наволокин,123.5,125,M,Amateur Open,1982-12-31,,,,,260,285,295,295,295,D,Raw,Yes,1
Maksim Ochkalov,Максим Очкалов,129.6,140,M,Amateur Open,1989-05-03,,,,,200,230,-255,230,230,D,Raw,Yes,1
Olga Lazurenko,Ольга Лазуренко,57.1,60,F,Pro Masters 40-44,1971-09-05,80,-85,90,90,,,,,90,B,Raw,No,1
Aleksandr Votchel,Александр Вотчель,69.8,75,M,Pro Juniors 20-23,1994-08-03,85,-90,-90,85,,,,,85,B,Raw,No,1
Denis Kiselev,Денис Киселев,78.7,82.5,M,Pro Juniors 20-23,1993-10-23,100,107.5,-110,107.5,,,,,107.5,B,Raw,No,1
Sergey Yakimov,Сергей Якимов,88.6,90,M,Pro Juniors 20-23,1991-10-13,180,-185,-185,180,,,,,180,B,Raw,No,1
Sergey Lazurenko,Сергей Лазуренко,86.4,90,M,Pro Open,1989-03-12,140,150,160,160,,,,,160,B,Raw,No,1
Stas Umarov,Стас Умаров,88.4,90,M,Pro Open,1986-09-12,160,-180,-180,160,,,,,160,B,Raw,No,2
Yuriy Dannikov,Юрий Данников,109.8,110,M,Pro Open,1974-12-04,190,-200,-200,190,,,,,190,B,Raw,No,1
Yuriy Dannikov,Юрий Данников,109.8,110,M,Pro Masters 40-44,1974-12-04,190,-200,-200,190,,,,,190,B,Raw,No,1
Igor Konykhov,Игорь Коныхов,102.5,110,M,Pro Masters 40-44,1970-12-20,145,150,-155,150,,,,,150,B,Raw,No,2
Andrey Koval,Андрей Коваль,123.8,125,M,Pro Open,1988-02-01,-160,160,-170,160,,,,,160,B,Raw,No,1
Sergey Kiselev,Сергей Киселев,89.2,90,M,Pro Open,1987-02-24,,,,,240,265,272.5,272.5,272.5,D,Raw,No,1
Andrey Fomin,Андрей Фомин,73.4,75,M,Pro Teen 16-17,1997-10-03,,,,,210,215,-225,215,215,D,Single-ply,No,1
