Place,Sex,Name,CyrillicName,BodyweightKg,Bench1Kg,Bench2Kg,Bench3Kg,Best3BenchKg,Bench4Kg,TotalKg,WeightClassKg,Event,Equipment,Tested,Deadlift1Kg,Deadlift2Kg,Deadlift3Kg,Best3DeadliftKg,Deadlift4Kg,Division,Age,BirthDate
1,M,Sergey Chugurov,Сергей Чугуров,75,190,200,-212.5,200,,200,75,B,Raw,No,,,,,,Open,24,1993-06-22
1,M,Aleksey Kuznetsov,Алексей Кузнецов,89.4,150,155,160,160,,160,90,B,Raw,No,,,,,,Open,29,1988-09-26
1,M,Aleksey Kurochkin,Алексей Курочкин,99.1,200,215,,215,,215,100,B,Raw,No,,,,,,Masters 40-44,44,1973-03-18
1,M,Denis Shafranets,Денис Шафранец,108,180,190,200,200,,200,110,B,Raw,No,,,,,,Open,37,1980-07-05
1,M,Evgeniy Tyutyaev,Евгений Тютяев,111.6,210,220,-230,220,,220,125,B,Raw,No,,,,,,Open,30,1987-07-25
1,M,Vyacheslav Shadrin,Вячеслав Шадрин,117.3,-185,185,-200,185,,185,125,B,Raw,No,,,,,,Masters 50-54,50,1968-02-21
1,M,Aleksandr Emelyanov,Александр Емельянов,107.8,220,-250,-250,220,,220,110,B,Multi-ply,No,,,,,,Open,38,1979-11-10
1,M,Aleksandr Lebedev,Александр Лебедев,117.6,265,-280,280,280,,280,125,B,Multi-ply,No,,,,,,Open,37,1980-08-15
1,M,Aleksey Golubev,Алексей Голубев,80.2,,,,,,210,82.5,D,Raw,No,190,200,210,210,,Masters 40-44,40,1977-06-05
1,M,Aleksandr Kulikov,Александр Куликов,75.8,,,,,,210,82.5,D,Raw,No,175,200,210,210,,Masters 75-79,76,1941-09-13
1,M,Vyacheslav Lyubimov,Вячеслав Любимов,87.1,,,,,,280,90,D,Raw,No,280,-295,-295,280,,Open,46,1971-08-15
1,M,Vyacheslav Stankevich,Вячеслав Станкевич,84.5,,,,,,220,90,D,Raw,No,-220,-220,220,220,,Masters 65-69,67,1950-03-05
1,M,Ilya Mironov,Илья Миронов,94.8,,,,,,240,100,D,Raw,No,-220,225,240,240,,Open,25,1992-10-23
2,M,Artem Bryantsev,Артем Брянцев,99.3,,,,,,232.5,100,D,Raw,No,210,222.5,232.5,232.5,,Open,35,1982-12-27
3,M,Aleksandr Sidyagin,Александр Сидягин,96.1,,,,,,200,100,D,Raw,No,-200,200,-220,200,,Open,29,1988-05-20
1,M,Ivan Chikin,Иван Чикин,109.2,,,,,,225,110,D,Raw,No,215,225,-232.5,225,,Open,23,1994-09-09
2,M,Aleksey Volzhskiy,Алексей Волжский,102.9,,,,,,210,110,D,Raw,No,200,210,-212.5,210,,Open,33,1985-03-03
1,M,Artyom Medvedev,Артём Медведев,75,150,160,-167.5,160,,160,75,B,Unlimited,No,,,,,,Teen 18-19,18,1999-05-04
1,M,Vladimir Borovkov,Владимир Боровков,71.4,-140,-140,140,140,,140,75,B,Unlimited,No,,,,,,Open,25,1992-11-13
2,M,Ismatullo Saidov,Исматулло Саидов,72.6,125,-130,-130,125,,125,75,B,Unlimited,No,,,,,,Open,25,1992-11-18
1,M,Anatoliy Troyashkin,Анатолий Трояшкин,81.1,230,250,260,260,,260,82.5,B,Unlimited,No,,,,,,Open,29,1989-01-16
2,M,Roman Ustimuk,Роман Устимук,81.7,205,212.5,-220,212.5,,212.5,82.5,B,Unlimited,No,,,,,,Open,33,1984-07-01
1,M,Aleksey Golubev,Алексей Голубев,80.2,-130,135,140,140,,140,82.5,B,Unlimited,No,,,,,,Masters 40-44,40,1977-06-05
1,M,Pavel Dvoryadkin,Павел Дворядкин,88.3,250,-270,-280,250,,250,90,B,Unlimited,No,,,,,,Open,31,1986-07-17
2,M,Aleksey Samardin,Алексей Самардин,86.1,210,230,-245,230,,230,90,B,Unlimited,No,,,,,,Open,34,1983-09-08
1,M,Egor Petrov,Егор Петров,94,170,190,-200,190,,190,100,B,Unlimited,No,,,,,,Juniors 20-23,21,1996-05-09
1,M,Vadim Makartsov,Вадим Макарцов,97.5,270,285,300,300,,300,100,B,Unlimited,No,,,,,,Open,36,1981-08-07
2,M,Oleg Datskiy,Олег Датский,97.4,220,235,-250,235,,235,100,B,Unlimited,No,,,,,,Open,24,1993-06-26
3,M,Sergey Kuropkin,Сергей Куропкин,90.1,200,210,220,220,,220,100,B,Unlimited,No,,,,,,Open,42,1975-06-01
4,M,Aleksandr Bychkov,Александр Бычков,93.9,-180,185,195,195,,195,100,B,Unlimited,No,,,,,,Open,29,1988-04-24
5,M,Aleksandr Sidyagin,Александр Сидягин,96.1,170,185,-200,185,,185,100,B,Unlimited,No,,,,,,Open,29,1988-05-20
1,M,Ravil Nafikov,Равиль Нафиков,93.4,240,255,-270,255,,255,100,B,Unlimited,No,,,,,,Masters 45-49,47,1970-12-29
1,M,Roman Tumakov,Роман Тумаков,107.8,180,200,-210,200,,200,110,B,Unlimited,No,,,,,,Teen 16-17,17,2000-05-17
1,M,Konstantin Zhilinskiy,Константин Жилинский,102.8,165,180,-192.5,180,,180,110,B,Unlimited,No,,,,,,Juniors 20-23,20,1997-05-13
1,M,Ivan Trunov,Иван Трунов,107.2,270,-290,-290,270,,270,110,B,Unlimited,No,,,,,,Open,37,1980-10-10
2,M,Evgeniy Gornostaev,Евгений Горностаев,106.8,250,-255,255,255,,255,110,B,Unlimited,No,,,,,,Open,38,1979-09-29
3,M,Igor Tarasov,Ігор Тарасов,101.9,230,-240,-240,230,,230,110,B,Unlimited,No,,,,,,Open,25,1992-09-30
4,M,Mikhail Khomutov,Михаил Хомутов,106.7,230,-240,-240,230,,230,110,B,Unlimited,No,,,,,,Open,36,1981-04-28
5,M,Vasiliy Mitrofanov,Василий Митрофанов,109.2,230,-245,-252.5,230,,230,110,B,Unlimited,No,,,,,,Open,30,1987-07-04
6,M,Ivan Sapronov,Иван Сапронов,108.6,175,185,-200,185,,185,110,B,Unlimited,No,,,,,,Open,38,1979-06-30
1,M,Nikita Udelov,Никита Уделов,116.8,-190,200,220,220,,220,125,B,Unlimited,No,,,,,,Juniors 20-23,20,1998-02-26
1,M,Evgeniy Glazunov,Евгений Глазунов,123.6,265,285,305,305,,305,125,B,Unlimited,No,,,,,,Open,34,1983-04-25
2,M,Maksim Kustov,Максим Кустов,112.9,210,-215,-215,210,,210,125,B,Unlimited,No,,,,,,Open,32,1985-03-25
1,M,Sergey Rakov,Сергей Раков,125.3,270,285,300,300,,300,140,B,Unlimited,No,,,,,,Open,39,1979-02-16
2,M,Kirill Vshivtsev,Кирилл Вшивцев,127.6,280,300,-310,300,,300,140,B,Unlimited,No,,,,,,Open,41,1976-04-14
1,M,Aleksandr Zotkin,Александр Зоткин,84.8,160,170,-180,170,,170,90,B,Unlimited,No,,,,,,Open,30,1988-02-14
1,M,Aleksandr Pavelev,Александр Павельев,109.3,220,-240,-250,220,,220,110,B,Unlimited,No,,,,,,Open,37,1980-07-27
1,M,Roman Zemlyakov,Роман Земляков,133.7,320,-340,-340,320,,320,140,B,Unlimited,No,,,,,,Open,29,1988-08-24
1,M,Mikhail Kolydanov,Михаил Колыданов,98.3,215,225,-235,225,,225,100,B,Unlimited,No,,,,,,Open,38,1979-04-30
2,M,Andrey Smirnov,Андрей Смирнов,98.7,220,-225,-225,220,,220,100,B,Unlimited,No,,,,,,Open,34,1983-05-24
3,M,Georgiy Kotelnikov,Георгий Котельников,96.4,180,-190,-190,180,,180,100,B,Unlimited,No,,,,,,Open,25,1992-06-04
1,M,Ravil Nafikov,Равиль Нафиков,93.4,210,225,,225,,225,100,B,Unlimited,No,,,,,,Masters 45-49,47,1970-12-29
1,M,Yuriy Kapitonov,Юрий Капитонов,102,160,170,-180,170,,170,110,B,Unlimited,No,,,,,,Masters 60-64,60,1957-11-15
1,M,Sergey Kuropkin,Сергей Куропкин,90.1,200,210,-220,210,,210,100,B,Unlimited,No,,,,,,Open,42,1975-06-01
