Name,Team,Sex,BodyweightKg,WeightClassKg,AgeRange,Bench1Kg,Bench2Kg,Bench3Kg,Best3BenchKg,TotalKg,Place,Division,Event,Equipment
Natalie Blake,EM,F,51,52,23.5-38.5,90,,,90,90,1,F-E-Open,B,Single-ply
Jordana Freemantle,WM,F,69.1,72,23.5-38.5,87.5,90,,90,90,1,F-E-Open,B,Single-ply
Jean Maton,SM,F,84,84,39.5-48.5,105,-112.5,-115,105,105,1,F-E-Open,B,Single-ply
Bronwyn Taylor,Scotland,F,72.7,84,14-15.5,62.5,67.5,-75,67.5,67.5,2,F-E-Open,B,Single-ply
Megan Ainsworth,EM,F,38.6,43,20.5-22.5,50,55,60,60,60,1,F-E-U23,B,Single-ply
Jean Maton,SM,F,84,84,39.5-48.5,105,-112.5,-115,105,105,1,F-E-M1,B,Single-ply
Bronwyn Taylor,Scotland,F,72.7,84,14-15.5,62.5,67.5,-75,67.5,67.5,1,F-E-U16,B,Single-ply
Adam Alderman,EM,M,47.75,59,23.5-38.5,130,135,-140,135,135,1,M-E-Open,B,Single-ply
David Brown #6,EM,M,57.85,59,59.5-68.5,85,90,92.5,92.5,92.5,2,M-E-Open,B,Single-ply
Ted Brown,SM,M,58.3,59,79.5-88.5,70,75,80,80,80,3,M-E-Open,B,Single-ply
Jason Irving,WM,M,62.95,66,23.5-38.5,160,170,-180,170,170,1,M-E-Open,B,Single-ply
Aaron Gideon,GL,M,63.2,66,23.5-38.5,152.5,170,-172.5,170,170,2,M-E-Open,B,Single-ply
Gary Prater,SW,M,65.75,66,39.5-48.5,130,-137.5,-137.5,130,130,3,M-E-Open,B,Single-ply
Zia Mirza,WM,M,63.9,66,49.5-58.5,100,105,,105,105,4,M-E-Open,B,Single-ply
David Brown #6,EM,M,57.85,59,49.5-58.5,85,90,92.5,92.5,92.5,1,M-E-M2,B,Single-ply
Ted Brown,SM,M,58.3,59,79.5-88.5,70,75,80,80,80,1,M-E-M4,B,Single-ply
Gary Prater,SW,M,65.75,66,39.5-48.5,130,-137.5,-137.5,130,130,1,M-E-M1,B,Single-ply
Zia Mirza,WM,M,63.9,66,49.5-58.5,100,105,,105,105,1,M-E-M2,B,Single-ply
Stan Macrow,WM,M,72.3,74,59.5-68.5,130,-135,-135,130,130,1,M-E-Open,B,Single-ply
Lee Meachen,EM,M,74,74,39.5-48.5,-177.5,,,,,DQ,M-E-Open,B,Single-ply
Jaswinder Singh,WM,M,77.5,83,23.5-38.5,-187.5,-187.5,187.5,187.5,187.5,1,M-E-Open,B,Single-ply
Aaron Lohan,NW,M,81.9,83,23.5-38.5,170,177.5,-190,177.5,177.5,2,M-E-Open,B,Single-ply
Andrew Whitaker,NW,M,82.2,83,23.5-38.5,155,162.5,-167.5,162.5,162.5,3,M-E-Open,B,Single-ply
Alex Lee,YNE,M,78.05,83,59.5-68.5,150,155,160,160,160,4,M-E-Open,B,Single-ply
Bill McFadyen,Scotland,M,77,83,69.5-78.5,135,-140,-140,135,135,5,M-E-Open,B,Single-ply
David Williams #2,SW,M,81.55,83,49.5-58.5,-155,-165,-165,,,DQ,M-E-Open,B,Single-ply
Stan Macrow,WM,M,72.3,74,59.5-68.5,130,-135,-135,130,130,1,M-E-M3,B,Single-ply
Lee Meachen,EM,M,74,74,39.5-48.5,-177.5,,,,,DQ,M-E-M1,B,Single-ply
Alex Lee,YNE,M,78.05,83,59.5-68.5,150,155,160,160,160,1,M-E-M3,B,Single-ply
Bill McFadyen,Scotland,M,77,83,69.5-78.5,135,-140,-140,135,135,1,M-E-M4,B,Single-ply
David Williams #2,SW,M,81.55,83,49.5-58.5,-155,-165,-165,,,DQ,M-E-M2,B,Single-ply
James Jeffries,EM,M,92.9,93,39.5-48.5,242.5,-300,-300,242.5,242.5,1,M-E-Open,B,Single-ply
Ian Kinghorn,EM,M,92.9,93,49.5-58.5,192.5,205,-215,205,205,2,M-E-Open,B,Single-ply
Richard Balderston,NM,M,90,93,18.5-19.5,-190,-190,190,190,190,3,M-E-Open,B,Single-ply
Sheridan Wray,YNE,M,91.7,93,23.5-38.5,170,180,-195,180,180,4,M-E-Open,B,Single-ply
Chris Cooper,YNE,M,91.4,93,49.5-58.5,155,162.5,165,165,165,5,M-E-Open,B,Single-ply
Paul Wray #1,YNE,M,89.8,93,59.5-68.5,-130,-130,130,130,130,6,M-E-Open,B,Single-ply
Ian Wells,EM,M,92.7,93,23.5-38.5,-220,-220,-220,,,DQ,M-E-Open,B,Single-ply
Pinda Singh,EM,M,105,105,23.5-38.5,240,-270,-270,240,240,1,M-E-Open,B,Single-ply
Martin Flett,Scotland,M,104.9,105,49.5-58.5,190,197.5,-202.5,197.5,197.5,2,M-E-Open,B,Single-ply
Paul Hammond #1,NM,M,103.4,105,39.5-48.5,175,182.5,-190,182.5,182.5,3,M-E-Open,B,Single-ply
Tom Collins #1,YNE,M,103.4,105,59.5-68.5,170,180,-190,180,180,4,M-E-Open,B,Single-ply
Allan Murphy,Scotland,M,102.7,105,49.5-58.5,-145,150,-160,150,150,5,M-E-Open,B,Single-ply
Paul Kerridge,EM,M,93.2,105,59.5-68.5,-130,130,-150,130,130,6,M-E-Open,B,Single-ply
James Jeffries,EM,M,92.9,93,39.5-48.5,242.5,-300,-300,242.5,242.5,1,M-E-M1,B,Single-ply
Ian Kinghorn,EM,M,92.9,93,49.5-58.5,192.5,205,-215,205,205,1,M-E-M2,B,Single-ply
Richard Balderston,NM,M,90,93,18.5-19.5,-190,-190,190,190,190,1,M-E-U20,B,Single-ply
Chris Cooper,YNE,M,91.4,93,49.5-58.5,155,162.5,165,165,165,2,M-E-M2,B,Single-ply
Paul Wray #1,YNE,M,89.8,93,59.5-68.5,-130,-130,130,130,130,1,M-E-M3,B,Single-ply
Martin Flett,Scotland,M,104.9,105,49.5-58.5,190,197.5,-202.5,197.5,197.5,1,M-E-M2,B,Single-ply
Paul Hammond #1,NM,M,103.4,105,39.5-48.5,175,182.5,-190,182.5,182.5,1,M-E-M1,B,Single-ply
Tom Collins #1,YNE,M,103.4,105,59.5-68.5,170,180,-190,180,180,1,M-E-M3,B,Single-ply
Allan Murphy,Scotland,M,102.7,105,49.5-58.5,-145,150,-160,150,150,2,M-E-M2,B,Single-ply
Paul Kerridge,EM,M,93.2,105,59.5-68.5,-130,130,-150,130,130,2,M-E-M3,B,Single-ply
Tony Cliffe,EM,M,120,120,23.5-38.5,270,277.5,282.5,282.5,282.5,1,M-E-Open,B,Single-ply
Michael Pennington,NM,M,118.7,120,23.5-38.5,245,270,-278,270,270,2,M-E-Open,B,Single-ply
Ben Banks,GL,M,117.2,120,23.5-38.5,230,240,-250,240,240,3,M-E-Open,B,Single-ply
Marco De Meis,SM,M,110.85,120,49.5-58.5,205,212.5,-232.5,212.5,212.5,4,M-E-Open,B,Single-ply
Stewart Cowan,EM,M,108.4,120,39.5-48.5,202.5,207.5,-212.5,207.5,207.5,5,M-E-Open,B,Single-ply
Mario Middleton,YNE,M,119.5,120,39.5-48.5,-180,180,,180,180,6,M-E-Open,B,Single-ply
Julian Massey,GL,M,115.8,120,49.5-58.5,177.5,-187.5,-187.5,177.5,177.5,7,M-E-Open,B,Single-ply
David Brooks,SM,M,114.65,120,59.5-68.5,140,-170,170,170,170,8,M-E-Open,B,Single-ply
Bob Baxter,EM,M,105.2,120,59.5-68.5,122.5,132.5,143,143,143,9,M-E-Open,B,Single-ply
Adam Nash,SW,M,159.3,120+,23.5-38.5,280,302.5,-307.5,302.5,302.5,1,M-E-Open,B,Single-ply
Dean Bowring,SM,M,133.3,120+,23.5-38.5,260,-300,-305,260,260,2,M-E-Open,B,Single-ply
Graham Mellor,NM,M,182,120+,16.5-17.5,190,210,-220,210,210,3,M-E-Open,B,Single-ply
Rick Booth,NW,M,147.5,120+,23.5-38.5,-195,195,-205,195,195,4,M-E-Open,B,Single-ply
Bob Sadler,Wales,M,129.5,120+,49.5-58.5,150,165,180,180,180,5,M-E-Open,B,Single-ply
Craig Williams,SM,M,127.5,120+,14-15.5,-160,165,-170,165,165,6,M-E-Open,B,Single-ply
Marco De Meis,SM,M,110.85,120,49.5-58.5,205,212.5,-232.5,212.5,212.5,1,M-E-M2,B,Single-ply
Stewart Cowan,EM,M,108.4,120,39.5-48.5,202.5,207.5,-212.5,207.5,207.5,1,M-E-M1,B,Single-ply
Mario Middleton,YNE,M,119.5,120,39.5-48.5,-180,180,,180,180,2,M-E-M1,B,Single-ply
Julian Massey,GL,M,115.8,120,49.5-58.5,177.5,-187.5,-187.5,177.5,177.5,2,M-E-M2,B,Single-ply
David Brooks,SM,M,114.65,120,59.5-68.5,140,-170,170,170,170,1,M-E-M3,B,Single-ply
Bob Baxter,EM,M,105.2,120,59.5-68.5,122.5,132.5,143,143,143,2,M-E-M3,B,Single-ply
Graham Mellor,NM,M,182,120+,16.5-17.5,190,210,-220,210,210,1,M-E-U18,B,Single-ply
Bob Sadler,Wales,M,129.5,120+,49.5-58.5,150,165,180,180,180,1,M-E-M2,B,Single-ply
Craig Williams,SM,M,127.5,120+,14-15.5,-160,165,-170,165,165,1,M-E-U16,B,Single-ply
