Place,Event,Equipment,Sex,Tested,WeightClassKg,Name,CyrillicName,BirthDate,Division,BodyweightKg,Squat1Kg,Squat2Kg,Squat3Kg,Squat4Kg,Best3SquatKg,Bench1Kg,Bench2Kg,Bench3Kg,Bench4Kg,Best3BenchKg,Deadlift1Kg,Deadlift2Kg,Deadlift3Kg,Deadlift4Kg,Best3DeadliftKg,TotalKg
1,SBD,Multi-ply,F,Yes,52,Ekaterina Kudryavtseva,Екатерина Кудрявцева,1988-03-08,Amateur Open,51.95,115,-130,-130,,115,55,60,-65,,60,100,110,-115,,110,285
2,SBD,Multi-ply,F,Yes,52,Ulyana Zaytseva,Ульяна Зайцева,1994-10-22,Amateur Open,51.455,85,-92.5,-92.5,,85,-55,-55,55,,55,85,90,95,,95,235
1,SBD,Multi-ply,F,Yes,60,Marianna Efremova-Otchenash,Марианна Ефремова-Отченаш,1977-04-09,Amateur Open,60,105,115,-125,,115,55,60,65,,65,125,135,-140,,135,315
1,SBD,Multi-ply,F,Yes,67.5,Irina Shamina,Ирина Шамина,1987-04-17,Amateur Open,67.5,120,130,140,,140,55,62.5,67.5,,67.5,125,-140,-140,,125,332.5
1,SBD,Multi-ply,M,Yes,125,Sarmen Atanyan,Сармен Атанян,1986-06-26,Amateur Open,110.5,180,200,210,,210,180,190,200,,200,180,200,205,,205,615
1,S,Multi-ply,M,Yes,125,Sarmen Atanyan,Сармен Атанян,1986-06-26,Amateur Open,110.5,180,200,210,,210,,,,,,,,,,,210
1,B,Multi-ply,F,Yes,44,Arina Mitreneva,Арина Митренева,2003-07-28,Amateur Teen 14-16,42.78,,,,,,52.5,-60,-60,,52.5,,,,,,52.5
1,B,Multi-ply,F,Yes,48,Marina Kizhaykina,Марина Кижайкина,1977-04-18,Amateur Masters 40-49,48,,,,,,77.5,85,-90,,85,,,,,,85
1,B,Multi-ply,M,Yes,60,Oleg Demidenko,Олег Демиденко,1982-07-11,Amateur Open,60,,,,,,107.5,117.5,-127.5,,117.5,,,,,,117.5
1,B,Multi-ply,M,Yes,67.5,Evgeniy Odintsov,Евгений Одинцов,1994-03-08,Amateur Open,66.7,,,,,,160,170,-175,,170,,,,,,170
2,B,Multi-ply,M,Yes,67.5,Ivan Shokov,Иван Шоков,1994-12-06,Amateur Open,67.05,,,,,,140,-150,160,,160,,,,,,160
1,B,Multi-ply,M,Yes,82.5,Yuriy Nogay,Юрий Ногай,1983-05-26,Amateur Open,82,,,,,,220,-260,-260,,220,,,,,,220
DQ,B,Multi-ply,M,Yes,82.5,Pavel Kostyurin,Павел Костюрин,1989-12-29,Amateur Open,82.1,,,,,,-190,-190,-190,,,,,,,,
DQ,B,Multi-ply,M,Yes,82.5,Ilya Ternovoy,Илья Терновой,1990-08-10,Amateur Open,82.2,,,,,,-175,-175,-175,,,,,,,,
1,B,Multi-ply,M,Yes,90,Vladimir Doroshev,Владимир Дорошев,1980-10-05,Amateur Open,88.6,,,,,,270,285,295,300,295,,,,,,295
1,B,Multi-ply,M,Yes,100,Aleksey Churkin,Алексей Чуркин,1987-07-06,Amateur Open,98.55,,,,,,-232.5,-232.5,232.5,,232.5,,,,,,232.5
1,B,Multi-ply,M,Yes,110,Oleg Belkin,Олег Белкин,1970-09-10,Amateur Open,109.1,,,,,,-260,260,270,,270,,,,,,270
2,B,Multi-ply,M,Yes,110,Dmitriy Kamoltsev,Дмитрий Камольцев,1985-08-24,Amateur Open,106.6,,,,,,-230,230,-245,,230,,,,,,230
3,B,Multi-ply,M,Yes,110,Nikolay Legostaev,Николай Легостаев,1986-06-28,Amateur Open,107.85,,,,,,-167.5,167.5,187.5,,187.5,,,,,,187.5
DQ,B,Multi-ply,M,Yes,110,Evgeniy Rusakov,Евгений Русаков,1959-10-14,Amateur Open,109.25,,,,,,-235,-235,-235,,,,,,,,
1,B,Multi-ply,M,Yes,110,Oleg Belkin,Олег Белкин,1970-09-10,Amateur Masters 40-49,109.1,,,,,,-260,260,270,,270,,,,,,270
1,B,Multi-ply,M,Yes,110,Mikhail Ishchechkin,Михаил Ищечкин,1962-01-22,Amateur Masters 50-59,107,,,,,,190,200,205,,205,,,,,,205
1,SBD,Wraps,F,Yes,48,Darya Shevchenko,Дарья Шевченко,1988-07-17,Amateur Open,47.2,-75,75,80,,80,40,-45,-45,,40,82.5,90,95,,95,215
2,SBD,Wraps,F,Yes,48,Tatyana Temnyakova,Татьяна Темнякова,1993-10-05,Amateur Open,48,-70,70,-80,,70,40,-45,-45,,40,100,105,-110,,105,215
1,SBD,Wraps,F,Yes,52,Darya Bychenko,Дарья Быченко,2004-08-09,Amateur Teen 14-16,50.08,37.5,42.5,45,,45,25,30,-32.5,,30,45,55,60,,60,135
1,SBD,Wraps,F,Yes,52,Vladislava Khoda,Владислава Хода,2002-05-26,Amateur Teen 17-19,51.74,55,65,70,,70,35,37.5,-40,,37.5,90,100,-105,,100,207.5
1,SBD,Wraps,F,Yes,52,Valeriya Nesvetaylo,Валерия Несветайло,1986-12-20,Amateur Open,52,-102.5,-102.5,102.5,,102.5,47.5,-50,-50,,47.5,120,-135,-135,,120,270
2,SBD,Wraps,F,Yes,52,Anna Yan,Анна Ян,1990-12-28,Amateur Open,51.2,95,-100,,,95,47.5,50,-52.5,,50,95,-100,,,95,240
1,SBD,Wraps,F,Yes,56,Yuliya Klychnikova,Юлия Клычникова,2000-09-19,Amateur Teen 17-19,55.75,-80,85,-92.5,,85,50,-55,-55,,50,130,137.5,-142.5,,137.5,272.5
2,SBD,Wraps,F,Yes,56,Alina Oskolkova,Алина Осколкова,2002-09-18,Amateur Teen 17-19,53.48,50,55,60,,60,32.5,35,-37.5,,35,65,72.5,77.5,,77.5,172.5
1,SBD,Wraps,F,Yes,56,Liliya Zhaleeva,Лилия Жалеева,1996-02-01,Amateur Juniors 20-23,56,80,-90,-90,,80,-40,42.5,45,,45,90,100,-110,,100,225
1,SBD,Wraps,F,Yes,56,Elena Kosikhina,Елена Косихина,1987-12-01,Amateur Open,55.2,110,-117.5,-117.5,,110,55,60,-62.5,,60,140,150,-155,,150,320
2,SBD,Wraps,F,Yes,56,Oksana Krasheninnikova,Оксана Крашенинникова,1981-05-23,Amateur Open,55.4,72.5,-82.5,-82.5,,72.5,40,47.5,50,,50,85,95,102.5,,102.5,225
3,SBD,Wraps,F,Yes,56,Aleksandra Drozdova,Александра Дроздова,1992-03-19,Amateur Open,54.62,75,-80,-80,,75,45,47.5,-50,,47.5,75,80,85,,85,207.5
1,SBD,Wraps,F,Yes,60,Darya Galyamova,Дарья Галямова,1996-11-19,Amateur Open,58.66,135,-142.5,142.5,,142.5,55,60,62.5,,62.5,150,170,180,,180,385
2,SBD,Wraps,F,Yes,60,Liliya Leonenko,Лилия Леоненко,1986-03-06,Amateur Open,59.9,80,-90,90,,90,47.5,-50,50,,50,120,130,-137.5,,130,270
1,SBD,Wraps,F,Yes,60,Zhamilya Lebedintseva,Жамиля Лебединцева,1963-05-26,Amateur Masters 50-59,58.2,-70,70,-75,,70,32.5,37.5,-40,,37.5,85,90,-100,,90,197.5
1,SBD,Wraps,F,Yes,67.5,Irina Batsileva,Ирина Бацилева,1993-04-16,Amateur Open,65.8,-100,-100,100,,100,60,62.5,65,,65,115,120,125,,125,290
2,SBD,Wraps,F,Yes,67.5,Viktoriya Povnaya,Виктория Повная,1990-08-21,Amateur Open,64.65,-100,100,110,,110,52.5,55,-57.5,,55,115,-120,120,,120,285
3,SBD,Wraps,F,Yes,67.5,Evgeniya Sokolova,Евгения Соколова,1994-03-25,Amateur Open,67.5,85,-90,-90,,85,40,-45,-45,,40,110,-120,-120,,110,235
1,SBD,Wraps,M,Yes,52,Egor Korolev,Егор Королев,2003-06-26,Amateur Teen 14-16,49.54,95,100,102.5,,102.5,55,-60,60,,60,107.5,110,115,,115,277.5
2,SBD,Wraps,M,Yes,52,Gadzhikhalaf Kurbanov,Гаджихалаф Курбанов,2004-05-09,Amateur Teen 14-16,51.9,-50,-50,50,,50,35,40,45,,45,75,85,-95,,85,180
1,SBD,Wraps,M,Yes,52,Kirill Dropchenko,Кирилл Дропченко,2007-12-19,Amateur Teen 13,50.25,-62.5,67.5,-72.5,,67.5,32.5,37.5,-40,,37.5,70,77.5,82.5,,82.5,187.5
1,SBD,Wraps,M,Yes,60,Vladimir Gorbunov,Владимир Горбунов,2007-10-01,Amateur Teen 13,57.5,65,72.5,77.5,,77.5,35,37.5,40,,40,70,80,85,,85,202.5
1,SBD,Wraps,M,Yes,60,Viktor Kuzminykh,Виктор Кузьминых,2004-05-13,Amateur Teen 14-16,58.36,-105,105,110,,110,-70,-70,70,,70,120,127.5,135,,135,315
2,SBD,Wraps,M,Yes,60,Nikita Gubarev,Никита Губарев,2003-05-26,Amateur Teen 14-16,59.5,95,105,112.5,,112.5,65,72.5,-75,,72.5,95,105,-112.5,,105,290
3,SBD,Wraps,M,Yes,60,Eduard Chirkov,Эдуард Чирков,2004-12-22,Amateur Teen 14-16,58.56,40,50,60,,60,35,40,50,,50,75,85,100,,100,210
1,SBD,Wraps,M,Yes,60,Konstantin Veselkov,Константин Веселков,1990-08-03,Amateur Open,58.6,100,110,115,,115,70,77.5,-82.5,,77.5,130,140,152.5,,152.5,345
1,SBD,Wraps,M,Yes,67.5,Vladimir Petrov,Владимир Петров,2004-05-14,Amateur Teen 14-16,67.3,85,-95,95,,95,70,75,77.5,,77.5,-105,105,112.5,,112.5,285
2,SBD,Wraps,M,Yes,67.5,Aleksey Polyubin,Алексей Полюбин,2003-01-05,Amateur Teen 14-16,67.1,70,80,90,,90,50,60,-62.5,,60,70,-85,85,,85,235
1,SBD,Wraps,M,Yes,67.5,Dmitriy Semenov,Дмитрий Семенов,2000-01-29,Amateur Teen 17-19,65.55,180,190,200,,200,100,105,110,,110,210,220,-230,,220,530
2,SBD,Wraps,M,Yes,67.5,Nikita Sabelfeld,Никита Сабельфельд,2002-07-17,Amateur Teen 17-19,67.2,120,130,-140,,130,75,80,-85,,80,170,185,200,,200,410
1,SBD,Wraps,M,Yes,67.5,Dmitriy Semenov,Дмитрий Семенов,2000-01-29,Amateur Open,65.55,180,190,200,,200,100,105,110,,110,210,220,-230,,220,530
1,SBD,Wraps,M,Yes,75,Dmitriy Pavlyuk,Дмитрий Павлюк,2003-07-28,Amateur Teen 14-16,73.1,102.5,110,-117.5,,110,75,80,-85,,80,-115,130,140,,140,330
2,SBD,Wraps,M,Yes,75,Vladislav Kozhevnikov,Владислав Кожевников,2003-05-27,Amateur Teen 14-16,74,95,107.5,115,,115,75,80,85,,85,105,115,-125,,115,315
3,SBD,Wraps,M,Yes,75,Aleksandr Erokhin,Александр Ерохин,2005-07-21,Amateur Teen 14-16,73.85,67.5,75,82.5,,82.5,47.5,55,-60,,55,97.5,107.5,115,,115,252.5
4,SBD,Wraps,M,Yes,75,Danila Neronov,Данила Неронов,2004-01-09,Amateur Teen 14-16,72.35,40,50,57.5,,57.5,32.5,35,40,,40,-60,60,80,,80,177.5
1,SBD,Wraps,M,Yes,75,Nikita Ostakhov,Никита Остахов,2002-02-22,Amateur Teen 17-19,71.55,120,135,-150,,135,90,-100,-100,,90,-150,155,-170,,155,380
1,SBD,Wraps,M,Yes,75,Dmitriy Gavrilov,Дмитрий Гаврилов,1998-08-21,Amateur Juniors 20-23,74.3,145,-152.5,157.5,,157.5,92.5,97.5,-102.5,,97.5,-155,162.5,170,,170,425
2,SBD,Wraps,M,Yes,75,Takhir Salimov,Тахир Салимов,1996-04-23,Amateur Juniors 20-23,72.05,-125,125,-135,,125,-90,90,-95,,90,185,195,-205,,195,410
1,SBD,Wraps,M,Yes,75,Roman Yakovlev,Роман Яковлев,1989-02-24,Amateur Open,73.75,-155,155,165,,165,110,117.5,120,,120,205,215,-225,,215,500
2,SBD,Wraps,M,Yes,75,Sergey Shubin,Сергей Шубин,1992-03-18,Amateur Open,71.5,150,-162.5,170,,170,100,110,-120,,110,160,175,-185,,175,455
1,SBD,Wraps,M,Yes,75,Dmitriy Timoshenko,Дмитрий Тимошенко,1975-04-02,Amateur Masters 40-49,73.45,135,145,152.5,,152.5,85,92.5,-97.5,,92.5,175,185,192.5,,192.5,437.5
1,SBD,Wraps,M,Yes,75,Gennadiy Chuldenko,Геннадий Чулденко,1948-07-04,Amateur Masters 70-79,73.6,145,,,,145,42.2,47.5,50,,50,190,205,-210,,205,400
1,SBD,Wraps,M,Yes,82.5,Vadim Orishchenko,Вадим Орищенко,2004-07-21,Amateur Teen 14-16,75.7,140,155,-160,,155,95,102.5,107.5,,107.5,160,172.5,185,,185,447.5
2,SBD,Wraps,M,Yes,82.5,Daniil Druzhinin,Даниил Дружинин,2003-10-03,Amateur Teen 14-16,79,140,150,160,,160,80,90,-97.5,,90,170,187.5,-190,,187.5,437.5
3,SBD,Wraps,M,Yes,82.5,Vsevolod Kashlev,Всеволод Кашлев,2003-05-29,Amateur Teen 14-16,82.45,80,90,97.5,,97.5,70,80,85,,85,120,132.5,145,,145,327.5
1,SBD,Wraps,M,Yes,82.5,Vitaliy Afanasev,Виталий Афанасьев,1996-01-22,Amateur Open,80.15,210,220,235,,235,-155,157.5,165,,165,-250,260,-270,,260,660
DQ,SBD,Wraps,M,Yes,82.5,Sergey Polosin,Сергей Полосин,1983-09-27,Amateur Open,82.5,200,210,-220,,210,115,-120,120,,120,-250,-250,-250,,,
1,SBD,Wraps,M,Yes,90,Pavel Kamaldin,Павел Камалдин,2004-07-15,Amateur Teen 14-16,88.95,90,100,107.5,,107.5,35,40,47.5,,47.5,92.5,100,110,,110,265
1,SBD,Wraps,M,Yes,90,Roman Pyshkov,Роман Пышков,1996-09-25,Amateur Juniors 20-23,89.65,140,150,162.5,,162.5,115,120,-125,,120,200,-210,,,200,482.5
1,SBD,Wraps,M,Yes,90,Dmitriy Kolomov,Дмитрий Коломов,1996-07-02,Amateur Open,89.55,230,240,-245,,240,147.5,155,160,,160,292.5,302.5,-310,,302.5,702.5
2,SBD,Wraps,M,Yes,90,Oleg Naboka,Олег Набока,1995-02-23,Amateur Open,89.2,200,210,215,,215,135,140,-145,,140,-250,250,260,,260,615
3,SBD,Wraps,M,Yes,90,Andrey Zinov,Андрей Зинов,1995-07-03,Amateur Open,88.1,170,180,-185,,180,120,-125,-125,,120,225,-232.5,-232.5,,225,525
4,SBD,Wraps,M,Yes,90,Vladimir Shlyundt,Владимир Шлюндт,1990-01-03,Amateur Open,88.35,-120,120,140,,140,-90,90,-95,,90,180,197.5,225,,225,455
5,SBD,Wraps,M,Yes,90,Aleksey Tarasov,Алексей Тарасов,1989-09-29,Amateur Open,88.4,80,-95,95,,95,50,-62.5,62.5,,62.5,100,-120,130,,130,287.5
DQ,SBD,Wraps,M,Yes,90,Maksim Povarenko,Максим Поваренко,1994-12-24,Amateur Open,88.15,175,-180,-180,,175,115,-125,-125,,115,-225,-225,-225,,,
1,SBD,Wraps,M,Yes,100,Aleksey Lukyanov,Алексей Лукьянов,2003-02-07,Amateur Teen 14-16,96.15,105,115,125,,125,70,80,87.5,,87.5,120,135,145,,145,357.5
1,SBD,Wraps,M,Yes,100,Maksim Shkapenko,Максим Шкапенко,1985-05-21,Amateur Open,97.55,187,200,210,,210,160,167.5,170,,170,225,240,255,,255,635
2,SBD,Wraps,M,Yes,100,Konstantin Menyaylo,Константин Меняйло,1992-03-11,Amateur Open,97.2,180,200,210,,210,110,120,-130,,120,200,220,-242.5,,220,550
1,SBD,Wraps,M,Yes,100,Vasiliy Mandzyuk,Василий Мандзюк,1971-08-08,Amateur Masters 40-49,98.45,210,220,-230,,220,145,-150,-150,,145,230,-250,255,,255,620
1,SBD,Wraps,M,Yes,110,Dmitriy Kem,Дмитрий Кем,1971-12-08,Amateur Open,108.45,-190,190,210,,210,130,137.5,-142.5,,137.5,230,242.5,-250,,242.5,590
2,SBD,Wraps,M,Yes,110,Andrey Bocharnikov,Андрей Бочарников,1984-01-04,Amateur Open,104.8,170,180,-190,,180,125,130,132.5,,132.5,260,-280,-280,,260,572.5
3,SBD,Wraps,M,Yes,110,Denis Shcherbakov,Денис Щербаков,1985-11-26,Amateur Open,102.1,180,190,200,,200,120,130,135,,135,190,200,210,,210,545
DQ,SBD,Wraps,M,Yes,110,Aleksey Krechetov,Алексей Кречетов,1987-01-17,Amateur Open,109.25,-180,-180,-180,,,,,,,,,,,,,
1,SBD,Wraps,M,Yes,125,Maksim Malakhov,Максим Малахов,1985-12-10,Amateur Open,115.5,190,205,-210,,205,125,130,-135,,130,200,215,-225,,215,550
2,SBD,Wraps,M,Yes,125,Dmitriy Nelyubin,Дмитрий Нелюбин,1983-10-20,Amateur Open,123.25,-160,172.5,182.5,,182.5,-117.5,117.5,-127.5,,117.5,180,200,215,,215,515
1,SBD,Wraps,M,Yes,125,Aleksandr Zaplatkin,Александр Заплаткин,1974-12-11,Amateur Masters 40-49,114.4,160,-180,190,,190,125,135,140,,140,220,-230,240,,240,570
1,D,Raw,F,Yes,48,Diana Zyablitskaya,Диана Зяблицкая,1998-08-09,Amateur Juniors 20-23,47.72,,,,,,,,,,,100,110,115,,115,115
1,D,Raw,F,Yes,52,Valeriya Nesvetaylo,Валерия Несветайло,1986-12-20,Amateur Open,52,,,,,,,,,,,120,-135,-135,,120,120
1,D,Raw,F,Yes,56,Yuliya Klychnikova,Юлия Клычникова,2000-09-19,Amateur Teen 17-19,55.75,,,,,,,,,,,130,137.5,-142.5,,137.5,137.5
1,D,Raw,F,Yes,56,Milana Krivchikova,Милана Кривчикова,1990-03-25,Amateur Open,55.95,,,,,,,,,,,95,102.5,107.5,,107.5,107.5
1,D,Raw,F,Yes,60,Zhamilya Lebedintseva,Жамиля Лебединцева,1963-05-26,Amateur Masters 50-59,58.2,,,,,,,,,,,85,90,-100,,90,90
1,D,Raw,F,Yes,67.5,Viktoriya Povnaya,Виктория Повная,1990-08-21,Amateur Open,64.65,,,,,,,,,,,115,-120,120,,120,120
1,D,Raw,F,Yes,75,Natalya Gavrilova,Наталья Гаврилова,1985-01-29,Amateur Open,72.35,,,,,,,,,,,105,120,127.5,,127.5,127.5
1,D,Raw,M,Yes,56,Yakov Mishin,Яков Мишин,2001-12-11,Amateur Teen 17-19,52.95,,,,,,,,,,,90,-100,100,,100,100
1,D,Raw,M,Yes,60,Konstantin Veselkov,Константин Веселков,1990-08-03,Amateur Open,58.6,,,,,,,,,,,130,140,152.5,,152.5,152.5
DQ,D,Raw,M,Yes,67.5,Danila Morozov,Данила Морозов,2003-01-03,Amateur Teen 14-16,66.25,,,,,,,,,,,-180,-190,-192.5,,,
1,D,Raw,M,Yes,67.5,Leonid Polonets,Леонид Полонец,2002-11-21,Amateur Teen 17-19,65.8,,,,,,,,,,,152.5,167.5,175,,175,175
1,D,Raw,M,Yes,75,Andrey Dostovalov,Андрей Достовалов,1997-06-30,Amateur Juniors 20-23,69.95,,,,,,,,,,,187.5,202.5,212.5,,212.5,212.5
2,D,Raw,M,Yes,75,Takhir Salimov,Тахир Салимов,1996-04-23,Amateur Juniors 20-23,72.05,,,,,,,,,,,185,195,-205,,195,195
3,D,Raw,M,Yes,75,Zakhar Sharapov,Захар Шарапов,1999-09-24,Amateur Juniors 20-23,73.25,,,,,,,,,,,180,-190,-190,,180,180
4,D,Raw,M,Yes,75,Vladislav Bezzubov,Владислав Беззубов,1998-01-31,Amateur Juniors 20-23,74.6,,,,,,,,,,,-170,170,180,,180,180
1,D,Raw,M,Yes,75,Gennadiy Chuldenko,Геннадий Чулденко,1948-07-04,Amateur Masters 70-79,73.6,,,,,,,,,,,190,205,-210,,205,205
1,D,Raw,M,Yes,82.5,Daniil Druzhinin,Даниил Дружинин,2003-10-03,Amateur Teen 14-16,79,,,,,,,,,,,170,187.5,-190,,187.5,187.5
1,D,Raw,M,Yes,82.5,Kirill Fomenko,Кирилл Фоменко,2001-07-10,Amateur Teen 17-19,81.95,,,,,,,,,,,-170,170,180,,180,180
1,D,Raw,M,Yes,82.5,Aleksandr Radchuk,Александр Радчук,1996-07-26,Amateur Juniors 20-23,78,,,,,,,,,,,207.5,217.5,-220,,217.5,217.5
1,D,Raw,M,Yes,82.5,Sergey Polosin,Сергей Полосин,1983-09-27,Amateur Open,82.5,,,,,,,,,,,230,240,250,,250,250
DQ,D,Raw,M,Yes,82.5,Sergey Polosin,Сергей Полосин,1983-09-27,Amateur Open,82.5,,,,,,,,,,,-250,-250,-250,,,
1,D,Raw,M,Yes,90,Vladislav Bliznyuk,Владислав Близнюк,1998-03-03,Amateur Juniors 20-23,87.5,,,,,,,,,,,240,250,260,,260,260
2,D,Raw,M,Yes,90,Nikolay Akimov,Николай Акимов,1998-07-21,Amateur Juniors 20-23,86.3,,,,,,,,,,,190,197.5,210,,210,210
1,D,Raw,M,Yes,90,Dmitriy Kolomov,Дмитрий Коломов,1996-07-02,Amateur Open,89.55,,,,,,,,,,,292.5,302.5,-310,,302.5,302.5
2,D,Raw,M,Yes,90,Oleg Naboka,Олег Набока,1995-02-23,Amateur Open,89.2,,,,,,,,,,,-250,250,260,,260,260
3,D,Raw,M,Yes,90,Andrey Zinov,Андрей Зинов,1995-07-03,Amateur Open,88.1,,,,,,,,,,,225,-232.5,-232.5,,225,225
4,D,Raw,M,Yes,90,Vladimir Shlyundt,Владимир Шлюндт,1990-01-03,Amateur Open,88.35,,,,,,,,,,,180,197.5,225,,225,225
1,D,Raw,M,Yes,90,Oleg Kanashchenko,Олег Канащенко,1969-06-27,Amateur Masters 50-59,88.5,,,,,,,,,,,190,-200,200,,200,200
1,D,Raw,M,Yes,100,Mikhail Ostrozhinskiy,Михаил Острожинский,1998-04-17,Amateur Juniors 20-23,98.45,,,,,,,,,,,280,-285,-285,,280,280
1,D,Raw,M,Yes,100,Vasiliy Mandzyuk,Василий Мандзюк,1971-08-08,Amateur Masters 40-49,98.45,,,,,,,,,,,230,-250,255,,255,255
1,D,Raw,M,Yes,110,Andrey Bocharnikov,Андрей Бочарников,1984-01-04,Amateur Open,104.8,,,,,,,,,,,260,-280,-280,,260,260
2,D,Raw,M,Yes,110,Dmitriy Kem,Дмитрий Кем,1971-12-08,Amateur Open,108.45,,,,,,,,,,,230,242.5,-250,,242.5,242.5
1,D,Raw,M,Yes,110,Dmitriy Rikhter,Дмитрий Рихтер,1978-02-04,Amateur Masters 40-49,104.35,,,,,,,,,,,195,210,-215,,210,210
1,D,Raw,M,Yes,140,Andrey Galin,Андрей Галин,1967-03-29,Amateur Masters 50-59,136.65,,,,,,,,,,,240,255,265,,265,265
1,S,Wraps,F,Yes,52,Valeriya Nesvetaylo,Валерия Несветайло,1986-12-20,Amateur Open,52,-102.5,-102.5,102.5,,102.5,,,,,,,,,,,102.5
1,S,Wraps,M,Yes,75,Gennadiy Chuldenko,Геннадий Чулденко,1948-07-04,Amateur Masters 70-79,73.6,145,,,,145,,,,,,,,,,,145
1,B,Raw,M,Yes,56,Kirill Shureev,Кирилл Шуреев,2006-09-13,Amateur Teen 13,53.82,,,,,,32.5,-35,-35,,32.5,,,,,,32.5
1,B,Raw,M,Yes,56,Yakov Mishin,Яков Мишин,2001-12-11,Amateur Teen 17-19,52.95,,,,,,75,-85,-90,,75,,,,,,75
1,B,Raw,M,Yes,60,Artem Medvedev,Артем Медведєв,2006-04-19,Amateur Teen 13,59.06,,,,,,75,-80,-80,,75,,,,,,75
DQ,B,Raw,M,Yes,67.5,Sergey Leyman,Сергей Лейман,2006-07-14,Amateur Teen 13,66.9,,,,,,-65,-65,-65,,,,,,,,
1,B,Raw,M,Yes,67.5,Aleksandr Yakovlev,Александр Яковлев,2003-10-08,Amateur Teen 14-16,65.85,,,,,,100,110,-115,,110,,,,,,110
2,B,Raw,M,Yes,67.5,Anton Broyt,Антон Бройт,2003-03-26,Amateur Teen 14-16,65.2,,,,,,80,-87.5,-90,,80,,,,,,80
3,B,Raw,M,Yes,67.5,Nikita Pozolotin,Никита Позолотин,2004-08-06,Amateur Teen 14-16,66.7,,,,,,70,-80,-80,,70,,,,,,70
4,B,Raw,M,Yes,67.5,Vladislav Babkin,Владислав Бабкин,2005-02-27,Amateur Teen 14-16,63.6,,,,,,45,-50,-50,,45,,,,,,45
1,B,Raw,M,Yes,67.5,Vladislav Alekseev,Владислав Алексеев,1996-10-09,Amateur Juniors 20-23,66.1,,,,,,85,90,-95,,90,,,,,,90
1,B,Raw,M,Yes,67.5,Denis Tyumentsev,Денис Тюменцев,1993-06-03,Amateur Open,61.4,,,,,,107.5,110,112.5,,112.5,,,,,,112.5
2,B,Raw,M,Yes,67.5,Aleksandr Selivanov,Александр Селиванов,1985-04-27,Amateur Open,65.3,,,,,,80,87.5,-95,,87.5,,,,,,87.5
1,B,Raw,M,Yes,75,Gleb Tuzov,Глеб Тузов,2006-01-10,Amateur Teen 13,71.45,,,,,,67.5,75,-82.5,,75,,,,,,75
1,B,Raw,M,Yes,75,Dmitriy Osadchiy,Дмитрий Осадчий,2003-07-27,Amateur Teen 14-16,72.9,,,,,,80,-85,85,,85,,,,,,85
2,B,Raw,M,Yes,75,Gleb Pechurin,Глеб Печурин,2005-07-14,Amateur Teen 14-16,70.35,,,,,,65,70,77.5,,77.5,,,,,,77.5
3,B,Raw,M,Yes,75,Danila Timofeev,Данила Тимофеев,2004-02-10,Amateur Teen 14-16,69.35,,,,,,60,70,72.5,,72.5,,,,,,72.5
4,B,Raw,M,Yes,75,Stanislav Matytsin,Станислав Матыцин,2003-12-10,Amateur Teen 14-16,73.5,,,,,,62.5,70,-75,,70,,,,,,70
1,B,Raw,M,Yes,75,Andrey Mikhaldyko,Андрей Михалдыко,2001-12-14,Amateur Teen 17-19,74.25,,,,,,55,65,-70,,65,,,,,,65
1,B,Raw,M,Yes,75,Aleksandr Trubenko,Александр Трубенко,1996-05-28,Amateur Juniors 20-23,72.85,,,,,,110,115,-120,,115,,,,,,115
1,B,Raw,M,Yes,75,Matvey Fokin,Матвей Фокин,1988-06-15,Amateur Open,72.85,,,,,,110,115,-120,,115,,,,,,115
2,B,Raw,M,Yes,75,Artem Rogatkov,Артем Рогатков,1987-11-26,Amateur Open,74.8,,,,,,115,-120,-120,,115,,,,,,115
3,B,Raw,M,Yes,75,Anatoliy Karpov,Анатолий Карпов,1994-02-15,Amateur Open,74.8,,,,,,110,-115,-115,,110,,,,,,110
DQ,B,Raw,M,Yes,75,Evgeniy Aleksandrov,Евгений Александров,1995-01-12,Amateur Open,71.2,,,,,,-132.5,-135,,,,,,,,,
DQ,B,Raw,M,Yes,75,Evgeniy Apolonov,Евгений Аполонов,1986-07-30,Amateur Open,71.55,,,,,,-132.5,-137.5,-137.5,,,,,,,,
1,B,Raw,M,Yes,75,Aleksandr Yarygin,Александр Ярыгин,1951-07-30,Amateur Masters 60-69,74.35,,,,,,90,100,-102.5,,100,,,,,,100
1,B,Raw,M,Yes,82.5,Danila Marinin,Данила Маринин,2005-04-19,Amateur Teen 14-16,80.5,,,,,,105,107.5,112.5,,112.5,,,,,,112.5
2,B,Raw,M,Yes,82.5,Aleksandr Kasheutov,Александр Кашеутов,2003-08-05,Amateur Teen 14-16,75.3,,,,,,57.5,67.5,-72.5,,67.5,,,,,,67.5
1,B,Raw,M,Yes,82.5,Aleksey Vegner,Алексей Вегнер,1997-09-21,Amateur Juniors 20-23,82.25,,,,,,150,-157.5,-162.5,,150,,,,,,150
1,B,Raw,M,Yes,82.5,Maksim Bludov,Максим Блудов,1993-04-15,Amateur Open,80.35,,,,,,162.5,-167.5,167.5,,167.5,,,,,,167.5
2,B,Raw,M,Yes,82.5,Yakhyokhozhi Egamberdiev,Яхёхожи Эгамбердиев,1994-06-17,Amateur Open,81.6,,,,,,155,162.5,-165,,162.5,,,,,,162.5
3,B,Raw,M,Yes,82.5,Vitaliy Larionov,Виталий Ларионов,1989-04-16,Amateur Open,81.1,,,,,,150,155,160,,160,,,,,,160
4,B,Raw,M,Yes,82.5,Aleksey Vegner,Алексей Вегнер,1997-09-21,Amateur Open,82.25,,,,,,150,-157.5,-162.5,,150,,,,,,150
5,B,Raw,M,Yes,82.5,Sergey Tsoy,Сергей Цой,1986-10-29,Amateur Open,81.45,,,,,,115,125,135,,135,,,,,,135
6,B,Raw,M,Yes,82.5,Vladimir Demin,Владимир Демин,1986-11-30,Amateur Open,81.7,,,,,,110,-127.5,-130,,110,,,,,,110
7,B,Raw,M,Yes,82.5,Sergey Poleshkin,Сергей Полешкин,1991-12-05,Amateur Open,76.4,,,,,,107.5,-112.5,-112.5,,107.5,,,,,,107.5
8,B,Raw,M,Yes,82.5,Sergey Poleshkin,Сергей Полешкин,1991-12-05,Amateur Open,76.4,,,,,,107.5,,,,107.5,,,,,,107.5
DQ,B,Raw,M,Yes,82.5,Aleksey Limarev,Алексей Лимарев,1986-09-05,Amateur Open,82.1,,,,,,-160,-160,-160,,,,,,,,
1,B,Raw,M,Yes,82.5,Andrey Merkulov,Андрей Меркулов,1978-05-28,Amateur Masters 40-49,78.45,,,,,,120,122.5,-125,,122.5,,,,,,122.5
2,B,Raw,M,Yes,82.5,Andrey Kakaev,Андрей Какаев,1974-09-07,Amateur Masters 40-49,80.45,,,,,,80,-90,-90,,80,,,,,,80
1,B,Raw,M,Yes,90,Aleksandr Leonenko,Александр Леоненко,1992-02-25,Amateur Open,89.05,,,,,,170,175,180,,180,,,,,,180
2,B,Raw,M,Yes,90,Mikhail Shpagin,Михаил Шпагин,1988-10-25,Amateur Open,87.95,,,,,,167.5,172.5,-177.5,,172.5,,,,,,172.5
3,B,Raw,M,Yes,90,Evgeniy Myshkin,Евгений Мышкин,1985-05-15,Amateur Open,87.9,,,,,,132.5,142.5,150,,150,,,,,,150
4,B,Raw,M,Yes,90,Mark Morev,Марк Морев,1994-03-01,Amateur Open,90,,,,,,137.5,147.5,150,,150,,,,,,150
5,B,Raw,M,Yes,90,Aleksandr Semenovykh,Александр Семеновых,1992-11-30,Amateur Open,89.1,,,,,,140,147.5,-155,,147.5,,,,,,147.5
6,B,Raw,M,Yes,90,Ruslan Samarskiy,Руслан Самарский,1990-10-06,Amateur Open,89.45,,,,,,127.5,137.5,145,,145,,,,,,145
7,B,Raw,M,Yes,90,Zakir Chenchubaev,Закир Ченчубаев,1984-10-10,Amateur Open,89.85,,,,,,145,-155,-155,,145,,,,,,145
8,B,Raw,M,Yes,90,Stanislav Osipov,Станислав Осипов,1988-07-12,Amateur Open,89.5,,,,,,120,130,-135,,130,,,,,,130
9,B,Raw,M,Yes,90,Pavel Grivin,Павел Гривин,1988-12-05,Amateur Open,88.2,,,,,,-122.5,127.5,-130,,127.5,,,,,,127.5
10,B,Raw,M,Yes,90,Yuriy Kutulaev,Юрий Кутулаев,1991-06-03,Amateur Open,87.8,,,,,,125,-135,-135,,125,,,,,,125
11,B,Raw,M,Yes,90,Aleksey Ivanov,Алексей Иванов,1995-08-24,Amateur Open,88.45,,,,,,115,122.5,-127.5,,122.5,,,,,,122.5
12,B,Raw,M,Yes,90,Mikhail Solovev,Михаил Соловьев,1980-11-21,Amateur Open,84,,,,,,-95,105,-110,,105,,,,,,105
DQ,B,Raw,M,Yes,90,Aleksandr Glukhov,Александр Глухов,1987-03-17,Amateur Open,84.6,,,,,,-125,-132.5,-132.5,,,,,,,,
1,B,Raw,M,Yes,90,Aleksandr Burtsev,Александр Бурцев,1971-08-07,Amateur Masters 40-49,88.35,,,,,,135,140,-142.5,,140,,,,,,140
2,B,Raw,M,Yes,90,Oleg Zarutskiy,Олег Заруцкий,1973-01-03,Amateur Masters 40-49,88.15,,,,,,135,-140,-140,,135,,,,,,135
3,B,Raw,M,Yes,90,Igor Usachyov,Игорь Усачёв,1979-02-24,Amateur Masters 40-49,87.45,,,,,,115,122.5,-130,,122.5,,,,,,122.5
DQ,B,Raw,M,Yes,90,Aleksey Nazarov,Алексей Назаров,1974-05-12,Amateur Masters 40-49,89.45,,,,,,-125,-125,-125,,,,,,,,
1,B,Raw,M,Yes,90,Vyacheslav Nikolaev,Вячеслав Николаев,1956-07-10,Amateur Masters 60-69,89.7,,,,,,145,-150,150,,150,,,,,,150
1,B,Raw,M,Yes,100,Andrey Gerasimenko,Андрей Герасименко,1990-09-06,Amateur Open,99.1,,,,,,190,-197.5,,,190,,,,,,190
2,B,Raw,M,Yes,100,Stanislav Zolotukhin,Станислав Золотухин,1986-08-21,Amateur Open,96.45,,,,,,160,170,175,,175,,,,,,175
3,B,Raw,M,Yes,100,Sergey Shcherbakov,Сергей Щербаков,1982-04-03,Amateur Open,99.6,,,,,,-175,175,-187.5,,175,,,,,,175
4,B,Raw,M,Yes,100,Vladimir Stepanchenko,Владимир Степаньченко,1990-06-27,Amateur Open,98.85,,,,,,162.5,170,-175,,170,,,,,,170
5,B,Raw,M,Yes,100,Oleg Abramov,Олег Абрамов,1994-08-09,Amateur Open,90.85,,,,,,150,-155,,,150,,,,,,150
6,B,Raw,M,Yes,100,Andrey Rovenskiy,Андрей Ровенский,1992-09-12,Amateur Open,100,,,,,,130,145,-150,,145,,,,,,145
1,B,Raw,M,Yes,100,Roman Muravev,Роман Муравьев,1978-08-20,Amateur Masters 40-49,99.1,,,,,,160,165,-170,,165,,,,,,165
2,B,Raw,M,Yes,100,Aleksey Vorobev,Алексей Воробьев,1975-04-18,Amateur Masters 40-49,98.7,,,,,,135,-142.5,-142.5,,135,,,,,,135
DQ,B,Raw,M,Yes,100,Vladimir Vinter,Владимир Винтер,1972-10-24,Amateur Masters 40-49,98.65,,,,,,-170,-172.5,-172.5,,,,,,,,
1,B,Raw,M,Yes,110,Ivan Beygel,Иван Бейгель,2004-07-26,Amateur Teen 14-16,107.35,,,,,,75,-85,-85,,75,,,,,,75
1,B,Raw,M,Yes,110,Vladimir Nikonov,Владимир Никонов,1988-10-03,Amateur Open,109.05,,,,,,170,182.5,185,,185,,,,,,185
2,B,Raw,M,Yes,110,Evgeniy Antukh,Евгений Антух,1972-10-13,Amateur Open,107.1,,,,,,172.5,182.5,-187.5,,182.5,,,,,,182.5
3,B,Raw,M,Yes,110,Aleksey Zhevtnev,Алексей Жевтнев,1987-08-28,Amateur Open,108.7,,,,,,-175,175,-185,,175,,,,,,175
4,B,Raw,M,Yes,110,Dmitriy Iksar,Дмитрий Иксар,1991-08-17,Amateur Open,108,,,,,,145,160,-167.5,,160,,,,,,160
1,B,Raw,M,Yes,110,Evgeniy Antukh,Евгений Антух,1972-10-13,Amateur Masters 40-49,107.1,,,,,,172.5,182.5,-187.5,,182.5,,,,,,182.5
2,B,Raw,M,Yes,110,Dmitriy Pervukhin,Дмитрий Первухин,1978-12-16,Amateur Masters 40-49,100.8,,,,,,-130,-130,130,,130,,,,,,130
1,B,Raw,M,Yes,125,Aleksey Dovbnya,Алексей Довбня,1983-06-12,Amateur Open,119.55,,,,,,205,215,-220,,215,,,,,,215
2,B,Raw,M,Yes,125,Sergey Grebenkin,Сергей Гребенкин,1973-12-04,Amateur Open,117.4,,,,,,205,210,-215,,210,,,,,,210
3,B,Raw,M,Yes,125,Roman Nikishin,Роман Никишин,1982-01-19,Amateur Open,124.95,,,,,,190,-202.5,-202.5,,190,,,,,,190
4,B,Raw,M,Yes,125,Pavel Tumanov,Павел Туманов,1992-09-02,Amateur Open,111.3,,,,,,-180,180,-190,,180,,,,,,180
5,B,Raw,M,Yes,125,Ivan Trukhin,Иван Трухин,1982-05-13,Amateur Open,124.25,,,,,,135,140,-145,,140,,,,,,140
1,B,Raw,M,Yes,125,Sergey Grebenkin,Сергей Гребенкин,1973-12-04,Amateur Masters 40-49,117.4,,,,,,205,210,-215,,210,,,,,,210
1,B,Raw,M,Yes,125,Andrey Mazepa,Андрей Мазепа,1964-04-09,Amateur Masters 50-59,115.1,,,,,,125,130,-135,,130,,,,,,130
1,B,Raw,M,Yes,140,Andrey Alyunin,Андрей Алюнин,1981-01-16,Amateur Open,130.9,,,,,,-200,210,-220,,210,,,,,,210
1,B,Raw,F,Yes,48,Evgeniya Volkova,Евгения Волкова,1993-05-23,Amateur Open,46.46,,,,,,-40,45,-47.5,,45,,,,,,45
2,B,Raw,F,Yes,48,Evgeniya Volkova,Евгения Волкова,1993-05-23,Amateur Open,46.46,,,,,,-40,45,-47.5,,45,,,,,,45
DQ,B,Raw,F,Yes,52,Anna Balash,Анна Балаш,1994-10-06,Amateur Open,51.6,,,,,,-50,,,,,,,,,,
1,B,Raw,F,Yes,56,Olesya Shevchenko,Олеся Шевченко,1999-02-01,Amateur Open,54.56,,,,,,57.5,62.5,-65,,62.5,,,,,,62.5
2,B,Raw,F,Yes,56,Marina Volotsenko,Марина Волоценко,1984-04-20,Amateur Open,54.5,,,,,,-50,50,-62.5,,50,,,,,,50
3,B,Raw,F,Yes,56,Ekaterina Kovalchuk,Екатерина Ковальчук,1993-03-01,Amateur Open,55.8,,,,,,-40,40,-47.5,,40,,,,,,40
1,B,Raw,F,Yes,60,Ekaterina Sorokina,Екатерина Сорокина,1996-03-04,Amateur Juniors 20-23,59.44,,,,,,-65,65,-67.5,,65,,,,,,65
1,B,Raw,F,Yes,60,Svetlana Likhacheva,Светлана Лихачева,1990-08-12,Amateur Open,59.3,,,,,,52.5,55,60,,60,,,,,,60
2,B,Raw,F,Yes,60,Tatyana Selyunina,Татьяна Селюнина,1985-05-03,Amateur Open,59.05,,,,,,45,-50,50,,50,,,,,,50
3,B,Raw,F,Yes,60,Tatyana Shishkina,Татьяна Шишкина,1987-06-09,Amateur Open,57.86,,,,,,42.5,47.5,-50,,47.5,,,,,,47.5
1,B,Raw,F,Yes,75,Elena Akhmedova,Елена Ахмедова,1977-11-09,Amateur Open,73.9,,,,,,50,52.5,55,,55,,,,,,55
1,B,Raw,F,Yes,75,Elena Akhmedova,Елена Ахмедова,1977-11-09,Amateur Masters 40-49,73.9,,,,,,50,52.5,55,,55,,,,,,55
1,SBD,Wraps,M,No,44,Fedor Buynov,Федор Буйнов,2007-02-12,Pro Teen 13,39.94,65,72.5,77.5,,77.5,30,35,40,,40,90,-95,,,90,207.5
2,SBD,Wraps,M,No,44,Artem Borodulin,Артем Бородулин,2008-10-11,Pro Teen 13,38.1,-30,30,40,,40,10,15,20,,20,50,-60,-60,,50,110
1,SBD,Wraps,M,No,52,Aleksandr Tikhonov,Александр Тихонов,2009-06-17,Pro Teen 13,49.86,30,35,40,,40,20,25,30,,30,40,45,-50,,45,115
1,SBD,Wraps,M,No,52,Danil Zinovev,Данил Зиновьев,2004-04-26,Pro Teen 14-16,46.3,-60,60,70,,70,40,45,-50,,45,70,80,-90,,80,195
1,SBD,Wraps,M,No,56,Vadim Bardin,Вадим Бардин,2005-05-14,Pro Teen 14-16,53.56,105,-115,120,,120,52.5,57.5,-62.5,,57.5,105,115,,,115,292.5
1,SBD,Wraps,M,No,67.5,Timofey Sukhov,Тимофей Сухов,2004-08-19,Pro Teen 14-16,64.75,135,142.5,150,,150,70,75,-80,,75,140,150,155,,155,380
1,SBD,Wraps,M,No,67.5,Timofey Cherkasov,Тимофей Черкасов,2001-10-06,Pro Teen 17-19,65.6,105,-115,125,,125,62.5,67.5,-72.5,,67.5,145,155,-165,,155,347.5
1,SBD,Wraps,M,No,67.5,Artyom Gilyov,Артём Гилёв,1998-11-05,Pro Juniors 20-23,66.75,105,-120,125,,125,85,95,-100,,95,140,-155,-155,,140,360
1,SBD,Wraps,M,No,75,Valentin Sekerin,Валентин Секерин,2001-10-07,Pro Teen 17-19,74.5,165,175,182.5,,182.5,90,95,-100,,95,170,180,185,,185,462.5
1,SBD,Wraps,M,No,75,Ivan Alymov,Иван Алымов,1986-01-05,Pro Open,74.05,100,-107.5,115,,115,-95,95,-110,,95,170,180,190,,190,400
1,SBD,Wraps,M,No,82.5,Pavel Storozhenko,Павел Стороженко,1989-01-28,Pro Open,77,200,207.5,-212.5,,207.5,-140,145,-147.5,,145,-240,240,-250,,240,592.5
2,SBD,Wraps,M,No,82.5,Egor Kurinov,Егор Куринов,1990-08-19,Pro Open,79.8,157.5,162.5,170,,170,115,-120,120,,120,190,200,220,,220,510
1,SBD,Wraps,M,No,90,Nikolay Struk,Николай Струк,1998-02-10,Pro Juniors 20-23,87.3,185,197.5,-212.5,,197.5,122.5,130,-135,,130,205,220,232,,232,559.5
1,SBD,Wraps,M,No,90,Denis Osintsev,Денис Осинцев,1996-09-11,Pro Open,88.9,-285,285,-292.5,,285,185,192.5,-197.5,,192.5,-325,325,-340,,325,802.5
2,SBD,Wraps,M,No,90,Sergey Volgin,Сергей Волгин,1986-10-11,Pro Open,89.3,190,-210,210,,210,160,175,-177.5,,175,230,-260,-260,,230,615
DQ,SBD,Wraps,M,No,90,Aleksey Bakhturov,Алексей Бахтуров,1989-03-16,Pro Open,83.35,-160,-180,-180,,,-100,,,,,-150,,,,,
DQ,SBD,Wraps,M,No,90,Nikolay Efanov,Николай Ефанов,1958-07-10,Pro Masters 60-69,89.2,-197.5,,,,,-135,,,,,-210,,,,,
1,SBD,Wraps,M,No,100,Andrey Basargin,Андрей Басаргин,1998-07-21,Pro Open,90.6,260,-270,-270,,260,160,170,,,170,260,280,-300,,280,710
2,SBD,Wraps,M,No,100,Ivan Kefer,Иван Кефер,1987-06-20,Pro Open,99.3,210,220,230,,230,170,180,-185,,180,250,270,-280,,270,680
3,SBD,Wraps,M,No,100,Pavel Dolgopolov,Павел Долгополов,1995-02-18,Pro Open,99.55,220,-235,-235,,220,170,-180,,,170,240,255,-270,,255,645
4,SBD,Wraps,M,No,100,Aleksandr Popov,Александр Попов,1993-08-27,Pro Open,97.1,180,190,-197.5,,190,160,165,167.5,,167.5,240,260,270,,270,627.5
5,SBD,Wraps,M,No,100,Artem Potkin,Артем Поткин,1994-04-21,Pro Open,92.75,-210,210,-235,,210,135,145,-152.5,,145,220,240,-252,,240,595
1,SBD,Wraps,M,No,110,Arseniy Aliev,Арсений Алиев,1993-06-05,Pro Open,105.8,-260,260,,,260,170,175,-180,,175,260,275,-277.5,,275,710
2,SBD,Wraps,M,No,110,Pavel Pakhtanov,Павел Пахтанов,1993-07-25,Pro Open,110,190,200,-207.5,,200,180,-190,-190,,180,220,240,-250,,240,620
1,SBD,Wraps,M,No,110,Nikolay Ivanov,Николай Иванов,1959-08-05,Pro Masters 60-69,108.55,190,210,225,,225,120,130,-140,,130,220,240,250,,250,605
1,SBD,Wraps,M,No,125,Oleg Zherdev,Олег Жердев,1970-05-12,Pro Masters 40-49,114.05,220,240,-260,,240,170,185,192.5,,192.5,-220,220,240,,240,672.5
DQ,SBD,Wraps,F,No,67.5,Darya Dyachenko,Дарья Дьяченко,1997-05-04,Pro Juniors 20-23,65.05,-77.5,,,,,-37.5,,,,,,,,,,
1,B,Raw,M,No,67.5,Ivan Osipov,Иван Осипов,1997-02-09,Pro Juniors 20-23,60.35,,,,,,60,70,75,,75,,,,,,75
1,B,Raw,M,No,75,Dmitriy Redkin,Дмитрий Редькин,1975-12-08,Pro Masters 40-49,75,,,,,,117.5,-127.5,-127.5,,117.5,,,,,,117.5
1,B,Raw,M,No,90,Sergey Volgin,Сергей Волгин,1986-10-11,Pro Open,89.3,,,,,,160,175,-177.5,,175,,,,,,175
2,B,Raw,M,No,90,Aleksandr Maslennikov,Александр Масленников,1996-10-04,Pro Open,89.35,,,,,,150,155,162.5,,162.5,,,,,,162.5
1,B,Raw,M,No,90,Dmitriy Gilyov,Дмитрий Гилёв,1976-08-29,Pro Masters 40-49,87.85,,,,,,-152.5,152.5,167.5,,167.5,,,,,,167.5
1,B,Raw,M,No,90,Aleksey Korobov,Алексей Коробов,1959-03-21,Pro Masters 60-69,85.6,,,,,,145,-155,155,,155,,,,,,155
2,B,Raw,M,No,90,Aleksandr Razmakhnin,Александр Размахнин,1951-08-08,Pro Masters 60-69,87.6,,,,,,110,-120,-120,,110,,,,,,110
DQ,B,Raw,M,No,90,Nikolay Efanov,Николай Ефанов,1958-07-10,Pro Masters 60-69,89.2,,,,,,-135,,,,,,,,,,
1,B,Raw,M,No,100,Evgeniy Zenin,Евгений Зенин,1991-02-02,Pro Open,99.4,,,,,,180,190,200,,200,,,,,,200
2,B,Raw,M,No,100,Kirill Karmanov,Кирилл Карманов,1994-10-06,Pro Open,99.95,,,,,,170,182.5,-192.5,,182.5,,,,,,182.5
3,B,Raw,M,No,100,Aleksandr Khramtsov,Александр Храмцов,1989-10-07,Pro Open,97.95,,,,,,160,-170,170,,170,,,,,,170
4,B,Raw,M,No,100,Ivan Antonyuk,Иван Антонюк,1990-06-24,Pro Open,97.5,,,,,,165,-180,-180,,165,,,,,,165
1,B,Raw,M,No,110,Aleksandr Gantimurov,Александр Гантимуров,1985-06-19,Pro Open,101.65,,,,,,200,205,210,,210,,,,,,210
2,B,Raw,M,No,110,Anton Epikhin,Антон Епихин,1988-10-11,Pro Open,107.35,,,,,,185,200,-205,,200,,,,,,200
1,B,Raw,M,No,110,Nikolay Ivanov,Николай Иванов,1959-08-05,Pro Masters 60-69,108.55,,,,,,120,130,-140,,130,,,,,,130
1,B,Raw,M,No,125,Maksim Medvedev,Максим Медведев,1981-05-16,Pro Open,114.9,,,,,,220,235,-247.5,,235,,,,,,235
2,B,Raw,M,No,125,Viktor Prisyazhnyuk,Виктор Присяжнюк,1976-03-15,Pro Open,113.35,,,,,,180,-187.5,187.5,,187.5,,,,,,187.5
3,B,Raw,M,No,125,Aleksandr Kurmashov,Александр Курмашов,1993-07-13,Pro Open,121.05,,,,,,165,180,-190,,180,,,,,,180
4,B,Raw,M,No,125,Aleksey Markus,Алексей Маркус,1981-04-08,Pro Open,118.7,,,,,,145,-150,-150,,145,,,,,,145
1,B,Raw,M,No,125,Viktor Prisyazhnyuk,Виктор Присяжнюк,1976-03-15,Pro Masters 40-49,113.35,,,,,,180,-187.5,187.5,,187.5,,,,,,187.5
1,B,Raw,M,No,140,Aleksandr Skudarnov,Александр Скударнов,1986-05-05,Pro Open,137.05,,,,,,170,175,-180,,175,,,,,,175
1,B,Raw,F,No,60,Anna Shlemanova,Анна Шлеманова,1984-08-13,Pro Open,57.5,,,,,,95,-97.5,,,95,,,,,,95
DQ,B,Raw,F,No,60,Natalya Konovalova,Наталья Коновалова,1988-09-14,Pro Open,59.74,,,,,,-125,-137.5,-137.5,,,,,,,,
1,D,Raw,M,No,60,Nikita Efimenko,Никита Ефименко,2002-07-03,Pro Teen 17-19,59.22,,,,,,,,,,,70,77.5,87.5,,87.5,87.5
1,D,Raw,M,No,110,Vadim Raskin,Вадим Раскин,1968-02-05,Pro Masters 50-59,105.35,,,,,,,,,,,-210,220,230,,230,230
1,D,Raw,M,No,110,Nikolay Ivanov,Николай Иванов,1959-08-05,Pro Masters 60-69,108.55,,,,,,,,,,,220,240,250,,250,250
1,SBD,Multi-ply,M,No,90,Dmitriy Ekimov,Дмитрий Екимов,1969-12-30,Pro Masters 40-49,86.25,175,182.5,190,,190,167.5,177.5,-187.5,,177.5,170,175,180,,180,547.5
1,SBD,Multi-ply,M,No,100,Aleksandr Mikheev,Александр Михеев,1992-01-18,Pro Open,91.6,170,180,-190,,180,100,115,-125,,115,175,185,-190,,185,480
1,SBD,Multi-ply,M,No,140+,Aleksandr Samoylik,Александр Самойлик,1975-06-20,Pro Masters 40-49,155.25,230,-240,245,,245,-220,230,250,,250,220,230,240,,240,735
1,SBD,Multi-ply,F,No,67.5,Anastasiya Loginova,Анастасия Логинова,1998-02-26,Pro Open,61,170,185,-195,,185,70,75,-80,,75,150,165,172.5,,172.5,432.5
1,B,Multi-ply,M,No,75,Aleksandr Klubovich,Александр Клубович,1994-11-25,Pro Open,73.85,,,,,,-240,240,-250,,240,,,,,,240
1,B,Multi-ply,M,No,82.5,Artyom Dyakov,Артём Дъяков,1992-04-04,Pro Open,81.5,,,,,,-280,280,-310,,280,,,,,,280
2,B,Multi-ply,M,No,82.5,Sergey Fedoseev,Сергей Федосеев,1982-01-18,Pro Open,81.35,,,,,,215,-235,-235,,215,,,,,,215
3,B,Multi-ply,M,No,82.5,Aleksandr Grushkovskiy,Александр Грушковский,1987-10-20,Pro Open,81.35,,,,,,180,-190,,,180,,,,,,180
DQ,B,Multi-ply,M,No,82.5,Denis Lubyagin,Денис Лубягин,1994-03-29,Pro Open,76.2,,,,,,-240,,,,,,,,,,
1,B,Multi-ply,M,No,90,Aleksey Sergienko,Алексей Сергиенко,1993-05-25,Pro Open,88.4,,,,,,-200,200,-222.5,,200,,,,,,200
DQ,B,Multi-ply,M,No,90,Aleksandr Yakovlev,Александр Яковлев,1983-06-21,Pro Open,88.25,,,,,,-270,-280,-287.5,,,,,,,,
1,B,Multi-ply,M,No,90,Sergey Kashtanov,Сергей Каштанов,1958-06-27,Pro Masters 60-69,86.15,,,,,,180,-200,-200,,180,,,,,,180
1,B,Multi-ply,M,No,100,Dmitriy Savchenko,Дмитрий Савченко,1981-08-03,Pro Open,97.6,,,,,,190,,,,190,,,,,,190
DQ,B,Multi-ply,M,No,100,Aleksandr Vorobev,Александр Воробьев,1972-03-28,Pro Open,98.35,,,,,,-255,-255,-255,,,,,,,,
1,B,Multi-ply,M,No,110,Ivan Vasyunin,Иван Васюнин,1983-08-01,Pro Open,104.35,,,,,,330,-350,-350,,330,,,,,,330
2,B,Multi-ply,M,No,110,Anatoliy Chumakov,Анатолий Чумаков,1988-03-30,Pro Open,101.45,,,,,,315,-330,-330,,315,,,,,,315
1,B,Multi-ply,M,No,125,Maksim Medvedev,Максим Медведев,1981-05-16,Pro Open,114.9,,,,,,380,-410,-410,,380,,,,,,380
1,B,Multi-ply,M,No,125,Sergey Fefler,Сергей Фефлер,1977-09-12,Pro Masters 40-49,112.75,,,,,,210,222.5,235,,235,,,,,,235
1,B,Multi-ply,F,No,48,Mariya Yadryshnikova,Мария Ядрышникова,2000-02-25,Pro Open,47.56,,,,,,65,-72.5,-75,,65,,,,,,65
1,B,Multi-ply,F,No,52,Viktoriya Pribytkova,Виктория Прибыткова,2001-08-10,Pro Open,50.85,,,,,,130,-145,-155,-155,130,,,,,,130
1,B,Multi-ply,F,No,82.5,Natalya Krasotka,Наталья Красотка,1978-09-27,Pro Masters 40-49,82.3,,,,,,-150,150,-160,-160,150,,,,,,150
1,B,Raw,M,No,60,Oleg Demidenko,Олег Демиденко,1982-07-11,Disabled Open,60,,,,,,90,-95,97.5,,97.5,,,,,,97.5
2,B,Raw,M,No,60,Pavel Klochkov,Павел Клочков,1996-06-27,Disabled Open,57.95,,,,,,20,30,40,,40,,,,,,40
1,B,Raw,M,No,67.5,Konstantin Karpov,Константин Карпов,1988-04-26,Disabled Open,65.2,,,,,,55,-60,60,,60,,,,,,60
1,B,Raw,M,No,75,Danil Yakovlev,Данил Яковлев,1999-11-01,Disabled Open,74.4,,,,,,125,-127.5,130,,130,,,,,,130
1,B,Raw,M,No,82.5,Aleksandr Chagin,Александр Чагин,1984-09-05,Disabled Open,81.15,,,,,,-137.5,-137.5,137.5,,137.5,,,,,,137.5
2,B,Raw,M,No,82.5,Denis Shcherbal,Денис Щербаль,2002-09-01,Disabled Open,81.75,,,,,,70,77.5,-82.5,,77.5,,,,,,77.5
DQ,B,Raw,M,No,82.5,Aleksandr Bessonov,Александр Бессонов,1979-05-14,Disabled Open,79.3,,,,,,-130,,,,,,,,,,
1,B,Raw,M,No,100,Vitaliy Lebedev,Виталий Лебедев,1986-08-12,Disabled Open,98.55,,,,,,150,152.5,157.5,,157.5,,,,,,157.5
1,B,Raw,M,No,140,Denis Gayduchenya,Денис Гайдученя,1980-01-19,Disabled Open,128.5,,,,,,145,152.5,-162.5,,152.5,,,,,,152.5
1,B,Raw,F,No,90+,Natalya Kalugina,Наталья Калугина,1977-03-21,Disabled Open,99.8,,,,,,82.5,85,87.5,,87.5,,,,,,87.5
1,SBD,Raw,M,No,75,Danil Yakovlev,Данил Яковлев,1999-11-01,Disabled Open,74.4,170,175,180,,180,125,-127.5,130,,130,175,180,185,,185,495
