Place,Sex,Name,CyrillicName,BodyweightKg,Country,Squat1Kg,Squat2Kg,Squat3Kg,Best3SquatKg,Squat4Kg,Bench1Kg,Bench2Kg,Bench3Kg,Best3BenchKg,Bench4Kg,Deadlift1Kg,Deadlift2Kg,Deadlift3Kg,Best3DeadliftKg,Deadlift4Kg,TotalKg,WeightClassKg,Event,Equipment,Tested,Division,Age,BirthDate
1,F,Yuliya Degtyareva,Юлия Дегтярева,47.7,Russia,90,95,100,100,,57.5,-60,60,60,,120,127.5,135,135,140,295,48,SBD,Raw,Yes,Open,27,1990-09-08
2,F,Aurika Gavrilova,,47,Latvia,100,-107.5,-107.5,100,,50,-55,-55,50,,110,115,120,120,,270,48,SBD,Raw,Yes,Open,29,1988-06-21
DQ,F,Anna Mamont,Анна Мамонт,47.4,Russia,-80,-85,-85,,,,,,,,,,,,,,48,SBD,Raw,Yes,Open,24,1993-06-11
1,F,Nataliya Yurkovets,Наталия Юрковец,52,Russia,70,75,-77.5,75,,52.5,55,-57.5,55,,90,95,100,100,,230,52,SBD,Raw,Yes,Open,37,1980-09-25
2,F,Vesta Shatilova,Веста Шатилова,51.1,Russia,55,-62.5,-65,55,,27.5,-30,-30,27.5,,65,77.5,82.5,82.5,,165,52,SBD,Raw,Yes,Open,33,1985-01-01
1,F,Mariya Kozlova,Мария Козлова,55.4,Russia,100,107.5,110,110,,72.5,-77.5,-77.5,72.5,,105,112.5,-117.5,112.5,,295,56,SBD,Raw,Yes,Open,33,1984-06-29
2,F,Ekaterina Chernysheva,Екатерина Чернышева,56,Russia,85,95,-100,95,,50,55,-57.5,55,,105,115,125,125,,275,56,SBD,Raw,Yes,Open,42,1976-02-10
1,F,Arina Shtokalo,Арина Штокало,56.9,Russia,60,65,-67.5,65,,35,40,-42.5,40,,80,-90,90,90,,195,60,SBD,Raw,Yes,Juniors 20-23,21,1997-02-09
1,F,Anastasiya Dolgikh,Анастасия Долгих,67.4,Russia,77.5,82.5,87.5,87.5,,45,47.5,50,50,,100,105,110,110,,247.5,67.5,SBD,Raw,Yes,Teen 18-19,18,1999-08-10
1,F,Evgeniya Knyazeva,Евгения Князева,60.7,Russia,80,-90,90,90,,40,45,50,50,,100,110,-115,110,,250,67.5,SBD,Raw,Yes,Juniors 20-23,23,1995-03-24
1,F,Tatyana Mizinova,Татьяна Мизинова,67.5,Russia,80,-87.5,-87.5,80,,-52.5,52.5,57.5,57.5,,85,95,-105,95,,232.5,67.5,SBD,Raw,Yes,Open,27,1991-01-25
1,F,Elena Emelyova,Елена Емелёва,61.8,Russia,-80,80,90,90,,55,57.5,60,60,,105,115,120,120,,270,67.5,SBD,Raw,Yes,Masters 40-44,41,1976-07-11
2,F,Mariya Lyovina,Мария Лёвина,65.75,Russia,85,90,-95,90,,50,-55,55,55,,110,115,120,120,,265,67.5,SBD,Raw,Yes,Masters 40-44,41,1976-07-22
3,F,Natalya Knyazeva,Наталья Князева,63.4,Russia,70,75,-80,75,,40,45,50,50,,115,125,135,135,,260,67.5,SBD,Raw,Yes,Masters 45-49,47,1970-07-16
1,F,Veronika Libina,Вероника Либина,74.1,Russia,95,-100,-100,95,,-45,50,55,55,,110,120,-125,120,,270,75,SBD,Raw,Yes,Juniors 20-23,21,1996-09-06
1,F,Marina Platonova,Марина Платонова,81.4,Russia,-100,100,-110,100,,-60,-60,60,60,,115,130,-140,130,,290,82.5,SBD,Raw,Yes,Open,34,1983-09-24
1,F,Mariya Zotova,Мария Зотова,92.8,Russia,65,70,80,80,,47.5,50,52.5,52.5,,100,110,-115,110,,242.5,90+,SBD,Raw,Yes,Open,29,1988-08-25
1,M,Ilya Tereshchenko,Илья Терещенко,57.1,Russia,85,95,100,100,,57.5,60,62.5,62.5,,112.5,120,-125,120,,282.5,60,SBD,Raw,Yes,Teen 13-15,15,2003-02-06
1,M,Oleg Dvoynikov,Олег Двойников,59.5,Russia,115,-125,125,125,,85,90,,90,,155,165,170,170,,385,60,SBD,Raw,Yes,Open,57,1960-10-08
1,M,Konstantin Sviridov,,65.9,Estonia,-90,-90,90,90,,80,85,87.5,87.5,,120,-150,-170,120,,297.5,67.5,SBD,Raw,Yes,Open,33,1985-04-13
1,M,Andrey Roykhka,Андрей Ройхка,73.6,Russia,100,105,110,110,,70,75,-80,75,,130,135,140,140,,325,75,SBD,Raw,Yes,Teen 16-17,16,2001-06-22
1,M,Aleksey Skobyolkin,Алексей Скобёлкин,72.4,Russia,135,145,-155,145,,77.5,-80,-80,77.5,,165,172.5,182.5,182.5,,405,75,SBD,Raw,Yes,Open,25,1992-10-23
2,M,Vitaliy Alyautdinov,Виталий Аляутдинов,73.4,Russia,-120,120,130,130,,100,-105,105,105,,150,160,170,170,,405,75,SBD,Raw,Yes,Open,28,1990-05-03
1,M,Pavel Filimonov,Павел Филимонов,82,Russia,-145,150,-160,150,,95,100,107.5,107.5,,160,170,-180,170,,427.5,82.5,SBD,Raw,Yes,Teen 18-19,18,1999-09-09
1,M,Nikita Klevin,Никита Клевин,79.9,Russia,150,160,-165,160,,120,125,127.5,127.5,,165,175,182.5,182.5,,470,82.5,SBD,Raw,Yes,Juniors 20-23,22,1995-11-27
1,M,Anton Gryazev,Антон Грязев,82.5,Russia,180,195,-205,195,,125,135,-140,135,,-230,240,250,250,,580,82.5,SBD,Raw,Yes,Open,31,1987-06-05
2,M,Aleksandr Kharchenko,Александр Харченко,81.6,Russia,170,177.5,,177.5,,142.5,147.5,152.5,152.5,,175,185,192.5,192.5,,522.5,82.5,SBD,Raw,Yes,Open,25,1993-04-22
3,M,Egor Chernikov,Егор Черников,80.3,Russia,150,-160,-160,150,,120,-125,125,125,,180,-190,,180,,455,82.5,SBD,Raw,Yes,Open,26,1992-02-06
DQ,M,Oleg Ershov,Олег Ершов,81,Russia,-240,-240,-240,,,,,,,,,,,,,,82.5,SBD,Raw,Yes,Open,27,1991-04-09
DQ,M,Konstantin Karasev,Константин Карасев,81.9,Russia,-152.5,-152.5,-152.5,,,,,,,,,,,,,,82.5,SBD,Raw,Yes,Open,27,1990-06-16
1,M,Nikita Malyshkin,Никита Малышкин,85.9,Russia,150,-162.5,-162.5,150,,130,135,-137.5,135,,210,-220,-220,210,,495,90,SBD,Raw,Yes,Juniors 20-23,22,1995-12-01
DD,M,Aleksey Sheykin,Алексей Шейкин,89.6,Bulgaria,225,235,240,240,,175,180,-185,180,,275,290,300,300,-310,,90,SBD,Raw,Yes,Open,30,1988-03-24
1,M,Dmitriy Chernyshev,Дмитрий Чернышев,89.5,Russia,-200,205,-215,205,,150,157.5,162.5,162.5,,-270,-280,280,280,-305,647.5,90,SBD,Raw,Yes,Open,44,1974-01-22
2,M,Artur Mkhitaryan,Артур Мхитарян,88.2,Russia,195,205,-215,205,,-125,132.5,137.5,137.5,,240,262.5,-270,262.5,,605,90,SBD,Raw,Yes,Open,24,1994-02-12
3,M,Ilya Titov,Илья Титов,88.7,Russia,190,195,-200,195,,145,152.5,-157.5,152.5,,-215,230,240,240,,587.5,90,SBD,Raw,Yes,Open,28,1989-07-22
4,M,Dmitriy Dubkov,Дмитрий Дубков,89.1,Russia,175,-185,195,195,,115,120,125,125,,220,235,255,255,,575,90,SBD,Raw,Yes,Open,38,1980-01-29
5,M,Igor Kuznetsov,Игорь Кузнецов,89.5,Russia,-180,-180,180,180,,140,145,-150,145,,210,-220,-220,210,,535,90,SBD,Raw,Yes,Open,35,1982-08-02
6,M,Andrey Stepanenko,Андрей Степаненко,89.2,Russia,150,157.5,-162.5,157.5,,110,120,-125,120,,155,162.5,167.5,167.5,,445,90,SBD,Raw,Yes,Open,35,1983-05-02
7,M,Ruslan Shabatura,Руслан Шабатура,86.3,Russia,140,-150,-160,140,,90,100,-105,100,,150,160,170,170,,410,90,SBD,Raw,Yes,Open,33,1985-04-20
8,M,Aleksey Tikhonov,Алексей Тихонов,88.7,Russia,100,120,-135,120,,70,85,-90,85,,130,150,160,160,,365,90,SBD,Raw,Yes,Open,31,1986-10-22
DQ,M,Alan Torov,Алан Торов,89,Russia,-160,-170,-172.5,,,,,,,,,,,,,,90,SBD,Raw,Yes,Open,24,1994-02-27
1,M,Andrey Yuroev,Андрей Юроев,98.9,Russia,230,-242.5,-245,230,,160,172.5,180,180,,250,265,-275,265,,675,100,SBD,Raw,Yes,Open,37,1980-10-30
2,M,Aleksandr Vagushov,Александр Вагушов,96.9,Russia,-200,210,-220,210,,-140,150,-160,150,,220,-235,235,235,,595,100,SBD,Raw,Yes,Open,35,1983-03-17
3,M,Dmitriy Vasilev,Дмитрий Васильев,92.1,Russia,190,200,205,205,,120,-127.5,130,130,,220,232.5,240,240,,575,100,SBD,Raw,Yes,Open,36,1982-05-01
4,M,Vadim Abramov,Вадим Абрамов,95.4,Russia,175,-185,,175,,132.5,-137.5,137.5,137.5,,225,-230,,225,,537.5,100,SBD,Raw,Yes,Open,25,1992-06-17
5,M,Andrey Ilin,Андрей Ильин,98.1,Russia,185,-195,-195,185,,120,130,-135,130,,200,210,220,220,,535,100,SBD,Raw,Yes,Open,30,1988-03-13
6,M,Sergey Tikhomirov,Сергей Тихомиров,98.5,Russia,170,180,185,185,,120,130,135,135,,180,190,200,200,,520,100,SBD,Raw,Yes,Open,34,1984-03-12
DQ,M,Ilya Nefedov,Илья Нефедов,99.6,Russia,-220,-220,-220,,,,,,,,,,,,,,100,SBD,Raw,Yes,Masters 45-49,46,1972-05-25
1,M,Maksim Timofeev,Максим Тимофеев,105.6,Russia,150,160,170,170,,117.5,125,-130,125,,180,190,200,200,,495,110,SBD,Raw,Yes,Teen 18-19,18,1999-11-14
1,M,Mikhail Anchukov,Михаил Анчуков,107.45,Russia,165,175,-180,175,,110,120,125,125,,185,-200,205,205,,505,110,SBD,Raw,Yes,Open,31,1987-03-11
1,M,Anton Bukhman,Антон Бухман,111.8,Russia,260,277.5,-285,277.5,,180,197.5,-210,197.5,,275,295,-305,295,,770,125,SBD,Raw,Yes,Open,29,1988-08-22
1,F,Natalya Bogacheva,Наталья Богачева,47.2,Russia,70,77.5,82.5,82.5,,40,42.5,-45,42.5,,115,122.5,126,126,128.5,251,48,SBD,Raw,No,Open,33,1985-02-09
1,F,Yuliya Filant,Юлия Филант,56,Russia,-82.5,-82.5,82.5,82.5,,50,52.5,55,55,57.5,120,131,-135,131,,268.5,56,SBD,Raw,No,Open,50,1967-10-11
DQ,F,Kseniya Zhalnina,Ксения Жалнина,53.85,Russia,62.5,67.5,-75,67.5,,-52.5,-52.5,-52.5,,,,,,,,,56,SBD,Raw,No,Open,36,1982-02-17
1,F,Mariya Onishchenko,Мария Онищенко,61.1,Russia,65,70,-80,70,,45,47.5,50,50,,95,102.5,107.5,107.5,,227.5,67.5,SBD,Raw,No,Open,27,1990-09-18
1,F,Viktoriya Doga,Виктория Дога,74.1,Russia,135,142.5,147.5,147.5,,102.5,107.5,111,111,-112.5,175,-190,190,190,196,448.5,75,SBD,Raw,No,Open,35,1982-09-04
DQ,F,Elishba Kinder,,86.8,India,-90,-90,-90,,,,,,,,,,,,,,90,SBD,Raw,No,Teen 18-19,18,1999-07-22
1,M,Rohit Mathur,,61.5,India,120,-130,-130,120,,90,-95,-95,90,,120,140,-150,140,,350,67.5,SBD,Raw,No,Juniors 20-23,20,1997-10-03
1,M,Ernest Ruzin,,62.6,Israel,-115,115,130,130,,67.5,72.5,,72.5,,155,165,170,170,,372.5,67.5,SBD,Raw,No,Masters 80+,80,1937-06-20
DQ,M,Prince Pathak,,74.4,India,-130,-130,-130,,,,,,,,,,,,,,75,SBD,Raw,No,Open,30,1987-10-01
1,M,Vadim Sokolnikov,Вадим Сокольников,82.4,Russia,155,162.5,165,165,,115,-120,-120,115,,220,227.5,-230,227.5,,507.5,82.5,SBD,Raw,No,Open,29,1988-12-17
1,M,Aleksey Sheykin,Алексей Шейкин,89.6,Bulgaria,225,235,240,240,,175,180,-185,180,,275,290,300,300,-310,720,90,SBD,Raw,No,Open,30,1988-03-24
2,M,Dmitriy Timofeev,Дмитрий Тимофеев,89.15,Russia,225,235,-245,235,,160,170,180,180,,275,,,275,,690,90,SBD,Raw,No,Open,31,1987-02-21
3,M,Roman Malyshev,Роман Малышев,89.3,Russia,200,-210,210,210,,160,170,180,180,,230,240,250,250,,640,90,SBD,Raw,No,Open,39,1978-08-20
4,M,Vadim Mednikov,Вадим Медников,88.7,Russia,210,220,230,230,,140,150,-152.5,150,,220,230,240,240,,620,90,SBD,Raw,No,Open,25,1993-02-15
1,M,Nikolay Ryakhin,Николай Ряхин,87.3,Russia,150,-165,165,165,,115,120,122.5,122.5,,190,200,212.5,212.5,,500,90,SBD,Raw,No,Masters 50-54,53,1965-01-25
2,M,Gennadiy Grigorev,Геннадий Григорьев,84.5,Russia,-150,150,-160,150,,125,132.5,-137.5,132.5,,140,150,165,165,,447.5,90,SBD,Raw,No,Masters 50-54,50,1967-11-27
DQ,M,Dmitriy Vasilev,Дмитрий Васильев,92.1,Russia,-170,,,,,-110,,,,,-190,,,,,,100,SBD,Raw,No,Open,36,1982-05-01
1,M,Roman Shcherbakov,Роман Щербаков,99.4,Russia,190,200,205,205,,135,140,145,145,,215,225,230,230,,580,100,SBD,Raw,No,Masters 45-49,47,1970-12-19
2,M,Oleg Alyushinskiy,Олег Алюшинский,97.55,Russia,170,180,190,190,,145,152.5,-160,152.5,,200,215,225,225,,567.5,100,SBD,Raw,No,Masters 40-44,41,1977-04-28
3,M,Kumar Ashish,,94.8,India,120,130,140,140,,150,160,165,165,,170,180,190,190,,495,100,SBD,Raw,No,Masters 40-44,42,1976-03-05
DQ,M,Igor Zavalnyuk,Игорь Завальнюк,91.1,Russia,-200,-200,-200,,,,,,,,,,,,,,100,SBD,Raw,No,Masters 50-54,54,1964-03-21
1,M,Hritik Sehrawat,,103.5,India,100,-110,110,110,,80,85,-90,85,,130,140,150,150,,345,110,SBD,Raw,No,Teen 16-17,17,2000-06-20
1,M,Denis Degtyar,Денис Дегтярь,104.25,Russia,230,245,260,260,,170,-185,-185,170,,-315,315,-330,315,,745,110,SBD,Raw,No,Open,36,1981-06-24
1,M,Yuriy Anikeev,Юрий Аникеев,107.2,Russia,205,-210,-210,205,,130,135,-137.5,135,,220,-230,-230,220,,560,110,SBD,Raw,No,Masters 40-44,40,1977-11-15
1,M,Amarjeet Singh,,104.4,India,-120,120,130,130,,120,130,-135,130,,140,150,160,160,,420,110,SBD,Raw,No,Masters 50-54,54,1963-11-27
1,M,Nikolay Minin,Николай Минин,117.25,Russia,220,230,240,240,,210,217.5,-222.5,217.5,,280,300,-310,300,,757.5,125,SBD,Raw,No,Open,28,1989-07-03
1,M,Maksim Bezinskikh,Максим Безинских,136.75,Russia,-240,240,255,255,,185,195,200,200,,240,255,262.5,262.5,,717.5,140,SBD,Raw,No,Open,32,1986-05-18
1,F,Anastasiya Granova,Анастасия Гранова,55.7,Russia,65,70,-75,70,,40,42.5,-45,42.5,,90,100,107.5,107.5,,220,56,SBD,Wraps,Yes,Open,31,1987-03-29
1,F,Svetlana Ershova,Светлана Ершова,70.7,Russia,112.5,117.5,120,120,,52.5,-57.5,-57.5,52.5,,120,130,,130,,302.5,75,SBD,Wraps,Yes,Open,38,1980-01-15
1,M,Georgiy Tims,Георгий Тимс,72,Russia,160,170,-175,170,,125,-130,-130,125,,170,180,-185,180,,475,75,SBD,Wraps,Yes,Open,30,1988-05-21
DQ,M,Denis Nikolaev,Денис Николаев,72.5,Russia,-200,-200,-200,,,-110,,,,,-220,,,,,,75,SBD,Wraps,Yes,Open,26,1991-07-15
1,M,Dmitriy Yaskevich,Дмитрий Яскевич,81.15,Russia,185,195,-200,195,,110,-115,-115,110,,210,220,-230,220,,525,82.5,SBD,Wraps,Yes,Juniors 20-23,21,1997-01-24
1,M,Dmitriy Tretyakov,Дмитрий Третьяков,78.6,Russia,200,210,-220,210,,137.5,142.5,145,145,,-230,240,250,250,,605,82.5,SBD,Wraps,Yes,Open,35,1983-01-27
1,M,Aleksandr Mikhaylov,Александр Михайлов,81.5,Russia,-95,95,-100,95,,80,85,-87.5,85,,110,120,125,125,,305,82.5,SBD,Wraps,Yes,Masters 55-59,59,1958-12-09
1,M,Maksim Balabaev,Максим Балабаев,88.25,Russia,155,165,-175,165,,90,97.5,102.5,102.5,,150,165,175,175,,442.5,90,SBD,Wraps,Yes,Teen 16-17,17,2001-05-15
1,M,Dmitriy Mikhaylov,Дмитрий Михайлов,89.3,Russia,230,240,-250,240,,140,145,,145,,230,240,250,250,,635,90,SBD,Wraps,Yes,Open,34,1984-05-23
1,M,Ivan Zotov,Иван Зотов,96.8,Russia,200,210,220,220,,150,157.5,162.5,162.5,,210,220,230,230,,612.5,100,SBD,Wraps,Yes,Open,33,1984-09-27
2,M,Evgeniy Pakhomov,Евгений Пахомов,92.6,Russia,170,190,-215,190,,110,117.5,122.5,122.5,,180,195,202.5,202.5,,515,100,SBD,Wraps,Yes,Open,28,1990-05-06
1,M,Daniil Katin,Даниил Катин,104.3,Russia,-225,225,-235,225,,125,-132.5,-132.5,125,,260,270,,270,,620,110,SBD,Wraps,Yes,Teen 18-19,18,1999-08-24
1,M,Nikita Tulyakov,Никита Туляков,110.4,Russia,225,235,245,245,,167.5,175,182.5,182.5,,250,270,285,285,,712.5,125,SBD,Wraps,Yes,Open,30,1988-02-23
2,M,Dmitriy Ivanov,Дмитрий Иванов,114.15,Russia,225,240,255,255,,165,177.5,185,185,,225,237.5,250,250,,690,125,SBD,Wraps,Yes,Open,26,1992-06-01
1,F,Yuliya Sayfullina,Юлия Сайфуллина,59.65,Russia,120,130,-132.5,130,,62.5,-67.5,-67.5,62.5,,135,145,-155,145,,337.5,60,SBD,Wraps,No,Open,33,1985-03-25
DQ,F,Taisiya Smirnova,Таисия Смирнова,57.7,Russia,-120,-125,-125,,,,,,,,,,,,,,60,SBD,Wraps,No,Open,29,1988-07-09
1,M,Artyom Tretyakov,Артём Третьяков,42,Russia,35,40,47.5,47.5,,25,30,-35,30,,65,70,-75,70,,147.5,52,SBD,Wraps,No,Teen 13-15,13,2005-04-24
1,M,Sergey Smirnov,Сергей Смирнов,82.5,Russia,280,292.5,300,300,,170,180,-185,180,,290,-300,-300,290,,770,82.5,SBD,Wraps,No,Open,29,1988-06-29
2,M,Ruslan Tavtilov,Руслан Тавтилов,81.85,Russia,210,-220,230,230,,135,140,-145,140,,230,-250,250,250,,620,82.5,SBD,Wraps,No,Open,38,1980-02-26
3,M,Maksim Kalinin,Максим Калинин,81.3,Russia,-220,220,230,230,,135,142.5,-150,142.5,,220,235,-247.5,235,,607.5,82.5,SBD,Wraps,No,Open,31,1987-03-29
1,M,Nikolay Altunin,Николай Алтунин,79.75,Russia,230,237.5,-242.5,237.5,,147.5,152.5,-155,152.5,,240,250,-260,250,,640,82.5,SBD,Wraps,No,Masters 40-44,40,1977-07-24
1,M,Sergey Novikov,Сергей Новиков,90,Russia,220,240,-260,240,,150,155,-160,155,,230,245,-257.5,245,,640,90,SBD,Wraps,No,Open,30,1987-10-26
2,M,Stanislav Lebedev,Станислав Лебедев,87.15,Russia,-190,-190,190,190,,130,-140,-140,130,,200,215,225,225,,545,90,SBD,Wraps,No,Open,32,1986-01-30
3,M,Aleksandr Bazylev,Александр Базылев,89.55,Russia,-150,-150,150,150,,110,-120,120,120,,160,175,-180,175,,445,90,SBD,Wraps,No,Open,38,1980-05-14
1,M,Sergey Lukyanov,Сергей Лукьянов,94.15,Russia,265,275,285,285,,175,185,190,190,,320,335,345,345,,820,100,SBD,Wraps,No,Open,32,1986-06-02
2,M,Sergey Zolotov,Сергей Золотов,97.15,Russia,-230,230,240,240,,130,140,145,145,,235,245,250,250,,635,100,SBD,Wraps,No,Open,26,1991-11-13
3,M,Andrey Mameshin,Андрей Мамешин,94.9,Russia,-205,212.5,220,220,,152.5,160,167.5,167.5,,240,-250,-250,240,,627.5,100,SBD,Wraps,No,Open,30,1988-02-17
4,M,Sergey Evdokimov,Сергей Евдокимов,96.8,Russia,180,190,195,195,,,140,145,145,,-230,230,237.5,237.5,,577.5,100,SBD,Wraps,No,Open,25,1992-06-24
1,M,Sergey Mishchenko,Сергей Мищенко,106.9,Ukraine,290,-305,-312.5,290,,155,162.5,,162.5,,270,285,-292.5,285,,737.5,110,SBD,Wraps,No,Open,29,1988-07-21
2,M,Maksim Pyatygin,Максим Пятыгин,102.65,Russia,230,-245,250,250,,140,150,-155,150,,250,260,-270,260,,660,110,SBD,Wraps,No,Open,28,1989-08-20
DQ,M,Eduard Maksimov,Эдуард Максимов,105.9,Russia,250,265,-275,265,,195,200,-205,200,,-255,-255,-255,,,,110,SBD,Wraps,No,Open,46,1971-11-20
DQ,M,Eduard Maksimov,Эдуард Максимов,105.9,Russia,250,265,-275,265,,195,200,-205,200,,-255,-255,-255,,,,110,SBD,Wraps,No,Masters 45-49,46,1971-11-20
1,M,Dmitriy Ivanov,Дмитрий Иванов,122.1,Russia,280,-300,-307.5,280,,180,190,195,195,,270,285,-297.5,285,,760,125,SBD,Wraps,No,Open,29,1989-02-08
2,M,Aleksandr Merkulov,Александр Меркулов,123.1,Russia,270,285,300,300,,160,-167.5,167.5,167.5,,255,270,282.5,282.5,,750,125,SBD,Wraps,No,Open,34,1984-02-10
DQ,M,Aleksandr Komkov,Александр Комков,114.8,Russia,-320,320,330,330,,-210,-210,-210,,,,,,,,,125,SBD,Wraps,No,Open,34,1983-11-26
1,M,Anton Kostelov,Антон Костелов,113.3,Russia,242.5,255,265,265,,152.5,162.5,170,170,,240,-247.5,-250,240,,675,125,SBD,Wraps,No,Masters 45-49,47,1971-03-07
DQ,M,Filipp Zhulev,Филипп Жульев,128.5,Russia,-275,-275,-275,,,,,,,,,,,,,,140,SBD,Wraps,No,Open,33,1984-09-26
1,F,Olga Tyurina,Ольга Тюрина,67.5,Russia,150,155,-160,155,,115,-120,-120,115,,130,-140,,130,,400,67.5,SBD,Wraps,Yes,Masters 40-44,40,1977-12-09
DQ,M,Roman Durnov,Роман Дурнов,74.7,Russia,-250,-250,-270,,,,,,,,,,,,,,75,SBD,Wraps,Yes,Open,31,1986-09-23
1,M,Pavel Zalov,Павел Залов,100.5,Russia,220,240,250,250,,165,175,182.5,182.5,,-220,220,240,240,,672.5,110,SBD,Wraps,No,Juniors 20-23,21,1996-09-13
1,F,Ekaterina Lutchenko,Екатерина Лутченко,73,Russia,,,,,,50,52.5,-55,52.5,,145,-150,-150,145,,197.5,75,BD,Raw,Yes,Open,34,1984-04-02
DD,M,Oleg Ershov,Олег Ершов,81,Russia,,,,,,155,162.5,167.5,167.5,,245,262.5,270,270,,,82.5,BD,Raw,Yes,Open,27,1991-04-09
1,M,Aleksandr Leonov,Александр Леонов,81.7,Russia,,,,,,120,125,130,130,,200,-210,,200,,330,82.5,BD,Raw,Yes,Open,25,1992-06-15
DD,M,Aleksey Sheykin,Алексей Шейкин,89.6,Bulgaria,,,,,,175,180,-185,180,,275,290,300,300,-310,,90,BD,Raw,Yes,Open,30,1988-03-24
1,M,Sergey Abrosimov,Сергей Абросимов,84.5,Russia,,,,,,130,135,137.5,137.5,,210,220,230,230,,367.5,90,BD,Raw,Yes,Open,33,1985-06-04
2,M,Evgeniy Dmitrik,Евгений Дмитрик,86.9,Russia,,,,,,132.5,135,,135,,190,200,,200,,335,90,BD,Raw,Yes,Open,37,1980-08-23
DQ,M,Alan Torov,Алан Торов,89,Russia,,,,,,-135,-142.5,-142.5,,,,,,,,,90,BD,Raw,Yes,Open,24,1994-02-27
1,M,Ilya Nefedov,Илья Нефедов,99.6,Russia,,,,,,140,145,147.5,147.5,,240,260,265,265,,412.5,100,BD,Raw,Yes,Open,46,1972-05-25
1,M,Evgeniy Yaroshko,Евгений Ярошко,107.1,Russia,,,,,,145,155,-157.5,155,,265,282.5,,282.5,,437.5,110,BD,Raw,Yes,Open,33,1984-07-29
1,M,Nikita Tulyakov,Никита Туляков,110.4,Russia,,,,,,167.5,175,182.5,182.5,,250,270,285,285,,467.5,125,BD,Raw,Yes,Open,30,1988-02-23
1,F,Elishba Kinder,,86.8,India,,,,,,40,50,55,55,,100,110,120,120,,175,90,BD,Raw,No,Teen 18-19,18,1999-07-22
1,M,Rohit Mathur,,61.5,India,,,,,,90,-95,-95,90,,120,140,-150,140,,230,67.5,BD,Raw,No,Juniors 20-23,20,1997-10-03
1,M,Prince Pathak,,74.4,India,,,,,,-80,80,90,90,,110,120,125,125,,215,75,BD,Raw,No,Open,30,1987-10-01
1,M,Aleksey Sheykin,Алексей Шейкин,89.6,Bulgaria,,,,,,175,180,-185,180,,275,290,300,300,-310,480,90,BD,Raw,No,Open,30,1988-03-24
2,M,Igor Guseynov,Игорь Гусейнов,88,Russia,,,,,,185,190,-195,190,,240,260,-280,260,,450,90,BD,Raw,No,Open,30,1988-05-06
1,M,Fedor Laevskiy,Федор Лаевский,88.7,Russia,,,,,,120,127.5,-130,127.5,,190,-195,,190,,317.5,90,BD,Raw,No,Masters 50-54,50,1968-01-07
1,M,Kumar Ashish,,94.8,India,,,,,,150,160,165,165,,170,180,190,190,,355,100,BD,Raw,No,Masters 40-44,42,1976-03-05
1,M,Hritik Sehrawat,,103.5,India,,,,,,80,85,-90,85,,130,140,150,150,,235,110,BD,Raw,No,Teen 16-17,17,2000-06-20
1,M,Amarjeet Singh,,104.4,India,,,,,,120,130,-135,130,,140,150,160,160,,290,110,BD,Raw,No,Masters 50-54,54,1963-11-27
1,M,Andrey Kolesnikov,Андрей Колесников,124.55,Russia,,,,,,212.5,217.5,222.5,222.5,,290,-305,-305,290,,512.5,125,BD,Raw,No,Open,36,1982-01-19
1,M,Filipp Zhulev,Филипп Жульев,128.5,Russia,,,,,,170,,,170,,300,,,300,,470,140,BD,Raw,No,Open,33,1984-09-26
1,F,Anastasiya Vasileva,Анастасия Васильева,43.1,Russia,50,60,-65,60,,,,,,,,,,,,60,44,S,Raw,Yes,Open,27,1990-07-19
1,F,Anastasiya Kulikova,Анастасия Куликова,59.9,Russia,90,-95,95,95,,,,,,,,,,,,95,60,S,Raw,Yes,Open,25,1992-08-15
1,F,Anna Stepanova,Анна Степанова,61.8,Russia,60,-65,70,70,,,,,,,,,,,,70,67.5,S,Raw,Yes,Masters 60-64,61,1957-02-15
1,M,Aleksandr Khorkov,Александр Хорьков,78,Russia,140,-165,-165,140,,,,,,,,,,,,140,82.5,S,Raw,Yes,Teen 18-19,19,1999-01-15
1,M,Aleksey Leshchyov,Алексей Лещёв,81.5,Russia,-140,-140,140,140,,,,,,,,,,,,140,82.5,S,Raw,Yes,Open,29,1989-04-20
DQ,M,Anton Gvozdikin,Антон Гвоздикин,88.6,Russia,-180,-180,-180,,,,,,,,,,,,,,90,S,Raw,Yes,Open,27,1990-08-24
1,M,Vitaliy Gnatko,Виталий Гнатко,95.55,Russia,190,200,210,210,,,,,,,,,,,,210,100,S,Raw,No,Masters 55-59,56,1961-07-30
1,M,Aleksandr Ionel,Александр Ионел,74.1,Russia,160,-190,190,190,,,,,,,,,,,,190,75,S,Wraps,Yes,Open,26,1992-04-25
1,M,Dmitriy Tretyakov,Дмитрий Третьяков,78.6,Russia,200,210,-220,210,,,,,,,,,,,,210,82.5,S,Wraps,Yes,Open,35,1983-01-27
1,M,Sergey Luchinskiy,Сергей Лучинский,98.7,Russia,-250,250,262.5,262.5,,,,,,,,,,,,262.5,100,S,Wraps,No,Open,36,1981-11-12
1,M,Sergey Mishchenko,Сергей Мищенко,106.9,Ukraine,290,-305,-312.5,290,,,,,,,,,,,,290,110,S,Wraps,No,Open,29,1988-07-21
1,M,Aleksandr Komkov,Александр Комков,114.8,Russia,-320,320,330,330,,,,,,,,,,,,330,125,S,Wraps,No,Open,34,1983-11-26
1,F,Viktoriya Shmonina,Виктория Шмонина,47.6,Russia,,,,,,57.5,60,-62.5,60,,,,,,,60,48,B,Raw,Yes,Teen 18-19,18,1999-07-21
1,F,Elena Shushkova,Елена Шушкова,47.7,Russia,,,,,,-55,55,-57.5,55,,,,,,,55,48,B,Raw,Yes,Open,29,1989-04-02
2,F,Ekaterina Busova,Екатерина Бусова,47.2,Russia,,,,,,40,-45,-45,40,,,,,,,40,48,B,Raw,Yes,Open,38,1980-02-13
1,F,Tatyana Grosheva,Татьяна Грошева,46.75,Russia,,,,,,37.5,-40,40,40,,,,,,,40,48,B,Raw,Yes,Masters 45-49,47,1971-01-06
1,F,Anna Gulyaeva,Анна Гуляева,51.5,Russia,,,,,,62.5,67.5,-70,67.5,,,,,,,67.5,52,B,Raw,Yes,Open,31,1987-02-24
2,F,Olga Nikolaeva,Ольга Николаева,52,Russia,,,,,,55,57.5,-60,57.5,,,,,,,57.5,52,B,Raw,Yes,Open,27,1990-08-11
1,F,Ekaterina Kolotova,Екатерина Колотова,55.5,Russia,,,,,,40,45,-50,45,,,,,,,45,56,B,Raw,Yes,Teen 16-17,17,2001-02-18
1,F,Mariya Kozlova,Мария Козлова,55.4,Russia,,,,,,72.5,-77.5,-77.5,72.5,,,,,,,72.5,56,B,Raw,Yes,Open,33,1984-06-29
2,F,Tatyana Belousova,Татьяна Белоусова,55.5,Russia,,,,,,50,52.5,-55,52.5,,,,,,,52.5,56,B,Raw,Yes,Open,28,1990-02-03
3,F,Svetlana Nikulenkova,Светлана Никуленкова,53.8,Russia,,,,,,37.5,42.5,47.5,47.5,,,,,,,47.5,56,B,Raw,Yes,Open,31,1987-01-29
DQ,F,Tatyana Pantyukhova,Татьяна Пантюхова,56,Russia,,,,,,-62.5,-62.5,-62.5,,,,,,,,,56,B,Raw,Yes,Open,25,1992-07-07
1,F,Viktoriya Bryakkieva,Виктория Бряккиева,59.4,Russia,,,,,,57.5,62.5,65,65,,,,,,,65,60,B,Raw,Yes,Open,36,1981-07-26
1,F,Tatyana Kharitonova,Татьяна Харитонова,58.4,Russia,,,,,,62.5,67.5,70,70,,,,,,,70,60,B,Raw,Yes,Masters 40-44,42,1976-05-09
1,F,Olga Gurevich,Ольга Гуревич,64,Russia,,,,,,57.5,60,-65,60,,,,,,,60,67.5,B,Raw,Yes,Open,33,1985-02-21
1,F,Mariya Vinogradova,Мария Виноградова,64.7,Russia,,,,,,-60,65,-70,65,,,,,,,65,67.5,B,Raw,Yes,Masters 40-44,42,1975-08-01
2,F,Elena Dmitrieva,Елена Дмитриева,66.7,Russia,,,,,,57.5,62.5,-65,62.5,,,,,,,62.5,67.5,B,Raw,Yes,Masters 40-44,43,1974-11-03
3,F,Mariya Lyovina,Мария Лёвина,65.75,Russia,,,,,,50,-55,55,55,,,,,,,55,67.5,B,Raw,Yes,Masters 40-44,41,1976-07-22
1,F,Anastasiya Lisenkova,Анастасия Лисенкова,73.4,Russia,,,,,,-47.5,47.5,50,50,,,,,,,50,75,B,Raw,Yes,Teen 16-17,16,2002-05-15
1,F,Natalya Ogryzko,Наталья Огрызько,69.75,Russia,,,,,,102.5,-105,,102.5,,,,,,,102.5,75,B,Raw,Yes,Open,42,1975-07-12
2,F,Violetta Ukhanova,Виолетта Уханова,71.7,Russia,,,,,,62.5,65,-67.5,65,,,,,,,65,75,B,Raw,Yes,Open,33,1984-12-09
1,M,Aleksey Kolisnichenko,Алексей Колисниченко,49.1,Russia,,,,,,105,-107.5,,105,,,,,,,105,52,B,Raw,Yes,Juniors 20-23,23,1994-07-14
1,M,Nikolay Skripko,Николай Скрипко,58.5,Russia,,,,,,60,65,67.5,67.5,,,,,,,67.5,60,B,Raw,Yes,Teen 16-17,17,2001-06-09
1,M,Alizhan Eshchanov,Алижан Ешчанов,59.5,Russia,,,,,,75,80,85,85,,,,,,,85,60,B,Raw,Yes,Masters 40-44,43,1974-08-25
1,M,Viktor Zheludko,Виктор Желудко,63.2,Russia,,,,,,100,107.5,-112.5,107.5,,,,,,,107.5,67.5,B,Raw,Yes,Open,28,1990-05-05
2,M,Dmitriy Vikhrov,Дмитрий Вихров,61.45,Russia,,,,,,100,-105,-107.5,100,,,,,,,100,67.5,B,Raw,Yes,Open,27,1990-06-20
1,M,Daniil Raevskiy,Даниил Раевский,73.85,Russia,,,,,,90,-100,-100,90,,,,,,,90,75,B,Raw,Yes,Teen 16-17,16,2001-11-16
1,M,Viktor Bondarenko,Виктор Бондаренко,69.3,Russia,,,,,,85,90,95,95,,,,,,,95,75,B,Raw,Yes,Teen 18-19,18,1999-12-02
1,M,Dmitriy Lukin,Дмитрий Лукин,75,Russia,,,,,,110,117.5,-120,117.5,,,,,,,117.5,75,B,Raw,Yes,Juniors 20-23,21,1996-08-21
1,M,Arutyun Sargsyan,Арутюн Саргсян,75,Russia,,,,,,150,155,-160,155,,,,,,,155,75,B,Raw,Yes,Open,34,1983-12-06
2,M,Igor Kruzman,Игорь Крузман,73.45,Russia,,,,,,135,145,,145,,,,,,,145,75,B,Raw,Yes,Open,28,1989-12-06
3,M,Oleg Semibratov,Олег Семибратов,74.6,Russia,,,,,,120,135,140,140,,,,,,,140,75,B,Raw,Yes,Open,27,1991-04-22
4,M,Vache Karapetyan,Ваче Карапетян,74.4,Russia,,,,,,120,135,-140,135,,,,,,,135,75,B,Raw,Yes,Open,28,1990-06-01
5,M,Yaroslav Rak,Ярослав Рак,73.5,Russia,,,,,,120,125,130,130,,,,,,,130,75,B,Raw,Yes,Open,32,1986-04-09
6,M,Artyom Bornyakov,Артём Борняков,73.9,Russia,,,,,,120,-125,-125,120,,,,,,,120,75,B,Raw,Yes,Open,28,1989-10-18
1,M,Sergey Toming,Сергей Томинг,72.2,Russia,,,,,,-125,125,-127.5,125,,,,,,,125,75,B,Raw,Yes,Masters 45-49,49,1968-12-09
1,M,Vladimir Orlov,Владимир Орлов,68,Russia,,,,,,-70,70,75,75,,,,,,,75,75,B,Raw,Yes,Masters 55-59,59,1959-01-18
1,M,Evgeniy Tseyklin,Евгений Цейклин,75.45,Russia,,,,,,100,105,-110,105,,,,,,,105,82.5,B,Raw,Yes,Teen 16-17,17,2000-09-17
2,M,Maksim Osokin,Максим Осокин,81,Russia,,,,,,90,-95,-95,90,,,,,,,90,82.5,B,Raw,Yes,Teen 16-17,17,2001-03-22
1,M,Akzholtoy Ramatov,Акжолтой Раматов,81.65,Russia,,,,,,175,-180,-180,175,,,,,,,175,82.5,B,Raw,Yes,Juniors 20-23,22,1996-03-29
2,M,Nikita Klevin,Никита Клевин,79.9,Russia,,,,,,127.5,,,127.5,,,,,,,127.5,82.5,B,Raw,Yes,Juniors 20-23,22,1995-11-27
3,M,Ilya Zakharov,Илья Захаров,80,Russia,,,,,,95,102.5,-112.5,102.5,,,,,,,102.5,82.5,B,Raw,Yes,Juniors 20-23,20,1998-01-11
1,M,Akzholtoy Ramatov,Акжолтой Раматов,81.65,Russia,,,,,,175,-180,-180,175,,,,,,,175,82.5,B,Raw,Yes,Open,22,1996-03-29
2,M,Aleksandr Vladimirov,Александр Владимиров,76.8,Russia,,,,,,150,160,167.5,167.5,,,,,,,167.5,82.5,B,Raw,Yes,Open,36,1982-02-06
3,M,Sergey Biryukov #2,Сергей Бирюков,81.85,Russia,,,,,,160,162.5,-167.5,162.5,,,,,,,162.5,82.5,B,Raw,Yes,Open,36,1982-01-10
4,M,Aleksandr Kireev,Александр Киреев,81.2,Russia,,,,,,150,152.5,-155,152.5,,,,,,,152.5,82.5,B,Raw,Yes,Open,30,1988-01-20
5,M,Evgeniy Sorokin,Евгений Сорокин,81,Russia,,,,,,150,-155,-155,150,,,,,,,150,82.5,B,Raw,Yes,Open,41,1977-02-11
6,M,Evgeniy Yurshin,Евгений Юршин,81.8,Russia,,,,,,135,142.5,-145,142.5,,,,,,,142.5,82.5,B,Raw,Yes,Open,29,1989-05-01
7,M,Evgeniy Klyukvin,Евгений Клюквин,79.7,Russia,,,,,,135,140,-145,140,,,,,,,140,82.5,B,Raw,Yes,Open,36,1981-07-04
8,M,Aleksandr Soldatov,Александр Солдатов,77.25,Russia,,,,,,135,-145,,135,,,,,,,135,82.5,B,Raw,Yes,Open,30,1987-06-28
9,M,Aleksey Grobovoy,Алексей Гробовой,78,Russia,,,,,,120,127.5,135,135,,,,,,,135,82.5,B,Raw,Yes,Open,31,1987-05-02
10,M,Dmitriy Yukhlov,Дмитрий Юхлов,80.9,Russia,,,,,,127.5,-132.5,132.5,132.5,,,,,,,132.5,82.5,B,Raw,Yes,Open,31,1987-03-13
11,M,Dzhamshid Sidikov,Джамшид Сидиков,81.2,Russia,,,,,,127.5,132.5,-137.5,132.5,,,,,,,132.5,82.5,B,Raw,Yes,Open,31,1986-10-24
12,M,Artem Ilyazov,Артем Ильязов,79.2,Russia,,,,,,120,127.5,130,130,,,,,,,130,82.5,B,Raw,Yes,Open,27,1990-08-22
13,M,Igor Khristoforov,Игорь Христофоров,79.6,Russia,,,,,,122.5,-127.5,-127.5,122.5,,,,,,,122.5,82.5,B,Raw,Yes,Open,32,1985-08-29
14,M,Vitaliy Chechkin,Виталий Чечкин,79.6,Russia,,,,,,102.5,112.5,-120,112.5,,,,,,,112.5,82.5,B,Raw,Yes,Open,33,1985-01-13
DQ,M,Roman Erukhanov,Роман Еруханов,76.5,Russia,,,,,,-145,-145,-145,,,,,,,,,82.5,B,Raw,Yes,Open,26,1991-07-02
1,M,Sergey Mukhin,Сергей Мухин,80.4,Russia,,,,,,140,145,150,150,,,,,,,150,82.5,B,Raw,Yes,Masters 45-49,47,1971-01-01
2,M,Evgeniy Sorokin,Евгений Сорокин,81,Russia,,,,,,150,-155,-155,150,,,,,,,150,82.5,B,Raw,Yes,Masters 40-44,41,1977-02-11
3,M,Ruslan Stepanov,Руслан Степанов,81.5,Russia,,,,,,127.5,-130,130,130,,,,,,,130,82.5,B,Raw,Yes,Masters 40-44,40,1978-04-06
4,M,Aleksandr Sidorov,Александр Сидоров,81.3,Russia,,,,,,100,105,-107.5,105,,,,,,,105,82.5,B,Raw,Yes,Masters 40-44,44,1973-07-30
DD,M,Aleksandr Smirnov,Александр Смирнов,89.1,Russia,,,,,,175,185,-190,185,,,,,,,,90,B,Raw,Yes,Open,31,1987-02-17
1,M,Evgeniy Makarenko,Евгений Макаренко,90,Russia,,,,,,175,-180,180,180,,,,,,,180,90,B,Raw,Yes,Open,37,1980-09-21
2,M,Aleksandr Petrov,Александр Петров,88.8,Russia,,,,,,155,162.5,-167.5,162.5,,,,,,,162.5,90,B,Raw,Yes,Open,34,1984-03-03
3,M,Dmitriy Shershavkin,Дмитрий Шершавкин,85.1,Russia,,,,,,135,145,-152.5,145,,,,,,,145,90,B,Raw,Yes,Open,28,1990-05-10
4,M,Stanislav Tremasov,Станислав Тремасов,88.2,Russia,,,,,,-142.5,142.5,-152.5,142.5,,,,,,,142.5,90,B,Raw,Yes,Open,32,1985-09-04
5,M,Sergey Bachurin,Сергей Бачурин,84.6,Russia,,,,,,132.5,137.5,140,140,,,,,,,140,90,B,Raw,Yes,Open,36,1981-07-14
6,M,Mikhail Khromchenko,Михаил Хромченко,88.3,Russia,,,,,,125,132.5,-137.5,132.5,,,,,,,132.5,90,B,Raw,Yes,Open,30,1988-01-05
DQ,M,Roman Patoka,Роман Патока,88.9,Russia,,,,,,-152.5,-152.5,-152.5,,,,,,,,,90,B,Raw,Yes,Open,29,1988-08-04
1,M,Shamil Petushkov,Шамиль Петушков,87.9,Russia,,,,,,150,-155,-155,150,,,,,,,150,90,B,Raw,Yes,Masters 40-44,42,1975-10-16
2,M,Sergey Sharkov,Сергей Шарков,89.1,Russia,,,,,,130,140,-152.5,140,,,,,,,140,90,B,Raw,Yes,Masters 40-44,44,1974-05-11
1,M,Nikolay Mulin,Николай Мулин,88.55,Russia,,,,,,152.5,-157.5,-157.5,152.5,,,,,,,152.5,90,B,Raw,Yes,Masters 50-54,54,1964-01-07
2,M,Aleksandr Belousov,Александр Белоусов,89.8,Russia,,,,,,145,152.5,-157.5,152.5,,,,,,,152.5,90,B,Raw,Yes,Masters 55-59,57,1960-08-02
3,M,Konstantin Panshin,Константин Паншин,88.2,Russia,,,,,,137.5,145,-152.5,145,,,,,,,145,90,B,Raw,Yes,Masters 55-59,58,1960-01-22
4,M,Viktor Khapov,Виктор Хапов,88.4,Russia,,,,,,130,-140,-140,130,,,,,,,130,90,B,Raw,Yes,Masters 50-54,51,1966-07-20
1,M,Ruslan Zhelkobaev,Руслан Желкобаев,97.4,Russia,,,,,,105,112.5,115,115,,,,,,,115,100,B,Raw,Yes,Teen 16-17,17,2000-08-30
1,M,Pavel Kochurov,Павел Кочуров,96.9,Russia,,,,,,-190,190,-205,190,,,,,,,190,100,B,Raw,Yes,Open,22,1996-06-04
2,M,Ilya Fadeev,Илья Фадеев,97.3,Russia,,,,,,160,-162.5,-165,160,,,,,,,160,100,B,Raw,Yes,Open,35,1983-04-16
3,M,Andrey Okunev,Андрей Окунев,94.7,Russia,,,,,,157.5,-165,-165,157.5,,,,,,,157.5,100,B,Raw,Yes,Open,24,1993-06-28
4,M,Oleg Gunchenkov,Олег Гунченков,98.3,Russia,,,,,,132.5,137.5,140,140,,,,,,,140,100,B,Raw,Yes,Open,26,1991-09-19
5,M,Stanislav Konnikov,Станислав Конников,98.8,Russia,,,,,,120,132.5,-140,132.5,,,,,,,132.5,100,B,Raw,Yes,Open,31,1986-08-10
DQ,M,Dmitriy Skidan,Дмитрий Скидан,97,Russia,,,,,,-125,-125,-125,,,,,,,,,100,B,Raw,Yes,Open,36,1981-12-31
1,M,Georgiy Paradiz,Георгий Парадиз,98.6,Russia,,,,,,170,180,-185,180,,,,,,,180,100,B,Raw,Yes,Masters 40-44,43,1975-05-14
1,M,Damir Kuzeev,Дамир Кузеев,92.8,Russia,,,,,,145,-152.5,,145,,,,,,,145,100,B,Raw,Yes,Masters 65-69,66,1952-01-01
1,M,Anatoliy Rybakov,Анатолий Рыбаков,105.7,Russia,,,,,,180,-195,-195,180,,,,,,,180,110,B,Raw,Yes,Juniors 20-23,22,1996-03-17
1,M,Artem Plotnikov,Артем Плотников,104.3,Russia,,,,,,160,167.5,172.5,172.5,,,,,,,172.5,110,B,Raw,Yes,Open,25,1992-11-09
2,M,Sergey Nemnonov,Сергей Немнонов,107.2,Russia,,,,,,160,167.5,-170,167.5,,,,,,,167.5,110,B,Raw,Yes,Open,33,1984-08-29
1,M,Aleksey Saitov,Алексей Саитов,108,Russia,,,,,,172.5,180,185,185,,,,,,,185,110,B,Raw,Yes,Masters 40-44,44,1973-09-05
1,M,Sergey Ivanov,Сергей Иванов,107.65,Russia,,,,,,185,195,-200,195,,,,,,,195,110,B,Raw,Yes,Masters 50-54,50,1967-07-10
1,M,Viktor Erkovich,Виктор Еркович,102.35,Russia,,,,,,90,-100,-107.5,90,,,,,,,90,110,B,Raw,Yes,Masters 60-64,63,1954-09-11
1,M,Aleksandr Sergeev,Александр Сергеев,119.4,Russia,,,,,,170,-177.5,-177.5,170,,,,,,,170,125,B,Raw,Yes,Open,39,1979-02-08
1,M,Andrey Peshkov,Андрей Пешков,123.5,Russia,,,,,,180,185,190,190,,,,,,,190,125,B,Raw,Yes,Masters 50-54,54,1963-11-05
1,M,Sergey Matveev,Сергей Матвеев,127.2,Russia,,,,,,182.5,190,-192.5,190,,,,,,,190,140,B,Raw,Yes,Open,26,1991-10-28
1,F,Inge Kaule,,50,Germany,,,,,,-55,55,-57.5,55,,,,,,,55,52,B,Raw,No,Masters 65-69,65,1952-12-06
1,F,Anastasiya Kuznetsova,Анастасия Кузнецова,56.85,Russia,,,,,,45,47.5,-50,47.5,,,,,,,47.5,60,B,Raw,No,Masters 40-44,40,1977-11-16
1,F,Inga Galich,Инга Галич,66.95,Russia,,,,,,-100,-100,100,100,-108,,,,,,100,67.5,B,Raw,No,Open,48,1970-01-18
2,F,Elena Vinogradova,Елена Виноградова,66.5,Russia,,,,,,95,-100,-100,95,,,,,,,95,67.5,B,Raw,No,Open,32,1986-02-03
1,F,Inga Galich,Инга Галич,66.95,Russia,,,,,,-100,-100,100,100,-108,,,,,,100,67.5,B,Raw,No,Masters 45-49,48,1970-01-18
1,F,Nataliya Dyatel,Наталия Дятел,69.65,Russia,,,,,,90,95,-100,95,,,,,,,95,75,B,Raw,No,Open,30,1988-03-20
2,F,Irina Kharchuk,Ирина Харчук,75,Russia,,,,,,87.5,95,-102.5,95,,,,,,,95,75,B,Raw,No,Open,35,1983-02-18
1,M,Vadim Rasshchepiy,Вадим Расщепий,51.45,Russia,,,,,,45,50,52.5,52.5,,,,,,,52.5,52,B,Raw,No,Teen 13-15,15,2003-05-13
2,M,Artyom Tretyakov,Артём Третьяков,42,Russia,,,,,,25,30,-35,30,,,,,,,30,52,B,Raw,No,Teen 13-15,13,2005-04-24
1,M,Timofey Anikin,Тимофей Аникин,54.7,Russia,,,,,,40,-42.5,45,45,,,,,,,45,56,B,Raw,No,Teen 13-15,13,2004-07-25
1,M,Aleksandr Antropov,Александр Антропов,72.75,Russia,,,,,,165,170,172.5,172.5,,,,,,,172.5,75,B,Raw,No,Open,49,1969-03-14
2,M,Artem Danelyants,Артём Данельянц,74.9,Russia,,,,,,162.5,-172.5,-172.5,162.5,,,,,,,162.5,75,B,Raw,No,Open,24,1993-08-01
3,M,Yakov Belov,Яков Белов,73.9,Russia,,,,,,87.5,-92.5,-92.5,87.5,,,,,,,87.5,75,B,Raw,No,Open,33,1985-01-04
1,M,Aleksandr Antropov,Александр Антропов,72.75,Russia,,,,,,165,170,172.5,172.5,,,,,,,172.5,75,B,Raw,No,Masters 45-49,49,1969-03-14
2,M,Denis Kolesnikov,Денис Колесников,74.35,Russia,,,,,,125,127.5,-130,127.5,,,,,,,127.5,75,B,Raw,No,Masters 40-44,42,1975-06-18
1,M,Dmitriy Ivanov,Дмитрий Иванов,79.7,Russia,,,,,,165,-170,-170,165,,,,,,,165,82.5,B,Raw,No,Open,28,1990-03-09
2,M,Oleg Tikhonovskiy,Олег Тихоновский,81.5,Russia,,,,,,155,-165,165,165,,,,,,,165,82.5,B,Raw,No,Open,39,1978-08-04
3,M,Fedor Krivolap,Федор Криволап,80.7,Russia,,,,,,-155,155,-157.5,155,,,,,,,155,82.5,B,Raw,No,Open,34,1984-05-22
4,M,Mikhail Danilov,Михаил Данилов,80.5,Russia,,,,,,142.5,147.5,150,150,,,,,,,150,82.5,B,Raw,No,Open,33,1984-07-27
5,M,Anton Shapovalenko,Антон Шаповаленко,79.35,Russia,,,,,,135,140,-145,140,,,,,,,140,82.5,B,Raw,No,Open,28,1989-11-27
1,M,Yuriy Efremov,Юрий Ефремов,81.75,Russia,,,,,,-172.5,-172.5,172.5,172.5,,,,,,,172.5,82.5,B,Raw,No,Masters 45-49,46,1972-04-05
2,M,Sergey Ermakov,Сергей Ермаков,81.1,Russia,,,,,,110,-115,-115,110,,,,,,,110,82.5,B,Raw,No,Masters 40-44,42,1975-09-16
1,M,Eduard Machanovskiy,Эдуард Мачановский,77.5,Russia,,,,,,140,145,150,150,,,,,,,150,82.5,B,Raw,No,Masters 55-59,55,1962-09-13
1,M,Igor Popov,Игорь Попов,79.9,Russia,,,,,,110,-120,120,120,,,,,,,120,82.5,B,Raw,No,Masters 60-64,61,1957-04-11
1,M,Igor Guseynov,Игорь Гусейнов,88,Russia,,,,,,185,190,-195,190,,,,,,,190,90,B,Raw,No,Open,30,1988-05-06
2,M,Aleksey Starikov,Алексей Стариков,89.2,Russia,,,,,,175,185,-192.5,185,,,,,,,185,90,B,Raw,No,Open,30,1988-03-09
3,M,Roman Malyshev,Роман Малышев,89.3,Russia,,,,,,160,170,180,180,,,,,,,180,90,B,Raw,No,Open,39,1978-08-20
4,M,Sergey Baev,Сергей Баев,89.1,Russia,,,,,,165,-170,-170,165,,,,,,,165,90,B,Raw,No,Open,37,1980-09-24
5,M,Mirzaga Abasov,Мирзага Абасов,88.4,Russia,,,,,,145,152.5,-160,152.5,,,,,,,152.5,90,B,Raw,No,Open,28,1990-05-23
6,M,Sergey Surikov,Сергей Суриков,88,Russia,,,,,,135,145,-152.5,145,,,,,,,145,90,B,Raw,No,Open,33,1985-03-30
1,M,Sergey Rogozin,Сергей Рогозин,89.8,Russia,,,,,,190,195,-202.5,195,,,,,,,195,90,B,Raw,No,Masters 45-49,47,1971-02-02
1,M,Pavel Devyatov,Павел Девятов,88.55,Russia,,,,,,-135,140,145,145,,,,,,,145,90,B,Raw,No,Masters 50-54,54,1964-05-10
2,M,Gennadiy Grigorev,Геннадий Григорьев,84.5,Russia,,,,,,125,132.5,-137.5,132.5,,,,,,,132.5,90,B,Raw,No,Masters 50-54,50,1967-11-27
1,M,Roman Tukhvatullin,Роман Тухватуллин,98.25,Russia,,,,,,190,-200,-200,190,,,,,,,190,100,B,Raw,No,Juniors 20-23,23,1995-03-16
1,M,Dmitriy Polunin,Дмитрий Полунин,99.6,Russia,,,,,,190,200,-207.5,200,,,,,,,200,100,B,Raw,No,Open,26,1991-10-12
2,M,Igor Kislyakov,Игорь Кисляков,96.4,Russia,,,,,,185,-192.5,192.5,192.5,,,,,,,192.5,100,B,Raw,No,Open,32,1985-08-30
3,M,Roman Tukhvatullin,Роман Тухватуллин,98.25,Russia,,,,,,190,-200,-200,190,,,,,,,190,100,B,Raw,No,Open,23,1995-03-16
4,M,Yuriy Emelyanov,Юрий Емельянов,95.45,Russia,,,,,,165,175,-180,175,,,,,,,175,100,B,Raw,No,Open,29,1988-09-13
5,M,Dmitriy Mayzel,Дмитрий Майзель,96.1,Russia,,,,,,175,-185,-185,175,,,,,,,175,100,B,Raw,No,Open,37,1980-08-23
6,M,Evgeniy Kozhemyakin,Евгений Кожемякин,97.35,Russia,,,,,,170,-180,-180,170,,,,,,,170,100,B,Raw,No,Open,35,1982-09-30
7,M,Dmitriy Velikzarov,Дмитрий Великзаров,92.45,Russia,,,,,,155,162.5,-167.5,162.5,,,,,,,162.5,100,B,Raw,No,Open,33,1985-04-01
8,M,Mark Yazev,Марк Язев,99.55,Russia,,,,,,150,-160,160,160,,,,,,,160,100,B,Raw,No,Open,26,1991-08-27
9,M,Vitaliy Petrov,Виталий Петров,98.35,Russia,,,,,,130,137.5,142.5,142.5,,,,,,,142.5,100,B,Raw,No,Open,38,1980-03-08
DQ,M,Rustem Sagdiev,Рустем Сагдиев,98.8,Russia,,,,,,-220,-220,,,,,,,,,,100,B,Raw,No,Open,46,1971-10-21
1,M,Sergey Grebenkov,Сергей Гребеньков,98.15,Russia,,,,,,165,170,175,175,,,,,,,175,100,B,Raw,No,Masters 40-44,43,1974-11-22
DQ,M,Ivan Solntsev,Иван Солнцев,94.9,Russia,,,,,,-180,-180,,,,,,,,,,100,B,Raw,No,Masters 40-44,44,1974-03-25
DQ,M,Rustem Sagdiev,Рустем Сагдиев,98.8,Russia,,,,,,-220,-220,,,,,,,,,,100,B,Raw,No,Masters 45-49,46,1971-10-21
1,M,Aleksey Pukhov,Алексей Пухов,108.65,Russia,,,,,,215,225,-230,225,,,,,,,225,110,B,Raw,No,Open,44,1974-02-08
2,M,Valeriy Mukhametdinov,Валерий Мухаметдинов,109.3,Russia,,,,,,220,-230,-232.5,220,,,,,,,220,110,B,Raw,No,Open,27,1990-07-24
3,M,Vasiliy Markitantov,Василий Маркитантов,102.45,Russia,,,,,,210,212.5,-215,212.5,,,,,,,212.5,110,B,Raw,No,Open,38,1980-02-21
4,M,Denis Deryagin,Денис Дерягин,109.1,Russia,,,,,,202.5,-210,210,210,,,,,,,210,110,B,Raw,No,Open,38,1980-02-28
5,M,Vasiliy Kolybelin,Василий Колыбелин,106.4,Russia,,,,,,202.5,207.5,-212.5,207.5,,,,,,,207.5,110,B,Raw,No,Open,41,1976-12-27
6,M,Temirzhon Berdiev,Темиржон Бердиев,107.75,Russia,,,,,,200,-207.5,-207.5,200,,,,,,,200,110,B,Raw,No,Open,29,1988-11-27
7,M,Vladimir Ivanov,Владимир Иванов,104.55,Russia,,,,,,185,192.5,-195,192.5,,,,,,,192.5,110,B,Raw,No,Open,39,1979-05-27
1,M,Vasiliy Kolybelin,Василий Колыбелин,106.4,Russia,,,,,,202.5,207.5,-212.5,207.5,,,,,,,207.5,110,B,Raw,No,Masters 40-44,41,1976-12-27
2,M,Sergey Bondarenko,Сергей Бондаренко,105.1,Russia,,,,,,170,180,-182.5,180,,,,,,,180,110,B,Raw,No,Masters 45-49,45,1973-04-21
1,M,Murad Alibegov,Мурад Алибегов,123.7,Russia,,,,,,270,290,,290,,,,,,,290,125,B,Raw,No,Open,41,1977-02-09
2,M,Stanislav Bakhtin,Станислав Бахтин,117.6,Russia,,,,,,240,250,257.5,257.5,,,,,,,257.5,125,B,Raw,No,Open,29,1989-06-06
3,M,Andrey Kolesnikov,Андрей Колесников,124.55,Russia,,,,,,212.5,217.5,222.5,222.5,,,,,,,222.5,125,B,Raw,No,Open,36,1982-01-19
4,M,Aleksey Mikhaylov,Алексей Михайлов,114.5,Russia,,,,,,210,-215,-222.5,210,,,,,,,210,125,B,Raw,No,Open,31,1986-07-23
1,M,Andrey Kapustin,Андрей Капустин,121.6,Russia,,,,,,205,210,215,215,,,,,,,215,125,B,Raw,No,Masters 40-44,41,1977-02-18
1,M,Aleksandr Efimenkov,Александр Ефименков,111.25,Russia,,,,,,180,190,-202.5,190,,,,,,,190,125,B,Raw,No,Masters 55-59,59,1958-09-09
1,M,Dmitriy Smirnov,Дмитрий Смирнов,127.65,Russia,,,,,,-190,190,-200,190,,,,,,,190,140,B,Raw,No,Open,36,1982-02-12
1,M,Oleg Krylov,Олег Крылов,134.9,Russia,,,,,,180,185,-190,185,,,,,,,185,140,B,Raw,No,Masters 40-44,44,1973-11-04
1,M,Aleksey Berezhkov,Алексей Бережков,96.4,Russia,,,,,,-200,-200,200,200,,,,,,,200,100,B,Raw,Yes,Open,35,1982-08-08
1,M,Stanislav Bakhtin,Станислав Бахтин,117.6,Russia,,,,,,330,340,350,350,,,,,,,350,125,B,Single-ply,No,Open,29,1989-06-06
DQ,M,Ivan Kostyukov,Иван Костюков,116,Russia,,,,,,-315,-315,-315,,,,,,,,,125,B,Single-ply,No,Open,30,1988-06-07
1,F,Alisa Yokhansson,Алиса Йоханссон,47.2,Russia,,,,,,85,95,-100,95,,,,,,,95,48,B,Unlimited,Yes,Open,30,1988-03-29
1,F,Natalya Vasetskaya,Наталья Васецкая,58.4,Russia,,,,,,77.5,82.5,85,85,,,,,,,85,60,B,Unlimited,Yes,Open,25,1992-10-13
1,M,Nikita Tomilov,Никита Томилов,66.25,Russia,,,,,,125,135,142.5,142.5,150,,,,,,142.5,67.5,B,Unlimited,Yes,Teen 18-19,18,1999-11-16
1,M,Aleksandr Chashchin,Александр Чащин,74.4,Russia,,,,,,160,-182.5,182.5,182.5,,,,,,,182.5,75,B,Unlimited,Yes,Open,30,1987-06-15
1,M,Sergey Roslyakov,Сергей Росляков,82.2,Russia,,,,,,230,238,246,246,-251,,,,,,246,82.5,B,Unlimited,Yes,Open,31,1986-12-08
2,M,Aleksey Bukalov,Алексей Букалов,81.45,Russia,,,,,,200,-230,-230,200,,,,,,,200,82.5,B,Unlimited,Yes,Open,41,1976-12-10
1,M,Aleksey Bukalov,Алексей Букалов,81.45,Russia,,,,,,200,-230,-230,200,,,,,,,200,82.5,B,Unlimited,Yes,Masters 40-44,41,1976-12-10
DD,M,Aleksey Sheykin,Алексей Шейкин,89.6,Bulgaria,,,,,,250,-265,-265,250,,,,,,,,90,B,Unlimited,Yes,Open,30,1988-03-24
1,M,Maksim Khoroshun,Максим Хорошун,85.7,Russia,,,,,,185,-200,200,200,,,,,,,200,90,B,Unlimited,Yes,Open,25,1993-01-25
2,M,Lenur Zeynedinov,Ленур Зейнединов,88.6,Russia,,,,,,200,-215,-215,200,,,,,,,200,90,B,Unlimited,Yes,Open,25,1992-06-14
3,M,Aleksey Dudkin,Алексей Дудкин,87.85,Russia,,,,,,-162.5,162.5,185,185,,,,,,,185,90,B,Unlimited,Yes,Open,41,1976-09-07
1,M,Aleksey Dudkin,Алексей Дудкин,87.85,Russia,,,,,,-162.5,162.5,185,185,,,,,,,185,90,B,Unlimited,Yes,Masters 40-44,41,1976-09-07
1,M,Viktor Chantsev,Виктор Чанцев,89.3,Russia,,,,,,145,155,-165,155,,,,,,,155,90,B,Unlimited,Yes,Masters 60-64,60,1957-09-02
1,M,Igor Popov,Игорь Попов,102.4,Russia,,,,,,230,-250,250,250,,,,,,,250,110,B,Unlimited,Yes,Open,52,1965-09-11
2,M,Viktor Safonov,Виктор Сафонов,105,Russia,,,,,,-212.5,212.5,-242.5,212.5,,,,,,,212.5,110,B,Unlimited,Yes,Open,38,1980-05-24
1,M,Igor Popov,Игорь Попов,102.4,Russia,,,,,,230,-250,250,250,,,,,,,250,110,B,Unlimited,Yes,Masters 50-54,52,1965-09-11
1,M,Vladimir Kazantsev,Владимир Казанцев,120.85,Russia,,,,,,-300,-310,310,310,,,,,,,310,125,B,Unlimited,Yes,Open,26,1992-04-18
2,M,Artem Vorontsov,Артем Воронцов,111.8,Russia,,,,,,290,300,-310,300,,,,,,,300,125,B,Unlimited,Yes,Open,41,1976-08-03
3,M,Nikita Tulyakov,Никита Туляков,110.4,Russia,,,,,,210,220,225,225,,,,,,,225,125,B,Unlimited,Yes,Open,30,1988-02-23
1,M,Vladimir Tretyak,Владимир Третьяк,73.55,Bulgaria,,,,,,215,-250,-250,215,,,,,,,215,75,B,Unlimited,No,Open,38,1979-06-28
1,M,Evgeniy Vasilev,Евгений Васильев,79.65,Russia,,,,,,240,-250,-250,240,,,,,,,240,82.5,B,Unlimited,No,Open,34,1983-08-15
2,M,Pavel Karabanov,Павел Карабанов,80,Russia,,,,,,220,-235,-235,220,,,,,,,220,82.5,B,Unlimited,No,Open,31,1986-12-30
3,M,Aleksey Kudrin,Алексей Кудрин,81.8,Russia,,,,,,210,-235,-235,210,,,,,,,210,82.5,B,Unlimited,No,Open,33,1985-03-30
4,M,Sergey Makhlaychuk,Сергей Махлайчук,80.55,Russia,,,,,,-167.5,170,172.5,172.5,,,,,,,172.5,82.5,B,Unlimited,No,Open,28,1990-05-05
DQ,M,Andrey Belavkin,Андрей Белавкин,87.6,Russia,,,,,,-250,-250,,,,,,,,,,90,B,Unlimited,No,Open,30,1988-03-24
DQ,M,Lenur Kataev,Ленур Катаев,88.3,Russia,,,,,,-280,-292.5,-292.5,,,,,,,,,90,B,Unlimited,No,Open,23,1994-10-11
1,M,Vladimir Karandashev,Владимир Карандашев,89.3,Russia,,,,,,200,-220,220,220,,,,,,,220,90,B,Unlimited,No,Masters 45-49,46,1972-03-12
DQ,M,Yuliy Grakhov,Юлий Грахов,87.6,Russia,,,,,,-160,-165,,,,,,,,,,90,B,Unlimited,No,Masters 50-54,54,1963-08-17
1,M,Roman Maslikhin,Роман Маслихин,93.4,Russia,,,,,,220,-235,-235,220,,,,,,,220,100,B,Unlimited,No,Open,26,1992-03-17
1,M,Igor Zavalnyuk,Игорь Завальнюк,91.1,Russia,,,,,,180,200,,200,,,,,,,200,100,B,Unlimited,No,Masters 50-54,54,1964-03-21
1,M,Sergey Gusev,Сергей Гусев,109,Russia,,,,,,320,332.5,-342.5,332.5,,,,,,,332.5,110,B,Unlimited,No,Open,31,1987-03-18
2,M,Eduard Dmitriev,Эдуард Дмитриев,104.55,Russia,,,,,,-280,280,-290,280,,,,,,,280,110,B,Unlimited,No,Open,46,1972-05-26
3,M,Aleksandr Burov,Александр Буров,102.9,Russia,,,,,,-260,-260,260,260,,,,,,,260,110,B,Unlimited,No,Open,37,1980-11-23
4,M,Aleksandr Altukhov,Александр Алтухов,103.5,Russia,,,,,,190,205,-210,205,,,,,,,205,110,B,Unlimited,No,Open,29,1989-03-31
1,M,Eduard Dmitriev,Эдуард Дмитриев,104.55,Russia,,,,,,-280,280,-290,280,,,,,,,280,110,B,Unlimited,No,Masters 45-49,46,1972-05-26
1,M,Artur Borisov,Артур Борисов,120.8,Russia,,,,,,260,-270,-270,260,,,,,,,260,125,B,Unlimited,No,Juniors 20-23,20,1997-12-29
1,M,Yuriy Kholodov,Юрий Холодов,122,Russia,,,,,,-260,270,-280,270,,,,,,,270,125,B,Unlimited,No,Open,36,1982-01-07
2,M,Aleksandr Merkulov,Александр Меркулов,123.1,Russia,,,,,,250,-260,-260,250,,,,,,,250,125,B,Unlimited,No,Open,34,1984-02-10
1,M,Denis Chistotin,Денис Чистотин,122,Russia,,,,,,250,265,-270,265,,,,,,,265,125,B,Unlimited,No,Masters 40-44,43,1975-05-14
1,M,Dmitriy Smirnov,Дмитрий Смирнов,127.65,Russia,,,,,,270,285,-300,285,,,,,,,285,140,B,Unlimited,No,Open,36,1982-02-12
1,M,Dmitriy Shabalin #1,Дмитрий Шабалин,132.9,Russia,,,,,,330,-345,-350,330,,,,,,,330,140,B,Unlimited,No,Masters 45-49,49,1969-01-19
1,M,Pavel Guzev,Павел Гузев,122.9,Russia,,,,,,-305,305,-320,305,,,,,,,305,125,B,Unlimited,Yes,Open,52,1966-05-29
1,M,Pavel Guzev,Павел Гузев,122.9,Russia,,,,,,-305,305,-320,305,,,,,,,305,125,B,Unlimited,Yes,Masters 50-54,52,1966-05-29
1,M,Sergey Ashikhmin,Сергей Ашихмин,122.7,Russia,,,,,,-270,290,320,320,,,,,,,320,125,B,Unlimited,No,Open,40,1978-03-26
1,M,Sergey Ashikhmin,Сергей Ашихмин,122.7,Russia,,,,,,-270,290,320,320,,,,,,,320,125,B,Unlimited,No,Masters 40-44,40,1978-03-26
1,M,Roman Abidzhba,Роман Абиджба,146.85,Russia,,,,,,370,400,422.5,422.5,,,,,,,422.5,140+,B,Unlimited,No,Open,30,1988-04-27
1,F,Oksana Balabatko,Оксана Балабатько,48,Russia,,,,,,,,,,,55,60,65,65,,65,48,D,Raw,Yes,Teen 13-15,13,2005-01-24
1,F,Mariya Matveeva,Мария Матвеева,50.8,Russia,,,,,,,,,,,75,80,85,85,,85,52,D,Raw,Yes,Open,33,1985-05-29
1,F,Natalya Pilipyuk,Наталья Пилипюк,54.5,Russia,,,,,,,,,,,135,140,145,145,,145,56,D,Raw,Yes,Open,34,1983-12-21
1,F,Galina Lukyanova,Галина Лукьянова,57.3,Russia,,,,,,,,,,,55,65,-75,65,,65,60,D,Raw,Yes,Open,24,1993-10-08
1,F,Elizaveta Trukhina,Елизавета Трухина,61.5,Russia,,,,,,,,,,,85,95,-105,95,,95,67.5,D,Raw,Yes,Open,26,1992-05-31
2,F,Aleksandra Osipenko,Александра Осипенко,66.4,Russia,,,,,,,,,,,85,95,-107.5,95,,95,67.5,D,Raw,Yes,Open,24,1993-10-01
1,F,Yuliya Mikhaylova,Юлия Михайлова,72.9,Russia,,,,,,,,,,,110,120,127.5,127.5,,127.5,75,D,Raw,Yes,Open,26,1991-08-22
DQ,F,Violetta Ukhanova,Виолетта Уханова,71.7,Russia,,,,,,,,,,,-125,-125,-125,,,,75,D,Raw,Yes,Open,33,1984-12-09
1,F,Irina Danielyan,Ирина Даниелян,73.5,Russia,,,,,,,,,,,107.5,117.5,120,120,,120,75,D,Raw,Yes,Masters 45-49,45,1972-11-22
1,M,Igor Larin,Игорь Ларин,66.8,Russia,,,,,,,,,,,145,150,-160,150,,150,67.5,D,Raw,Yes,Teen 16-17,16,2001-08-07
1,M,Fikrot Seidov,Фикрот Сеидов,68,Russia,,,,,,,,,,,165,175,180,180,,180,75,D,Raw,Yes,Teen 13-15,15,2002-06-21
DQ,M,Kirill Vokulov,Кирилл Вокулов,74.2,Russia,,,,,,,,,,,-170,-180,-190,,,,75,D,Raw,Yes,Teen 18-19,18,1999-11-16
1,M,Nikita Aleksenko,Никита Алексенко,74.6,Russia,,,,,,,,,,,160,170,172.5,172.5,,172.5,75,D,Raw,Yes,Juniors 20-23,23,1994-11-30
1,M,Denis Nikolaev,Денис Николаев,72.5,Russia,,,,,,,,,,,200,215,-225,215,,215,75,D,Raw,Yes,Open,26,1991-07-15
2,M,Valeriy Berezovskiy,Валерий Березовский,72.75,Russia,,,,,,,,,,,190,-200,-200,190,,190,75,D,Raw,Yes,Open,32,1986-01-11
DQ,M,Denis Nikolaev,Денис Николаев,72.5,Russia,,,,,,,,,,,-220,,,,,,75,D,Raw,Yes,Open,26,1991-07-15
1,M,Roman Solovev,Роман Соловьев,80.1,Russia,,,,,,,,,,,190,195,-197.5,195,,195,82.5,D,Raw,Yes,Teen 16-17,17,2001-04-26
1,M,Dmitriy Tretyakov,Дмитрий Третьяков,78.6,Russia,,,,,,,,,,,-230,240,250,250,,250,82.5,D,Raw,Yes,Open,35,1983-01-27
2,M,Anton Gryazev,Антон Грязев,82.5,Russia,,,,,,,,,,,-230,240,250,250,,250,82.5,D,Raw,Yes,Open,31,1987-06-05
DD,M,Aleksey Sheykin,Алексей Шейкин,89.6,Bulgaria,,,,,,,,,,,275,290,300,300,-310,,90,D,Raw,Yes,Open,30,1988-03-24
1,M,Artur Mkhitaryan,Артур Мхитарян,88.2,Russia,,,,,,,,,,,240,262.5,-270,262.5,,262.5,90,D,Raw,Yes,Open,24,1994-02-12
2,M,Aleksandr Mozzhukhin,Александр Мозжухин,89,Russia,,,,,,,,,,,-250,-255,255,255,,255,90,D,Raw,Yes,Open,34,1984-04-04
3,M,Dmitriy Dubkov,Дмитрий Дубков,89.1,Russia,,,,,,,,,,,220,235,255,255,,255,90,D,Raw,Yes,Open,38,1980-01-29
4,M,Sergey Abrosimov,Сергей Абросимов,84.5,Russia,,,,,,,,,,,210,220,230,230,,230,90,D,Raw,Yes,Open,33,1985-06-04
5,M,Aleksandr Gorlov,Александр Горлов,88.8,Russia,,,,,,,,,,,210,-220,-220,210,,210,90,D,Raw,Yes,Open,37,1980-11-25
6,M,Evgeniy Dmitrik,Евгений Дмитрик,86.9,Russia,,,,,,,,,,,190,200,,200,,200,90,D,Raw,Yes,Open,37,1980-08-23
1,M,Vyacheslav Varlamov,Вячеслав Варламов,87.35,Russia,,,,,,,,,,,220,230,240,240,,240,90,D,Raw,Yes,Masters 40-44,43,1975-04-30
2,M,Sergey Fedotov,Сергей Федотов,88.4,Russia,,,,,,,,,,,180,190,-202.5,190,,190,90,D,Raw,Yes,Masters 40-44,41,1976-07-15
1,M,Eduard Marchenko,Эдуард Марченко,92.3,Ukraine,,,,,,,,,,,290,305,310,310,,310,100,D,Raw,Yes,Open,26,1992-03-17
2,M,Timofey Kulishov,Тимофей Кулишов,93.7,Russia,,,,,,,,,,,230,-232.2,,230,,230,100,D,Raw,Yes,Open,32,1985-07-29
3,M,Vadim Abramov,Вадим Абрамов,95.4,Russia,,,,,,,,,,,225,-230,,225,,225,100,D,Raw,Yes,Open,25,1992-06-17
4,M,Evgeniy Sokolov,Евгений Соколов,99.5,Russia,,,,,,,,,,,190,200,210,210,,210,100,D,Raw,Yes,Open,34,1984-03-08
5,M,Vasiliy Belov,Василий Белов,95.9,Russia,,,,,,,,,,,185,197.5,-210,197.5,,197.5,100,D,Raw,Yes,Open,31,1987-05-05
1,M,Evgeniy Yaroshko,Евгений Ярошко,107.1,Russia,,,,,,,,,,,265,282.5,,282.5,,282.5,110,D,Raw,Yes,Open,33,1984-07-29
2,M,Sergey Muravyov,Сергей Муравьёв,109.2,Bulgaria,,,,,,,,,,,280,-290,-290,280,,280,110,D,Raw,Yes,Open,42,1975-12-28
1,M,Sergey Muravyov,Сергей Муравьёв,109.2,Bulgaria,,,,,,,,,,,280,-290,-290,280,,280,110,D,Raw,Yes,Masters 40-44,42,1975-12-28
1,F,Natalya Bogacheva,Наталья Богачева,47.2,Russia,,,,,,,,,,,115,122.5,126,126,128.5,126,48,D,Raw,No,Open,33,1985-02-09
1,F,Kseniya Zhalnina,Ксения Жалнина,53.9,Russia,,,,,,,,,,,75,85,90,90,,90,56,D,Raw,No,Open,36,1982-02-17
DQ,F,Elena Parovatkina,Елена Пароваткина,52.8,Russia,,,,,,,,,,,-160,-160,,,,,56,D,Raw,No,Open,26,1991-09-10
1,F,Olga Fedorenko,Ольга Федоренко,58.85,Russia,,,,,,,,,,,100,-105,105,105,,105,60,D,Raw,No,Open,31,1986-06-30
1,M,Artyom Tretyakov,Артём Третьяков,42,Russia,,,,,,,,,,,65,70,-75,70,,70,52,D,Raw,No,Teen 13-15,13,2005-04-24
1,M,Andrey Sokolov,Андрей Соколов,63.9,Russia,,,,,,,,,,,190,202.5,210,210,,210,67.5,D,Raw,No,Open,24,1994-02-20
1,M,Pavel Sheff,Павел Шефф,74.7,Russia,,,,,,,,,,,220,-230,-237.5,220,,220,75,D,Raw,No,Open,24,1993-07-09
1,M,Evgeniy Lukashevich,Евгений Лукашевич,87.2,Russia,,,,,,,,,,,250,275,300,300,,300,90,D,Raw,No,Open,24,1994-01-03
2,M,Aleksey Sheykin,Алексей Шейкин,89.6,Bulgaria,,,,,,,,,,,275,290,300,300,-310,300,90,D,Raw,No,Open,30,1988-03-24
3,M,Anatoliy Kovalev,Анатолий Ковалев,88,Russia,,,,,,,,,,,260,280,-300,280,,280,90,D,Raw,No,Open,26,1991-08-01
4,M,Pavel Kabanov,Павел Кабанов,88.35,Russia,,,,,,,,,,,230,260,-277.5,260,,260,90,D,Raw,No,Open,25,1992-07-13
1,M,Fedor Laevskiy,Федор Лаевский,88.7,Russia,,,,,,,,,,,190,-195,,190,,190,90,D,Raw,No,Masters 50-54,50,1968-01-07
1,M,Artur Mamedyarov,Артур Мамедяров,96.55,Russia,,,,,,,,,,,300,355,-360,355,,355,100,D,Raw,No,Open,26,1991-08-20
2,M,Anton Bakhmetev,Антон Бахметьев,92.85,Russia,,,,,,,,,,,260,-272.5,-272.5,260,,260,100,D,Raw,No,Open,25,1992-12-03
1,M,Aleksandr Malikov,Александр Маликов,99.4,Russia,,,,,,,,,,,270,280,-285,280,,280,100,D,Raw,No,Masters 45-49,45,1972-12-21
1,M,Vitaliy Gnatko,Виталий Гнатко,95.5,Russia,,,,,,,,,,,235,245,255,255,,255,100,D,Raw,No,Masters 55-59,56,1961-07-30
1,M,Denis Degtyar,Денис Дегтярь,104.25,Russia,,,,,,,,,,,-315,315,-330,315,,315,110,D,Raw,No,Open,36,1981-06-24
2,M,Valeriy Mukhametdinov,Валерий Мухаметдинов,109.3,Russia,,,,,,,,,,,280,300,-322.5,300,,300,110,D,Raw,No,Open,27,1990-07-24
3,M,Aleksandr Luzanov,Александр Лузанов,107.6,Russia,,,,,,,,,,,260,-280,-280,260,,260,110,D,Raw,No,Open,24,1993-09-30
4,M,Aleksandr Altukhov,Александр Алтухов,103.5,Russia,,,,,,,,,,,215,225,230,230,,230,110,D,Raw,No,Open,29,1989-03-31
1,M,Andrey Kolesnikov,Андрей Колесников,124.55,Russia,,,,,,,,,,,290,-305,-305,290,,290,125,D,Raw,No,Open,36,1982-01-19
1,M,Aleksey Kostylev,Алексей Костылев,115.15,Russia,,,,,,,,,,,270,290,300,300,,300,125,D,Raw,No,Masters 40-44,44,1973-09-04
1,M,Anton Filippov,Антон Филиппов,157.9,Russia,,,,,,,,,,,-320,335,-350,335,,335,140+,D,Raw,No,Open,31,1986-08-12
1,M,Evgeniy Tagirov,Евгений Тагиров,86.8,Russia,,,,,,,,,,,240,250,-255,250,,250,90,D,Raw,Yes,Juniors 20-23,23,1994-10-20
1,M,Sergey Koryakin,Сергей Корякин,80.6,Russia,,,,,,,,,,,280,290,-295,290,,290,82.5,D,Raw,No,Masters 40-44,41,1976-07-01
