Place,Name,Sex,BirthDate,Age,Country,State,Equipment,Division,BodyweightKg,WeightClassKg,Squat1Kg,Squat2Kg,Squat3Kg,Best3SquatKg,Bench1Kg,Bench2Kg,Bench3Kg,Best3BenchKg,Deadlift1Kg,Deadlift2Kg,Deadlift3Kg,Best3DeadliftKg,TotalKg,Event
1,Heather Rasmussen,F,1973-08-18,47,USA,CA,Raw,Masters 45-49,86.6,90,110,120,127.5,127.5,70,75,80,80,140,150,160,160,367.5,SBD
1,Emily Hu #1,F,1982-05-10,38,USA,CA,Raw,Open,58.9,60,137.5,-142.5,142.5,142.5,122.5,-130,-137.5,122.5,165,170,,170,435,SBD
1,Tori Riegler,F,1992-12-03,27,USA,CA,Raw,Open,63.2,67.5,130,-135,-135,130,60,-65,-65,60,105,115,130,130,320,SBD
DQ,Gina Jacques,F,1995-09-20,25,USA,CA,Raw,Open,65.9,67.5,-130,-130,-130,,-75,75,-77.5,75,135,140,150,150,,SBD
1,Jaclynne Phelps,F,1992-10-20,27,USA,CA,Raw,Open,72.6,75,95,100,-107.5,100,57.5,60,65,65,140,152.5,-162.5,152.5,317.5,SBD
1,Gabrielle Cervantes,F,1995-09-11,25,USA,CA,Raw,Open,107.8,90+,140,150,155,155,65,67.5,-70,67.5,140,-152.5,-155,140,362.5,SBD
2,Taylor Roberts,F,1996-02-27,24,USA,CA,Raw,Open,99.9,90+,127.5,137.5,140,140,60,65,-70,65,142.5,150,-157.5,150,355,SBD
1,Katrina Gossage,F,1983-08-14,37,USA,CA,Wraps,Submasters 35-39,69.3,75,130,-140,-140,130,70,72.5,-75,72.5,135,140,145,145,347.5,SBD
1,Kristina Diaz,F,1983-08-19,37,USA,CA,Wraps,Submasters 35-39,85,90,142.5,155,-160,155,70,75,80,80,162.5,172.5,182.5,182.5,417.5,SBD
1,Margaret Chinchay,F,2002-03-28,18,USA,CA,Wraps,Sub-Juniors 17-19,64.4,67.5,97.5,102.5,-105,102.5,47.5,50,52.5,52.5,120,125,127.5,127.5,282.5,SBD
1,Estephan Tumamao,M,1997-11-07,22,USA,CA,Raw,Juniors 20-23,71.5,75,142.5,150,155,155,80,90,95,95,165,175,180,180,430,SBD
1,Ben Hamilton-Moerer,M,1997-03-06,23,USA,CA,Raw,Juniors 20-23,88.9,90,202.5,215,227.5,227.5,150,160,-167.5,160,220,230,-245,230,617.5,SBD
2,Spencer Lebleu,M,1996-10-22,23,USA,CA,Raw,Juniors 20-23,89,90,100,107.5,110,110,-70,77.5,-82.5,77.5,140,142.5,147.5,147.5,335,SBD
1,Josh Conder,M,2000-08-16,20,USA,CA,Raw,Juniors 20-23,100,100,142.5,155,170,170,102.5,125,-140,125,175,200,-220,200,495,SBD
1,Eric Araiza,M,1999-11-20,20,USA,CA,Raw,Juniors 20-23,103,110,165,175,180,180,95,97.5,-102.5,97.5,160,177.5,-185,177.5,455,SBD
1,Juan Avila,M,1986-10-08,33,USA,CA,Raw,Open,82,82.5,165,180,187.5,187.5,130,-147.5,-147.5,130,205,217.5,227.5,227.5,545,SBD
1,Ben Hamilton-Moerer,M,1997-03-06,23,USA,CA,Raw,Open,88.9,90,202.5,215,227.5,227.5,150,160,-167.5,160,220,230,-245,230,617.5,SBD
2,Steven Sprenger,M,1987-10-21,32,USA,CA,Raw,Open,84.5,90,192.5,197.5,-205,197.5,105,110,117.5,117.5,195,202.5,210,210,525,SBD
3,Brandon Avila,M,1994-06-10,26,USA,CA,Raw,Open,82.9,90,175,-192.5,-192.5,175,115,122.5,-127.5,122.5,190,202.5,212.5,212.5,510,SBD
4,Bryan Boudreaux,M,1983-12-20,36,USA,CA,Raw,Open,86.5,90,110,112.5,132.5,132.5,95,105,-110,105,155,-175,175,175,412.5,SBD
1,Brendan Tietz,M,1991-08-28,29,USA,CA,Raw,Open,98,100,265,280,287.5,287.5,180,187.5,,187.5,307.5,325,-332.5,325,800,SBD
2,Adrian Lopez #9,M,1990-10-19,29,USA,CA,Raw,Open,100,100,165,177.5,-182.5,177.5,110,117.5,125,125,175,192.5,-200,192.5,495,SBD
1,Hadi Doumit,M,1982-09-14,38,USA,CA,Raw,Open,100.9,110,120,130,-140,130,102.5,107.5,-112.5,107.5,175,182.5,187.5,187.5,425,SBD
1,Joseph Park,M,1984-06-26,36,USA,CA,Raw,Open,114.5,125,-230,230,-250,230,170,-185,185,185,255,275,-285,275,690,SBD
2,Adrien Llanes,M,1993-08-16,27,USA,CA,Raw,Open,122.3,125,215,-227.5,227.5,227.5,-140,145,-162.5,145,215,230,-240,230,602.5,SBD
1,Adam Weaver,M,2000-12-13,19,USA,CA,Raw,Sub-Juniors 17-19,85.9,90,182.5,190,200,200,140,145,-150,145,205,220,-227.5,220,565,SBD
1,Kenny Williams,M,,19,USA,CA,Raw,Sub-Juniors 17-19,96.7,100,220,230,242.5,242.5,145,155,-165,155,245,272.5,285,285,682.5,SBD
1,Steven Granzella,M,1986-12-16,33,USA,CA,Wraps,Open,74,75,207.5,217.5,227.5,227.5,165,172.5,-177.5,172.5,207.5,220,237.5,237.5,637.5,SBD
1,Jonathan Vicente,M,1986-11-14,33,USA,CA,Wraps,Open,107.7,110,255,275,-285,275,165,175,-180,175,257.5,277.5,-282.5,277.5,727.5,SBD
1,Jeriah Hardin,M,1989-10-11,30,USA,CA,Wraps,Open,116,125,207.5,217.5,227.5,227.5,192.5,-197.5,-197.5,192.5,245,257.5,262.5,262.5,682.5,SBD
1,Matthew Rosburg,M,2004-04-28,16,USA,CA,Wraps,Teen 14-16,125.9,140,190,195,210,210,95,100,107.5,107.5,185,200,-215,200,517.5,SBD
1,Josh Conder,M,2000-08-16,20,USA,CA,Raw,Juniors 20-23,100,100,,,,,,,,,175,200,-220,200,200,D
