WeightClassKg,Event,Equipment,Tested,Sex,Name,CyrillicName,BirthDate,Division,BodyweightKg,Squat1Kg,Squat2Kg,Squat3Kg,Squat4Kg,Best3SquatKg,Bench1Kg,Bench2Kg,Bench3Kg,Bench4Kg,Best3BenchKg,Deadlift1Kg,Deadlift2Kg,Deadlift3Kg,Deadlift4Kg,Best3DeadliftKg,TotalKg,Place
52,SBD,Wraps,Yes,M,Aleksandr Skaba,Александр Скаба,2006-12-04,Amateur Teen 13,48.95,60,65,70,,70,32.5,35,37.5,,37.5,60,70,-80,,70,177.5,2
44,SBD,Wraps,Yes,M,Aleksandr Shishmarev,Александр Шишмарев,2002-08-28,Amateur Teen 13,43.4,50,55,57.5,,57.5,40,45,-47.5,,45,50,60,,,60,162.5,3
52,SBD,Wraps,Yes,M,Aleksandr Mikheev,Александр Михеев,2001-02-19,Amateur Teen 14-16,44.65,80,90,95,,95,55,60,62.5,,62.5,115,122.5,-127.5,,122.5,280,1
56,SBD,Wraps,Yes,M,Dmitriy Fedorov,Дмитрий Федоров,2001-09-01,Amateur Teen 14-16,52.5,50,55,60,,60,40,80,,,80,70,-80,-85,,70,210,1
56,SBD,Wraps,Yes,M,Aleksey Starkov,Алексей Старков,1998-05-12,Amateur Teen 17-19,55.45,90,105,110,,110,60,70,72.5,,72.5,120,135,145,,145,327.5,1
60,SBD,Wraps,Yes,M,Artem Oganisyan,Артем Оганисян,1998-05-06,Amateur Teen 17-19,59.45,145,160,167.5,,167.5,80,95,102.5,,102.5,190,-210,-210,,190,460,1
60,SBD,Wraps,Yes,M,Pavel Levites,Павел Левитес,1998-06-16,Amateur Teen 17-19,59.2,-140,140,145,,145,75,-80,-80,,75,-160,170,-180,,170,390,2
60,SBD,Wraps,Yes,M,Denis Migachev,Денис Мигачев,1998-09-04,Amateur Teen 17-19,59.3,110,120,125,,125,80,90,-100,,90,130,140,,,140,355,3
67.5,SBD,Wraps,Yes,M,Timofey Ishimov,Тимофей Ишимов,1990-12-01,Amateur Open,67.15,-165,-165,165,,165,-105,105,107.5,,107.5,197.5,-210,-210,,197.5,470,1
67.5,SBD,Wraps,Yes,M,Anton Donik,Антон Доник,1984-01-26,Amateur Open,66.2,-130,-130,-130,130,,87.5,92.5,95,,95,140,150,157.5,,157.5,252.5,3
67.5,D,Raw,Yes,M,Andrey Kolbin,Андрей Колбин,1984-07-22,Amateur Open,66.85,,,,,,,,,,,175,-192.5,-192.5,,175,175,1
67.5,SBD,Wraps,Yes,M,Aleksan Akalovich,Алексан Акалович,2005-10-25,Amateur Teen 13,62.65,-50,-55,-55,,,-25,,,,,,,,,,,DQ
67.5,SBD,Wraps,Yes,M,Maksim Chichin,Максим Чичин,1999-07-12,Amateur Teen 14-16,66.9,-145,150,-155,,150,100,110,115,,115,170,-180,-180,,170,435,1
67.5,SBD,Wraps,Yes,M,Filipp Filkov,Филипп Фильков,1999-07-15,Amateur Teen 14-16,64.9,90,100,105,,105,60,65,-67.5,,65,90,100,105,,105,275,2
67.5,SBD,Wraps,Yes,M,Dmitriy Boldin,Дмитрий Болдин,1998-03-29,Amateur Teen 17-19,67.25,140,145,-150,,145,97.5,100,102.5,,102.5,150,165,170,,170,417.5,2
67.5,SBD,Wraps,Yes,M,Pavel Skiba,Павел Скиба,1998-03-20,Amateur Teen 17-19,65.8,-130,135,140,,140,90,-95,95,,95,160,-175,175,,175,410,4
67.5,SBD,Wraps,Yes,M,Viktor Gapenko,Виктор Гапенко,1997-10-31,Amateur Teen 17-19,66.7,-135,-142.5,142.5,,142.5,80,87.5,-92.5,,87.5,180,-192.5,-192.5,,180,410,6
67.5,SBD,Wraps,Yes,M,Georgiy Rostovtsev,Георгий Ростовцев,1998-09-06,Amateur Teen 17-19,64.45,140,-150,150,,150,80,-87.5,-87.5,,80,160,172.5,-185,,172.5,402.5,7
67.5,SBD,Wraps,Yes,M,Aleksey Sukachev,Алексей Сукачев,1998-01-25,Amateur Teen 17-19,67,-130,-135,135,,135,77.5,82.5,85,,85,150,160,165,,165,385,8
67.5,D,Raw,Yes,M,Egor Chuykov,Егор Чуйков,1998-10-01,Amateur Teen 17-19,64.85,,,,,,,,,,,140,150,-167.5,,150,150,2
75,SBD,Wraps,Yes,M,Andrey Palchikov,Андрей Пальчиков,1995-10-20,Amateur Juniors 20-23,70.4,160,-170,172.5,,172.5,130,140,145,,145,210,-220,220,,220,537.5,1
75,SBD,Wraps,Yes,M,Pavel Ardyshev,Павел Ардышев,1994-02-08,Amateur Juniors 20-23,74.15,-165,165.5,170,,170,-117.5,120,127.5,,127.5,215,220,225,,225,522.5,2
75,SBD,Wraps,Yes,M,Konstantin Protskiy,Константин Процкий,1992-12-09,Amateur Juniors 20-23,75,160,170,-175,,170,125,130,132.5,,132.5,217.5,-235,-235,,217.5,520,3
75,SBD,Wraps,Yes,M,Leonid Tabolkin,Леонид Таболкин,1994-01-06,Amateur Juniors 20-23,73.8,130,140,-160,,140,100,-107.5,-107.5,,100,-160,170,-185,,170,410,4
75,SBD,Wraps,Yes,M,Maksim Shapovalov,Максим Шаповалов,1994-05-18,Amateur Juniors 20-23,70.15,110,122.5,-130,,122.5,65,77.5,-82.5,,77.5,110,122.5,130,,130,330,5
75,D,Raw,Yes,M,Andrey Rogozhkin,Андрей Рогожкин,1995-06-11,Amateur Juniors 20-23,68.3,,,,,,,,,,,-110,110,135,,135,135,1
75,D,Raw,Yes,M,Andrey Rogozhkin,Андрей Рогожкин,1995-06-11,Amateur Juniors 20-23,68.3,,,,,,,,,,,-110,110,135,,135,135,2
75,S,Wraps,Yes,M,Igor Stupnikov,Игорь Ступников,1995-05-14,Amateur Juniors 20-23,67.8,80,95,-105,,95,,,,,,,,,,,95,1
75,S,Wraps,Yes,M,Maksim Pudov,Максим Пудов,1995-08-28,Amateur Juniors 20-23,70.3,70,80,90,,90,,,,,,,,,,,90,3
75,SBD,Wraps,Yes,M,Evgeniy Brattsev,Евгений Братцев,1989-06-26,Amateur Open,71.5,-155,155,160,,160,120,125,130,,130,-195,195,-205,,195,485,1
75,SBD,Wraps,Yes,M,Evgeniy Bogdanov,Евгений Богданов,1989-02-21,Amateur Open,71.85,160,170,-180,,170,110,117.5,120,,120,-185,195,-200,,195,485,2
75,SBD,Wraps,Yes,M,Dmitriy Vyatkin,Дмитрий Вяткин,1991-11-28,Amateur Open,71.05,140,-145,145,,145,110,-115,-115,,110,200,205,-210,,205,460,3
75,SBD,Wraps,Yes,M,Mikhail Kharchenko,Михаил Харченко,1999-03-25,Amateur Teen 14-16,75,145,-152.5,-152.5,,145,92.5,97.5,-102.5,,97.5,-195,-195,195,,195,437.5,2
75,SBD,Wraps,Yes,M,Evgeniy Shurakov,Евгений Шураков,1997-12-15,Amateur Teen 17-19,72.35,180,190,200,,200,110,117.5,-122.5,,117.5,215,230,235,,235,552.5,1
75,SBD,Wraps,Yes,M,Petr Konovalov,Петр Коновалов,1998-10-08,Amateur Teen 17-19,69.6,170,185,-195,,185,130,135,-140,,135,200,210,-220,,210,530,2
75,SBD,Wraps,Yes,M,Ruslan Tsvetkovskiy,Руслан Цветковский,1998-05-28,Amateur Teen 17-19,72.9,-145,145,-160,,145,95,107.5,-110,,107.5,190,210,-232.5,,210,462.5,3
75,SBD,Wraps,Yes,M,Kirill Akalovich,Кирилл Акалович,1998-05-14,Amateur Teen 17-19,74.65,-135,-140,145,,145,90,95,-100,,95,155,165,170,,170,410,5
75,SBD,Wraps,Yes,M,Ivan Grevtsov,Иван Гревцов,1998-01-12,Amateur Teen 17-19,69.6,110,115,117.5,,117.5,70,72.5,-75,,72.5,120,130,140,,140,330,9
75,D,Raw,Yes,M,Vladislav Ranyuk,Владислав Ранюк,1997-05-18,Amateur Teen 17-19,74,,,,,,,,,,,190,205,-210,,205,205,1
75,D,Raw,Yes,M,Roman Fedotov,Роман Федотов,1998-09-18,Amateur Teen 17-19,72.35,,,,,,,,,,,180,190,-195,,190,190,3
75,D,Raw,Yes,M,Aleksandr Talanov,Александр Таланов,1998-02-04,Amateur Teen 17-19,72.3,,,,,,,,,,,155,167.5,180,,180,180,5
75,S,Raw,Yes,M,Roman Derendyaev,Роман Дерендяев,1997-07-04,Amateur Teen 17-19,68.4,95,110,125,,125,,,,,,,,,,,125,1
75,D,Raw,Yes,M,Petr Konovalov,Петр Коновалов,1998-10-08,Amateur Teen 17-19,69.6,,,,,,,,,,,,,,,,,DQ
75,D,Raw,Yes,M,Viktor Frolov,Виктор Фролов,1997-02-05,Amateur Teen 17-19,71.4,,,,,,,,,,,-170,-180,-180,,,,DQ
82.5,SBD,Wraps,Yes,M,Anatoliy Denisenko,Анатолий Денисенко,1995-07-09,Amateur Juniors 20-23,81.15,170,180,,,180,117.5,125,130,,130,197.5,205,,,205,515,2
82.5,SBD,Wraps,Yes,M,Temirlan Asilov,Темирлан Асилов,1994-09-25,Amateur Juniors 20-23,80,100,110,120,,120,85,-95,-95,,85,130,140,150,,150,355,3
82.5,SBD,Wraps,Yes,M,Aleksey Vinyukov,Алексей Винюков,1973-10-19,Amateur Masters 40-49,81.8,-195,195,-205,,195,135,-140,-140,,135,200,215,-230,,215,545,1
82.5,SBD,Wraps,Yes,M,Aleksandr Lipikhin,Александр Липихин,1973-06-05,Amateur Masters 40-49,82,-155,-155,-155,,,-135,,,,,-195,,,,,,DQ
82.5,D,Raw,Yes,M,Nikolay Efanov,Николай Ефанов,1958-07-10,Amateur Masters 50-59,82.3,,,,,,,,,,,190,202.5,-207.5,,202.5,202.5,1
82.5,SBD,Wraps,Yes,M,Nikolay German,Николай Герман,1991-03-20,Amateur Open,82.1,182.5,192.5,-200,,192.5,150,155,157.5,,157.5,-255,255,270,,270,620,1
82.5,SBD,Wraps,Yes,M,Egor Medvedev,Егор Медведев,1990-08-23,Amateur Open,81.45,-210,-210,210,,210,130,140,-145,,140,210,222.5,-232.5,,222.5,572.5,4
82.5,SBD,Wraps,Yes,M,Aleksey Vinyukov,Алексей Винюков,1973-10-19,Amateur Open,81.8,-195,195,-205,,195,135,-140,-140,,135,200,215,-230,,215,545,6
82.5,D,Raw,Yes,M,Anton Smirnov,Антон Смирнов,1986-03-04,Amateur Open,77.65,,,,,,,,,,,180,195,200,,200,200,3
82.5,SBD,Wraps,Yes,M,Nikolay Shestakov,Николай Шестаков,1996-04-12,Amateur Teen 17-19,82.5,185,200,210,,210,125,132.5,140,,140,217.5,225,232.5,,232.5,582.5,1
82.5,SBD,Wraps,Yes,M,Aleksandr Cherkashin,Александр Черкашин,1997-12-28,Amateur Teen 17-19,81,170,180,185,,185,135,140,145,,145,235,242.5,247.5,,247.5,577.5,2
82.5,SBD,Wraps,Yes,M,Nikolay Kozyulin,Николай Козюлин,1997-03-12,Amateur Teen 17-19,81.05,160,-170,175,,175,115,120,-125,,120,220,230,-240,,230,525,4
82.5,D,Raw,Yes,M,Aleksandr Cherkashin,Александр Черкашин,1997-12-28,Amateur Teen 17-19,81,,,,,,,,,,,235,242.5,247.5,,247.5,247.5,1
82.5,D,Raw,Yes,M,Danil Akatov,Данил Акатов,1996-04-05,Amateur Teen 17-19,77.8,,,,,,,,,,,175,187.5,-200,,187.5,187.5,4
90,SBD,Wraps,Yes,M,Genadiy Pokshevatov,Генадий Покшеватов,1959-04-17,Amateur Masters 50-59,87.95,200,220,-225,,220,105,115,,,115,200,220,,,220,555,1
90,SBD,Wraps,Yes,M,Vitaliy Dubrovin,Виталий Дубровин,1982-08-06,Amateur Open,88.4,215,227.5,240,,240,175,182.5,-187.5,,182.5,222.5,235,242.5,,242.5,665,4
90,SBD,Wraps,Yes,M,Evgeniy Tsukanov,Евгений Цуканов,1990-01-25,Amateur Open,89.1,-170,170,-180,,170,130,135,140,,140,240,260,-292.5,,260,570,10
90,SBD,Wraps,Yes,M,Denis Smailov,Денис Смаилов,1991-05-09,Amateur Open,89.1,135,145,155,,155,85,97.5,-102.5,,97.5,185,-205,212.5,,212.5,465,13
90,SBD,Wraps,Yes,M,Sergey Yachmenev,Сергей Ячменев,1987-11-28,Amateur Open,87.85,-120,120,135,,135,-90,95,105,,105,145,160,172.5,,172.5,412.5,14
90,D,Raw,Yes,M,Dmitriy Vovikov,Дмитрий Вовиков,1984-10-09,Amateur Open,87.35,,,,,,,,,,,210,-225,225,,225,225,2
90,D,Raw,Yes,M,Grigoriy Agarkov,Григорий Агарков,1978-10-31,Amateur Open,89.9,,,,,,,,,,,-242.5,-242.5,-242.5,,,,DQ
90,D,Raw,Yes,M,Grigoriy Agarkov,Григорий Агарков,1978-10-31,Amateur Open,89.9,,,,,,,,,,,-242.5,,,,,,DQ
90,SBD,Wraps,Yes,M,Nikolay Sidorenko,Николай Сидоренко,1999-09-24,Amateur Teen 14-16,87.6,170,175,,,175,110,120,-125,,120,180,190,,,190,485,1
90,SBD,Wraps,Yes,M,Maksim Prachikov,Максим Прачиков,1998-10-08,Amateur Teen 17-19,87.4,-160,160,170,,170,85,95,-115,,95,160,180,-200,,180,445,4
100,SBD,Wraps,Yes,M,Evgeniy Shalimov,Евгений Шалимов,1995-09-28,Amateur Juniors 20-23,98.4,165,185,-195,,185,115,122.5,130,,130,220,240,257.5,,257.5,572.5,1
100,SBD,Wraps,Yes,M,Roman Utkin,Роман Уткин,1992-08-04,Amateur Juniors 20-23,98.15,190,200,-210,,200,-125,-125,125,,125,195,205,-210,,205,530,2
100,S,Wraps,Yes,M,Sergey Borisov,Сергей Борисов,1995-10-31,Amateur Juniors 20-23,92.1,100,135,145,,145,,,,,,,,,,,145,1
100,S,Wraps,Yes,M,Sergey Borisov,Сергей Борисов,1995-10-31,Amateur Juniors 20-23,92.1,100,,,,100,,,,,,,,,,,100,3
100,SBD,Wraps,Yes,M,Sergey Boldin,Сергей Болдин,1971-05-31,Amateur Masters 40-49,91.9,125,140,150,,150,135,-142.5,145,,145,160,180,200,,200,495,2
100,D,Raw,Yes,M,Vyacheslav Nikolaev,Вячеслав Николаев,1956-07-10,Amateur Masters 50-59,97.6,,,,,,,,,,,-197.5,197.5,-205,,197.5,197.5,1
100,SBD,Wraps,Yes,M,Artem Segov,Артем Сегов,1988-04-20,Amateur Open,98.55,170,-190,190,,190,170,-185,,,170,200,220,,,220,580,6
100,SBD,Wraps,Yes,M,Aleksandr Pushkarev,Александр Пушкарев,1987-07-22,Amateur Open,90.5,170,200,-220,,200,130,140,-150,,140,170,200,220,,220,560,7
100,SBD,Wraps,Yes,M,Aleksandr Timofeev,Александр Тимофеев,1984-09-11,Amateur Open,95.85,-175,175,185,,185,-105,115,120,,120,180,200,210,,210,515,8
100,SBD,Wraps,Yes,M,Sergey Osipov,Сергей Осипов,1989-10-02,Amateur Open,97.75,165,175,-190,,175,110,117.5,-125,,117.5,200,210,215,,215,507.5,9
100,D,Raw,Yes,M,Anton Kazantsev,Антон Казанцев,1986-04-11,Amateur Open,93.1,,,,,,,,,,,210,230,240,,240,240,1
100,D,Raw,Yes,M,Aleksandr Braslavskiy,Александр Браславский,1989-02-15,Amateur Open,92.2,,,,,,,,,,,180,190,205,,205,205,4
100,SBD,Wraps,Yes,M,Aleksey Vasilchuk,Алексей Васильчук,2000-11-26,Amateur Teen 14-16,97,170,180,-190,,180,110,-115,115,,115,170,180,190,,190,485,1
100,SBD,Wraps,Yes,M,Ruslan Bayramali,Руслан Байрамали,1996-10-25,Amateur Teen 17-19,99.95,190,200,210,,210,142.5,-150,150,,150,215,230,240,,240,600,1
100,SBD,Wraps,Yes,M,Nikita Lyubimov,Никита Любимов,1998-08-20,Amateur Teen 17-19,100,195,210,-215,,210,100,-115,115,,115,200,215,225,,225,550,3
110,SBD,Wraps,Yes,M,Dmitriy Surzhik,Дмитрий Суржик,1994-03-09,Amateur Juniors 20-23,104.6,185,195,205,,205,115,122.5,-127.5,,122.5,220,230,242.5,,242.5,570,1
110,SBD,Wraps,Yes,M,Nikita Mirsaev,Никита Мирсаев,1989-05-25,Amateur Open,105.85,160,170,180,,180,150,160,,,160,170,180,190,,190,530,4
110,SBD,Wraps,Yes,M,Egor Kuzmin,Егор Кузьмин,1989-12-13,Amateur Open,109.8,150,155,162.5,,162.5,127.5,135,-140,,135,185,200,-205,,200,497.5,5
110,SBD,Wraps,Yes,M,Ivan Astafev,Иван Астафьев,1991-11-24,Amateur Open,106.4,-175,-175,-175,,,,,,,,-205,,,,,,DQ
110,SBD,Wraps,Yes,M,Aleksey Yasinskiy,Алексей Ясинский,1999-03-30,Amateur Teen 14-16,106.35,160,170,180,,180,90,100,-110,,100,190,210,222.5,,222.5,502.5,1
125,D,Raw,Yes,M,Roman Moyseets,Роман Мойсеец,1979-07-18,Amateur Open,114.25,,,,,,,,,,,250,267.5,,,267.5,267.5,2
125,SBD,Wraps,Yes,M,Vladislav Radchenko,Владислав Радченко,1997-12-07,Amateur Teen 17-19,124.8,-205,215,225,,225,150,160,,,160,230,250,255,,255,640,2
125,SBD,Wraps,Yes,M,Denis Dementev,Денис Дементьев,1996-03-24,Amateur Teen 17-19,115.6,200,210,-220,,210,125,135,-140,,135,210,-230,-230,,210,555,3
140,SBD,Wraps,Yes,M,Nikita Arshanin,Никита Аршанин,1995-03-30,Amateur Juniors 20-23,133.9,250,260,265,,265,180,185,190,,190,240,250,255,,255,710,2
140,SBD,Wraps,Yes,M,Nikita Arshanin,Никита Аршанин,1995-03-30,Amateur Open,133.9,250,260,265,,265,180,185,190,,190,240,250,255,,255,710,2
140,SBD,Wraps,Yes,M,Vladimir Samoylov,Владимир Самойлов,1991-05-09,Amateur Open,125.4,170,180,200,,200,170,180,190,,190,200,210,230,,230,620,3
48,SBD,Wraps,Yes,F,Aleksandra Kungurova,Александра Кунгурова,1993-05-12,Amateur Juniors 20-23,48,70,-75,77.5,,77.5,40,45,-47.5,,45,82.5,92.5,102.5,,102.5,225,1
48,SBD,Wraps,Yes,F,Aleksandra Luchkina,Александра Лучкина,1995-07-03,Amateur Juniors 20-23,47.95,-75,75,80,,80,42.5,-47.5,-47.5,,42.5,82.5,-92.5,-102.5,,82.5,205,2
48,D,Raw,Yes,F,Galina Elchina,Галина Ельчина,1968-06-08,Amateur Masters 40-49,47.95,,,,,,,,,,,90,-100,-100,,90,90,1
48,SBD,Wraps,Yes,F,Tatyana Bannova,Татьяна Баннова,1986-06-04,Amateur Open,47.8,-77.5,77.5,-80,,77.5,40,42.5,45,,45,85,95,102.5,,102.5,225,1
48,SBD,Wraps,Yes,F,Erika Kolobukhova,Эрика Колобухова,1999-09-30,Amateur Teen 14-16,46.55,92.5,-97.5,-97.5,,92.5,45,-47.5,47.5,,47.5,85,90,-95,,90,230,1
52,SBD,Wraps,Yes,F,Ekaterina Akimova,Екатерина Акимова,1995-03-29,Amateur Juniors 20-23,49.2,-80,85,92.5,,92.5,40,-45,-45,,40,95,-107.5,107.5,,107.5,240,1
52,SBD,Wraps,Yes,F,Yana Lazutkina,Яна Лазуткина,1993-03-01,Amateur Juniors 20-23,50.95,65,75,-87.5,,75,47.5,52.5,,,52.5,75,87.5,-95,,87.5,215,2
52,SBD,Wraps,Yes,F,Natalya Varnavskaya,Наталья Варнавская,1983-05-17,Amateur Open,51.75,87.5,95,-100,,95,-52.5,52.5,-57.5,,52.5,95,102.5,110,,110,257.5,1
52,SBD,Wraps,Yes,F,Ekaterina Kudryavtseva,Екатерина Кудрявцева,1988-03-08,Amateur Open,50.9,-85,-90,90,,90,42.5,-45,-45,,42.5,90,95,-100,,95,227.5,2
52,D,Raw,Yes,F,Kseniya Fedorova,Ксения Федорова,1987-11-09,Amateur Open,48.3,,,,,,,,,,,90,100,107.5,,107.5,107.5,2
56,SBD,Wraps,Yes,F,Anna Ivannikova,Анна Иванникова,1993-08-09,Amateur Juniors 20-23,56,90,97.5,-102.5,,97.5,55,60,62.5,,62.5,122.5,130,-137.5,,130,290,1
56,SBD,Wraps,Yes,F,Elena Borovinskaya,Елена Боровинская,1995-12-06,Amateur Juniors 20-23,54.9,92.5,102.5,110,,110,45,50,-55,,50,-92.5,-102.5,107.5,,107.5,267.5,2
56,SBD,Wraps,Yes,F,Oksana Shentsova,Оксана Шенцова,1993-08-24,Amateur Juniors 20-23,55.15,75,80,-85,,80,42.5,47.5,-50,,47.5,105,112.5,-117.5,,112.5,240,3
56,D,Raw,Yes,F,Alina Gagarina,Алина Гагарина,1995-06-14,Amateur Juniors 20-23,55.7,,,,,,,,,,,107.5,125,-132.5,,125,125,1
56,SBD,Wraps,Yes,F,Larisa Chernobaeva,Лариса Чернобаева,1980-12-22,Amateur Open,55.35,-97.5,102.5,107.5,,107.5,52.5,55,57.5,,57.5,127.5,135,140,,140,305,1
56,SBD,Wraps,Yes,F,Mariya Chevozerova,Мария Чевозерова,1987-04-12,Amateur Open,55.2,-90,90,-92.5,,90,40,-42.5,-42.5,,40,90,95,100,,100,230,2
56,SBD,Wraps,Yes,F,Anastasiya Levites,Анастасия Левитес,2000-06-06,Amateur Teen 14-16,55.65,80,87.5,-92.5,,87.5,40,45,-50,,45,105,-115,-125,,105,237.5,1
56,D,Raw,Yes,F,Ekaterina Anoshkina,Екатерина Аношкина,1999-03-22,Amateur Teen 14-16,55.55,,,,,,,,,,,100,107.5,-112.5,,107.5,107.5,1
56,SBD,Wraps,Yes,F,Nadezhda Grekova,Надежда Грекова,1997-04-21,Amateur Teen 17-19,55.2,90,-95,-95,,90,50,55,-57.5,,55,-110,110,115,,115,260,1
56,SBD,Wraps,Yes,F,Kristina Tolstykh,Кристина Толстых,1997-05-16,Amateur Teen 17-19,54.9,80,85,-90,,85,45,50,-55,,50,85,92.5,-100,,92.5,227.5,3
60,SBD,Wraps,Yes,F,Nadezhda Burkova,Надежда Буркова,1992-02-11,Amateur Juniors 20-23,59.6,115,122.5,-127.5,,122.5,52.5,55,57.5,,57.5,120,127.5,-132.5,,127.5,307.5,1
60,SBD,Wraps,Yes,F,Anastasiya Noskova,Анастасия Носкова,1984-02-14,Amateur Open,57.7,107.5,112.5,120,,120,-70,70,-75,,70,155,165,-175,,165,355,1
60,SBD,Wraps,Yes,F,Aleksandra Tarkova,Александра Таркова,1989-08-11,Amateur Open,59.6,105,110,-112.5,,110,55,57.5,-60,,57.5,130,140,142.5,,142.5,310,2
60,SBD,Wraps,Yes,F,Nadezhda Burkova,Надежда Буркова,1992-02-11,Amateur Open,59.6,115,122.5,-127.5,,122.5,52.5,55,57.5,,57.5,120,127.5,-132.5,,127.5,307.5,3
60,SBD,Wraps,Yes,F,Polina Ivanova,Полина Иванова,1986-09-27,Amateur Open,59.3,105,112.5,-117.5,,112.5,55,-60,-60,,55,127.5,135,-140,,135,302.5,4
60,SBD,Wraps,Yes,F,Oksana Moiseenko,Оксана Моисеенко,1981-05-23,Amateur Open,58.4,90,-95,-95,,90,52.5,55,-57.5,,55,105,-117.5,-117.5,,105,250,5
60,D,Raw,Yes,F,Olga Glamazdina,Ольга Гламаздина,1981-02-28,Amateur Open,58.6,,,,,,,,,,,-110,110,115,,115,115,3
60,SBD,Wraps,Yes,F,Darya Garaeva,Дарья Гараева,1999-10-07,Amateur Teen 14-16,60,85,95,100,,100,55,-62.5,-62.5,,55,-112.5,122.5,-130,,122.5,277.5,1
67.5,SBD,Wraps,Yes,F,Anastasiya Kochurina,Анастасия Кочурина,1995-09-15,Amateur Juniors 20-23,67.15,85,-92.5,92.5,,92.5,-55,55,-60,,55,110,-120,-120,,110,257.5,1
67.5,SBD,Wraps,Yes,F,Natalya Sorokina,Наталья Сорокина,1973-05-04,Amateur Masters 40-49,63.15,60,75,85,,85,40,47.5,52.5,,52.5,90,100,112.5,,112.5,250,1
67.5,SBD,Wraps,Yes,F,Galina Abramova,Галина Абрамова,1989-06-19,Amateur Open,66.25,110,115,120,,120,55,60,62.5,,62.5,140,155,165,170,165,347.5,2
67.5,SBD,Wraps,Yes,F,Mariya Soldatova,Мария Солдатова,1987-04-25,Amateur Open,63.9,80,-90,-90,,80,42.5,47.5,50,,50,110,-115,115,,115,245,6
67.5,SBD,Wraps,Yes,F,Mariya Kurkova,Мария Куркова,1984-10-26,Amateur Open,60.95,60,67.5,72.5,,72.5,32.5,37.5,42.5,,42.5,70,82.5,90,,90,205,7
67.5,SBD,Wraps,Yes,F,Olga Kuznetsova,Ольга Кузнецова,1989-08-05,Amateur Open,64.6,50,60,70,,70,30,-35,-40,,30,75,85,95,,95,195,8
67.5,D,Raw,Yes,F,Kseniya Merkulova,Ксения Меркулова,1988-09-18,Amateur Open,62.55,,,,,,,,,,,110,122.5,127.5,,127.5,127.5,2
67.5,SBD,Wraps,Yes,F,Viktoriya Likochenko,Виктория Ликоченко,1998-09-07,Amateur Teen 17-19,63.4,-70,75,80,,80,50,55,60,,60,90,100,,,100,240,2
75,SBD,Wraps,Yes,F,Olesya Lunegova,Олеся Лунегова,1989-08-22,Amateur Open,74.65,95,-100,100,,100,-65,-65,-65,,,,,,,,,DQ
82.5,D,Raw,Yes,F,Elena Nikolenko,Елена Николенко,1978-06-15,Amateur Open,79.3,,,,,,,,,,,115,122.5,-127.5,,122.5,122.5,1
82.5,SBD,Wraps,Yes,F,Tatyana Knaub,Татьяна Кнауб,1974-07-04,Amateur Open,75.35,-85,-85,-90,,,-50,,,,,,,,,,,DQ
82.5,D,Raw,Yes,F,Tatyana Knaub,Татьяна Кнауб,1974-07-04,Amateur Open,75.35,,,,,,,,,,,-105,,,,,,DQ
82.5,D,Raw,Yes,F,Tatyana Knaub,Татьяна Кнауб,1974-07-04,Amateur Open,75.35,,,,,,,,,,,-105,,,,,,DQ
82.5,D,Raw,Yes,F,Tatyana Knaub,Татьяна Кнауб,1974-07-04,Amateur Open,75.35,,,,,,,,,,,-105,,,,,,DQ
90+,SBD,Wraps,Yes,F,Anna Chigareva,Анна Чигарева,1974-06-27,Amateur Masters 40-49,99.35,120,130,140,,140,67.5,72.5,-75,,72.5,165,175,-180,,175,387.5,1
75,S,Wraps,Yes,M,Igor Stupnikov,Игорь Ступников,1995-05-14,Amateur Juniors 20-23,67.8,80,95,-105,,95,,,,,,,,,,,95,2
75,S,Wraps,Yes,M,Maksim Pudov,Максим Пудов,1995-08-28,Amateur Juniors 20-23,70.3,70,80,90,,90,,,,,,,,,,,90,4
75,S,Wraps,Yes,M,Roman Derendyaev,Роман Дерендяев,1997-07-04,Amateur Teen 17-19,68.4,95,110,125,,125,,,,,,,,,,,125,1
75,S,Wraps,Yes,M,Roman Derendyaev,Роман Дерендяев,1997-07-04,Amateur Teen 17-19,69.1,,,,,,,,,,,,,,,,,DQ
82.5,S,Wraps,Yes,M,Eduard Ibragimov,Эдуард Ибрагимов,1996-07-06,Amateur Teen 17-19,81.4,,,,,,,,,,,,,,,,,DQ
100,S,Wraps,Yes,M,Sergey Borisov,Сергей Борисов,1995-10-31,Amateur Juniors 20-23,92.1,100,135,145,,145,,,,,,,,,,,145,2
100,S,Wraps,Yes,M,Sergey Borisov,Сергей Борисов,1995-10-31,Amateur Juniors 20-23,92.1,100,,,,100,,,,,,,,,,,100,4
100,S,Wraps,Yes,M,Maksim Sitnikov,Максим Ситников,1998-03-26,Amateur Teen 17-19,97.35,225,237.5,-250,,237.5,,,,,,,,,,,237.5,1
52,S,Wraps,Yes,F,Viktoriya Minalenko,Виктория Миналенко,1995-05-23,Amateur Juniors 20-23,50.45,-55,70,-75,,70,,,,,,,,,,,70,1
56,S,Wraps,Yes,F,Yana Kungurova,Яна Кунгурова,1996-02-15,Amateur Teen 17-19,53.6,65,-80,-92.5,,65,,,,,,,,,,,65,1
60,D,Raw,Yes,M,Artem Oganisyan,Артем Оганисян,1998-05-06,Amateur Teen 17-19,59.45,,,,,,,,,,,190,-210,-210,,190,190,1
67.5,D,Raw,Yes,M,Andrey Kolbin,Андрей Колбин,1984-07-22,Amateur Open,66.85,,,,,,,,,,,175,-192.5,-192.5,,175,175,2
67.5,D,Raw,Yes,M,Egor Chuykov,Егор Чуйков,1998-10-01,Amateur Teen 17-19,64.85,,,,,,,,,,,140,150,-167.5,,150,150,3
75,D,Raw,Yes,M,Andrey Rogozhkin,Андрей Рогожкин,1995-06-11,Amateur Juniors 20-23,68.3,,,,,,,,,,,-110,110,135,,135,135,3
75,D,Raw,Yes,M,Andrey Rogozhkin,Андрей Рогожкин,1995-06-11,Amateur Juniors 20-23,68.3,,,,,,,,,,,-110,110,135,,135,135,4
75,D,Raw,Yes,M,Evgeniy Brattsev,Евгений Братцев,1989-06-26,Amateur Open,71.5,,,,,,,,,,,-195,195,-205,,195,195,2
75,D,Raw,Yes,M,Dmitriy Vyatkin,Дмитрий Вяткин,1991-11-28,Amateur Open,71.05,,,,,,,,,,,200,205,-210,,205,205,1
75,D,Raw,Yes,M,Vladislav Ranyuk,Владислав Ранюк,1997-05-18,Amateur Teen 17-19,74,,,,,,,,,,,190,205,-210,,205,205,2
75,D,Raw,Yes,M,Roman Fedotov,Роман Федотов,1998-09-18,Amateur Teen 17-19,72.35,,,,,,,,,,,180,190,-195,,190,190,4
75,D,Raw,Yes,M,Aleksandr Talanov,Александр Таланов,1998-02-04,Amateur Teen 17-19,72.3,,,,,,,,,,,155,167.5,180,,180,180,6
75,D,Raw,Yes,M,Viktor Frolov,Виктор Фролов,1997-02-05,Amateur Teen 17-19,71.4,,,,,,,,,,,-170,-180,-180,,,,DQ
82.5,D,Raw,Yes,M,Nikolay Efanov,Николай Ефанов,1958-07-10,Amateur Masters 50-59,82.3,,,,,,,,,,,190,202.5,-207.5,,202.5,202.5,2
82.5,D,Raw,Yes,M,Nikolay German,Николай Герман,1991-03-20,Amateur Open,82.1,,,,,,,,,,,-255,255,270,,270,270,1
82.5,D,Raw,Yes,M,Anton Smirnov,Антон Смирнов,1986-03-04,Amateur Open,77.65,,,,,,,,,,,180,195,200,,200,200,4
82.5,D,Raw,Yes,M,Aleksandr Cherkashin,Александр Черкашин,1997-12-28,Amateur Teen 17-19,81,,,,,,,,,,,235,242.5,247.5,,247.5,247.5,2
82.5,D,Raw,Yes,M,Danil Akatov,Данил Акатов,1996-04-05,Amateur Teen 17-19,77.8,,,,,,,,,,,175,187.5,-200,,187.5,187.5,5
90,D,Raw,Yes,M,Dmitriy Vovikov,Дмитрий Вовиков,1984-10-09,Amateur Open,87.35,,,,,,,,,,,210,-225,225,,225,225,3
90,D,Raw,Yes,M,Grigoriy Agarkov,Григорий Агарков,1978-10-31,Amateur Open,89.9,,,,,,,,,,,-242.5,-242.5,-242.5,,,,DQ
90,D,Raw,Yes,M,Grigoriy Agarkov,Григорий Агарков,1978-10-31,Amateur Open,89.9,,,,,,,,,,,-242.5,,,,,,DQ
100,D,Raw,Yes,M,Vyacheslav Nikolaev,Вячеслав Николаев,1956-07-10,Amateur Masters 50-59,97.6,,,,,,,,,,,-197.5,197.5,-205,,197.5,197.5,2
100,D,Raw,Yes,M,Sergey Osipov,Сергей Осипов,1989-10-02,Amateur Open,97.75,,,,,,,,,,,200,210,215,,215,215,3
100,D,Raw,Yes,M,Anton Kazantsev,Антон Казанцев,1986-04-11,Amateur Open,93.1,,,,,,,,,,,210,230,240,,240,240,2
100,D,Raw,Yes,M,Aleksandr Braslavskiy,Александр Браславский,1989-02-15,Amateur Open,92.2,,,,,,,,,,,180,190,205,,205,205,5
110,D,Raw,Yes,M,Dmitriy Surzhik,Дмитрий Суржик,1994-03-09,Amateur Juniors 20-23,104.6,,,,,,,,,,,220,230,242.5,,242.5,242.5,1
110,D,Raw,Yes,M,Aleksey Yasinskiy,Алексей Ясинский,1999-03-30,Amateur Teen 14-16,106.35,,,,,,,,,,,190,210,222.5,,222.5,222.5,1
125,D,Raw,Yes,M,Roman Moyseets,Роман Мойсеец,1979-07-18,Amateur Open,114.25,,,,,,,,,,,250,267.5,,,267.5,267.5,3
125,D,Raw,Yes,M,Vladislav Radchenko,Владислав Радченко,1997-12-07,Amateur Teen 17-19,124.8,,,,,,,,,,,230,250,255,,255,255,1
48,D,Raw,Yes,F,Galina Elchina,Галина Ельчина,1968-06-08,Amateur Masters 40-49,47.95,,,,,,,,,,,90,-100,-100,,90,90,2
52,D,Raw,Yes,F,Natalya Varnavskaya,Наталья Варнавская,1983-05-17,Amateur Open,51.75,,,,,,,,,,,95,102.5,110,,110,110,1
52,D,Raw,Yes,F,Kseniya Fedorova,Ксения Федорова,1987-11-09,Amateur Open,48.3,,,,,,,,,,,90,100,107.5,,107.5,107.5,3
56,D,Raw,Yes,F,Alina Gagarina,Алина Гагарина,1995-06-14,Amateur Juniors 20-23,55.7,,,,,,,,,,,107.5,125,-132.5,,125,125,2
56,D,Raw,Yes,F,Larisa Chernobaeva,Лариса Чернобаева,1980-12-22,Amateur Open,55.35,,,,,,,,,,,127.5,135,140,,140,140,1
56,D,Raw,Yes,F,Ekaterina Anoshkina,Екатерина Аношкина,1999-03-22,Amateur Teen 14-16,55.55,,,,,,,,,,,100,107.5,-112.5,,107.5,107.5,2
56,D,Raw,Yes,F,Nadezhda Grekova,Надежда Грекова,1997-04-21,Amateur Teen 17-19,55.2,,,,,,,,,,,-110,110,115,,115,115,1
60,D,Raw,Yes,F,Anastasiya Noskova,Анастасия Носкова,1984-02-14,Amateur Open,57.7,,,,,,,,,,,155,165,-175,,165,165,1
60,D,Raw,Yes,F,Polina Ivanova,Полина Иванова,1986-09-27,Amateur Open,59.3,,,,,,,,,,,127.5,135,-140,,135,135,2
60,D,Raw,Yes,F,Olga Glamazdina,Ольга Гламаздина,1981-02-28,Amateur Open,58.6,,,,,,,,,,,-110,110,115,,115,115,4
67.5,D,Raw,Yes,F,Anastasiya Kochurina,Анастасия Кочурина,1995-09-15,Amateur Juniors 20-23,67.15,,,,,,,,,,,110,-120,-120,,110,110,1
67.5,D,Raw,Yes,F,Galina Abramova,Галина Абрамова,1989-06-19,Amateur Open,66.25,,,,,,,,,,,140,155,165,170,165,165,1
67.5,D,Raw,Yes,F,Kseniya Merkulova,Ксения Меркулова,1988-09-18,Amateur Open,62.55,,,,,,,,,,,110,122.5,127.5,,127.5,127.5,3
82.5,D,Raw,Yes,F,Elena Nikolenko,Елена Николенко,1978-06-15,Amateur Open,79.3,,,,,,,,,,,115,122.5,-127.5,,122.5,122.5,2
82.5,D,Raw,Yes,F,Tatyana Knaub,Татьяна Кнауб,1974-07-04,Amateur Open,75.35,,,,,,,,,,,-105,,,,,,DQ
82.5,D,Raw,Yes,F,Tatyana Knaub,Татьяна Кнауб,1974-07-04,Amateur Open,75.35,,,,,,,,,,,-105,,,,,,DQ
82.5,D,Raw,Yes,F,Tatyana Knaub,Татьяна Кнауб,1974-07-04,Amateur Open,75.35,,,,,,,,,,,-105,,,,,,DQ
90+,D,Raw,Yes,F,Anna Chigareva,Анна Чигарева,1974-06-27,Amateur Masters 40-49,99.35,,,,,,,,,,,165,175,-180,,175,175,1
60,D,Multi-ply,Yes,M,Maksim Kovalev,Максим Ковалев,1987-01-28,Amateur Open,60,,,,,,,,,,,172.5,185,-197.5,,185,185,1
75,D,Multi-ply,Yes,M,Evgeniy Bykov,Евгений Быков,1984-08-02,Amateur Open,74.2,,,,,,,,,,,-200,200,,,200,200,1
82.5,D,Multi-ply,Yes,M,Sergey Fedoseev,Сергей Федосеев,1982-01-18,Amateur Open,77.4,,,,,,,,,,,160,170,-177.5,,170,170,1
52,B,Raw,Yes,M,Aleksey Parfenov,Алексей Парфенов,2000-10-28,Amateur Teen 14-16,51.7,,,,,,60,65,-72.5,,65,,,,,,65,1
56,B,Raw,Yes,M,Andrey Borodenko,Андрей Бороденко,1996-02-26,Amateur Teen 17-19,53.75,,,,,,77.5,-82.5,-82.5,,77.5,,,,,,77.5,1
60,B,Raw,Yes,M,Dmitriy Damer,Дмитрий Дамер,2004-04-28,Amateur Teen 13,59.25,,,,,,-45,-45,45,,45,,,,,,45,1
60,B,Raw,Yes,M,Vladislav Salnikov,Владислав Сальников,2000-10-31,Amateur Teen 14-16,59.5,,,,,,-55,-60,-60,,,,,,,,,DQ
60,B,Raw,Yes,M,Vadim Okul,Вадим Окул,1997-06-13,Amateur Teen 17-19,59.45,,,,,,97.5,-107.5,-115,,97.5,,,,,,97.5,1
60,B,Raw,Yes,M,Denis Migachev,Денис Мигачев,1998-09-04,Amateur Teen 17-19,59.25,,,,,,90,-100,-100,,90,,,,,,90,2
67.5,B,Raw,Yes,M,Denis Borovskoy,Денис Боровской,1992-10-31,Amateur Juniors 20-23,66.9,,,,,,100,110,115,,115,,,,,,115,1
67.5,B,Raw,Yes,M,Mikhail Lazutkin,Михаил Лазуткин,1995-05-02,Amateur Juniors 20-23,63.2,,,,,,95,-102.5,-110,,95,,,,,,95,2
67.5,B,Raw,Yes,M,Dmitriy Kaygorodov,Дмитрий Кайгородов,1983-09-24,Amateur Open,66.95,,,,,,150,155,157,,157,,,,,,157,1
67.5,B,Raw,Yes,M,Yuriy Zhmaev,Юрий Жмаев,1979-08-27,Amateur Open,64.45,,,,,,-120,120,127.5,,127.5,,,,,,127.5,2
67.5,B,Raw,Yes,M,Maksim Chichin,Максим Чичин,1999-07-12,Amateur Teen 14-16,66.55,,,,,,100,110,115,,115,,,,,,115,1
67.5,B,Raw,Yes,M,Yaroslav Arbatskikh,Ярослав Арбатских,1999-02-25,Amateur Teen 14-16,67.5,,,,,,85,-95,100,,100,,,,,,100,2
67.5,B,Raw,Yes,M,Matvey Pirogov,Матвей Пирогов,1999-01-05,Amateur Teen 14-16,64.1,,,,,,75,-80,-80,,75,,,,,,75,3
67.5,B,Raw,Yes,M,David Dushkin,Давид Душкин,1997-11-11,Amateur Teen 17-19,66.7,,,,,,-105,107.5,-110,,107.5,,,,,,107.5,1
67.5,B,Raw,Yes,M,Anton Temlyakov,Антон Темляков,1997-12-17,Amateur Teen 17-19,64.8,,,,,,95,100,102.5,,102.5,,,,,,102.5,2
67.5,B,Raw,Yes,M,Aleksey Chumakov,Алексей Чумаков,1997-06-16,Amateur Teen 17-19,66.55,,,,,,-120,-127.5,-127.5,,,,,,,,,DQ
75,B,Raw,Yes,M,Andrey Palchikov,Андрей Пальчиков,1995-10-20,Amateur Juniors 20-23,70.3,,,,,,137.5,145,-147.5,,145,,,,,,145,1
75,B,Raw,Yes,M,Aleksey Sidorenko,Алексей Сидоренко,1994-05-23,Amateur Juniors 20-23,71.5,,,,,,115,120,-130,,120,,,,,,120,2
75,B,Raw,Yes,M,Yaroslav Gusev,Ярослав Гусев,1995-11-25,Amateur Juniors 20-23,72.75,,,,,,-115,115,-120,,115,,,,,,115,3
75,B,Raw,Yes,M,Vladimir Ovcharov,Владимир Овчаров,1972-05-30,Amateur Masters 40-49,74,,,,,,130,-140,140,,140,,,,,,140,1
75,B,Raw,Yes,M,Yuriy Ageev,Юрий Агеев,1975-05-22,Amateur Masters 40-49,70.8,,,,,,130,132.5,-135,,132.5,,,,,,132.5,2
75,B,Raw,Yes,M,Igor Mulenko,Игорь Муленко,1966-11-16,Amateur Masters 40-49,74.55,,,,,,120,-125,125,,125,,,,,,125,3
75,B,Raw,Yes,M,Aleksandr Atamanov,Александр Атаманов,1975-10-03,Amateur Masters 40-49,73.3,,,,,,-95,-95,95,,95,,,,,,95,4
75,B,Raw,Yes,M,Artem Vasilev,Артем Васильев,1988-11-15,Amateur Open,74.55,,,,,,147.5,150,-152.5,,150,,,,,,150,3
75,B,Raw,Yes,M,Denis Shipulin,Денис Шипулин,1981-08-07,Amateur Open,73.2,,,,,,137.5,140,-142.5,,140,,,,,,140,5
75,B,Raw,Yes,M,Karen Charchyan,Карен Чарчян,1988-12-22,Amateur Open,74.95,,,,,,-130,130,-137.5,,130,,,,,,130,6
75,B,Raw,Yes,M,Roman Boger,Роман Богер,1988-12-30,Amateur Open,73.1,,,,,,115,-120,120,,120,,,,,,120,7
75,B,Raw,Yes,M,Sergey Kruglov,Сергей Круглов,1991-01-11,Amateur Open,73.15,,,,,,120,-127.5,-127.5,,120,,,,,,120,8
75,B,Raw,Yes,M,Aleksey Shatilov,Алексей Шатилов,1989-01-12,Amateur Open,74.3,,,,,,120,-125,-125,,120,,,,,,120,9
75,B,Raw,Yes,M,Nikolay Skripko,Николай Скрипко,1991-07-18,Amateur Open,73.1,,,,,,-107.5,107.5,-120,,107.5,,,,,,107.5,10
75,B,Raw,Yes,M,Semen Dyakonov,Семен Дьяконов,2001-08-21,Amateur Teen 14-16,69.3,,,,,,75,-82.5,-85,,75,,,,,,75,1
75,B,Raw,Yes,M,Semen Loginov,Семен Логинов,1999-03-08,Amateur Teen 14-16,70.8,,,,,,70,75,-80,,75,,,,,,75,2
75,B,Raw,Yes,M,Ismail Dzhumaev,Исмаил Джумаев,1996-02-23,Amateur Teen 17-19,73.65,,,,,,110,120,122.5,,122.5,,,,,,122.5,1
75,B,Raw,Yes,M,Nikita Getsiner,Никита Гецинер,1996-01-08,Amateur Teen 17-19,73.15,,,,,,110,-120,120,,120,,,,,,120,2
75,B,Raw,Yes,M,Roman Derendyaev,Роман Дерендяев,1997-07-04,Amateur Teen 17-19,69.1,,,,,,-90,90,97.5,,97.5,,,,,,97.5,3
82.5,B,Raw,Yes,M,Leonid Popov,Леонид Попов,1992-03-23,Amateur Juniors 20-23,81.45,,,,,,160,170,-172.5,,170,,,,,,170,1
82.5,B,Raw,Yes,M,Aleksandr Buynov,Александр Буйнов,1995-04-04,Amateur Juniors 20-23,78.65,,,,,,-140,140,-147.5,-147.5,140,,,,,,140,2
82.5,B,Raw,Yes,M,Ivan Konovalov,Иван Коновалов,1992-08-14,Amateur Juniors 20-23,81.9,,,,,,-130,130,-147.5,,130,,,,,,130,3
82.5,B,Raw,Yes,M,Ivan Rubanov,Иван Рубанов,1995-01-01,Amateur Juniors 20-23,82.45,,,,,,115,-125,-132.5,,115,,,,,,115,4
82.5,B,Raw,Yes,M,Matvey Mishulin,Матвей Мишулин,1995-08-24,Amateur Juniors 20-23,81.25,,,,,,-127.5,-127.5,-132.5,,,,,,,,,DQ
82.5,B,Raw,Yes,M,Leonid Aleksandrov,Леонид Александров,1971-07-15,Amateur Masters 40-49,80.5,,,,,,142.5,-152.5,152.5,,152.5,,,,,,152.5,1
82.5,B,Raw,Yes,M,Lev Aseev,Лев Асеев,1971-09-02,Amateur Masters 40-49,79.65,,,,,,130,-135,-135,,130,,,,,,130,3
82.5,B,Raw,Yes,M,Maksim Mikhaelis,Максим Михаэлис,1974-11-15,Amateur Masters 40-49,80.2,,,,,,-125,-125,-125,,,,,,,,,DQ
82.5,B,Raw,Yes,M,Viktor Shleyfer,Виктор Шлейфер,1948-07-23,Amateur Masters 60-69,80.05,,,,,,95,100,-110,,100,,,,,,100,1
82.5,B,Raw,Yes,M,Nikolay Vishnyakov,Николай Вишняков,1988-04-24,Amateur Open,81.55,,,,,,160,170,,,170,,,,,,170,1
82.5,B,Raw,Yes,M,Dmitriy Levtsov,Дмитрий Левцов,1981-02-11,Amateur Open,81.6,,,,,,160,-170,170,,170,,,,,,170,2
82.5,B,Raw,Yes,M,Roman Khromov,Роман Хромов,1989-06-26,Amateur Open,80.75,,,,,,150,160,162.5,,162.5,,,,,,162.5,3
82.5,B,Raw,Yes,M,Mikhail Zharov,Михаил Жаров,1989-08-04,Amateur Open,80.3,,,,,,150,155,160,,160,,,,,,160,4
82.5,B,Raw,Yes,M,Nikolay Kashevarov,Николай Кашеваров,1987-03-02,Amateur Open,80.75,,,,,,160,-165,-170,,160,,,,,,160,5
82.5,B,Raw,Yes,M,Yuriy Nogay,Юрий Ногай,1983-05-26,Amateur Open,81.5,,,,,,145,150,155,,155,,,,,,155,6
82.5,B,Raw,Yes,M,Denis Simakhin,Денис Симахин,1982-01-19,Amateur Open,82.4,,,,,,145,155,-160,,155,,,,,,155,8
82.5,B,Raw,Yes,M,Khuseyn Ishmatov,Хусейн Ишматов,1978-01-08,Amateur Open,76.7,,,,,,135,145,147.5,,147.5,,,,,,147.5,9
82.5,B,Raw,Yes,M,Dmitriy Sherin,Дмитрий Шерин,1991-02-17,Amateur Open,82.1,,,,,,137.5,147.5,-157.5,,147.5,,,,,,147.5,10
82.5,B,Raw,Yes,M,Evgeni Ikryannikov,Евгени Икрянников,1990-03-24,Amateur Open,78,,,,,,130,-140,140,,140,,,,,,140,12
82.5,B,Raw,Yes,M,Andrey Rubtsov,Андрей Рубцов,1978-04-20,Amateur Open,79.65,,,,,,140,-147.5,-147.5,,140,,,,,,140,13
82.5,B,Raw,Yes,M,Ivan Uspenskiy,Иван Успенский,1991-02-23,Amateur Open,82,,,,,,130,135,-140,,135,,,,,,135,15
82.5,B,Raw,Yes,M,Yuriy Kukhterin,Юрий Кухтерин,1990-02-02,Amateur Open,77.95,,,,,,130,-135,-135,,130,,,,,,130,16
82.5,B,Raw,Yes,M,Aleksey Slobozhanin,Алексей Слобожанин,1985-06-20,Amateur Open,80.6,,,,,,130,-147.5,-147.5,,130,,,,,,130,17
82.5,B,Raw,Yes,M,Aleksandr Volkov,Александр Волков,1979-05-23,Amateur Open,81.25,,,,,,120,130,-135,,130,,,,,,130,18
82.5,B,Raw,Yes,M,Egor Zaytsev,Егор Зайцев,1991-08-14,Amateur Open,81.6,,,,,,115,-125.5,-125.5,,115,,,,,,115,19
82.5,B,Raw,Yes,M,Aleksandr Litvinenko,Александр Литвиненко,1983-02-24,Amateur Open,78.85,,,,,,80,92.5,-100,,92.5,,,,,,92.5,20
82.5,B,Raw,Yes,M,Andrey Okushko,Андрей Окушко,1982-01-21,Amateur Open,81.3,,,,,,-150,-150,-165,,,,,,,,,DQ
82.5,B,Raw,Yes,M,Nikolay Kuzmin,Николай Кузьмин,1999-06-26,Amateur Teen 14-16,80.5,,,,,,-117.5,117.5,-130,,117.5,,,,,,117.5,1
82.5,B,Raw,Yes,M,Eduard Ibragimov,Эдуард Ибрагимов,1996-07-06,Amateur Teen 17-19,81.4,,,,,,130,135,-140,,135,,,,,,135,1
82.5,B,Raw,Yes,M,Roman Zinkov,Роман Зинков,1996-09-26,Amateur Teen 17-19,80.75,,,,,,-125,125,130,,130,,,,,,130,2
90,B,Raw,Yes,M,Semen Mardanshin,Семен Марданшин,1992-11-11,Amateur Juniors 20-23,88.2,,,,,,135,145,155,,155,,,,,,155,2
90,B,Raw,Yes,M,Aleksandr Vorobev,Александр Воробьев,1993-11-29,Amateur Juniors 20-23,87.5,,,,,,135,140,147.5,,147.5,,,,,,147.5,3
90,B,Raw,Yes,M,Aleksey Sergienko,Алексей Сергиенко,1993-05-25,Amateur Juniors 20-23,86.2,,,,,,130,-135,-135,,130,,,,,,130,4
90,B,Raw,Yes,M,Yuriy Rubanov,Юрий Рубанов,1967-11-28,Amateur Masters 40-49,89.45,,,,,,160,165,170,,170,,,,,,170,1
90,B,Raw,Yes,M,Evgeniy Timoshkin,Евгений Тимошкин,1973-04-05,Amateur Masters 40-49,87.1,,,,,,145,155,160,,160,,,,,,160,2
90,B,Raw,Yes,M,Gennadiy Poduev,Геннадий Подуев,1971-04-10,Amateur Masters 40-49,88.8,,,,,,-140,140,-150,,140,,,,,,140,3
90,B,Raw,Yes,M,Vladimir Chumakov,Владимир Чумаков,1964-03-18,Amateur Masters 50-59,89.85,,,,,,130,-140,-140,,130,,,,,,130,1
90,B,Raw,Yes,M,Aleksadr Razmakhnin,Алексадр Размахнин,1951-08-08,Amateur Masters 60-69,87.8,,,,,,115,125,127.5,,127.5,,,,,,127.5,2
90,B,Raw,Yes,M,Bogdan Yakimchuk,Богдан Якимчук,1986-07-29,Amateur Open,88.35,,,,,,-160,160,165,,165,,,,,,165,5
90,B,Raw,Yes,M,Evgeniy Timoshkin,Евгений Тимошкин,1973-04-05,Amateur Open,87.1,,,,,,145,155,160,,160,,,,,,160,7
90,B,Raw,Yes,M,Ivan Frolov,Иван Фролов,1988-12-15,Amateur Open,89.8,,,,,,147.5,-155,155,,155,,,,,,155,8
90,B,Raw,Yes,M,Sergey Lodzhanskiy,Сергей Лоджанский,1990-02-23,Amateur Open,88,,,,,,145,150,-155,,150,,,,,,150,9
90,B,Raw,Yes,M,Khamza Irgashev,Хамза Иргашев,1986-11-21,Amateur Open,89.8,,,,,,147.5,150,-155,,150,,,,,,150,10
90,B,Raw,Yes,M,Artem Gomolko,Артем Гомолко,1987-12-24,Amateur Open,88.4,,,,,,140,147.5,-155,,147.5,,,,,,147.5,12
90,B,Raw,Yes,M,Anton Ivlev,Антон Ивлев,1986-10-26,Amateur Open,88.7,,,,,,-135,-145,145,,145,,,,,,145,13
90,B,Raw,Yes,M,Denis Kaygorodtsev,Денис Кайгородцев,1978-09-09,Amateur Open,85.3,,,,,,130,140,142.5,,142.5,,,,,,142.5,14
90,B,Raw,Yes,M,Stanislav Zolotukhin,Станислав Золотухин,1986-08-21,Amateur Open,89.95,,,,,,142.5,-155,-155,,142.5,,,,,,142.5,15
90,B,Raw,Yes,M,Aleksandr Efremov,Александр Ефремов,1983-05-20,Amateur Open,89.5,,,,,,130,135,-140,,135,,,,,,135,16
90,B,Raw,Yes,M,Andrey Lazarev,Андрей Лазарев,1982-11-17,Amateur Open,86.05,,,,,,-125,-125,-125,,,,,,,,,DQ
90,B,Raw,Yes,M,Stepan Slobozhanin,Степан Слобожанин,1988-04-02,Amateur Open,87.75,,,,,,-155,-155,-155,,,,,,,,,DQ
90,B,Raw,Yes,M,Bogdan Yakimchuk,Богдан Якимчук,1986-07-29,Amateur Open,88.35,,,,,,-160,-160,,,,,,,,,,DQ
90,B,Raw,Yes,M,Ivan Eliseev,Иван Елисеев,1985-07-17,Amateur Open,88.6,,,,,,-137.5,-140,-145,,,,,,,,,DQ
90,B,Raw,Yes,M,Yuriy Potapov,Юрий Потапов,1997-01-21,Amateur Teen 17-19,88,,,,,,-135,135,-140,,135,,,,,,135,1
90,B,Raw,Yes,M,Yaroslav Korobkov,Ярослав Коробков,1997-12-25,Amateur Teen 17-19,86.9,,,,,,120,125,-130,,125,,,,,,125,2
100,B,Raw,Yes,M,Artemiy Kuznetsov,Артемий Кузнецов,1995-10-21,Amateur Juniors 20-23,99.55,,,,,,150,157.5,162.5,,162.5,,,,,,162.5,1
100,B,Raw,Yes,M,Vasiliy Sukharev,Василий Сухарев,1993-01-14,Amateur Juniors 20-23,94.7,,,,,,130,-142.5,-142.5,,130,,,,,,130,2
100,B,Raw,Yes,M,Vyacheslav Namakonov,Вячеслав Намаконов,1970-10-18,Amateur Masters 40-49,98.75,,,,,,155,160,-165,,160,,,,,,160,1
100,B,Raw,Yes,M,Vasiliy Mandzyuk,Василий Мандзюк,1971-08-08,Amateur Masters 40-49,98.15,,,,,,-150,150,-155,,150,,,,,,150,3
100,B,Raw,Yes,M,Vyacheslav Nikolaev,Вячеслав Николаев,1956-07-10,Amateur Masters 50-59,98.25,,,,,,130,-137.5,137.5,,137.5,,,,,,137.5,1
100,B,Raw,Yes,M,Dmitriy Kruglov,Дмитрий Круглов,1955-05-09,Amateur Masters 60-69,97.85,,,,,,115,-125,-125,,115,,,,,,115,1
100,B,Raw,Yes,M,Sergey Angel,Сергей Ангел,1955-03-25,Amateur Masters 60-69,98.4,,,,,,100,-105,-105,,100,,,,,,100,2
100,B,Raw,Yes,M,Sergey Kolmychkov,Сергей Колмычков,1976-11-24,Amateur Open,99.95,,,,,,165,175,187.5,,187.5,,,,,,187.5,5
100,B,Raw,Yes,M,Mikhail Kiselev,Михаил Киселев,1976-05-29,Amateur Open,98.8,,,,,,170,175,180,,180,,,,,,180,6
100,B,Raw,Yes,M,Andrey Fufaev,Андрей Фуфаев,1983-02-05,Amateur Open,96.6,,,,,,-165,175,-187.5,,175,,,,,,175,7
100,B,Raw,Yes,M,Evgeniy Pashinskiy,Евгений Пашинский,1988-01-02,Amateur Open,96.7,,,,,,145,155,-162.5,,155,,,,,,155,9
100,B,Raw,Yes,M,Ilya Somov,Илья Сомов,1984-12-28,Amateur Open,99.25,,,,,,150,-162.5,-162.5,,150,,,,,,150,10
100,B,Raw,Yes,M,Maksim Mustafaev,Максим Мустафаев,1988-03-26,Amateur Open,96.65,,,,,,130,142.5,147.5,,147.5,,,,,,147.5,11
100,B,Raw,Yes,M,Anton Kazantsev,Антон Казанцев,1986-04-11,Amateur Open,93.1,,,,,,140,-150,-162.5,,140,,,,,,140,12
100,B,Raw,Yes,M,Mikhail Ryashentsev,Михаил Ряшенцев,1982-01-16,Amateur Open,94.75,,,,,,127.5,132.5,-140,,132.5,,,,,,132.5,14
100,B,Raw,Yes,M,Danil Krey,Данил Крей,1985-02-18,Amateur Open,98.6,,,,,,130,-142.5,-142.5,,130,,,,,,130,15
100,B,Raw,Yes,M,Vladimir Filippov,Владимир Филиппов,1979-03-10,Amateur Open,98.7,,,,,,110,120,125,,125,,,,,,125,16
100,B,Raw,Yes,M,Bondarev Maksim,Бондарев Максим,1998-08-14,Amateur Teen 17-19,98.85,,,,,,130,137.5,-142.5,,137.5,,,,,,137.5,1
110,B,Raw,Yes,M,Aleksandr Serdyukov,Александр Сердюков,1994-03-13,Amateur Juniors 20-23,107.7,,,,,,172.5,180,-185,,180,,,,,,180,2
110,B,Raw,Yes,M,Anton Frolov,Антон Фролов,1992-12-10,Amateur Juniors 20-23,107.2,,,,,,150,160,-167.5,,160,,,,,,160,3
110,B,Raw,Yes,M,Vitaliy Cherepennikov,Виталий Черепенников,1993-02-16,Amateur Juniors 20-23,105.8,,,,,,-120,120,-125,,120,,,,,,120,5
110,B,Raw,Yes,M,Evgeniy Antukh,Евгений Антух,1972-10-13,Amateur Masters 40-49,108.35,,,,,,167.5,172.5,-177.5,,172.5,,,,,,172.5,3
110,B,Raw,Yes,M,Aleksandr Gryaznov,Александр Грязнов,1974-06-08,Amateur Masters 40-49,103.85,,,,,,155,162.5,170,,170,,,,,,170,4
110,B,Raw,Yes,M,Dmitriy Melkov,Дмитрий Мельков,1971-03-18,Amateur Masters 40-49,109.65,,,,,,-150,-150,150,,150,,,,,,150,5
110,B,Raw,Yes,M,Ravil Duseev,Равиль Дусеев,1963-12-29,Amateur Masters 50-59,103.9,,,,,,130,140,152.5,,152.5,,,,,,152.5,2
110,B,Raw,Yes,M,Maksim Starosvetskiy,Максим Старосветский,1975-04-10,Amateur Open,108.95,,,,,,190,195,200,,200,,,,,,200,2
110,B,Raw,Yes,M,Evgeniy Antukh,Евгений Антух,1972-10-13,Amateur Open,108.35,,,,,,167.5,172.5,-177.5,,172.5,,,,,,172.5,5
110,B,Raw,Yes,M,Sergey Fayler,Сергей Файлер,1984-04-02,Amateur Open,108.3,,,,,,160,-167.5,-167.5,,160,,,,,,160,6
110,B,Raw,Yes,M,Ivan Golubev,Иван Голубев,1985-11-29,Amateur Open,106.8,,,,,,147.5,155,-157.5,,155,,,,,,155,7
125,B,Raw,Yes,M,Suleyman Musaev,Сулейман Мусаев,1973-03-10,Amateur Masters 40-49,124.8,,,,,,165,170,-175,,170,,,,,,170,1
125,B,Raw,Yes,M,Vladimir Samoylov,Владимир Самойлов,1991-05-09,Amateur Open,120.9,,,,,,190,197.5,-200,,197.5,,,,,,197.5,3
140,B,Raw,Yes,M,Sergey Stukalov,Сергей Стукалов,1962-07-07,Amateur Masters 50-59,128.75,,,,,,-155,155,160,,160,,,,,,160,1
140,B,Raw,Yes,M,Roman Nikishin,Роман Никишин,1982-01-19,Amateur Open,127.4,,,,,,185,190,-195,,190,,,,,,190,1
44,B,Raw,Yes,F,Tatyana Lapteva,Татьяна Лаптева,1974-08-05,Amateur Masters 40-49,43.15,,,,,,-40,-42.5,-42.5,,,,,,,,,DQ
48,B,Raw,Yes,F,Olesya Khristenko,Олеся Христенко,1994-11-14,Amateur Juniors 20-23,46.8,,,,,,30,-35,-35,,30,,,,,,30,1
48,B,Raw,Yes,F,Nonna Starostina,Нонна Старостина,1969-12-02,Amateur Masters 40-49,48,,,,,,-40,-45,-45,,,,,,,,,DQ
48,B,Raw,Yes,F,Anna Galkina,Анна Галкина,1991-11-11,Amateur Open,47.25,,,,,,60,65,-72.5,,65,,,,,,65,1
48,B,Raw,Yes,F,Mila Lobanova,Мила Лобанова,1987-08-30,Amateur Open,45.75,,,,,,47.5,-50,-50,,47.5,,,,,,47.5,2
48,B,Raw,Yes,F,Mariya Okhramenko,Мария Охраменко,1990-10-27,Amateur Open,45.65,,,,,,-45,-45,-45,,,,,,,,,DQ
48,B,Raw,Yes,F,Elena Chernysheva,Елена Чернышева,1998-01-30,Amateur Teen 17-19,46.8,,,,,,-47.5,,,,,,,,,,,DQ
52,B,Raw,Yes,F,Elena Diss,Елена Дисс,1972-01-10,Amateur Masters 40-49,50.45,,,,,,55,-60,60,,60,,,,,,60,1
52,B,Raw,Yes,F,Natalya Melnikova,Наталья Мельникова,1979-05-24,Amateur Open,51.85,,,,,,47.5,-52.5,-52.5,,47.5,,,,,,47.5,1
52,B,Raw,Yes,F,Elena Russkikh,Елена Русских,1986-06-09,Amateur Open,48.35,,,,,,35,37.5,40,,40,,,,,,40,2
52,B,Raw,Yes,F,Ulyana Lukyanenko,Ульяна Лукьяненко,1999-03-02,Amateur Teen 14-16,51.75,,,,,,-52.5,-52.5,52.5,-60.5,52.5,,,,,,52.5,1
52,B,Raw,Yes,F,Svetlana Tolosheva,Светлана Толошева,1998-06-30,Amateur Teen 17-19,51,,,,,,-45,-45,-45,,,,,,,,,DQ
56,B,Raw,Yes,F,Alena Prosunchenko,Алена Просунченко,1993-08-04,Amateur Juniors 20-23,56,,,,,,65,70,-72.5,,70,,,,,,70,1
56,B,Raw,Yes,F,Alina Gagarina,Алина Гагарина,1995-06-14,Amateur Juniors 20-23,55.9,,,,,,57.5,60,-65,,60,,,,,,60,2
56,B,Raw,Yes,F,Valeriya Duseeva,Валерия Дусеева,1991-02-03,Amateur Open,56,,,,,,67.5,72.5,-75,,72.5,,,,,,72.5,1
56,B,Raw,Yes,F,Alina Ogorodnikova,Алина Огородникова,1997-01-20,Amateur Teen 17-19,55.3,,,,,,60,-72.5,-72.5,,60,,,,,,60,1
60,B,Raw,Yes,F,Yana Tsukanova,Яна Цуканова,2000-01-31,Amateur Teen 14-16,59.1,,,,,,55,60,62.5,,62.5,,,,,,62.5,1
67.5,B,Raw,Yes,F,Valentina Evsyukova,Валентина Евсюкова,1992-10-12,Amateur Juniors 20-23,66.1,,,,,,-60,67.5,-72.5,,67.5,,,,,,67.5,1
67.5,B,Raw,Yes,F,Nina Mayzinger,Нина Майзингер,1993-12-30,Amateur Juniors 20-23,63.7,,,,,,-42.5,42.5,-47.5,,42.5,,,,,,42.5,2
67.5,B,Raw,Yes,F,Darya Garaeva,Дарья Гараева,1999-10-07,Amateur Teen 14-16,61.1,,,,,,57.5,-60,-60,,57.5,,,,,,57.5,1
67.5,B,Raw,Yes,F,Ekaterina Rubtsova,Екатерина Рубцова,1996-04-01,Amateur Teen 17-19,64.95,,,,,,-72.5,72.5,-77.5,,72.5,,,,,,72.5,1
75,B,Raw,Yes,F,Ekaterina Koshkareva,Екатерина Кошкарева,1991-08-22,Amateur Open,68.1,,,,,,60,-65,-67.5,,60,,,,,,60,2
90,B,Raw,Yes,F,Viktoriya Shemetova,Виктория Шеметова,1973-05-29,Amateur Masters 40-49,88.45,,,,,,82.5,85,87.5,,87.5,,,,,,87.5,1
90,B,Raw,Yes,F,Viktoriya Shemetova,Виктория Шеметова,1973-05-29,Amateur Open,88.45,,,,,,82.5,85,87.5,,87.5,,,,,,87.5,1
90,B,Raw,Yes,F,Natalya Cherkasova,Наталья Черкасова,1977-01-26,Amateur Open,83.2,,,,,,-65,65,-70,,65,,,,,,65,2
90+,B,Raw,Yes,F,Elena Skobyolkina,Елена Скобёлкина,1973-05-24,Amateur Masters 40-49,106.85,,,,,,60,70,75,,75,,,,,,75,1
90+,B,Raw,Yes,F,Yuliya Tulinova,Юлия Тулинова,1979-07-08,Amateur Open,94.95,,,,,,77.5,85,-90,,85,,,,,,85,1
75,B,Multi-ply,Yes,M,Grigoriy Timchenko,Григорий Тимченко,1989-08-17,Amateur Open,73.6,,,,,,-170,-170,-180,,,,,,,,,DQ
82.5,B,Multi-ply,Yes,M,Artem Bykhovets,Артем Быховец,1983-07-19,Amateur Open,82.35,,,,,,212.5,-232.5,-232.5,,212.5,,,,,,212.5,1
82.5,B,Multi-ply,Yes,M,Dmitriy Kondaurov,Дмитрий Кондауров,1989-07-19,Amateur Open,82.15,,,,,,195,202.5,-207.5,,202.5,,,,,,202.5,2
90,B,Multi-ply,Yes,M,Mikhail Turkin,Михаил Туркин,1969-04-17,Amateur Masters 40-49,89.35,,,,,,175,-190,-190,,175,,,,,,175,2
90,B,Multi-ply,Yes,M,Evgeniy Kotukhov,Евгений Котухов,1989-09-24,Amateur Open,89.35,,,,,,210,-217.5,-217.5,,210,,,,,,210,1
100,B,Multi-ply,Yes,M,Nikolay Naymushin,Николай Наймушин,1993-08-13,Amateur Juniors 20-23,90.25,,,,,,170,180,-192.5,,180,,,,,,180,1
100,B,Multi-ply,Yes,M,Artem Segov,Артем Сегов,1988-04-20,Amateur Open,99.7,,,,,,230,250,-270,,250,,,,,,250,2
100,B,Multi-ply,Yes,M,Vladislav Mikhaylov,Владислав Михайлов,1997-07-12,Amateur Teen 17-19,98.65,,,,,,155,170,-192.5,,170,,,,,,170,2
125,B,Multi-ply,Yes,M,Vladimir Samoylov,Владимир Самойлов,1991-05-09,Amateur Open,120.9,,,,,,210,220,-240,,220,,,,,,220,1
67.5,B,Multi-ply,Yes,F,Darya Garaeva,Дарья Гараева,1999-10-07,Amateur Teen 14-16,61.1,,,,,,-75,-75,-75,,,,,,,,,DQ
67.5,B,Raw,Yes,M,Ivan Revenko,Иван Ревенко,1986-04-12,Disabled Open,61.2,,,,,,82.5,90,-100,,90,,,,,,90,1
75,B,Raw,Yes,M,Sergey Zavarukhin,Сергей Заварухин,1973-11-03,Disabled Open,70.2,,,,,,110,120,127.5,,127.5,,,,,,127.5,1
82.5,B,Raw,Yes,M,Nikolay Vishnyakov,Николай Вишняков,1988-04-24,Disabled Open,81.55,,,,,,160,170,,,170,,,,,,170,1
90,B,Raw,Yes,M,Nikolay Leshchenko,Николай Лещенко,1966-02-20,Disabled Masters 40-49,88.85,,,,,,150,160,,,160,,,,,,160,1
125,B,Raw,Yes,M,Anton Ponomarev,Антон Пономарев,1992-02-12,Disabled Juniors 20-23,110.9,,,,,,170,185,-190,,185,,,,,,185,1
125,B,Raw,Yes,M,Denis Gayduchenya,Денис Гайдученя,1980-01-19,Disabled Open,114,,,,,,130,137.5,-157.2,,137.5,,,,,,137.5,1
52,SBD,Wraps,No,M,Sergey Kungurtsev,Сергей Кунгурцев,2002-07-27,Pro Teen 13,51.85,80,87.5,-95,,87.5,65,70,-75,,70,100,110,117.5,,117.5,275,1
60,SBD,Wraps,No,M,Anton Smirnov,Антон Смирнов,1986-03-04,Pro Open,57.9,-75,75,-85,,75,55,60,65,,65,110,120,-127.5,,120,260,1
67.5,SBD,Wraps,No,M,Klim Markelov,Клим Маркелов,1995-01-06,Pro Juniors 20-23,64,-140,145,155,,155,95,102.5,-107.5,,102.5,190,210,,,210,467.5,1
67.5,SBD,Wraps,No,M,Anton Koropets,Антон Коропец,1988-04-30,Pro Open,67.3,145,160,165,,165,100,110,-115,,110,180,-200,-200,,180,455,2
67.5,SBD,Wraps,No,M,Evgeniy Tolmachev,Евгений Толмачев,1998-04-19,Pro Teen 17-19,64.45,160,-170,-170,,160,100,110,115,,115,180,190,200,,200,475,1
67.5,SBD,Wraps,No,M,Maksim Zaytsev,Максим Зайцев,1997-05-08,Pro Teen 17-19,67.5,135,-142.5,142.5,,142.5,85,90,92.5,,92.5,155,-170,182.5,,182.5,417.5,3
67.5,SBD,Wraps,No,M,Aleksandr Agafonov,Александр Агафонов,1998-06-30,Pro Teen 17-19,66,120,130,-140,,130,85,90,-95,,90,180,190,-200,,190,410,5
67.5,SBD,Wraps,No,M,Daniil Kuznetsov,Даниил Кузнецов,1998-10-31,Pro Teen 17-19,65.55,110,120,-130,,120,87.5,95,-100,,95,130,145,-155,,145,360,9
75,D,Raw,No,M,Valeriy Smirnov,Валерий Смирнов,1959-03-24,Pro Masters 50-59,73.6,,,,,,,,,,,190,200,205,,205,205,1
75,SBD,Wraps,No,M,Ilya Romanchenko,Илья Романченко,1999-04-20,Pro Teen 14-16,73.6,150,170,180,,180,105,115,120,,120,170,190,200,,200,500,1
75,SBD,Wraps,No,M,Aleksandr Paramzin,Александр Парамзин,1997-04-12,Pro Teen 17-19,72.15,150,160,170,,170,95,105,115,,115,165,-185,-207.5,,165,450,4
75,SBD,Wraps,No,M,Nikita Gurev,Никита Гурьев,1998-09-13,Pro Teen 17-19,69.95,140,150,-155,,150,80,87.5,92.5,,92.5,150,160,165,,165,407.5,6
75,SBD,Wraps,No,M,Aleksey Prikhodko,Алексей Приходько,1997-01-29,Pro Teen 17-19,74.25,130,137.5,-142.5,,137.5,87.5,92.5,95,,95,160,-170,170,,170,402.5,7
75,SBD,Wraps,No,M,Evgeniy Raspopin,Евгений Распопин,1998-02-17,Pro Teen 17-19,74.3,125,135,140,,140,90,95,-100,,95,160,-170,-170,,160,395,8
82.5,SBD,Wraps,No,M,Sergey Duka,Сергей Дука,1992-12-02,Pro Juniors 20-23,79.15,212.5,215,220,,220,-137.5,137.5,-142.5,,137.5,207.5,212.5,220,,220,577.5,1
82.5,SBD,Wraps,No,M,Denis Kochmarev,Денис Кочмарев,1981-08-27,Pro Open,82.3,205,-215,215,,215,145,152.5,-157.5,,152.5,240,-252.5,-252.5,,240,607.5,2
82.5,SBD,Wraps,No,M,Aleksey Kolesnikov,Алексей Колесников,1986-08-29,Pro Open,80.6,180,195,205,,205,137.5,142.5,147.5,,147.5,225,235,242.5,,242.5,595,3
82.5,SBD,Wraps,No,M,Vladimir Smolyaninov,Владимир Смолянинов,1979-11-02,Pro Open,81.05,190,200,-205,,200,135,140,-145,,140,200,215,220,,220,560,5
82.5,SBD,Wraps,No,M,Evgeniy Gorshenin,Евгений Горшенин,1991-12-04,Pro Open,79.95,140,-147.5,147.5,,147.5,100,105,-107.5,,105,175,190,-200,,190,442.5,7
82.5,SBD,Wraps,No,M,Aleksandr Kucherenko,Александр Кучеренко,1999-03-15,Pro Teen 14-16,78.85,125,-140,-140,,125,75,85,90,,90,145,160,-180,,160,375,1
82.5,SBD,Wraps,No,M,Dmitriy Ternovoy,Дмитрий Терновой,1997-08-22,Pro Teen 17-19,82.25,180,190,-197.5,,190,100,105,110,,110,245,-252.5,-252.5,,245,545,3
82.5,SBD,Wraps,No,M,Roman Fiskov,Роман Фисков,1998-04-30,Pro Teen 17-19,82.4,180,190,200,,200,95,100,-107.5,,100,185,200,205,,205,505,5
82.5,SBD,Wraps,No,M,Dmitriy Ternovoy,Дмитрий Терновой,1997-08-22,Pro Teen 17-19,82.25,,,,,,,,,,,,,,,,,DQ
90,SBD,Wraps,No,M,Andrey Vasilev,Андрей Васильев,1994-05-02,Pro Juniors 20-23,89.6,180,192.5,205,,205,145,155,165,,165,220,235,,,235,605,1
90,SBD,Wraps,No,M,Aleksey Zavorin,Алексей Заворин,1975-04-30,Pro Masters 40-49,90,180,190,200,,200,150,162.5,-172.5,,162.5,230,245,255,,255,617.5,1
90,SBD,Wraps,No,M,Vyacheslav Alekseev,Вячеслав Алексеев,1990-03-07,Pro Open,90,290,310,-315,,310,145,155,160,,160,290,310,315,,315,785,1
90,SBD,Wraps,No,M,Anatoliy Bedarev,Анатолий Бедарев,1989-07-04,Pro Open,87.85,210,225,240,,240,145,160,170,,170,250,265,-275,,265,675,2
90,SBD,Wraps,No,M,Aleksandr Druzhinin,Александр Дружинин,1989-05-27,Pro Open,85.5,210,230,240,,240,-150,150,160,,160,250,265,-275,,265,665,3
90,SBD,Wraps,No,M,Pavel Kopylov,Павел Копылов,1985-04-08,Pro Open,89.75,-210,-210,220,,220,150,-160,162.5,,162.5,260,270,277.5,,277.5,660,5
90,SBD,Wraps,No,M,Denis Dikov,Денис Диков,1996-01-02,Pro Open,87.65,210,220,230,,230,150,-160,-160,,150,240,-245,-245,,240,620,6
90,SBD,Wraps,No,M,Aleksey Zavorin,Алексей Заворин,1975-04-30,Pro Open,90,180,190,200,,200,150,162.5,-172.5,,162.5,230,245,255,,255,617.5,7
90,SBD,Wraps,No,M,Anton Kuropatkin,Антон Куропаткин,1984-11-21,Pro Open,87.45,200,210,-220,,210,140,150,-155,,150,250,-280,-280,,250,610,8
90,SBD,Wraps,No,M,Roman Peshkov,Роман Пешков,1991-06-23,Pro Open,88.65,185,195,200,,200,125,132.5,-140,,132.5,-230,-240,240,,240,572.5,9
90,SBD,Wraps,No,M,Sergey Bogachuk,Сергей Богачук,1989-05-30,Pro Open,90,180,190,197.5,,197.5,127.5,137.5,-140,,137.5,220,235,-247.5,,235,570,11
90,SBD,Wraps,No,M,Aleksey Pantyukhov,Алексей Пантюхов,1989-05-13,Pro Open,89.3,-190,190,-200,,190,130,140,-145,,140,210,225,-235,,225,555,12
90,SBD,Wraps,No,M,Artem Safonov #2,Артем Сафонов,1987-10-22,Pro Open,88.6,160,170,-175,,170,135,140,-142.5,,140,-220,-220,-220,,,310,15
90,D,Raw,No,M,Maksim Gorbachev,Максим Горбачев,1989-06-06,Pro Open,88.75,,,,,,,,,,,210,225,-250,,225,225,4
90,SBD,Wraps,No,M,Denis Dikov,Денис Диков,1996-01-02,Pro Teen 17-19,87.65,210,220,230,,230,150,-160,-160,,150,240,-245,-245,,240,620,1
90,SBD,Wraps,No,M,Vladislav Ventsel,Владислав Венцель,1996-12-14,Pro Teen 17-19,90,180,190,-197.5,,190,90,97.5,102.5,,102.5,220,230,-250,,230,522.5,2
90,SBD,Wraps,No,M,Andrey Nortsev,Андрей Норцев,1996-06-16,Pro Teen 17-19,88.2,-140,150,-160,,150,-110,110,117.5,,117.5,170,185,195,,195,462.5,3
90,SBD,Wraps,No,M,Maksim Kotov,Максим Котов,1996-10-13,Pro Teen 17-19,88.45,110,130,145,,145,90,100,110,,110,150,170,190,,190,445,5
100,SBD,Wraps,No,M,Kirill Yakovlev,Кирилл Яковлев,1995-02-04,Pro Juniors 20-23,97.15,160,170,180,,180,115,120,125,,125,180,195,205,,205,510,3
100,SBD,Wraps,No,M,Oleg Kaygorodov,Олег Кайгородов,1995-03-05,Pro Juniors 20-23,98.4,220,-235,235,,235,-160,-165,-165,,,,,,,,,DQ
100,SBD,Wraps,No,M,Oleg Lagunov,Олег Лагунов,1967-03-05,Pro Masters 40-49,99.95,220,235,245,,245,150,-157.5,-157.5,,150,270,290,-300,,290,685,1
100,SBD,Wraps,No,M,Vladimir Panuev,Владимир Пануев,1962-10-22,Pro Masters 50-59,99.35,190,200,,,200,130,140,-145,,140,190,,,,190,530,1
100,SBD,Wraps,No,M,Dmitriy Bashkiov,Дмитрий Башкиов,1991-11-24,Pro Open,95.6,240,247.5,252.5,,252.5,150,155,-157.5,,155,260,280,285,,285,692.5,1
100,SBD,Wraps,No,M,Kirill Kuznetsov,Кирилл Кузнецов,1991-08-26,Pro Open,99.05,230,-240,245,,245,-182.5,182.5,192.5,,192.5,237.5,247.5,252.5,,252.5,690,2
100,SBD,Wraps,No,M,Vidzhay Shaikov,Виджай Шаиков,1990-07-14,Pro Open,98.3,230,245,-255,,245,155,162.5,-170,,162.5,240,250,255,,255,662.5,3
100,SBD,Wraps,No,M,Denis Bertenev,Денис Бертенев,1987-10-10,Pro Open,99.45,200,220,230,,230,170,-180,-180,,170,260,-270,-270,,260,660,4
100,SBD,Wraps,No,M,Ivan Nikitin,Иван Никитин,1988-06-18,Pro Open,95,200,210,220,-230,220,150,160,170,,170,-220,230,250,,250,640,5
100,SBD,Wraps,No,M,Sergey Vorontsov,Сергей Воронцов,1990-09-27,Pro Open,97,-250,-270,-270,,,-170,185,200,,200,200,210,-230,,210,410,10
100,SBD,Wraps,No,M,Norik Badeyan,Норик Бадеян,1999-10-28,Pro Teen 14-16,98.45,-155,155,175,,175,95,105,-112.5,,105,165,190,-205,,190,470,2
100,SBD,Wraps,No,M,Nikita Ushkalenko,Никита Ушкаленко,1996-04-05,Pro Teen 17-19,99.05,210,220,-230,,220,140,-145,150,,150,-225,225,-230,,225,595,2
100,SBD,Wraps,No,M,Valentin Gaydul,Валентин Гайдуль,1998-09-16,Pro Teen 17-19,99.95,200,210,-215,,210,95,100,105,,105,210,225,-230,,225,540,4
100,SBD,Wraps,No,M,Dmitriy Vaganov,Дмитрий Ваганов,1997-10-29,Pro Teen 17-19,90.9,140,150,-160,,150,95,-105,-110,,95,-170,-170,170,,170,415,5
110,SBD,Wraps,No,M,Evgeniy Bagochyus,Евгений Багочюс,1992-01-16,Pro Juniors 20-23,102.9,-100,100,105,,105,-60,70,-80,,70,120,150,165,,165,340,2
110,SBD,Wraps,No,M,Oleg Efremov-Otchenash,Олег Ефремов-Отченаш,1969-12-31,Pro Masters 40-49,101.45,155,167.5,-175,,167.5,110,117.5,-125,,117.5,175,185,195,,195,480,1
110,SBD,Wraps,No,M,Mikhail Glukhov,Михаил Глухов,1988-02-02,Pro Open,108.95,225,235,-242.5,,235,175,-190,190,,190,240,,,,240,665,1
110,SBD,Wraps,No,M,Artem Makhniboroda,Артем Махниборода,1989-03-28,Pro Open,107.75,210,-220,-220,,210,145,152.5,157.5,,157.5,220,-230,230,,230,597.5,2
110,SBD,Wraps,No,M,Anton Zotov,Антон Зотов,1990-07-13,Pro Open,108.85,205,-215,-215,,205,107.5,112.5,-117.5,,112.5,230,250,260,,260,577.5,3
125,SBD,Wraps,No,M,Sergey Semakin,Сергей Семакин,1978-08-29,Pro Open,116,285,300,310,,310,185,192.5,-195,,192.5,305,325,-352.5,,325,827.5,1
125,SBD,Wraps,No,M,Egor Shilov,Егор Шилов,1996-12-23,Pro Open,117.5,250,-262.5,-262.5,,250,130,140,147.5,,147.5,272.5,285,-292.5,,285,682.5,2
125,SBD,Wraps,No,M,Egor Shilov,Егор Шилов,1996-12-23,Pro Teen 17-19,117.5,250,-262.5,-262.5,,250,130,140,147.5,,147.5,272.5,285,-292.5,,285,682.5,1
140,SBD,Wraps,No,M,Nikita Shafikov,Никита Шафиков,1993-05-15,Pro Juniors 20-23,131.1,220,230,245,,245,130,140,150,,150,300,-320,325,,325,720,1
140,SBD,Wraps,No,M,Vladimir Sviridov,Владимир Свиридов,1979-08-09,Pro Open,139.15,275,280,290,,290,-180,180,-185,,180,280,300,310,,310,780,1
140+,SBD,Wraps,No,M,Ivan Tsimbal,Иван Цимбал,1996-07-25,Pro Teen 17-19,160.45,270,290,300,310.5,300,155,170,180,,180,225,245,250,,250,730,1
44,SBD,Wraps,No,F,Lyudmila Mesecha,Людмила Месеча,1994-05-20,Pro Juniors 20-23,43.7,47.5,-52.5,-52.5,,47.5,30,35,-40,,35,70,75,-80,,75,157.5,1
52,SBD,Wraps,No,F,Darya Kovichka,Дарья Ковичка,1999-03-05,Pro Teen 14-16,50.85,67.5,72.5,77.5,,77.5,32.5,-37.5,-37.5,,32.5,67.5,72.5,-77.5,,72.5,182.5,1
56,SBD,Wraps,No,F,Viktoriya Kupina,Виктория Купина,1996-04-18,Pro Teen 17-19,54.55,75,-80,80,,80,45,50,-52.5,,50,85,95,100,,100,230,2
60,SBD,Wraps,No,F,Vera Volobueva,Вера Волобуева,1957-03-23,Pro Masters 50-59,59.3,75,-80,80,,80,45,47.5,50,,50,105,-112.5,112.5,,112.5,242.5,1
67.5,SBD,Wraps,No,F,Olga Nasonova,Ольга Насонова,1996-01-31,Pro Open,66.8,140,150,160,167.5,160,85,90,92.5,,92.5,165,175,182.5,,182.5,435,1
67.5,SBD,Wraps,No,F,Irina Denisova,Ирина Денисова,1990-02-10,Pro Open,66.2,115,122.5,-127.5,,122.5,62.5,-67.5,67.5,,67.5,145,155,-160,,155,345,3
67.5,SBD,Wraps,No,F,Nadezhda Berezina,Надежда Березина,1986-07-10,Pro Open,65.45,100,110,-117.5,,110,70,75,80,,80,135,145,-155,,145,335,4
67.5,SBD,Wraps,No,F,Natalya Kukushkina,Наталья Кукушкина,1982-09-17,Pro Open,66.2,90,97.5,-102.5,,97.5,47.5,-52.5,-52.5,,47.5,127.5,132.5,-137.5,,132.5,277.5,5
67.5,SBD,Wraps,No,F,Aleksandra Skorokhodova,Александра Скороходова,1997-11-03,Pro Teen 17-19,61.5,80,85,90,,90,45,-50,-50,,45,95,100,105,,105,240,1
67.5,SBD,Wraps,No,F,Anna Rezchikova,Анна Резчикова,1998-07-21,Pro Teen 17-19,63.3,-75,75,82.5,,82.5,40,45,-47.5,,45,100,105,110,,110,237.5,3
75,SBD,Wraps,No,F,Irina Makasher,Ирина Макашер,1990-02-24,Pro Open,73.8,-85,85,92.5,,92.5,50,55,-57.5,,55,105,112.5,-117.5,,112.5,260,1
75,SBD,Wraps,No,F,Anzhelika Flyaum,Анжелика Фляум,1998-11-21,Pro Teen 17-19,68.65,-75,75,-80,,75,35,40,42.5,,42.5,75,80,-82.5,,80,197.5,1
82.5,SBD,Wraps,No,F,Anastasiya Ostapenko,Анастасия Остапенко,1998-04-19,Pro Teen 17-19,78.95,90,100,-107.5,,100,57.5,67.5,70,,70,110,120,137.5,,137.5,307.5,1
90,SBD,Wraps,No,F,Olga Gerasimyuk,Ольга Герасимюк,1996-03-01,Pro Open,89.2,150,160,170,,170,87.5,90,95,,95,170,180,190,,190,455,1
67.5,SBD,Multi-ply,No,M,Evgeniy Gansh,Евгений Ганш,1992-04-10,Pro Open,67.35,-280,-290,-290,,,,,,,,-260,,,,,,DQ
82.5,SBD,Multi-ply,No,M,Dmitriy Khovanskiy,Дмитрий Хованский,1986-05-26,Pro Open,82.2,260,-280,-280,,260,205,210,-215,,210,-240,-240,-240,,,470,1
90,SBD,Multi-ply,No,M,Aleksandr Alekseev,Александр Алексеев,1980-11-23,Pro Open,86.6,-240,240,255,,255,150,160,,,160,-220,220,235,,235,650,1
110,SBD,Multi-ply,No,M,Ivan Vasyunin,Иван Васюнин,1983-08-01,Pro Open,102.75,-380,-400,400,,400,285,300,,,300,320,-352.5,-352.5,,320,1020,1
125,SBD,Multi-ply,No,M,Aleksandr Shelepov,Александр Шелепов,1990-07-01,Pro Open,115.55,250,265,275,,275,185,-195,-195,,185,210,225,-252.5,,225,685,1
56,B,Raw,No,M,Sergey Synkov,Сергей Сынков,2001-11-26,Pro Teen 14-16,56,,,,,,75,82.5,-90,,82.5,,,,,,82.5,1
67.5,B,Raw,No,M,Nikolay Emelyanov #2,Николай Емельянов,1963-12-30,Pro Masters 50-59,66.9,,,,,,90,100,-105,,100,,,,,,100,1
75,B,Raw,No,M,Aleksey Yachnev,Алексей Ячнев,1961-09-06,Pro Masters 50-59,73.65,,,,,,-130,130,140,,140,,,,,,140,1
75,B,Raw,No,M,Sergey Kashtanov,Сергей Каштанов,1958-06-27,Pro Masters 50-59,74.9,,,,,,125,132.5,-137.5,,132.5,,,,,,132.5,2
75,B,Raw,No,M,Evgeniy Russu,Евгений Руссу,1989-11-06,Pro Open,75,,,,,,-165,175,-182.5,,175,,,,,,175,1
75,B,Raw,No,M,Sergey Nikonov,Сергей Никонов,1986-06-17,Pro Open,72.35,,,,,,140,145,150,,150,,,,,,150,2
75,B,Raw,No,M,Ilya Dugushkin,Илья Дугушкин,1986-04-11,Pro Open,74.8,,,,,,145,-155,-165,,145,,,,,,145,4
75,B,Raw,No,M,Dmitriy Komarov,Дмитрий Комаров,1996-11-08,Pro Teen 17-19,74.9,,,,,,-150,,,,,,,,,,,DQ
82.5,B,Raw,No,M,Aleksey Usmanov,Алексей Усманов,1973-02-27,Pro Masters 40-49,81.85,,,,,,130,-135,135,,135,,,,,,135,2
82.5,B,Raw,No,M,Aleksey Korobov,Алексей Коробов,1959-03-21,Pro Masters 50-59,79.3,,,,,,150,160,-170,,160,,,,,,160,1
82.5,B,Raw,No,M,Valeriy Matyushin,Валерий Матюшин,1983-06-22,Pro Open,81.6,,,,,,145,155,-160,,155,,,,,,155,7
82.5,B,Raw,No,M,Mikhail Kuleshov,Михаил Кулешов,1990-11-25,Pro Open,82.4,,,,,,130,140,145,,145,,,,,,145,11
82.5,B,Raw,No,M,Aleksey Usmanov,Алексей Усманов,1973-02-27,Pro Open,81.85,,,,,,130,-135,135,,135,,,,,,135,14
82.5,B,Raw,No,M,Ivan Khorev,Иван Хорев,1997-01-13,Pro Teen 17-19,79.2,,,,,,-90,90,110,,110,,,,,,110,3
90,B,Raw,No,M,Vladimir Buzkin,Владимир Бузькин,1994-09-21,Pro Juniors 20-23,89.6,,,,,,180,190,-195,,190,,,,,,190,1
90,B,Raw,No,M,Aleksandr Vorobev,Александр Воробьев,1993-11-29,Pro Juniors 20-23,87.5,,,,,,-87.5,,,,,,,,,,,DQ
90,B,Raw,No,M,Nikolay Bachurin,Николай Бачурин,1948-10-25,Pro Masters 60-69,89.35,,,,,,-142.5,-142.5,142.5,,142.5,,,,,,142.5,1
90,B,Raw,No,M,Evgeniy Beloval,Евгений Беловал,1991-12-06,Pro Open,89.75,,,,,,220,230,-240,,230,,,,,,230,1
90,B,Raw,No,M,Vladimir Buzkin,Владимир Бузькин,1994-09-21,Pro Open,89.6,,,,,,180,190,-195,,190,,,,,,190,2
90,B,Raw,No,M,Sergey Zhdanovich,Сергей Жданович,1979-03-31,Pro Open,89.4,,,,,,165,-177.5,177.5,,177.5,,,,,,177.5,3
90,B,Raw,No,M,Maksim Sagaydak,Максим Сагайдак,1988-07-29,Pro Open,87.4,,,,,,165,175,-185,,175,,,,,,175,4
90,B,Raw,No,M,Dmitriy Zhigulin,Дмитрий Жигулин,1981-08-16,Pro Open,88.55,,,,,,165,-175,-175,,165,,,,,,165,6
90,B,Raw,No,M,Ilya Ponomarev,Илья Пономарев,1987-02-18,Pro Open,89.8,,,,,,140,150,-160,,150,,,,,,150,11
90,B,Raw,No,M,Kirill Paramzin,Кирилл Парамзин,1991-08-20,Pro Open,89.6,,,,,,-130,130,-135,,130,,,,,,130,17
90,B,Raw,No,M,Maksim Gorbachev,Максим Горбачев,1989-06-06,Pro Open,88.75,,,,,,-210,,,,,,,,,,,DQ
90,B,Raw,No,M,Anatoliy Chumakov,Анатолий Чумаков,1988-03-30,Pro Open,89.75,,,,,,-175,-175,-180,,,,,,,,,DQ
100,B,Raw,No,M,Aleksandr Feofanov,Александр Феофанов,1972-01-17,Pro Masters 40-49,97.15,,,,,,145,-150,150,,150,,,,,,150,2
100,B,Raw,No,M,Konstantin Kovazhenko,Константин Коваженко,1978-04-17,Pro Open,98.65,,,,,,205,215,-225,,215,,,,,,215,1
100,B,Raw,No,M,David Dzugkoev,Давид Дзугкоев,1985-02-28,Pro Open,98.55,,,,,,205,-215,-225,,205,,,,,,205,2
100,B,Raw,No,M,Aleksandr Dukhinskiy,Александр Духинский,1982-11-29,Pro Open,99.8,,,,,,-195,200,-207.5,,200,,,,,,200,3
100,B,Raw,No,M,Ivan Klimenko,Иван Клименко,1980-11-10,Pro Open,99.1,,,,,,180,192.5,-197.5,,192.5,,,,,,192.5,4
100,B,Raw,No,M,Renat Kier,Ренат Киер,1983-04-13,Pro Open,98.9,,,,,,-150,157.5,-162.5,,157.5,,,,,,157.5,8
100,B,Raw,No,M,Pavel Berdin,Павел Бердин,1991-05-28,Pro Open,95.95,,,,,,140,-150,-150,,140,,,,,,140,13
100,B,Raw,No,M,Mikhail Khaprov,Михаил Хапров,1987-11-08,Pro Open,98.55,,,,,,-180,-190,-190,,,,,,,,,DQ
110,B,Raw,No,M,Aleksandr Kurmashov,Александр Курмашов,1993-07-13,Pro Juniors 20-23,105.95,,,,,,170,190,-202.5,,190,,,,,,190,1
110,B,Raw,No,M,Denis Latyntsev,Денис Латынцев,1995-05-04,Pro Juniors 20-23,105.95,,,,,,140,147.5,-155,,147.5,,,,,,147.5,4
110,B,Raw,No,M,Vasiliy Synkov,Василий Сынков,1972-09-07,Pro Masters 40-49,104,,,,,,210,220,227.5,,227.5,,,,,,227.5,1
110,B,Raw,No,M,Vladimir Kovtonyuk,Владимир Ковтонюк,1970-09-17,Pro Masters 40-49,106.85,,,,,,175,-185,185,,185,,,,,,185,2
110,B,Raw,No,M,Mikhail Ishchechkin,Михаил Ищечкин,1962-01-22,Pro Masters 50-59,107.2,,,,,,140,150,155,,155,,,,,,155,1
110,B,Raw,No,M,Evgeniy Zheltenko,Евгений Желтенко,1982-04-21,Pro Open,108.35,,,,,,255,262.5,-270,,262.5,,,,,,262.5,1
110,B,Raw,No,M,Khamzat Mutsaev,Хамзат Муцаев,1979-08-28,Pro Open,108.9,,,,,,185,192.5,-197.5,,192.5,,,,,,192.5,3
110,B,Raw,No,M,Denis Frolov,Денис Фролов,1981-04-14,Pro Open,104.25,,,,,,170,180,-185,,180,,,,,,180,4
110,B,Raw,No,M,Mikhail Markovich,Михаил Маркович,1978-07-26,Pro Open,106.5,,,,,,-185,-185,-185,,,,,,,,,DQ
125,B,Raw,No,M,Maksim Nechaev,Максим Нечаев,1993-01-09,Pro Juniors 20-23,115.5,,,,,,180,195,205,,205,,,,,,205,1
125,B,Raw,No,M,Petr Shtark,Петр Штарк,1983-08-10,Pro Open,117.7,,,,,,230,237.5,242.5,,242.5,,,,,,242.5,1
125,B,Raw,No,M,Maksim Nechaev,Максим Нечаев,1993-01-09,Pro Open,115.5,,,,,,180,195,205,,205,,,,,,205,2
125,B,Raw,No,M,Aleksandr Abramov,Александр Абрамов,1987-09-20,Pro Open,125,,,,,,175,-182.5,-182.5,,175,,,,,,175,4
140+,B,Raw,No,M,Aleksandr Logvinenko,Александр Логвиненко,1974-11-16,Pro Masters 40-49,150,,,,,,260,270,-275,,270,,,,,,270,1
140+,B,Raw,No,M,Aleksandr Logvinenko,Александр Логвиненко,1974-11-16,Pro Open,150,,,,,,260,270,-275,,270,,,,,,270,1
52,B,Raw,No,F,Evgeniya Meteleva,Евгения Метелева,1991-08-14,Pro Open,50,,,,,,32.5,37.5,40,,40,,,,,,40,3
56,B,Raw,No,F,Arina Belova,Арина Белова,1998-08-19,Pro Teen 17-19,56,,,,,,40,45,-47.5,,45,,,,,,45,2
60,B,Raw,No,F,Anastasiya Pakhomova,Анастасия Пахомова,1992-01-24,Pro Juniors 20-23,58.6,,,,,,60,65,-70,,65,,,,,,65,1
60,B,Raw,No,F,Anastasiya Pakhomova,Анастасия Пахомова,1992-01-24,Pro Open,58.6,,,,,,60,65,-70,,65,,,,,,65,1
75,B,Raw,No,F,Evgenevna Balde,Евгеньевна Балде,1977-08-29,Pro Open,72.9,,,,,,55,60,62.5,,62.5,,,,,,62.5,1
90,B,Raw,No,F,Olga Gerasimyuk,Ольга Герасимюк,1996-03-01,Pro Open,89.2,,,,,,-87.5,,,,,,,,,,,DQ
67.5,B,Multi-ply,No,M,Aleksey Kornelik,Алексей Корнелик,1995-12-26,Pro Open,62.35,,,,,,120,130,-140,,130,,,,,,130,1
67.5,B,Multi-ply,No,M,Evgeniy Gansh,Евгений Ганш,1992-04-10,Pro Open,67.35,,,,,,-190,-190,-190,,,,,,,,,DQ
67.5,B,Multi-ply,No,M,Aleksey Kornelik,Алексей Корнелик,1995-12-26,Pro Teen 17-19,62.35,,,,,,120,130,-140,,130,,,,,,130,1
82.5,B,Multi-ply,No,M,Dmitriy Savchenko,Дмитрий Савченко,1981-08-03,Pro Open,82.45,,,,,,175,185,202.5,,202.5,,,,,,202.5,3
82.5,B,Multi-ply,No,M,Aleksandr Otogochev,Александр Отогочев,1989-08-06,Pro Open,80.45,,,,,,195,200,-205,,200,,,,,,200,4
90,B,Multi-ply,No,M,Andrey Berkovich,Андрей Беркович,1972-10-07,Pro Masters 40-49,88.8,,,,,,210,220,-230,,220,,,,,,220,1
100,B,Multi-ply,No,M,Nikolay Kuznetsov,Николай Кузнецов,1960-12-28,Pro Masters 50-59,93.75,,,,,,-170,170,180,-190,180,,,,,,180,1
100,B,Multi-ply,No,M,Sergey Kharisov,Сергей Харисов,1991-07-22,Pro Open,99.95,,,,,,-270,270,280,,280,,,,,,280,1
100,B,Multi-ply,No,M,Nikolay Pushkarev,Николай Пушкарев,1983-03-25,Pro Open,94.65,,,,,,205,215,-222.5,,215,,,,,,215,3
100,B,Multi-ply,No,M,Andrey Sotnikov,Андрей Сотников,1989-12-04,Pro Open,98.1,,,,,,185,200,-210,,200,,,,,,200,4
100,B,Multi-ply,No,M,Nikolay Kuznetsov,Николай Кузнецов,1960-12-28,Pro Open,93.75,,,,,,-170,170,180,-190,180,,,,,,180,5
100,B,Multi-ply,No,M,Daniil Shcherbatykh,Даниил Щербатых,1998-03-25,Pro Teen 17-19,98.8,,,,,,180,-190,-200,,180,,,,,,180,1
110,B,Multi-ply,No,M,Ivan Vasyunin,Иван Васюнин,1983-08-01,Pro Open,102,,,,,,280,290,-300,,290,,,,,,290,1
110,B,Multi-ply,No,M,Mikhail Ryzhkin,Михаил Рыжкин,1984-08-12,Pro Open,109.8,,,,,,-250,260,-280,,260,,,,,,260,2
110,B,Multi-ply,No,M,Evgeniy Filimonov,Евгений Филимонов,1981-04-21,Pro Open,107.3,,,,,,-230,-230,-230,,,,,,,,,DQ
140,B,Multi-ply,No,M,Artem Karakulov,Артем Каракулов,1989-01-18,Pro Open,139.4,,,,,,235,255,-275,,255,,,,,,255,1
60,S,Wraps,No,M,Anton Smirnov,Антон Смирнов,1986-03-04,Pro Open,57.9,-75,75,-85,,75,,,,,,,,,,,75,1
82.5,S,Wraps,No,M,Aleksey Kolesnikov,Алексей Колесников,1986-08-29,Pro Open,80.6,180,195,205,,205,,,,,,,,,,,205,1
90,S,Wraps,No,M,Vyacheslav Alekseev,Вячеслав Алексеев,1990-03-07,Pro Open,90,290,310,-315,,310,,,,,,,,,,,310,1
100,S,Wraps,No,M,Nikita Ushkalenko,Никита Ушкаленко,1996-04-05,Pro Teen 17-19,99.05,210,220,-230,,220,,,,,,,,,,,220,2
60,D,Raw,No,M,Anton Smirnov,Антон Смирнов,1986-03-04,Pro Open,57.9,,,,,,,,,,,110,120,-127.5,,120,120,1
67.5,D,Raw,No,M,Aleksandr Agafonov,Александр Агафонов,1998-06-30,Pro Teen 17-19,66,,,,,,,,,,,180,190,-200,,190,190,1
67.5,D,Raw,No,M,Daniil Kuznetsov,Даниил Кузнецов,1998-10-31,Pro Teen 17-19,65.55,,,,,,,,,,,130,145,-155,,145,145,4
75,D,Raw,No,M,Evgeniy Raspopin,Евгений Распопин,1998-02-17,Pro Teen 17-19,74.3,,,,,,,,,,,160,-170,-170,,160,160,7
75,D,Raw,No,M,Valeriy Smirnov,Валерий Смирнов,1959-03-24,Pro Masters 50-59,73.6,,,,,,,,,,,190,200,205,,205,205,2
82.5,D,Raw,No,M,Aleksey Kolesnikov,Алексей Колесников,1986-08-29,Pro Open,80.6,,,,,,,,,,,225,235,242.5,,242.5,242.5,2
82.5,D,Raw,No,M,Evgeniy Gorshenin,Евгений Горшенин,1991-12-04,Pro Open,79.95,,,,,,,,,,,175,190,-200,,190,190,5
82.5,D,Raw,No,M,Dmitriy Ternovoy,Дмитрий Терновой,1997-08-22,Pro Teen 17-19,82.25,,,,,,,,,,,245,-252.5,-252.5,,245,245,3
90,D,Raw,No,M,Sergey Bogachuk,Сергей Богачук,1989-05-30,Pro Open,90,,,,,,,,,,,220,235,-247.5,,235,235,1
90,D,Raw,No,M,Maksim Gorbachev,Максим Горбачев,1989-06-06,Pro Open,88.75,,,,,,,,,,,210,225,-250,,225,225,5
100,D,Raw,No,M,Oleg Lagunov,Олег Лагунов,1967-03-05,Pro Masters 40-49,99.95,,,,,,,,,,,270,290,-300,,290,290,1
100,D,Raw,No,M,Vladimir Panuev,Владимир Пануев,1962-10-22,Pro Masters 50-59,99.35,,,,,,,,,,,190,,,,190,190,3
125,D,Raw,No,M,Sergey Semakin,Сергей Семакин,1978-08-29,Pro Open,116,,,,,,,,,,,305,325,-352.5,,325,325,1
140,D,Raw,No,M,Nikita Shafikov,Никита Шафиков,1993-05-15,Pro Juniors 20-23,131.1,,,,,,,,,,,300,-320,325,,325,325,1
