Place,Name,CyrillicName,BirthYear,WeightClassKg,BodyweightKg,Best3SquatKg,Best3BenchKg,Best3DeadliftKg,TotalKg,Sex,Division,Event,Equipment
1,Lyubov Potanina,Любовь Потанина,1984,52,51.76,175,90,150,415,F,Open,SBD,Single-ply
2,Yuliya Saraykina,Юлия Сарайкина,1987,52,49.26,82.5,50,87.5,220,F,Open,SBD,Single-ply
DQ,Evgeniya Bazarova,Евгения Базарова,1989,52,52,,,,,F,Open,SBD,Single-ply
1,Olesya Pavlova,Олеся Павлова,1980,57,56.58,110,50,100,260,F,Open,SBD,Single-ply
DQ,Yuliya Sazonova,Юлия Сазонова,1987,57,57,,,,,F,Open,SBD,Single-ply
1,Liana Olkhovskaya,Лиана Ольховская,1986,57,56.58,110,50,100,260,F,Open,SBD,Single-ply
1,Darya Gerasimova,Дарья Герасимова,1986,72,65.35,185,90,180,455,F,Open,SBD,Single-ply
DQ,Lyudmila Yarmolchuk,Людмила Ярмольчук,1987,84,83.95,,,,,F,Open,SBD,Single-ply
1,Asif Iskanderov,Асиф Искандеров,1989,59,57.9,160,102.5,182.5,445,M,Open,SBD,Single-ply
2,Elvin Agakerimov,Элвин Агакеримов,1994,59,58.02,155,85,180,420,M,Open,SBD,Single-ply
3,Aleksandr Fedorov,Александр Федоров,1995,59,54.3,170,85,140,395,M,Open,SBD,Single-ply
1,Aleksey Vlasov,Алексей Власов,1987,66,65.75,290,150,240,680,M,Open,SBD,Single-ply
2,Florit Zaynullin,Флорит Зайнуллин,1987,66,66,250,155,230,635,M,Open,SBD,Single-ply
3,Pavel Pavlov,Павел Павлов,1992,66,65.55,230,120,210,560,M,Open,SBD,Single-ply
4,Sergey Storchay,Сергей Сторчай,1984,66,65,220,135,200,555,M,Open,SBD,Single-ply
5,Ramis Shabanov,Рамис Шабанов,1989,66,65.75,180,135,200,515,M,Open,SBD,Single-ply
6,Ramil Makaev,Рамиль Макаев,1995,66,65.85,177.5,100,185,462.5,M,Open,SBD,Single-ply
7,Aleksandr Biss,Александр Бисс,1988,66,65.45,175,110,170,455,M,Open,SBD,Single-ply
1,Aleksey Bizyaev,Алексей Бизяев,1982,74,73.8,285,185,310,780,M,Open,SBD,Single-ply
2,Evgeniy Biktagirov,Евгений Биктагиров,1979,74,73.75,280,200,265,745,M,Open,SBD,Single-ply
3,Fedor Konovalov,Федор Коновалов,1988,74,73.8,265,170,265,700,M,Open,SBD,Single-ply
4,Aleksandr Pronevich,Александр Проневич,1989,74,74,255,160,240,655,M,Open,SBD,Single-ply
5,Sergey Andrienko,Сергей Андриенко,1991,74,70.9,260,155,220,635,M,Open,SBD,Single-ply
6,Aleksey Poddubnov,Алексей Поддубнов,1987,74,73.65,205,140,230,575,M,Open,SBD,Single-ply
7,Ilgar Nasibov,Илгар Насибов,1992,74,71.05,190,142.5,200,532.5,M,Open,SBD,Single-ply
8,Eduard Ishmetov,Эдуард Ишметов,1976,74,73.7,217.5,120,195,532.5,M,Open,SBD,Single-ply
9,Ilya Latysh,Илья Латыш,1993,74,74,200,127.5,205,532.5,M,Open,SBD,Single-ply
10,Vlad Kulikovskiy,Влад Куликовский,1995,74,74,212.5,92.5,225,530,M,Open,SBD,Single-ply
11,Nikolay Minaev,Николай Минаев,1993,74,74,210,117.5,195,522.5,M,Open,SBD,Single-ply
12,Roman Kuznetsov #10,Роман Кузнецов,1990,74,73.8,195,130,185,510,M,Open,SBD,Single-ply
13,Yan Toropov,Ян Торопов,1989,74,71.5,180,140,180,500,M,Open,SBD,Single-ply
14,Evgeniy Paramonov,Евгений Парамонов,1991,74,73.95,185,132.5,180,497.5,M,Open,SBD,Single-ply
15,Ilya Afanasev,Илья Афанасьев,1993,74,73.95,195,112.5,185,492.5,M,Open,SBD,Single-ply
16,Sergey Verkhushin,Сергей Верхушин,1993,74,73.95,190,122.5,180,492.5,M,Open,SBD,Single-ply
17,Nikolay Ulosen,Николай Улосень,1958,74,73.75,185,115,190,490,M,Open,SBD,Single-ply
18,Nikolay Frolov,Николай Фролов,1993,74,74,195,100,190,485,M,Open,SBD,Single-ply
19,Aleksandr Trifonov,Александр Трифонов,1992,74,71.5,185,122.5,165,472.5,M,Open,SBD,Single-ply
DQ,Andrey Kravtsov,Андрей Кравцов,1986,74,73.8,280,,,,M,Open,SBD,Single-ply
1,Aleksandr Davletzyanov,Александр Давлетзянов,1986,83,81.9,275,212.5,285,772.5,M,Open,SBD,Single-ply
2,Iosif Konogray,Иосиф Конограй,1991,83,80.2,280,185,280,745,M,Open,SBD,Single-ply
3,Kamran Isaev,Камран Исаев,1988,83,82.95,300,185,247.5,732.5,M,Open,SBD,Single-ply
4,Maksim Kurmanaliev,Максим Курманалиев,1985,83,82.3,285,185,240,710,M,Open,SBD,Single-ply
5,Aleksey Kartel,Алексей Картель,1988,83,83,290,147.5,270,707.5,M,Open,SBD,Single-ply
6,Emil Azizov,Эмиль Азизов,1979,83,80.95,240,195,240,675,M,Open,SBD,Single-ply
7,Sergey Dergunov,Сергей Дергунов,1976,83,83,250,182.5,215,647.5,M,Open,SBD,Single-ply
8,Roman Karabashev,Роман Карабашев,1986,83,79.2,225,150,235,610,M,Open,SBD,Single-ply
9,Aleksandr Likhoveter,Александр Лиховетер,1980,83,79.75,225,160,200,585,M,Open,SBD,Single-ply
10,Dmitriy Cherkashin,Дмитрий Черкашин,1995,83,82.45,225,157.5,202.5,585,M,Open,SBD,Single-ply
11,Aleksandr Gasparyan,Александр Гаспарян,1993,83,81.65,225,137.5,205,567.5,M,Open,SBD,Single-ply
12,Artem Golyak,Артем Голяк,1995,83,78.7,192.5,125,185,502.5,M,Open,SBD,Single-ply
DQ,Dmitriy Frolov,Дмитрий Фролов,1987,83,82.3,,,,,M,Open,SBD,Single-ply
1,Vladimir Agafonov,Владимир Агафонов,1987,93,88.9,320,195,320,835,M,Open,SBD,Single-ply
2,Alexander Karpenko,Александр Карпенко,1980,93,89.2,302.5,225,300,827.5,M,Open,SBD,Single-ply
3,Dmitriy Tkachenko,Дмитрий Ткаченко,1990,93,92,300,172.5,285,757.5,M,Open,SBD,Single-ply
4,Pavel Stratnev,Павел Стратнев,1991,93,92.15,302.5,177.5,272.5,752.5,M,Open,SBD,Single-ply
5,Evgeniy Rusin,Евгений Русин,1986,93,91,305,175,270,750,M,Open,SBD,Single-ply
6,Ilya Kustov,Илья Кустов,1983,93,92.05,290,185,260,735,M,Open,SBD,Single-ply
7,Sergey Avdeev,Сергей Авдеев,1985,93,92.4,280,207.5,245,732.5,M,Open,SBD,Single-ply
8,Pavel Demykin,Павел Демыкин,1988,93,92.75,290,180,260,730,M,Open,SBD,Single-ply
9,Andrey Solodov,Андрей Солодов,1978,93,91.3,245,162.5,250,657.5,M,Open,SBD,Single-ply
10,Igor Ivanov #5,Игорь Иванов,1988,93,87.8,235,160,237.5,632.5,M,Open,SBD,Single-ply
11,Vladislav Filippov,Владислав Филиппов,1973,93,89.9,230,175,225,630,M,Open,SBD,Single-ply
12,Sergey Zinchenko,Сергей Зинченко,1983,93,86,222.5,167.5,205,595,M,Open,SBD,Single-ply
13,Natig Nasibov,Натиг Насибов,1992,93,88,225,145,215,585,M,Open,SBD,Single-ply
14,Vladislav Raykov,Владислав Райков,1988,93,92,225,142.5,200,567.5,M,Open,SBD,Single-ply
15,Andrey Denisenko,Андрей Денисенко,1991,93,91.7,210,125,230,565,M,Open,SBD,Single-ply
16,Sergey Sergeev,Сергей Сергеев,1986,93,92.8,210,135,200,545,M,Open,SBD,Single-ply
DQ,Roman Vlasenko,Роман Власенко,1988,93,91.3,,,,,M,Open,SBD,Single-ply
DQ,Aleksey Apurin,Алексей Апурин,1986,93,88,,,,,M,Open,SBD,Single-ply
1,Dmitriy Shvetsov,Дмитрий Швецов,1979,105,101.6,330,195,310,835,M,Open,SBD,Single-ply
2,Aleksey Lukyanov,Алексей Лукьянов,1971,105,100.45,300,220,280,800,M,Open,SBD,Single-ply
3,Dmitriy Kolomeytsev,Дмитрий Коломейцев,1976,105,104.05,292.5,217.5,285,795,M,Open,SBD,Single-ply
4,Egor Moshkin,Егор Мошкин,1987,105,103.45,300,205,240,745,M,Open,SBD,Single-ply
5,Sergey Dunduk,Сергей Дундук,1984,105,102.85,275,220,220,715,M,Open,SBD,Single-ply
6,Artem Perets,Артем Перец,1988,105,95.05,275,170,260,705,M,Open,SBD,Single-ply
7,Sergey Velichko,Сергей Величко,1992,105,97.25,285,160,220,665,M,Open,SBD,Single-ply
8,Terentiy Moldanov,Терентий Молданов,1987,105,101.8,245,160,220,625,M,Open,SBD,Single-ply
DQ,Aleksey Zamyatkin,Алексей Замяткин,1981,105,101.3,,,,,M,Open,SBD,Single-ply
DQ,Aleksandr Osintsev,Александр Осинцев,1978,105,98,,,,,M,Open,SBD,Single-ply
1,Aleksandr Gavrilov,Александр Гаврилов,1981,120,119.85,350,222.5,307.5,880,M,Open,SBD,Single-ply
2,Georgiy Dzagoev,Георгий Дзагоев,1976,120,116.4,300,215,300,815,M,Open,SBD,Single-ply
3,Shakhbaz Nagiev,Шахбаз Нагиев,1982,120,119.85,295,232.5,270,797.5,M,Open,SBD,Single-ply
4,Valeriy Savin,Валерий Савин,1987,120,119.6,300,190,280,770,M,Open,SBD,Single-ply
5,Evgeniy Lysenko,Евгений Лысенко,1977,120,113.5,280,225,240,745,M,Open,SBD,Single-ply
6,Dmitriy Akimov,Дмитрий Акимов,1980,120,112.6,240,150,250,640,M,Open,SBD,Single-ply
DQ,Erik Salimov,Эрик Салимов,1984,120,119.3,,,,,M,Open,SBD,Single-ply
1,Aleksandr Blagin,Александр Благин,1980,120+,126.05,330,205,310,845,M,Open,SBD,Single-ply
2,Sergey Mezhitov,Сергей Межитов,1979,120+,139.2,340,215,290,845,M,Open,SBD,Single-ply
3,Evgeniy Romanov,Евгений Романов,1985,120+,132.8,300,217.5,225,742.5,M,Open,SBD,Single-ply
4,Aleksandr Rogozin,Александр Рогозин,1973,120+,127.75,290,200,250,740,M,Open,SBD,Single-ply
1,Artur Shakirov,Артур Шакиров,1988,59,56.05,135,100,200,435,M,Open,SBD,Raw
1,Sergey Andrienko,Сергей Андриенко,1991,74,71.9,182.5,122.5,190,495,M,Open,SBD,Raw
2,Kirill Duplinskiy,Кирилл Дуплинский,1987,74,70.9,160,115,200,475,M,Open,SBD,Raw
1,Aleksandr Protopopov,Александр Протопопов,1986,83,79.7,220,147.5,280,647.5,M,Open,SBD,Raw
2,Pavel Leskov,Павел Лесков,1990,83,81.9,160,110,185,455,M,Open,SBD,Raw
1,Alexander Karpenko,Александр Карпенко,1980,93,88.5,225,200,300,725,M,Open,SBD,Raw
1,Artem Perets,Артем Перец,1988,105,95,200,130,270,600,M,Open,SBD,Raw
1,Shakhbaz Nagiev,Шахбаз Нагиев,1982,120,119.4,200,180,200,580,M,Open,SBD,Raw
1,Maxim Podtynnyy,Максим Подтынный,1972,120+,122.6,300,190,340,830,M,Open,SBD,Raw
